2018.07.10 11:10:33   info : Selenium version :: 2.48.2
2018.07.10 11:10:33   info : Download fodler path created!!
2018.07.10 11:10:33   info : date_time_down_folder C:\Talent_Automation_Framework_Backup\Project_Talent\Downloads\2018_07_10\time_11_10_33\
2018.07.10 11:10:34   info : Total number of applications :: 4
2018.07.10 11:10:34   info : Application Name - UBSHK_Claim_F
2018.07.10 11:10:34   info : TestData_Sheet path:: C:\Talent_Automation_Framework_Backup\Project_Talent/TestCases/UBSHK_Claim_F.xlsx
2018.07.10 11:10:34   info : CSV updating and creating dump....
2018.07.10 11:10:36   info : Sheet name: TestCaseScheduler
2018.07.10 11:10:36   info : Sheet name: Test Case
2018.07.10 11:10:36   info : UBSHK_Claim_F sheetname found!!
2018.07.10 11:10:36   info : Total row 4616
2018.07.10 11:10:36   info : After row validation for blank or null!!
2018.07.10 11:10:36   info : Total final row 4615
2018.07.10 11:10:37   error : java.lang.NullPointerException
2018.07.10 11:10:37   info : Total number of test cases to be executed :: 11
2018.07.10 11:10:37   info : PrevTestID - null == null && row 1<= 4615
2018.07.10 11:10:37   info : Test ID TC1 : previous test step/row 0 status is Passed and value of next test step/row is :: 1
2018.07.10 11:10:37   info : 

2018.07.10 11:10:37   info : -------------------- Executing Testcase ID TC1 and test step : 1 ---------------------- 
2018.07.10 11:10:38   info : please wait.. browser getting open !!
2018.07.10 11:10:50   info : Opening Application..
2018.07.10 11:10:56   info : Current WebDriver Win Count is:: 1
2018.07.10 11:10:57   info : restult status : 1
2018.07.10 11:10:57   info : Test ID TC1 : previous test step/row 1 status is Passed and value of next test step/row is :: 2
2018.07.10 11:10:57   info : 

2018.07.10 11:10:57   info : -------------------- Executing Testcase ID TC1 and test step : 2 ---------------------- 
2018.07.10 11:10:59   info : Current WebDriver Win Count is:: 1
2018.07.10 11:10:59   info : Xml obj_repo path C:\Talent_Automation_Framework_Backup\Project_Talent/ObjectRepositories/BenefitAsia2_MercerAdmin/MA_Home.xml
2018.07.10 11:10:59   info : Title in xml file - Home
2018.07.10 11:10:59   warn : Window is not switched, now trying based on element!!
2018.07.10 11:10:59   info : Window title Mercer Account Center
2018.07.10 11:10:59   info : Xml obj_repo path C:\Talent_Automation_Framework_Backup\Project_Talent/ObjectRepositories/BenefitAsia2_MercerAdmin/MA_Home.xml
2018.07.10 11:10:59   info : xpath object successfully mapped!!
2018.07.10 11:10:59   info : xpath object contains property value !!
2018.07.10 11:10:59   info : Property name - xpath
2018.07.10 11:10:59   info : Property value - //input[contains(@id,"ContentPlaceHolder1_TextBox1")]
2018.07.10 11:10:59   info : Finding xpath element on webpage..
2018.07.10 11:10:59   info : Searching for element. Try number 0
2018.07.10 11:11:00   info : element disappeared after trying for 1 times
2018.07.10 11:11:00   info : Element found!!
2018.07.10 11:11:00   info : Desired window is activated!!
2018.07.10 11:11:00   info : Total static wait time 3
2018.07.10 11:11:03   info : Xml obj_repo path C:\Talent_Automation_Framework_Backup\Project_Talent/ObjectRepositories/BenefitAsia2_MercerAdmin/MA_Home.xml
2018.07.10 11:11:03   info : xpath object successfully mapped!!
2018.07.10 11:11:03   info : xpath object contains property value !!
2018.07.10 11:11:03   info : Property name - xpath
2018.07.10 11:11:03   info : Property value - //input[contains(@id,"ContentPlaceHolder1_TextBox1")]
2018.07.10 11:11:03   info : Finding xpath element on webpage..
2018.07.10 11:11:03   info : Searching for element. Try number 0
2018.07.10 11:11:04   info : element disappeared after trying for 1 times
2018.07.10 11:11:04   info : Element found!!
2018.07.10 11:11:04   info : ObjectTag input and ObjectType text
2018.07.10 11:11:04   info : Enter data operation
2018.07.10 11:11:05   info : Xml obj_repo path C:\Talent_Automation_Framework_Backup\Project_Talent/ObjectRepositories/BenefitAsia2_MercerAdmin/MA_Home.xml
2018.07.10 11:11:05   info : xpath object successfully mapped!!
2018.07.10 11:11:05   info : xpath object contains property value !!
2018.07.10 11:11:05   info : Property name - xpath
2018.07.10 11:11:05   info : Property value - //input[contains(@id,"ContentPlaceHolder1_TextBox1")]
2018.07.10 11:11:05   info : Finding xpath element on webpage..
2018.07.10 11:11:05   info : Searching for element. Try number 0
2018.07.10 11:11:06   info : element disappeared after trying for 1 times
2018.07.10 11:11:06   info : Element found!!
2018.07.10 11:11:06   info : Xml obj_repo path C:\Talent_Automation_Framework_Backup\Project_Talent/ObjectRepositories/BenefitAsia2_MercerAdmin/MA_Home.xml
2018.07.10 11:11:06   info : xpath object successfully mapped!!
2018.07.10 11:11:06   info : xpath object contains property value !!
2018.07.10 11:11:06   info : Property name - xpath
2018.07.10 11:11:06   info : Property value - //input[contains(@id,"ContentPlaceHolder1_TextBox1")]
2018.07.10 11:11:06   info : Finding xpath element on webpage..
2018.07.10 11:11:06   info : Searching for element. Try number 0
2018.07.10 11:11:07   info : element disappeared after trying for 1 times
2018.07.10 11:11:08   info : Element found!!
2018.07.10 11:11:08   info : ValueToEnter ashish.choudhary@mercer.com
2018.07.10 11:11:08   info : Entered value is ashish.choudhary@mercer.com
2018.07.10 11:11:08   info : Attribute entered value ashish.choudhary@mercer.com
2018.07.10 11:11:09   info : Current WebDriver Win Count is:: 1
2018.07.10 11:11:09   info : restult status : 1
2018.07.10 11:11:09   info : Test ID TC1 : previous test step/row 2 status is Passed and value of next test step/row is :: 3
2018.07.10 11:11:09   info : 

2018.07.10 11:11:09   info : -------------------- Executing Testcase ID TC1 and test step : 3 ---------------------- 
2018.07.10 11:11:11   info : Current WebDriver Win Count is:: 1
2018.07.10 11:11:11   info : page object present in excel : 1
2018.07.10 11:11:11   info : Under single object handle operation!!
2018.07.10 11:11:11   info : col 6 data :  and col 5 data : SSO_Next_Button
2018.07.10 11:11:11   info : Normal click operation !!
2018.07.10 11:11:11   info : Checking for object in click
2018.07.10 11:11:11   info : Xml obj_repo path C:\Talent_Automation_Framework_Backup\Project_Talent/ObjectRepositories/BenefitAsia2_MercerAdmin/MA_Home.xml
2018.07.10 11:11:11   info : xpath object successfully mapped!!
2018.07.10 11:11:11   info : xpath object contains property value !!
2018.07.10 11:11:11   info : Property name - xpath
2018.07.10 11:11:11   info : Property value - //input[contains(@id,"ContentPlaceHolder1_PassiveSignInButton")]
2018.07.10 11:11:11   info : Finding xpath element on webpage..
2018.07.10 11:11:11   info : Searching for element. Try number 0
2018.07.10 11:11:12   info : element disappeared after trying for 1 times
2018.07.10 11:11:12   info : Element found!!
2018.07.10 11:11:12   info : Xml obj_repo path C:\Talent_Automation_Framework_Backup\Project_Talent/ObjectRepositories/BenefitAsia2_MercerAdmin/MA_Home.xml
2018.07.10 11:11:12   info : xpath object successfully mapped!!
2018.07.10 11:11:12   info : xpath object contains property value !!
2018.07.10 11:11:12   info : Property name - xpath
2018.07.10 11:11:12   info : Property value - //input[contains(@id,"ContentPlaceHolder1_PassiveSignInButton")]
2018.07.10 11:11:12   info : Finding xpath element on webpage..
2018.07.10 11:11:12   info : Searching for element. Try number 0
2018.07.10 11:11:13   info : element disappeared after trying for 1 times
2018.07.10 11:11:13   info : Element found!!
