2018.07.10 11:22:14   info : Selenium version :: 2.48.2
2018.07.10 11:22:14   info : Download fodler path created!!
2018.07.10 11:22:14   info : date_time_down_folder C:\Talent_Automation_Framework_Backup\Project_Talent\Downloads\2018_07_10\time_11_22_14\
2018.07.10 11:22:15   info : Total number of applications :: 4
2018.07.10 11:22:15   info : Application Name - UBSHK_Claim_F
2018.07.10 11:22:15   info : TestData_Sheet path:: C:\Talent_Automation_Framework_Backup\Project_Talent/TestCases/UBSHK_Claim_F.xlsx
2018.07.10 11:22:15   info : CSV updating and creating dump....
2018.07.10 11:22:17   info : Sheet name: TestCaseScheduler
2018.07.10 11:22:17   info : Sheet name: Test Case
2018.07.10 11:22:17   info : UBSHK_Claim_F sheetname found!!
2018.07.10 11:22:17   info : Total row 4616
2018.07.10 11:22:17   info : After row validation for blank or null!!
2018.07.10 11:22:17   info : Total final row 4615
2018.07.10 11:22:18   error : java.lang.NullPointerException
2018.07.10 11:22:18   info : Total number of test cases to be executed :: 11
2018.07.10 11:22:18   info : PrevTestID - null == null && row 1<= 4615
2018.07.10 11:22:18   info : Test ID TC1 : previous test step/row 0 status is Passed and value of next test step/row is :: 1
2018.07.10 11:22:18   info : 

2018.07.10 11:22:18   info : -------------------- Executing Testcase ID TC1 and test step : 1 ---------------------- 
2018.07.10 11:22:19   info : please wait.. browser getting open !!
2018.07.10 11:22:31   info : Opening Application..
2018.07.10 11:22:40   info : Current WebDriver Win Count is:: 1
2018.07.10 11:22:40   info : restult status : 1
2018.07.10 11:22:41   info : Test ID TC1 : previous test step/row 1 status is Passed and value of next test step/row is :: 2
2018.07.10 11:22:41   info : 

2018.07.10 11:22:41   info : -------------------- Executing Testcase ID TC1 and test step : 2 ---------------------- 
2018.07.10 11:22:43   info : Current WebDriver Win Count is:: 1
2018.07.10 11:22:43   info : Xml obj_repo path C:\Talent_Automation_Framework_Backup\Project_Talent/ObjectRepositories/BenefitAsia2_MercerAdmin/MA_Home.xml
2018.07.10 11:22:43   info : Title in xml file - Home
2018.07.10 11:22:43   warn : Window is not switched, now trying based on element!!
2018.07.10 11:22:43   info : Window title Mercer Account Center
2018.07.10 11:22:43   info : Xml obj_repo path C:\Talent_Automation_Framework_Backup\Project_Talent/ObjectRepositories/BenefitAsia2_MercerAdmin/MA_Home.xml
2018.07.10 11:22:43   info : xpath object successfully mapped!!
2018.07.10 11:22:43   info : xpath object contains property value !!
2018.07.10 11:22:43   info : Property name - xpath
2018.07.10 11:22:43   info : Property value - //input[contains(@id,"ContentPlaceHolder1_TextBox1")]
2018.07.10 11:22:43   info : Finding xpath element on webpage..
2018.07.10 11:22:43   info : Searching for element. Try number 0
2018.07.10 11:22:44   info : element disappeared after trying for 1 times
2018.07.10 11:22:44   info : Element found!!
2018.07.10 11:22:44   info : Desired window is activated!!
2018.07.10 11:22:44   info : Total static wait time 3
2018.07.10 11:22:47   info : Xml obj_repo path C:\Talent_Automation_Framework_Backup\Project_Talent/ObjectRepositories/BenefitAsia2_MercerAdmin/MA_Home.xml
2018.07.10 11:22:47   info : xpath object successfully mapped!!
2018.07.10 11:22:47   info : xpath object contains property value !!
2018.07.10 11:22:47   info : Property name - xpath
2018.07.10 11:22:47   info : Property value - //input[contains(@id,"ContentPlaceHolder1_TextBox1")]
2018.07.10 11:22:47   info : Finding xpath element on webpage..
2018.07.10 11:22:47   info : Searching for element. Try number 0
2018.07.10 11:22:48   info : element disappeared after trying for 1 times
2018.07.10 11:22:48   info : Element found!!
2018.07.10 11:22:48   info : ObjectTag input and ObjectType text
2018.07.10 11:22:48   info : Enter data operation
2018.07.10 11:22:49   info : Xml obj_repo path C:\Talent_Automation_Framework_Backup\Project_Talent/ObjectRepositories/BenefitAsia2_MercerAdmin/MA_Home.xml
2018.07.10 11:22:49   info : xpath object successfully mapped!!
2018.07.10 11:22:49   info : xpath object contains property value !!
2018.07.10 11:22:49   info : Property name - xpath
2018.07.10 11:22:49   info : Property value - //input[contains(@id,"ContentPlaceHolder1_TextBox1")]
2018.07.10 11:22:49   info : Finding xpath element on webpage..
2018.07.10 11:22:49   info : Searching for element. Try number 0
2018.07.10 11:22:50   info : element disappeared after trying for 1 times
2018.07.10 11:22:50   info : Element found!!
2018.07.10 11:22:50   info : Xml obj_repo path C:\Talent_Automation_Framework_Backup\Project_Talent/ObjectRepositories/BenefitAsia2_MercerAdmin/MA_Home.xml
2018.07.10 11:22:50   info : xpath object successfully mapped!!
2018.07.10 11:22:50   info : xpath object contains property value !!
2018.07.10 11:22:50   info : Property name - xpath
2018.07.10 11:22:50   info : Property value - //input[contains(@id,"ContentPlaceHolder1_TextBox1")]
2018.07.10 11:22:50   info : Finding xpath element on webpage..
2018.07.10 11:22:50   info : Searching for element. Try number 0
2018.07.10 11:22:51   info : element disappeared after trying for 1 times
2018.07.10 11:22:51   info : Element found!!
2018.07.10 11:22:51   info : ValueToEnter ashish.choudhary@mercer.com
2018.07.10 11:22:51   info : Entered value is ashish.choudhary@mercer.com
2018.07.10 11:22:51   info : Attribute entered value ashish.choudhary@mercer.com
2018.07.10 11:22:52   info : Current WebDriver Win Count is:: 1
2018.07.10 11:22:53   info : restult status : 1
2018.07.10 11:22:53   info : Test ID TC1 : previous test step/row 2 status is Passed and value of next test step/row is :: 3
2018.07.10 11:22:53   info : 

2018.07.10 11:22:53   info : -------------------- Executing Testcase ID TC1 and test step : 3 ---------------------- 
2018.07.10 11:22:55   info : Current WebDriver Win Count is:: 1
2018.07.10 11:22:55   info : page object present in excel : 1
2018.07.10 11:22:55   info : Under single object handle operation!!
2018.07.10 11:22:55   info : col 6 data :  and col 5 data : SSO_Next_Button
2018.07.10 11:22:55   info : Normal click operation !!
2018.07.10 11:22:55   info : Checking for object in click
2018.07.10 11:22:55   info : Xml obj_repo path C:\Talent_Automation_Framework_Backup\Project_Talent/ObjectRepositories/BenefitAsia2_MercerAdmin/MA_Home.xml
2018.07.10 11:22:55   info : xpath object successfully mapped!!
2018.07.10 11:22:55   info : xpath object contains property value !!
2018.07.10 11:22:55   info : Property name - xpath
2018.07.10 11:22:55   info : Property value - //input[contains(@id,"ContentPlaceHolder1_PassiveSignInButton")]
2018.07.10 11:22:55   info : Finding xpath element on webpage..
2018.07.10 11:22:55   info : Searching for element. Try number 0
2018.07.10 11:22:56   info : element disappeared after trying for 1 times
2018.07.10 11:22:56   info : Element found!!
2018.07.10 11:22:56   info : Xml obj_repo path C:\Talent_Automation_Framework_Backup\Project_Talent/ObjectRepositories/BenefitAsia2_MercerAdmin/MA_Home.xml
2018.07.10 11:22:56   info : xpath object successfully mapped!!
2018.07.10 11:22:56   info : xpath object contains property value !!
2018.07.10 11:22:56   info : Property name - xpath
2018.07.10 11:22:56   info : Property value - //input[contains(@id,"ContentPlaceHolder1_PassiveSignInButton")]
2018.07.10 11:22:56   info : Finding xpath element on webpage..
2018.07.10 11:22:56   info : Searching for element. Try number 0
2018.07.10 11:22:57   info : element disappeared after trying for 1 times
2018.07.10 11:22:57   info : Element found!!
2018.07.10 11:23:01   info : clicked on SSO_Next_Button
2018.07.10 11:23:02   info : Current WebDriver Win Count is:: 1
2018.07.10 11:23:08   info : restult status : 1
2018.07.10 11:23:08   info : Test ID TC1 : previous test step/row 3 status is Passed and value of next test step/row is :: 4
2018.07.10 11:23:08   info : 

2018.07.10 11:23:08   info : -------------------- Executing Testcase ID TC1 and test step : 4 ---------------------- 
2018.07.10 11:23:10   info : Current WebDriver Win Count is:: 1
2018.07.10 11:23:10   info : not doing anything!!
2018.07.10 11:23:10   info : Navigating to another url..
2018.07.10 11:26:34   info : Current WebDriver Win Count is:: 1
2018.07.10 11:26:34   info : restult status : 1
2018.07.10 11:26:34   info : Test ID TC1 : previous test step/row 4 status is Passed and value of next test step/row is :: 5
2018.07.10 11:26:34   info : 

2018.07.10 11:26:34   info : -------------------- Executing Testcase ID TC1 and test step : 5 ---------------------- 
2018.07.10 11:26:36   info : Current WebDriver Win Count is:: 1
2018.07.10 11:26:36   info : Xml obj_repo path C:\Talent_Automation_Framework_Backup\Project_Talent/ObjectRepositories/BenefitAsia2_MercerAdmin/MA_UploadEmployeeData.xml
2018.07.10 11:26:36   info : Title in xml file - Upload Employee Data (New)
2018.07.10 11:26:36   warn : Window is not switched, now trying based on element!!
2018.07.10 11:26:36   info : Window title Error
2018.07.10 11:26:36   info : Xml obj_repo path C:\Talent_Automation_Framework_Backup\Project_Talent/ObjectRepositories/BenefitAsia2_MercerAdmin/MA_UploadEmployeeData.xml
2018.07.10 11:26:36   info : xpath object successfully mapped!!
2018.07.10 11:26:36   info : xpath object contains property value !!
2018.07.10 11:26:36   info : Property name - xpath
2018.07.10 11:26:36   info : Property value - //input[contains(@id,"_fupdDataFile")]
2018.07.10 11:26:36   info : Finding xpath element on webpage..
2018.07.10 11:26:36   info : Searching for element. Try number 0
2018.07.10 11:26:37   info : element disappeared after trying for 1 times
2018.07.10 11:36:37   error : org.openqa.selenium.TimeoutException: Timed out after 600 seconds waiting for presence of element located by: By.xpath: //input[contains(@id,"_fupdDataFile")]
Build info: version: '2.48.2', revision: '41bccdd', time: '2015-10-09 19:55:52'
System info: host: 'INGGNEDJ67QYX1', ip: '10.197.131.32', os.name: 'Windows 7', os.arch: 'amd64', os.version: '6.1', java.version: '1.7.0_71'
Session ID: ef72c37b-3b25-4ac9-b379-2678af532741
Driver info: org.openqa.selenium.firefox.FirefoxDriver
Capabilities [{platform=WINDOWS, acceptSslCerts=true, javascriptEnabled=true, cssSelectorsEnabled=true, databaseEnabled=true, browserName=firefox, handlesAlerts=true, nativeEvents=false, webStorageEnabled=true, rotatable=false, locationContextEnabled=true, applicationCacheEnabled=true, takesScreenshot=true, version=38.0.6}]
2018.07.10 11:36:37   info : Xml obj_repo path C:\Talent_Automation_Framework_Backup\Project_Talent/ObjectRepositories/BenefitAsia2_MercerAdmin/MA_UploadEmployeeData.xml
2018.07.10 11:36:37   info : xpath object successfully mapped!!
2018.07.10 11:36:37   info : xpath object contains property value !!
2018.07.10 11:36:37   info : Property name - xpath
2018.07.10 11:36:37   info : Property value - //input[contains(@id,"_fupdDataFile")]
2018.07.10 11:36:37   info : Finding xpath element on webpage..
2018.07.10 11:36:37   info : Searching for element. Try number 0
2018.07.10 11:36:38   info : element disappeared after trying for 1 times
