2018.07.10 11:06:09   info : Selenium version :: 2.48.2
2018.07.10 11:06:09   info : Download fodler path created!!
2018.07.10 11:06:09   info : date_time_down_folder C:\Talent_Automation_Framework_Backup\Project_Talent\Downloads\2018_07_10\time_11_06_09\
2018.07.10 11:06:10   info : Total number of applications :: 4
2018.07.10 11:06:10   info : Application Name - UBSHK_Claim_F
2018.07.10 11:06:10   info : TestData_Sheet path:: C:\Talent_Automation_Framework_Backup\Project_Talent/TestCases/UBSHK_Claim_F.xlsx
2018.07.10 11:06:10   info : CSV updating and creating dump....
2018.07.10 11:06:11   info : Sheet name: TestCaseScheduler
2018.07.10 11:06:11   info : Sheet name: Test Case
2018.07.10 11:06:11   info : UBSHK_Claim_F sheetname found!!
2018.07.10 11:06:11   info : Total row 4616
2018.07.10 11:06:11   info : After row validation for blank or null!!
2018.07.10 11:06:11   info : Total final row 4615
2018.07.10 11:06:13   error : java.lang.NullPointerException
2018.07.10 11:06:13   info : Total number of test cases to be executed :: 11
2018.07.10 11:06:13   info : PrevTestID - null == null && row 1<= 4615
2018.07.10 11:06:13   info : Test ID TC1 : previous test step/row 0 status is Passed and value of next test step/row is :: 1
2018.07.10 11:06:13   info : 

2018.07.10 11:06:13   info : -------------------- Executing Testcase ID TC1 and test step : 1 ---------------------- 
2018.07.10 11:06:14   info : please wait.. browser getting open !!
2018.07.10 11:06:31   info : Opening Application..
2018.07.10 11:06:33   info : Current WebDriver Win Count is:: 1
2018.07.10 11:06:33   info : restult status : 1
2018.07.10 11:06:33   info : Test ID TC1 : previous test step/row 1 status is Passed and value of next test step/row is :: 2
2018.07.10 11:06:33   info : 

2018.07.10 11:06:33   info : -------------------- Executing Testcase ID TC1 and test step : 2 ---------------------- 
2018.07.10 11:06:35   info : Current WebDriver Win Count is:: 1
2018.07.10 11:06:35   info : Xml obj_repo path C:\Talent_Automation_Framework_Backup\Project_Talent/ObjectRepositories/BenefitAsia2_MercerAdmin/MA_Home.xml
2018.07.10 11:06:35   info : Title in xml file - Home
2018.07.10 11:06:35   warn : Window is not switched, now trying based on element!!
2018.07.10 11:06:35   info : Window title Error
2018.07.10 11:06:35   info : Xml obj_repo path C:\Talent_Automation_Framework_Backup\Project_Talent/ObjectRepositories/BenefitAsia2_MercerAdmin/MA_Home.xml
2018.07.10 11:06:35   info : xpath object successfully mapped!!
2018.07.10 11:06:35   info : xpath object contains property value !!
2018.07.10 11:06:35   info : Property name - xpath
2018.07.10 11:06:35   info : Property value - //input[contains(@id,"ContentPlaceHolder1_TextBox1")]
2018.07.10 11:06:35   info : Finding xpath element on webpage..
2018.07.10 11:06:35   info : Searching for element. Try number 0
2018.07.10 11:06:37   info : element disappeared after trying for 1 times
