2019.05.08 06:54:53   info : Selenium version :: 2.48.2
2019.05.08 06:54:53   info : Download fodler path created!!
2019.05.08 06:54:53   info : date_time_down_folder C:\Talent_Automation_Framework_Backup\Project_Talent\Downloads\2019_05_08\time_18_54_53\
2019.05.08 06:54:54   info : Total number of applications :: 4
2019.05.08 06:54:54   info : Application Name - Auto_Sanity
2019.05.08 06:54:54   info : TestData_Sheet path:: C:\Talent_Automation_Framework_Backup\Project_Talent/TestCases/Auto_Sanity.xlsx
2019.05.08 06:54:54   info : CSV updating and creating dump....
2019.05.08 06:54:54   info : Sheet name: TestCaseScheduler
2019.05.08 06:54:54   info : Sheet name: Test Case
2019.05.08 06:54:54   info : Auto_Sanity sheetname found!!
2019.05.08 06:54:54   info : Total row 269
2019.05.08 06:54:54   info : After row validation for blank or null!!
2019.05.08 06:54:54   info : Total final row 268
2019.05.08 06:54:54   error : java.lang.NullPointerException
2019.05.08 06:54:54   info : Total number of test cases to be executed :: 1
2019.05.08 06:54:54   info : PrevTestID - null == null && row 188<= 268
2019.05.08 06:54:54   info : Test ID TC3 : previous test step/row 187 status is Passed and value of next test step/row is :: 188
2019.05.08 06:54:54   info : 

2019.05.08 06:54:54   info : -------------------- Executing Testcase ID TC3 and test step : 188 ---------------------- 
2019.05.08 06:54:54   info : please wait.. browser getting open !!
2019.05.08 06:55:05   info : Opening Application..
2019.05.08 07:04:03   error : org.openqa.selenium.remote.UnreachableBrowserException: Error communicating with the remote browser. It may have died.
Build info: version: '2.48.2', revision: '41bccdd', time: '2015-10-09 19:55:52'
System info: host: 'INGGNEDJ67QYX1', ip: '10.197.134.143', os.name: 'Windows 7', os.arch: 'amd64', os.version: '6.1', java.version: '1.7.0_71'
Driver info: driver.version: Driver
