2019.04.03 07:49:30   info : Selenium version :: 2.48.2
2019.04.03 07:49:30   info : Download fodler path created!!
2019.04.03 07:49:30   info : date_time_down_folder C:\Talent_Automation_Framework_Backup\Project_Talent\Downloads\2019_04_03\time_19_49_30\
2019.04.03 07:49:31   info : Total number of applications :: 4
2019.04.03 07:49:31   info : Application Name - Auto_Sanity
2019.04.03 07:49:31   info : TestData_Sheet path:: C:\Talent_Automation_Framework_Backup\Project_Talent/TestCases/Auto_Sanity.xlsx
2019.04.03 07:49:31   info : CSV updating and creating dump....
2019.04.03 07:49:31   info : Sheet name: TestCaseScheduler
2019.04.03 07:49:31   info : Sheet name: Test Case
2019.04.03 07:49:31   info : Auto_Sanity sheetname found!!
2019.04.03 07:49:31   info : Total row 269
2019.04.03 07:49:31   info : After row validation for blank or null!!
2019.04.03 07:49:31   info : Total final row 268
2019.04.03 07:49:32   error : java.lang.NullPointerException
2019.04.03 07:49:32   info : Total number of test cases to be executed :: 1
2019.04.03 07:49:32   info : PrevTestID - null == null && row 183<= 268
2019.04.03 07:49:32   info : Test ID TC2 : previous test step/row 182 status is Passed and value of next test step/row is :: 183
2019.04.03 07:49:32   info : 

2019.04.03 07:49:32   info : -------------------- Executing Testcase ID TC2 and test step : 183 ---------------------- 
2019.04.03 07:49:32   info : please wait.. browser getting open !!
2019.04.03 07:49:43   info : Opening Application..
2019.04.03 07:49:46   info : Current WebDriver Win Count is:: 1
2019.04.03 07:49:53   info : restult status : 1
2019.04.03 07:49:54   info : Test ID TC2 : previous test step/row 183 status is Passed and value of next test step/row is :: 184
2019.04.03 07:49:54   info : 

2019.04.03 07:49:54   info : -------------------- Executing Testcase ID TC2 and test step : 184 ---------------------- 
2019.04.03 07:49:55   info : Current WebDriver Win Count is:: 1
2019.04.03 07:49:55   info : Xml obj_repo path C:\Talent_Automation_Framework_Backup\Project_Talent/ObjectRepositories/BenefitAsia2_EE/EE_SimpliflexSG_LoginLogout.xml
2019.04.03 07:49:55   info : Title contains null value in xml!!
2019.04.03 07:49:55   info : Window title User Login
2019.04.03 07:49:55   info : Xml obj_repo path C:\Talent_Automation_Framework_Backup\Project_Talent/ObjectRepositories/BenefitAsia2_EE/EE_SimpliflexSG_LoginLogout.xml
2019.04.03 07:49:55   info : xpath object successfully mapped!!
2019.04.03 07:49:55   info : xpath object contains property value !!
2019.04.03 07:49:55   info : Property name - xpath
2019.04.03 07:49:55   info : Property value - //input[contains(@id,"_txtUsername")]
2019.04.03 07:49:55   info : Finding xpath element on webpage..
2019.04.03 07:49:55   info : Searching for element. Try number 0
2019.04.03 07:49:56   info : element disappeared after trying for 1 times
2019.04.03 07:49:57   info : Current WebDriver Win Count is:: 1
2019.04.03 07:49:57   info : Element found!!
2019.04.03 07:49:57   info : Desired window is activated!!
2019.04.03 07:49:57   info : FiledName UserName and FiledValue Auto_prod_1
2019.04.03 07:49:57   info : FiledName Password and FiledValue Testing@1234
2019.04.03 07:49:57   info : Total static wait time 3
2019.04.03 07:50:00   info : Xml obj_repo path C:\Talent_Automation_Framework_Backup\Project_Talent/ObjectRepositories/BenefitAsia2_EE/EE_SimpliflexSG_LoginLogout.xml
2019.04.03 07:50:00   info : xpath object successfully mapped!!
2019.04.03 07:50:00   info : xpath object contains property value !!
2019.04.03 07:50:00   info : Property name - xpath
2019.04.03 07:50:00   info : Property value - //input[contains(@id,"_txtUsername")]
2019.04.03 07:50:00   info : Finding xpath element on webpage..
2019.04.03 07:50:00   info : Searching for element. Try number 0
2019.04.03 07:50:01   info : element disappeared after trying for 1 times
2019.04.03 07:50:02   info : Current WebDriver Win Count is:: 1
2019.04.03 07:50:02   info : Element found!!
2019.04.03 07:50:02   info : ObjectTag input and ObjectType text
2019.04.03 07:50:02   info : Enter data operation
2019.04.03 07:50:03   info : Xml obj_repo path C:\Talent_Automation_Framework_Backup\Project_Talent/ObjectRepositories/BenefitAsia2_EE/EE_SimpliflexSG_LoginLogout.xml
2019.04.03 07:50:03   info : xpath object successfully mapped!!
2019.04.03 07:50:03   info : xpath object contains property value !!
2019.04.03 07:50:03   info : Property name - xpath
2019.04.03 07:50:03   info : Property value - //input[contains(@id,"_txtUsername")]
2019.04.03 07:50:03   info : Finding xpath element on webpage..
2019.04.03 07:50:03   info : Searching for element. Try number 0
2019.04.03 07:50:04   info : element disappeared after trying for 1 times
2019.04.03 07:50:05   info : Current WebDriver Win Count is:: 1
2019.04.03 07:50:05   info : Element found!!
2019.04.03 07:50:05   info : Xml obj_repo path C:\Talent_Automation_Framework_Backup\Project_Talent/ObjectRepositories/BenefitAsia2_EE/EE_SimpliflexSG_LoginLogout.xml
2019.04.03 07:50:05   info : xpath object successfully mapped!!
2019.04.03 07:50:05   info : xpath object contains property value !!
2019.04.03 07:50:05   info : Property name - xpath
2019.04.03 07:50:05   info : Property value - //input[contains(@id,"_txtUsername")]
2019.04.03 07:50:05   info : Finding xpath element on webpage..
2019.04.03 07:50:05   info : Searching for element. Try number 0
2019.04.03 07:50:06   info : element disappeared after trying for 1 times
2019.04.03 07:50:07   info : Current WebDriver Win Count is:: 1
2019.04.03 07:50:07   info : Element found!!
2019.04.03 07:50:07   info : ValueToEnter Auto_prod_1
2019.04.03 07:50:07   info : Entered value is Auto_prod_1
2019.04.03 07:50:07   info : Attribute entered value Auto_prod_1
2019.04.03 07:50:07   info : Total static wait time 3
2019.04.03 07:50:10   info : Xml obj_repo path C:\Talent_Automation_Framework_Backup\Project_Talent/ObjectRepositories/BenefitAsia2_EE/EE_SimpliflexSG_LoginLogout.xml
2019.04.03 07:50:10   info : xpath object successfully mapped!!
2019.04.03 07:50:10   info : xpath object contains property value !!
2019.04.03 07:50:10   info : Property name - xpath
2019.04.03 07:50:10   info : Property value - //input[contains(@id,"_txtPassword")]
2019.04.03 07:50:10   info : Finding xpath element on webpage..
2019.04.03 07:50:10   info : Searching for element. Try number 0
2019.04.03 07:50:11   info : element disappeared after trying for 1 times
2019.04.03 07:50:12   info : Current WebDriver Win Count is:: 1
2019.04.03 07:50:12   info : Element found!!
2019.04.03 07:50:12   info : ObjectTag input and ObjectType password
2019.04.03 07:50:12   info : Enter data operation
2019.04.03 07:50:12   info : Xml obj_repo path C:\Talent_Automation_Framework_Backup\Project_Talent/ObjectRepositories/BenefitAsia2_EE/EE_SimpliflexSG_LoginLogout.xml
2019.04.03 07:50:12   info : xpath object successfully mapped!!
2019.04.03 07:50:12   info : xpath object contains property value !!
2019.04.03 07:50:12   info : Property name - xpath
2019.04.03 07:50:12   info : Property value - //input[contains(@id,"_txtPassword")]
2019.04.03 07:50:12   info : Finding xpath element on webpage..
2019.04.03 07:50:12   info : Searching for element. Try number 0
2019.04.03 07:50:13   info : element disappeared after trying for 1 times
2019.04.03 07:50:14   info : Current WebDriver Win Count is:: 1
2019.04.03 07:50:14   info : Element found!!
2019.04.03 07:50:14   info : ValueToEnter Testing@1234
2019.04.03 07:50:14   info : Entered value is Testing@1234
2019.04.03 07:50:15   info : Attribute entered value Testing@1234
2019.04.03 07:50:15   info : Checking for object in click
2019.04.03 07:50:15   info : Xml obj_repo path C:\Talent_Automation_Framework_Backup\Project_Talent/ObjectRepositories/BenefitAsia2_EE/EE_SimpliflexSG_LoginLogout.xml
2019.04.03 07:50:15   info : xpath object successfully mapped!!
2019.04.03 07:50:15   info : xpath object contains property value !!
2019.04.03 07:50:15   info : Property name - xpath
2019.04.03 07:50:15   info : Property value - //input[contains(@id,"_cmdLogin")]
2019.04.03 07:50:15   info : Finding xpath element on webpage..
2019.04.03 07:50:15   info : Searching for element. Try number 0
2019.04.03 07:50:16   info : element disappeared after trying for 1 times
2019.04.03 07:50:17   info : Current WebDriver Win Count is:: 1
2019.04.03 07:50:17   info : Element found!!
2019.04.03 07:50:17   info : Xml obj_repo path C:\Talent_Automation_Framework_Backup\Project_Talent/ObjectRepositories/BenefitAsia2_EE/EE_SimpliflexSG_LoginLogout.xml
2019.04.03 07:50:17   info : xpath object successfully mapped!!
2019.04.03 07:50:17   info : xpath object contains property value !!
2019.04.03 07:50:17   info : Property name - xpath
2019.04.03 07:50:17   info : Property value - //input[contains(@id,"_cmdLogin")]
2019.04.03 07:50:17   info : Finding xpath element on webpage..
2019.04.03 07:50:17   info : Searching for element. Try number 0
2019.04.03 07:50:18   info : element disappeared after trying for 1 times
2019.04.03 07:50:19   info : Current WebDriver Win Count is:: 1
2019.04.03 07:50:19   info : Element found!!
2019.04.03 07:50:23   info : clicked on LoginButton
2019.04.03 07:50:24   info : Current WebDriver Win Count is:: 1
2019.04.03 07:50:24   info : restult status : 1
2019.04.03 07:50:24   info : Test ID TC2 : previous test step/row 184 status is Passed and value of next test step/row is :: 185
2019.04.03 07:50:24   info : 

2019.04.03 07:50:24   info : -------------------- Executing Testcase ID TC2 and test step : 185 ---------------------- 
2019.04.03 07:50:25   info : Current WebDriver Win Count is:: 1
2019.04.03 07:50:25   info : Xml obj_repo path C:\Talent_Automation_Framework_Backup\Project_Talent/ObjectRepositories/BenefitAsia2_EE/EE_SimpliFlexSG_tabNavigation.xml
2019.04.03 07:50:25   info : Title in xml file - SimpliflexSG > Home
2019.04.03 07:50:25   info : Title of the page after - switching window To: SimpliflexSG > Home
2019.04.03 07:50:25   info : Desired window is activated!!
2019.04.03 07:50:25   info : page object present in excel : 4
2019.04.03 07:50:25   info : Under multiple object handle operation!!
2019.04.03 07:50:25   info : click operation perfomred!!
2019.04.03 07:50:25   info : textbased operation perfomred!!
2019.04.03 07:50:25   info : 4 operation perfomred!!
2019.04.03 07:50:25   info : Xml obj_repo path C:\Talent_Automation_Framework_Backup\Project_Talent/ObjectRepositories/BenefitAsia2_EE/EE_SimpliFlexSG_tabNavigation.xml
2019.04.03 07:50:25   info : class object successfully mapped!!
2019.04.03 07:50:25   info : class object contains property value !!
2019.04.03 07:50:25   info : Property name - class
2019.04.03 07:50:25   info : Property value - nav
2019.04.03 07:50:25   info : Finding class element on webpage..
2019.04.03 07:50:25   info : Element found!!
2019.04.03 07:50:25   info : Xml obj_repo path C:\Talent_Automation_Framework_Backup\Project_Talent/ObjectRepositories/BenefitAsia2_EE/EE_SimpliFlexSG_tabNavigation.xml
2019.04.03 07:50:25   info : tagname object successfully mapped!!
2019.04.03 07:50:25   info : tagname object contains property value !!
2019.04.03 07:50:25   info : Property name - tagname
2019.04.03 07:50:25   info : Property value - li
2019.04.03 07:50:25   info : Finding tagname element on webpage..
2019.04.03 07:50:25   info : Element found!!
2019.04.03 07:50:25   info : Xml obj_repo path C:\Talent_Automation_Framework_Backup\Project_Talent/ObjectRepositories/BenefitAsia2_EE/EE_SimpliFlexSG_tabNavigation.xml
2019.04.03 07:50:25   info : tagname object successfully mapped!!
2019.04.03 07:50:25   info : tagname object contains property value !!
2019.04.03 07:50:25   info : Property name - tagname
2019.04.03 07:50:25   info : Property value - a
2019.04.03 07:50:25   info : Finding tagname element on webpage..
2019.04.03 07:50:25   info : Element found!!
2019.04.03 07:50:25   info : Xml obj_repo path C:\Talent_Automation_Framework_Backup\Project_Talent/ObjectRepositories/BenefitAsia2_EE/EE_SimpliFlexSG_tabNavigation.xml
2019.04.03 07:50:25   info : tagname object successfully mapped!!
2019.04.03 07:50:25   info : tagname object contains property value !!
2019.04.03 07:50:25   info : Property name - tagname
2019.04.03 07:50:25   info : Property value - span
2019.04.03 07:50:25   info : Finding tagname element on webpage..
2019.04.03 07:50:25   info : Element found!!
2019.04.03 07:50:25   info : Size of element 6
2019.04.03 07:50:25   info : actData Home
2019.04.03 07:50:26   info : actData Start Enrollment
2019.04.03 07:50:29   info : Current WebDriver Win Count is:: 1
2019.04.03 07:50:29   info : restult status : 1
2019.04.03 07:50:29   info : Test ID TC2 : previous test step/row 185 status is Passed and value of next test step/row is :: 186
2019.04.03 07:50:29   info : 

2019.04.03 07:50:29   info : -------------------- Executing Testcase ID TC2 and test step : 186 ---------------------- 
2019.04.03 07:50:30   info : Current WebDriver Win Count is:: 1
2019.04.03 07:50:30   info : not doing anything!!
2019.04.03 07:50:30   info : Navigating to another url..
2019.04.03 07:50:40   info : Current WebDriver Win Count is:: 1
2019.04.03 07:50:40   info : restult status : 1
2019.04.03 07:50:40   info : Test ID TC2 : previous test step/row 186 status is Passed and value of next test step/row is :: 187
2019.04.03 07:50:40   info : 

2019.04.03 07:50:40   info : -------------------- Executing Testcase ID TC2 and test step : 187 ---------------------- 
2019.04.03 07:50:41   info : Current WebDriver Win Count is:: 1
2019.04.03 07:50:41   info : Xml obj_repo path C:\Talent_Automation_Framework_Backup\Project_Talent/ObjectRepositories/BenefitAsia2_EE/EE_SimpliflexSG_Enrolment.xml
2019.04.03 07:50:41   info : Title in xml file - MyEnrollment
2019.04.03 07:50:41   warn : Window is not switched, now trying based on element!!
2019.04.03 07:50:41   info : Window title My Enrollment
2019.04.03 07:50:41   info : Xml obj_repo path C:\Talent_Automation_Framework_Backup\Project_Talent/ObjectRepositories/BenefitAsia2_EE/EE_SimpliflexSG_Enrolment.xml
2019.04.03 07:50:41   info : xpath object successfully mapped!!
2019.04.03 07:50:41   info : xpath object contains property value !!
2019.04.03 07:50:41   info : Property name - xpath
2019.04.03 07:50:41   info : Property value - //*[contains(@id,"_ctl00_lblMessage")]
2019.04.03 07:50:41   info : Finding xpath element on webpage..
2019.04.03 07:50:41   info : Searching for element. Try number 0
2019.04.03 07:50:42   info : element disappeared after trying for 1 times
2019.04.03 07:50:43   info : Current WebDriver Win Count is:: 1
2019.04.03 07:50:43   info : Element found!!
2019.04.03 07:50:43   info : Desired window is activated!!
2019.04.03 07:50:43   info : Xml obj_repo path C:\Talent_Automation_Framework_Backup\Project_Talent/ObjectRepositories/BenefitAsia2_EE/EE_SimpliflexSG_Enrolment.xml
2019.04.03 07:50:43   info : xpath object successfully mapped!!
2019.04.03 07:50:43   info : xpath object contains property value !!
2019.04.03 07:50:43   info : Property name - xpath
2019.04.03 07:50:43   info : Property value - //*[contains(@id,"_ctl00_lblMessage")]
2019.04.03 07:50:43   info : Finding xpath element on webpage..
2019.04.03 07:50:43   info : Searching for element. Try number 0
2019.04.03 07:50:44   info : element disappeared after trying for 1 times
2019.04.03 07:50:45   info : Current WebDriver Win Count is:: 1
2019.04.03 07:50:45   info : Element found!!
2019.04.03 07:50:45   info : ObjectTag span and ObjectType null
2019.04.03 07:50:45   info : Exp_value Either you are not currently logged in, or you do not have access to this content.
2019.04.03 07:50:45   info : Searching for element. Try number 0
2019.04.03 07:50:47   info : element disappeared after trying for 1 times
2019.04.03 07:50:47   info : Actual ValueEither you are not currently logged in, or you do not have access to this content.
2019.04.03 07:50:47   info : Exp : Either you are not currently logged in, or you do not have access to this content. and act : Either you are not currently logged in, or you do not have access to this content. value matched!!
2019.04.03 07:50:48   info : Current WebDriver Win Count is:: 1
2019.04.03 07:50:48   info : restult status : 1
2019.04.03 07:50:48   info : Row TC2!=TC3 || (TC3==null)) && (187<=268)
2019.04.03 07:50:48   info : Status :: Passed :: Finalizing result report
2019.04.03 07:50:48   info : closing window...
2019.04.03 07:50:48   info : window size 1
2019.04.03 07:50:49   info : Window is closed!!
