2018.12.21 03:31:45   info : Selenium version :: 2.48.2
2018.12.21 03:31:45   info : Download fodler path created!!
2018.12.21 03:31:45   info : date_time_down_folder C:\Talent_Automation_Framework_Backup\Project_Talent\Downloads\2018_12_21\time_15_31_45\
2018.12.21 03:31:46   info : Total number of applications :: 4
2018.12.21 03:31:46   info : Application Name - TestCase_Simp
2018.12.21 03:31:46   info : TestData_Sheet path:: C:\Talent_Automation_Framework_Backup\Project_Talent/TestCases/TestCase_Simp.xlsx
2018.12.21 03:31:46   info : CSV updating and creating dump....
2018.12.21 03:31:47   info : Sheet name: Scenarios
2018.12.21 03:31:47   info : Sheet name: TestCaseScheduler
2018.12.21 03:31:47   info : Sheet name: TestCases
2018.12.21 03:31:47   info : Sheet name: Enrolment
2018.12.21 03:31:47   info : Sheet name: Claims
2018.12.21 03:31:47   info : Sheet name: LifeEvent
2018.12.21 03:31:47   info : Sheet name: ScreenMapping
2018.12.21 03:31:47   info : Sheet name: Points
2018.12.21 03:31:47   info : Sheet name: PriceTag
2018.12.21 03:31:47   info : Sheet name: EmpData
2018.12.21 03:31:47   info : Sheet name: DepData
2018.12.21 03:31:47   info : TestCase_Simp sheetname not found!!
