2019.01.23 02:55:35   info : Selenium version :: 2.48.2
2019.01.23 02:55:35   info : Download fodler path created!!
2019.01.23 02:55:35   info : date_time_down_folder C:\Talent_Automation_Framework_Backup\Project_Talent\Downloads\2019_01_23\time_14_55_35\
2019.01.23 02:55:36   info : Total number of applications :: 4
2019.01.23 02:55:36   info : Application Name - Latest_Simp
2019.01.23 02:55:36   info : TestData_Sheet path:: C:\Talent_Automation_Framework_Backup\Project_Talent/TestCases/Latest_Simp.xlsx
2019.01.23 02:55:36   info : CSV updating and creating dump....
2019.01.23 02:55:37   info : Sheet name: Scenarios
2019.01.23 02:55:37   info : Sheet name: TestCaseScheduler
2019.01.23 02:55:37   info : Sheet name: Test Case
2019.01.23 02:55:37   info : Latest_Simp sheetname found!!
2019.01.23 02:55:37   info : Total row 1489
2019.01.23 02:55:37   info : After row validation for blank or null!!
2019.01.23 02:55:37   info : Total final row 1488
2019.01.23 02:55:38   info : Total number of test cases to be executed :: 1
2019.01.23 02:55:38   info : PrevTestID - null == null && row 1145<= 1488
2019.01.23 02:55:38   info : Test ID TC11 : previous test step/row 1144 status is Passed and value of next test step/row is :: 1145
2019.01.23 02:55:38   info : 

2019.01.23 02:55:38   info : -------------------- Executing Testcase ID TC11 and test step : 1145 ---------------------- 
2019.01.23 02:55:39   info : please wait.. browser getting open !!
2019.01.23 02:55:49   info : Opening Application..
2019.01.23 02:56:03   info : Current WebDriver Win Count is:: 1
2019.01.23 02:56:04   info : restult status : 1
2019.01.23 02:56:04   info : Test ID TC11 : previous test step/row 1145 status is Passed and value of next test step/row is :: 1146
2019.01.23 02:56:04   info : 

2019.01.23 02:56:04   info : -------------------- Executing Testcase ID TC11 and test step : 1146 ---------------------- 
2019.01.23 02:56:06   info : Current WebDriver Win Count is:: 1
2019.01.23 02:56:06   info : Xml obj_repo path C:\Talent_Automation_Framework_Backup\Project_Talent/ObjectRepositories/BenefitAsia2_EE/EE_SimpliflexSG_LoginLogout.xml
2019.01.23 02:56:06   info : Title contains null value in xml!!
2019.01.23 02:56:06   info : Window title User Login
2019.01.23 02:56:06   info : Xml obj_repo path C:\Talent_Automation_Framework_Backup\Project_Talent/ObjectRepositories/BenefitAsia2_EE/EE_SimpliflexSG_LoginLogout.xml
2019.01.23 02:56:06   info : xpath object successfully mapped!!
2019.01.23 02:56:06   info : xpath object contains property value !!
2019.01.23 02:56:06   info : Property name - xpath
2019.01.23 02:56:06   info : Property value - //input[contains(@id,"_txtUsername")]
2019.01.23 02:56:06   info : Finding xpath element on webpage..
2019.01.23 02:56:06   info : Searching for element. Try number 0
2019.01.23 02:56:07   info : element disappeared after trying for 1 times
2019.01.23 02:56:08   info : Current WebDriver Win Count is:: 1
2019.01.23 02:56:08   info : Element found!!
2019.01.23 02:56:08   info : Desired window is activated!!
2019.01.23 02:56:08   info : FiledName UserName and FiledValue Simpli_23jan_010
2019.01.23 02:56:08   info : FiledName Password and FiledValue Password123$
2019.01.23 02:56:08   info : Total static wait time 3
2019.01.23 02:56:11   info : Xml obj_repo path C:\Talent_Automation_Framework_Backup\Project_Talent/ObjectRepositories/BenefitAsia2_EE/EE_SimpliflexSG_LoginLogout.xml
2019.01.23 02:56:11   info : xpath object successfully mapped!!
2019.01.23 02:56:11   info : xpath object contains property value !!
2019.01.23 02:56:11   info : Property name - xpath
2019.01.23 02:56:11   info : Property value - //input[contains(@id,"_txtUsername")]
2019.01.23 02:56:11   info : Finding xpath element on webpage..
2019.01.23 02:56:11   info : Searching for element. Try number 0
2019.01.23 02:56:12   info : element disappeared after trying for 1 times
2019.01.23 02:56:13   info : Current WebDriver Win Count is:: 1
2019.01.23 02:56:13   info : Element found!!
2019.01.23 02:56:13   info : ObjectTag input and ObjectType text
2019.01.23 02:56:13   info : Enter data operation
2019.01.23 02:56:14   info : Xml obj_repo path C:\Talent_Automation_Framework_Backup\Project_Talent/ObjectRepositories/BenefitAsia2_EE/EE_SimpliflexSG_LoginLogout.xml
2019.01.23 02:56:14   info : xpath object successfully mapped!!
2019.01.23 02:56:14   info : xpath object contains property value !!
2019.01.23 02:56:14   info : Property name - xpath
2019.01.23 02:56:14   info : Property value - //input[contains(@id,"_txtUsername")]
2019.01.23 02:56:14   info : Finding xpath element on webpage..
2019.01.23 02:56:14   info : Searching for element. Try number 0
2019.01.23 02:56:15   info : element disappeared after trying for 1 times
2019.01.23 02:56:16   info : Current WebDriver Win Count is:: 1
2019.01.23 02:56:16   info : Element found!!
2019.01.23 02:56:16   info : Xml obj_repo path C:\Talent_Automation_Framework_Backup\Project_Talent/ObjectRepositories/BenefitAsia2_EE/EE_SimpliflexSG_LoginLogout.xml
2019.01.23 02:56:16   info : xpath object successfully mapped!!
2019.01.23 02:56:16   info : xpath object contains property value !!
2019.01.23 02:56:16   info : Property name - xpath
2019.01.23 02:56:16   info : Property value - //input[contains(@id,"_txtUsername")]
2019.01.23 02:56:16   info : Finding xpath element on webpage..
2019.01.23 02:56:16   info : Searching for element. Try number 0
2019.01.23 02:56:17   info : element disappeared after trying for 1 times
2019.01.23 02:56:18   info : Current WebDriver Win Count is:: 1
2019.01.23 02:56:18   info : Element found!!
2019.01.23 02:56:18   info : ValueToEnter Simpli_23jan_010
2019.01.23 02:56:18   info : Entered value is Simpli_23jan_010
2019.01.23 02:56:18   info : Attribute entered value Simpli_23jan_010
2019.01.23 02:56:18   info : Total static wait time 3
2019.01.23 02:56:21   info : Xml obj_repo path C:\Talent_Automation_Framework_Backup\Project_Talent/ObjectRepositories/BenefitAsia2_EE/EE_SimpliflexSG_LoginLogout.xml
2019.01.23 02:56:21   info : xpath object successfully mapped!!
2019.01.23 02:56:21   info : xpath object contains property value !!
2019.01.23 02:56:21   info : Property name - xpath
2019.01.23 02:56:21   info : Property value - //input[contains(@id,"_txtPassword")]
2019.01.23 02:56:21   info : Finding xpath element on webpage..
2019.01.23 02:56:21   info : Searching for element. Try number 0
2019.01.23 02:56:22   info : element disappeared after trying for 1 times
2019.01.23 02:56:23   info : Current WebDriver Win Count is:: 1
2019.01.23 02:56:23   info : Element found!!
2019.01.23 02:56:23   info : ObjectTag input and ObjectType password
2019.01.23 02:56:23   info : Enter data operation
2019.01.23 02:56:23   info : Xml obj_repo path C:\Talent_Automation_Framework_Backup\Project_Talent/ObjectRepositories/BenefitAsia2_EE/EE_SimpliflexSG_LoginLogout.xml
2019.01.23 02:56:23   info : xpath object successfully mapped!!
2019.01.23 02:56:23   info : xpath object contains property value !!
2019.01.23 02:56:23   info : Property name - xpath
2019.01.23 02:56:23   info : Property value - //input[contains(@id,"_txtPassword")]
2019.01.23 02:56:23   info : Finding xpath element on webpage..
2019.01.23 02:56:23   info : Searching for element. Try number 0
2019.01.23 02:56:24   info : element disappeared after trying for 1 times
2019.01.23 02:56:25   info : Current WebDriver Win Count is:: 1
2019.01.23 02:56:25   info : Element found!!
2019.01.23 02:56:25   info : ValueToEnter Password123$
2019.01.23 02:56:25   info : Entered value is Password123$
2019.01.23 02:56:25   info : Attribute entered value Password123$
2019.01.23 02:56:25   info : Checking for object in click
2019.01.23 02:56:25   info : Xml obj_repo path C:\Talent_Automation_Framework_Backup\Project_Talent/ObjectRepositories/BenefitAsia2_EE/EE_SimpliflexSG_LoginLogout.xml
2019.01.23 02:56:25   info : xpath object successfully mapped!!
2019.01.23 02:56:25   info : xpath object contains property value !!
2019.01.23 02:56:25   info : Property name - xpath
2019.01.23 02:56:25   info : Property value - //input[contains(@id,"_cmdLogin")]
2019.01.23 02:56:25   info : Finding xpath element on webpage..
2019.01.23 02:56:25   info : Searching for element. Try number 0
2019.01.23 02:56:26   info : element disappeared after trying for 1 times
2019.01.23 02:56:27   info : Current WebDriver Win Count is:: 1
2019.01.23 02:56:27   info : Element found!!
2019.01.23 02:56:27   info : Xml obj_repo path C:\Talent_Automation_Framework_Backup\Project_Talent/ObjectRepositories/BenefitAsia2_EE/EE_SimpliflexSG_LoginLogout.xml
2019.01.23 02:56:27   info : xpath object successfully mapped!!
2019.01.23 02:56:27   info : xpath object contains property value !!
2019.01.23 02:56:27   info : Property name - xpath
2019.01.23 02:56:27   info : Property value - //input[contains(@id,"_cmdLogin")]
2019.01.23 02:56:27   info : Finding xpath element on webpage..
2019.01.23 02:56:27   info : Searching for element. Try number 0
2019.01.23 02:56:28   info : element disappeared after trying for 1 times
2019.01.23 02:56:29   info : Current WebDriver Win Count is:: 1
2019.01.23 02:56:29   info : Element found!!
2019.01.23 02:56:33   info : clicked on LoginButton
2019.01.23 02:56:34   info : Current WebDriver Win Count is:: 1
2019.01.23 02:56:35   info : restult status : 1
2019.01.23 02:56:35   info : Test ID TC11 : previous test step/row 1146 status is Passed and value of next test step/row is :: 1147
2019.01.23 02:56:35   info : 

2019.01.23 02:56:35   info : -------------------- Executing Testcase ID TC11 and test step : 1147 ---------------------- 
2019.01.23 02:56:36   info : Current WebDriver Win Count is:: 1
2019.01.23 02:56:36   info : Xml obj_repo path C:\Talent_Automation_Framework_Backup\Project_Talent/ObjectRepositories/BenefitAsia2_EE/EE_SimpliFlexSG_tabNavigation2.xml
2019.01.23 02:56:36   info : Title in xml file - My Enrollment
2019.01.23 02:56:36   warn : Window is not switched, now trying based on element!!
2019.01.23 02:56:36   info : Window title SimpliflexSG > Home
2019.01.23 02:56:36   info : Xml obj_repo path C:\Talent_Automation_Framework_Backup\Project_Talent/ObjectRepositories/BenefitAsia2_EE/EE_SimpliFlexSG_tabNavigation2.xml
2019.01.23 02:56:36   info : Defined excel object tag is not found in xml!!
2019.01.23 02:56:36   info : size of the element return by xmlreading is 0
2019.01.23 02:56:36   error : java.lang.NullPointerException
2019.01.23 02:56:36   info : page object present in excel : 4
2019.01.23 02:56:36   info : Under multiple object handle operation!!
2019.01.23 02:56:36   info : click operation perfomred!!
2019.01.23 02:56:36   info : textbased operation perfomred!!
2019.01.23 02:56:36   info : 4 operation perfomred!!
2019.01.23 02:56:36   info : Xml obj_repo path C:\Talent_Automation_Framework_Backup\Project_Talent/ObjectRepositories/BenefitAsia2_EE/EE_SimpliFlexSG_tabNavigation2.xml
2019.01.23 02:56:36   info : class object successfully mapped!!
2019.01.23 02:56:36   info : class object contains property value !!
2019.01.23 02:56:36   info : Property name - class
2019.01.23 02:56:36   info : Property value - nav
2019.01.23 02:56:36   info : Finding class element on webpage..
2019.01.23 02:56:36   info : Element found!!
2019.01.23 02:56:36   info : Xml obj_repo path C:\Talent_Automation_Framework_Backup\Project_Talent/ObjectRepositories/BenefitAsia2_EE/EE_SimpliFlexSG_tabNavigation2.xml
2019.01.23 02:56:36   info : tagname object successfully mapped!!
2019.01.23 02:56:36   info : tagname object contains property value !!
2019.01.23 02:56:36   info : Property name - tagname
2019.01.23 02:56:36   info : Property value - li
2019.01.23 02:56:36   info : Finding tagname element on webpage..
2019.01.23 02:56:36   info : Element found!!
2019.01.23 02:56:36   info : Xml obj_repo path C:\Talent_Automation_Framework_Backup\Project_Talent/ObjectRepositories/BenefitAsia2_EE/EE_SimpliFlexSG_tabNavigation2.xml
2019.01.23 02:56:36   info : tagname object successfully mapped!!
2019.01.23 02:56:36   info : tagname object contains property value !!
2019.01.23 02:56:36   info : Property name - tagname
2019.01.23 02:56:36   info : Property value - a
2019.01.23 02:56:36   info : Finding tagname element on webpage..
2019.01.23 02:56:36   info : Element found!!
2019.01.23 02:56:36   info : Xml obj_repo path C:\Talent_Automation_Framework_Backup\Project_Talent/ObjectRepositories/BenefitAsia2_EE/EE_SimpliFlexSG_tabNavigation2.xml
2019.01.23 02:56:36   info : tagname object successfully mapped!!
2019.01.23 02:56:36   info : tagname object contains property value !!
2019.01.23 02:56:36   info : Property name - tagname
2019.01.23 02:56:36   info : Property value - span
2019.01.23 02:56:36   info : Finding tagname element on webpage..
2019.01.23 02:56:36   info : Element found!!
2019.01.23 02:56:36   info : Size of element 6
2019.01.23 02:56:36   info : actData Home
2019.01.23 02:56:36   info : actData Start Enrollment
2019.01.23 02:57:44   info : Current WebDriver Win Count is:: 1
2019.01.23 02:57:44   info : restult status : 1
2019.01.23 02:57:44   info : Test ID TC11 : previous test step/row 1147 status is Passed and value of next test step/row is :: 1148
2019.01.23 02:57:44   info : 

2019.01.23 02:57:44   info : -------------------- Executing Testcase ID TC11 and test step : 1148 ---------------------- 
2019.01.23 02:57:46   info : Current WebDriver Win Count is:: 1
2019.01.23 02:57:46   info : Xml obj_repo path C:\Talent_Automation_Framework_Backup\Project_Talent/ObjectRepositories/BenefitAsia2_EE/EE_Simpliflex_Enrolment.xml
2019.01.23 02:57:46   info : Title in xml file - MyEnrollment
2019.01.23 02:57:46   warn : Window is not switched, now trying based on element!!
2019.01.23 02:57:46   info : Window title My Enrollment
2019.01.23 02:57:46   info : Xml obj_repo path C:\Talent_Automation_Framework_Backup\Project_Talent/ObjectRepositories/BenefitAsia2_EE/EE_Simpliflex_Enrolment.xml
2019.01.23 02:57:46   info : xpath object successfully mapped!!
2019.01.23 02:57:46   info : xpath object contains property value !!
2019.01.23 02:57:46   info : Property name - xpath
2019.01.23 02:57:46   info : Property value - //input[contains(@id,"_Introduction_") and contains(@id,"_btnStartNew")]
2019.01.23 02:57:46   info : Finding xpath element on webpage..
2019.01.23 02:57:46   info : Searching for element. Try number 0
2019.01.23 02:57:47   info : element disappeared after trying for 1 times
2019.01.23 02:57:48   info : Current WebDriver Win Count is:: 1
