2019.01.23 02:52:11   info : Selenium version :: 2.48.2
2019.01.23 02:52:11   info : Download fodler path created!!
2019.01.23 02:52:11   info : date_time_down_folder C:\Talent_Automation_Framework_Backup\Project_Talent\Downloads\2019_01_23\time_14_52_11\
2019.01.23 02:52:12   info : Total number of applications :: 4
2019.01.23 02:52:12   info : Application Name - Latest_Simp
2019.01.23 02:52:12   info : TestData_Sheet path:: C:\Talent_Automation_Framework_Backup\Project_Talent/TestCases/Latest_Simp.xlsx
2019.01.23 02:52:12   info : CSV updating and creating dump....
2019.01.23 02:52:13   info : Sheet name: Scenarios
2019.01.23 02:52:13   info : Sheet name: TestCaseScheduler
2019.01.23 02:52:13   info : Sheet name: Test Case
2019.01.23 02:52:13   info : Latest_Simp sheetname found!!
2019.01.23 02:52:13   info : Total row 1489
2019.01.23 02:52:13   info : After row validation for blank or null!!
2019.01.23 02:52:13   info : Total final row 1488
2019.01.23 02:52:14   info : Total number of test cases to be executed :: 1
2019.01.23 02:52:14   info : PrevTestID - null == null && row 1145<= 1488
2019.01.23 02:52:14   info : Test ID TC11 : previous test step/row 1144 status is Passed and value of next test step/row is :: 1145
2019.01.23 02:52:14   info : 

2019.01.23 02:52:14   info : -------------------- Executing Testcase ID TC11 and test step : 1145 ---------------------- 
2019.01.23 02:52:15   info : please wait.. browser getting open !!
2019.01.23 02:52:27   info : Opening Application..
2019.01.23 02:52:36   info : Current WebDriver Win Count is:: 1
2019.01.23 02:52:37   info : restult status : 1
2019.01.23 02:52:37   info : Test ID TC11 : previous test step/row 1145 status is Passed and value of next test step/row is :: 1146
2019.01.23 02:52:37   info : 

2019.01.23 02:52:37   info : -------------------- Executing Testcase ID TC11 and test step : 1146 ---------------------- 
2019.01.23 02:52:39   info : Current WebDriver Win Count is:: 1
2019.01.23 02:52:39   info : Xml obj_repo path C:\Talent_Automation_Framework_Backup\Project_Talent/ObjectRepositories/BenefitAsia2_EE/EE_SimpliflexSG_LoginLogout.xml
2019.01.23 02:52:39   info : Title contains null value in xml!!
2019.01.23 02:52:39   info : Window title User Login
2019.01.23 02:52:39   info : Xml obj_repo path C:\Talent_Automation_Framework_Backup\Project_Talent/ObjectRepositories/BenefitAsia2_EE/EE_SimpliflexSG_LoginLogout.xml
2019.01.23 02:52:39   info : xpath object successfully mapped!!
2019.01.23 02:52:39   info : xpath object contains property value !!
2019.01.23 02:52:39   info : Property name - xpath
2019.01.23 02:52:39   info : Property value - //input[contains(@id,"_txtUsername")]
2019.01.23 02:52:39   info : Finding xpath element on webpage..
2019.01.23 02:52:39   info : Searching for element. Try number 0
2019.01.23 02:52:40   info : element disappeared after trying for 1 times
2019.01.23 02:52:41   info : Current WebDriver Win Count is:: 1
2019.01.23 02:52:41   info : Element found!!
2019.01.23 02:52:41   info : Desired window is activated!!
2019.01.23 02:52:41   info : FiledName UserName and FiledValue Simpli_23jan_010
2019.01.23 02:52:41   info : FiledName Password and FiledValue Password123$
2019.01.23 02:52:41   info : Total static wait time 3
2019.01.23 02:52:44   info : Xml obj_repo path C:\Talent_Automation_Framework_Backup\Project_Talent/ObjectRepositories/BenefitAsia2_EE/EE_SimpliflexSG_LoginLogout.xml
2019.01.23 02:52:44   info : xpath object successfully mapped!!
2019.01.23 02:52:44   info : xpath object contains property value !!
2019.01.23 02:52:44   info : Property name - xpath
2019.01.23 02:52:44   info : Property value - //input[contains(@id,"_txtUsername")]
2019.01.23 02:52:44   info : Finding xpath element on webpage..
2019.01.23 02:52:44   info : Searching for element. Try number 0
2019.01.23 02:52:45   info : element disappeared after trying for 1 times
2019.01.23 02:52:46   info : Current WebDriver Win Count is:: 1
2019.01.23 02:52:46   info : Element found!!
2019.01.23 02:52:46   info : ObjectTag input and ObjectType text
2019.01.23 02:52:46   info : Enter data operation
2019.01.23 02:52:47   info : Xml obj_repo path C:\Talent_Automation_Framework_Backup\Project_Talent/ObjectRepositories/BenefitAsia2_EE/EE_SimpliflexSG_LoginLogout.xml
2019.01.23 02:52:47   info : xpath object successfully mapped!!
2019.01.23 02:52:47   info : xpath object contains property value !!
2019.01.23 02:52:47   info : Property name - xpath
2019.01.23 02:52:47   info : Property value - //input[contains(@id,"_txtUsername")]
2019.01.23 02:52:47   info : Finding xpath element on webpage..
2019.01.23 02:52:47   info : Searching for element. Try number 0
2019.01.23 02:52:48   info : element disappeared after trying for 1 times
2019.01.23 02:52:49   info : Current WebDriver Win Count is:: 1
2019.01.23 02:52:49   info : Element found!!
2019.01.23 02:52:49   info : Xml obj_repo path C:\Talent_Automation_Framework_Backup\Project_Talent/ObjectRepositories/BenefitAsia2_EE/EE_SimpliflexSG_LoginLogout.xml
2019.01.23 02:52:49   info : xpath object successfully mapped!!
2019.01.23 02:52:49   info : xpath object contains property value !!
2019.01.23 02:52:49   info : Property name - xpath
2019.01.23 02:52:49   info : Property value - //input[contains(@id,"_txtUsername")]
2019.01.23 02:52:49   info : Finding xpath element on webpage..
2019.01.23 02:52:49   info : Searching for element. Try number 0
2019.01.23 02:52:50   info : element disappeared after trying for 1 times
2019.01.23 02:52:51   info : Current WebDriver Win Count is:: 1
2019.01.23 02:52:51   info : Element found!!
2019.01.23 02:52:51   info : ValueToEnter Simpli_23jan_010
2019.01.23 02:52:51   info : Entered value is Simpli_23jan_010
2019.01.23 02:52:51   info : Attribute entered value Simpli_23jan_010
2019.01.23 02:52:51   info : Total static wait time 3
2019.01.23 02:52:54   info : Xml obj_repo path C:\Talent_Automation_Framework_Backup\Project_Talent/ObjectRepositories/BenefitAsia2_EE/EE_SimpliflexSG_LoginLogout.xml
2019.01.23 02:52:54   info : xpath object successfully mapped!!
2019.01.23 02:52:54   info : xpath object contains property value !!
2019.01.23 02:52:54   info : Property name - xpath
2019.01.23 02:52:54   info : Property value - //input[contains(@id,"_txtPassword")]
2019.01.23 02:52:54   info : Finding xpath element on webpage..
2019.01.23 02:52:54   info : Searching for element. Try number 0
2019.01.23 02:52:55   info : element disappeared after trying for 1 times
2019.01.23 02:52:56   info : Current WebDriver Win Count is:: 1
2019.01.23 02:52:56   info : Element found!!
2019.01.23 02:52:56   info : ObjectTag input and ObjectType password
2019.01.23 02:52:56   info : Enter data operation
2019.01.23 02:52:56   info : Xml obj_repo path C:\Talent_Automation_Framework_Backup\Project_Talent/ObjectRepositories/BenefitAsia2_EE/EE_SimpliflexSG_LoginLogout.xml
2019.01.23 02:52:56   info : xpath object successfully mapped!!
2019.01.23 02:52:56   info : xpath object contains property value !!
2019.01.23 02:52:56   info : Property name - xpath
2019.01.23 02:52:56   info : Property value - //input[contains(@id,"_txtPassword")]
2019.01.23 02:52:56   info : Finding xpath element on webpage..
2019.01.23 02:52:56   info : Searching for element. Try number 0
2019.01.23 02:52:57   info : element disappeared after trying for 1 times
2019.01.23 02:52:58   info : Current WebDriver Win Count is:: 1
2019.01.23 02:52:58   info : Element found!!
2019.01.23 02:52:58   info : ValueToEnter Password123$
2019.01.23 02:52:58   info : Entered value is Password123$
2019.01.23 02:52:58   info : Attribute entered value Password123$
2019.01.23 02:52:58   info : Checking for object in click
2019.01.23 02:52:58   info : Xml obj_repo path C:\Talent_Automation_Framework_Backup\Project_Talent/ObjectRepositories/BenefitAsia2_EE/EE_SimpliflexSG_LoginLogout.xml
2019.01.23 02:52:58   info : xpath object successfully mapped!!
2019.01.23 02:52:58   info : xpath object contains property value !!
2019.01.23 02:52:58   info : Property name - xpath
2019.01.23 02:52:58   info : Property value - //input[contains(@id,"_cmdLogin")]
2019.01.23 02:52:58   info : Finding xpath element on webpage..
2019.01.23 02:52:58   info : Searching for element. Try number 0
2019.01.23 02:52:59   info : element disappeared after trying for 1 times
2019.01.23 02:53:00   info : Current WebDriver Win Count is:: 1
2019.01.23 02:53:00   info : Element found!!
2019.01.23 02:53:00   info : Xml obj_repo path C:\Talent_Automation_Framework_Backup\Project_Talent/ObjectRepositories/BenefitAsia2_EE/EE_SimpliflexSG_LoginLogout.xml
2019.01.23 02:53:00   info : xpath object successfully mapped!!
2019.01.23 02:53:00   info : xpath object contains property value !!
2019.01.23 02:53:00   info : Property name - xpath
2019.01.23 02:53:00   info : Property value - //input[contains(@id,"_cmdLogin")]
2019.01.23 02:53:00   info : Finding xpath element on webpage..
2019.01.23 02:53:00   info : Searching for element. Try number 0
2019.01.23 02:53:01   info : element disappeared after trying for 1 times
2019.01.23 02:53:02   info : Current WebDriver Win Count is:: 1
2019.01.23 02:53:02   info : Element found!!
2019.01.23 02:53:10   info : clicked on LoginButton
2019.01.23 02:53:11   info : Current WebDriver Win Count is:: 1
2019.01.23 02:53:11   info : restult status : 1
2019.01.23 02:53:11   info : Test ID TC11 : previous test step/row 1146 status is Passed and value of next test step/row is :: 1147
2019.01.23 02:53:11   info : 

2019.01.23 02:53:11   info : -------------------- Executing Testcase ID TC11 and test step : 1147 ---------------------- 
2019.01.23 02:53:13   info : Current WebDriver Win Count is:: 1
2019.01.23 02:53:13   info : Xml obj_repo path C:\Talent_Automation_Framework_Backup\Project_Talent/ObjectRepositories/BenefitAsia2_EE/EE_SimpliFlexSG_tabNavigation2.xml
2019.01.23 02:53:13   info : Title in xml file - My Enrollment
2019.01.23 02:53:13   warn : Window is not switched, now trying based on element!!
2019.01.23 02:53:13   info : Window title SimpliflexSG > Home
2019.01.23 02:53:13   info : Xml obj_repo path C:\Talent_Automation_Framework_Backup\Project_Talent/ObjectRepositories/BenefitAsia2_EE/EE_SimpliFlexSG_tabNavigation2.xml
2019.01.23 02:53:13   info : Defined excel object tag is not found in xml!!
2019.01.23 02:53:13   info : size of the element return by xmlreading is 0
2019.01.23 02:53:13   error : java.lang.NullPointerException
2019.01.23 02:53:13   info : page object present in excel : 4
2019.01.23 02:53:13   info : Under multiple object handle operation!!
2019.01.23 02:53:13   info : click operation perfomred!!
2019.01.23 02:53:13   info : textbased operation perfomred!!
2019.01.23 02:53:13   info : 4 operation perfomred!!
2019.01.23 02:53:13   info : Xml obj_repo path C:\Talent_Automation_Framework_Backup\Project_Talent/ObjectRepositories/BenefitAsia2_EE/EE_SimpliFlexSG_tabNavigation2.xml
2019.01.23 02:53:13   info : class object successfully mapped!!
2019.01.23 02:53:13   info : class object contains property value !!
2019.01.23 02:53:13   info : Property name - class
2019.01.23 02:53:13   info : Property value - nav
2019.01.23 02:53:13   info : Finding class element on webpage..
2019.01.23 02:53:13   info : Element found!!
2019.01.23 02:53:13   info : Xml obj_repo path C:\Talent_Automation_Framework_Backup\Project_Talent/ObjectRepositories/BenefitAsia2_EE/EE_SimpliFlexSG_tabNavigation2.xml
2019.01.23 02:53:13   info : tagname object successfully mapped!!
2019.01.23 02:53:13   info : tagname object contains property value !!
2019.01.23 02:53:13   info : Property name - tagname
2019.01.23 02:53:13   info : Property value - li
2019.01.23 02:53:13   info : Finding tagname element on webpage..
2019.01.23 02:53:13   info : Element found!!
2019.01.23 02:53:13   info : Xml obj_repo path C:\Talent_Automation_Framework_Backup\Project_Talent/ObjectRepositories/BenefitAsia2_EE/EE_SimpliFlexSG_tabNavigation2.xml
2019.01.23 02:53:13   info : tagname object successfully mapped!!
2019.01.23 02:53:13   info : tagname object contains property value !!
2019.01.23 02:53:13   info : Property name - tagname
2019.01.23 02:53:13   info : Property value - a
2019.01.23 02:53:13   info : Finding tagname element on webpage..
2019.01.23 02:53:13   info : Element found!!
2019.01.23 02:53:13   info : Xml obj_repo path C:\Talent_Automation_Framework_Backup\Project_Talent/ObjectRepositories/BenefitAsia2_EE/EE_SimpliFlexSG_tabNavigation2.xml
2019.01.23 02:53:13   info : tagname object successfully mapped!!
2019.01.23 02:53:13   info : tagname object contains property value !!
2019.01.23 02:53:13   info : Property name - tagname
2019.01.23 02:53:13   info : Property value - span
2019.01.23 02:53:13   info : Finding tagname element on webpage..
2019.01.23 02:53:13   info : Element found!!
2019.01.23 02:53:13   info : Size of element 6
2019.01.23 02:53:13   info : actData Home
2019.01.23 02:53:13   info : actData Start Enrollment
2019.01.23 02:54:15   info : Current WebDriver Win Count is:: 1
2019.01.23 02:54:16   info : restult status : 1
2019.01.23 02:54:16   info : Test ID TC11 : previous test step/row 1147 status is Passed and value of next test step/row is :: 1148
2019.01.23 02:54:16   info : 

2019.01.23 02:54:16   info : -------------------- Executing Testcase ID TC11 and test step : 1148 ---------------------- 
2019.01.23 02:54:17   info : Current WebDriver Win Count is:: 1
2019.01.23 02:54:17   info : Xml obj_repo path C:\Talent_Automation_Framework_Backup\Project_Talent/ObjectRepositories/BenefitAsia2_EE/EE_Simpliflex_Enrolment.xml
2019.01.23 02:54:17   info : Title in xml file - MyEnrollment
2019.01.23 02:54:17   warn : Window is not switched, now trying based on element!!
2019.01.23 02:54:17   info : Window title My Enrollment
2019.01.23 02:54:17   info : Xml obj_repo path C:\Talent_Automation_Framework_Backup\Project_Talent/ObjectRepositories/BenefitAsia2_EE/EE_Simpliflex_Enrolment.xml
2019.01.23 02:54:17   info : xpath object successfully mapped!!
2019.01.23 02:54:17   info : xpath object contains property value !!
2019.01.23 02:54:17   info : Property name - xpath
2019.01.23 02:54:17   info : Property value - //input[contains(@id,"_Introduction_") and contains(@id,"_btnStartNew")]
2019.01.23 02:54:17   info : Finding xpath element on webpage..
2019.01.23 02:54:17   info : Searching for element. Try number 0
2019.01.23 02:54:18   info : element disappeared after trying for 1 times
2019.01.23 02:54:19   info : Current WebDriver Win Count is:: 1
