2019.01.09 08:11:47   info : Selenium version :: 2.48.2
2019.01.09 08:11:47   info : Download fodler path created!!
2019.01.09 08:11:47   info : date_time_down_folder C:\Talent_Automation_Framework_Backup\Project_Talent\Downloads\2019_01_09\time_20_11_47\
2019.01.09 08:11:47   info : Total number of applications :: 4
2019.01.09 08:11:47   info : Application Name - Auto_Sanity
2019.01.09 08:11:47   info : TestData_Sheet path:: C:\Talent_Automation_Framework_Backup\Project_Talent/TestCases/Auto_Sanity.xlsx
2019.01.09 08:11:47   info : CSV updating and creating dump....
2019.01.09 08:11:48   info : Sheet name: TestCaseScheduler
2019.01.09 08:11:48   info : Sheet name: Test Case
2019.01.09 08:11:48   info : Auto_Sanity sheetname found!!
2019.01.09 08:11:48   info : Total row 273
2019.01.09 08:11:48   info : After row validation for blank or null!!
2019.01.09 08:11:48   info : Total final row 272
2019.01.09 08:11:48   error : java.lang.NullPointerException
2019.01.09 08:11:48   info : Total number of test cases to be executed :: 1
2019.01.09 08:11:48   info : PrevTestID - null == null && row 1<= 272
2019.01.09 08:11:48   info : Test ID Sanity : previous test step/row 0 status is Passed and value of next test step/row is :: 1
2019.01.09 08:11:48   info : 

2019.01.09 08:11:48   info : -------------------- Executing Testcase ID Sanity and test step : 1 ---------------------- 
2019.01.09 08:11:48   info : please wait.. browser getting open !!
2019.01.09 08:11:59   info : Opening Application..
2019.01.09 08:12:02   info : Current WebDriver Win Count is:: 1
2019.01.09 08:12:22   info : restult status : 1
2019.01.09 08:12:23   info : Test ID Sanity : previous test step/row 1 status is Passed and value of next test step/row is :: 2
2019.01.09 08:12:23   info : 

2019.01.09 08:12:23   info : -------------------- Executing Testcase ID Sanity and test step : 2 ---------------------- 
2019.01.09 08:12:24   info : Current WebDriver Win Count is:: 1
2019.01.09 08:12:24   info : Xml obj_repo path C:\Talent_Automation_Framework_Backup\Project_Talent/ObjectRepositories/BenefitAsia2_EE/EE_SimpliflexSG_LoginLogout.xml
2019.01.09 08:12:24   info : Title contains null value in xml!!
2019.01.09 08:12:24   info : Window title User Login
2019.01.09 08:12:24   info : Xml obj_repo path C:\Talent_Automation_Framework_Backup\Project_Talent/ObjectRepositories/BenefitAsia2_EE/EE_SimpliflexSG_LoginLogout.xml
2019.01.09 08:12:24   info : xpath object successfully mapped!!
2019.01.09 08:12:24   info : xpath object contains property value !!
2019.01.09 08:12:24   info : Property name - xpath
2019.01.09 08:12:24   info : Property value - //input[contains(@id,"_txtUsername")]
2019.01.09 08:12:24   info : Finding xpath element on webpage..
2019.01.09 08:12:24   info : Searching for element. Try number 0
2019.01.09 08:12:25   info : element disappeared after trying for 1 times
2019.01.09 08:12:26   info : Current WebDriver Win Count is:: 1
2019.01.09 08:12:26   info : Element found!!
2019.01.09 08:12:26   info : Desired window is activated!!
2019.01.09 08:12:26   info : FiledName UserName and FiledValue Auto_prod_1
2019.01.09 08:12:26   info : FiledName Password and FiledValue Password@123
2019.01.09 08:12:26   info : Total static wait time 3
2019.01.09 08:12:29   info : Xml obj_repo path C:\Talent_Automation_Framework_Backup\Project_Talent/ObjectRepositories/BenefitAsia2_EE/EE_SimpliflexSG_LoginLogout.xml
2019.01.09 08:12:29   info : xpath object successfully mapped!!
2019.01.09 08:12:29   info : xpath object contains property value !!
2019.01.09 08:12:29   info : Property name - xpath
2019.01.09 08:12:29   info : Property value - //input[contains(@id,"_txtUsername")]
2019.01.09 08:12:29   info : Finding xpath element on webpage..
2019.01.09 08:12:29   info : Searching for element. Try number 0
2019.01.09 08:12:30   info : element disappeared after trying for 1 times
2019.01.09 08:12:31   info : Current WebDriver Win Count is:: 1
2019.01.09 08:12:31   info : Element found!!
2019.01.09 08:12:31   info : ObjectTag input and ObjectType text
2019.01.09 08:12:31   info : Enter data operation
2019.01.09 08:12:32   info : Xml obj_repo path C:\Talent_Automation_Framework_Backup\Project_Talent/ObjectRepositories/BenefitAsia2_EE/EE_SimpliflexSG_LoginLogout.xml
2019.01.09 08:12:32   info : xpath object successfully mapped!!
2019.01.09 08:12:32   info : xpath object contains property value !!
2019.01.09 08:12:32   info : Property name - xpath
2019.01.09 08:12:32   info : Property value - //input[contains(@id,"_txtUsername")]
2019.01.09 08:12:32   info : Finding xpath element on webpage..
2019.01.09 08:12:32   info : Searching for element. Try number 0
2019.01.09 08:12:33   info : element disappeared after trying for 1 times
2019.01.09 08:12:34   info : Current WebDriver Win Count is:: 1
2019.01.09 08:12:34   info : Element found!!
2019.01.09 08:12:34   info : Xml obj_repo path C:\Talent_Automation_Framework_Backup\Project_Talent/ObjectRepositories/BenefitAsia2_EE/EE_SimpliflexSG_LoginLogout.xml
2019.01.09 08:12:34   info : xpath object successfully mapped!!
2019.01.09 08:12:34   info : xpath object contains property value !!
2019.01.09 08:12:34   info : Property name - xpath
2019.01.09 08:12:34   info : Property value - //input[contains(@id,"_txtUsername")]
2019.01.09 08:12:34   info : Finding xpath element on webpage..
2019.01.09 08:12:34   info : Searching for element. Try number 0
2019.01.09 08:12:35   info : element disappeared after trying for 1 times
2019.01.09 08:12:36   info : Current WebDriver Win Count is:: 1
2019.01.09 08:12:36   info : Element found!!
2019.01.09 08:12:36   info : ValueToEnter Auto_prod_1
2019.01.09 08:12:36   info : Entered value is Auto_prod_1
2019.01.09 08:12:36   info : Attribute entered value Auto_prod_1
2019.01.09 08:12:36   info : Total static wait time 3
2019.01.09 08:12:39   info : Xml obj_repo path C:\Talent_Automation_Framework_Backup\Project_Talent/ObjectRepositories/BenefitAsia2_EE/EE_SimpliflexSG_LoginLogout.xml
2019.01.09 08:12:39   info : xpath object successfully mapped!!
2019.01.09 08:12:39   info : xpath object contains property value !!
2019.01.09 08:12:39   info : Property name - xpath
2019.01.09 08:12:39   info : Property value - //input[contains(@id,"_txtPassword")]
2019.01.09 08:12:39   info : Finding xpath element on webpage..
2019.01.09 08:12:39   info : Searching for element. Try number 0
2019.01.09 08:12:40   info : element disappeared after trying for 1 times
2019.01.09 08:12:41   info : Current WebDriver Win Count is:: 1
2019.01.09 08:12:41   info : Element found!!
2019.01.09 08:12:41   info : ObjectTag input and ObjectType password
2019.01.09 08:12:41   info : Enter data operation
2019.01.09 08:12:41   info : Xml obj_repo path C:\Talent_Automation_Framework_Backup\Project_Talent/ObjectRepositories/BenefitAsia2_EE/EE_SimpliflexSG_LoginLogout.xml
2019.01.09 08:12:41   info : xpath object successfully mapped!!
2019.01.09 08:12:41   info : xpath object contains property value !!
2019.01.09 08:12:41   info : Property name - xpath
2019.01.09 08:12:41   info : Property value - //input[contains(@id,"_txtPassword")]
2019.01.09 08:12:41   info : Finding xpath element on webpage..
2019.01.09 08:12:41   info : Searching for element. Try number 0
2019.01.09 08:12:42   info : element disappeared after trying for 1 times
2019.01.09 08:12:43   info : Current WebDriver Win Count is:: 1
2019.01.09 08:12:43   info : Element found!!
2019.01.09 08:12:43   info : ValueToEnter Password@123
2019.01.09 08:12:44   info : Entered value is Password@123
2019.01.09 08:12:44   info : Attribute entered value Password@123
2019.01.09 08:12:44   info : Checking for object in click
2019.01.09 08:12:44   info : Xml obj_repo path C:\Talent_Automation_Framework_Backup\Project_Talent/ObjectRepositories/BenefitAsia2_EE/EE_SimpliflexSG_LoginLogout.xml
2019.01.09 08:12:44   info : xpath object successfully mapped!!
2019.01.09 08:12:44   info : xpath object contains property value !!
2019.01.09 08:12:44   info : Property name - xpath
2019.01.09 08:12:44   info : Property value - //input[contains(@id,"_cmdLogin")]
2019.01.09 08:12:44   info : Finding xpath element on webpage..
2019.01.09 08:12:44   info : Searching for element. Try number 0
2019.01.09 08:12:45   info : element disappeared after trying for 1 times
2019.01.09 08:12:46   info : Current WebDriver Win Count is:: 1
2019.01.09 08:12:46   info : Element found!!
2019.01.09 08:12:46   info : Xml obj_repo path C:\Talent_Automation_Framework_Backup\Project_Talent/ObjectRepositories/BenefitAsia2_EE/EE_SimpliflexSG_LoginLogout.xml
2019.01.09 08:12:46   info : xpath object successfully mapped!!
2019.01.09 08:12:46   info : xpath object contains property value !!
2019.01.09 08:12:46   info : Property name - xpath
2019.01.09 08:12:46   info : Property value - //input[contains(@id,"_cmdLogin")]
2019.01.09 08:12:46   info : Finding xpath element on webpage..
2019.01.09 08:12:46   info : Searching for element. Try number 0
2019.01.09 08:12:47   info : element disappeared after trying for 1 times
2019.01.09 08:12:48   info : Current WebDriver Win Count is:: 1
2019.01.09 08:12:48   info : Element found!!
2019.01.09 08:12:57   info : clicked on LoginButton
2019.01.09 08:12:58   info : Current WebDriver Win Count is:: 1
2019.01.09 08:12:59   info : restult status : 1
2019.01.09 08:12:59   info : Test ID Sanity : previous test step/row 2 status is Passed and value of next test step/row is :: 3
2019.01.09 08:12:59   info : 

2019.01.09 08:12:59   info : -------------------- Executing Testcase ID Sanity and test step : 3 ---------------------- 
2019.01.09 08:13:00   info : Current WebDriver Win Count is:: 1
2019.01.09 08:13:00   info : Xml obj_repo path C:\Talent_Automation_Framework_Backup\Project_Talent/ObjectRepositories/BenefitAsia2_EE/EE_SimpliflexSG_Home.xml
2019.01.09 08:13:00   info : Title in xml file - SimpliflexSG > Home
2019.01.09 08:13:00   info : Title of the page after - switching window To: SimpliflexSG > Home
2019.01.09 08:13:00   info : Desired window is activated!!
2019.01.09 08:13:00   info : page object present in excel : 1
2019.01.09 08:13:00   info : Under single object handle operation!!
2019.01.09 08:13:00   info : col 6 data :  and col 5 data : CreateNewClaim
2019.01.09 08:13:00   info : Normal click operation !!
2019.01.09 08:13:00   info : Checking for object in click
2019.01.09 08:13:00   info : Xml obj_repo path C:\Talent_Automation_Framework_Backup\Project_Talent/ObjectRepositories/BenefitAsia2_EE/EE_SimpliflexSG_Home.xml
2019.01.09 08:13:00   info : xpath object successfully mapped!!
2019.01.09 08:13:00   info : xpath object contains property value !!
2019.01.09 08:13:00   info : Property name - xpath
2019.01.09 08:13:00   info : Property value - //a[contains(@id,"_BA2DashBoard_SUBMITCLAIM")]
2019.01.09 08:13:00   info : Finding xpath element on webpage..
2019.01.09 08:13:00   info : Searching for element. Try number 0
2019.01.09 08:13:01   info : element disappeared after trying for 1 times
2019.01.09 08:13:02   info : Current WebDriver Win Count is:: 1
2019.01.09 08:13:02   info : Element found!!
2019.01.09 08:13:02   info : Xml obj_repo path C:\Talent_Automation_Framework_Backup\Project_Talent/ObjectRepositories/BenefitAsia2_EE/EE_SimpliflexSG_Home.xml
2019.01.09 08:13:02   info : xpath object successfully mapped!!
2019.01.09 08:13:02   info : xpath object contains property value !!
2019.01.09 08:13:02   info : Property name - xpath
2019.01.09 08:13:02   info : Property value - //a[contains(@id,"_BA2DashBoard_SUBMITCLAIM")]
2019.01.09 08:13:02   info : Finding xpath element on webpage..
2019.01.09 08:13:02   info : Searching for element. Try number 0
2019.01.09 08:13:03   info : element disappeared after trying for 1 times
2019.01.09 08:13:04   info : Current WebDriver Win Count is:: 1
2019.01.09 08:13:04   info : Element found!!
2019.01.09 08:13:10   info : clicked on CreateNewClaim
2019.01.09 08:13:11   info : Current WebDriver Win Count is:: 1
2019.01.09 08:13:11   info : restult status : 1
2019.01.09 08:13:11   info : Test ID Sanity : previous test step/row 3 status is Passed and value of next test step/row is :: 4
2019.01.09 08:13:11   info : 

2019.01.09 08:13:11   info : -------------------- Executing Testcase ID Sanity and test step : 4 ---------------------- 
2019.01.09 08:13:12   info : Current WebDriver Win Count is:: 1
2019.01.09 08:13:12   info : Xml obj_repo path C:\Talent_Automation_Framework_Backup\Project_Talent/ObjectRepositories/BenefitAsia2_EE/EE_SimpliflexSG_Claims.xml
2019.01.09 08:13:12   info : Title in xml file - Create New Claim
2019.01.09 08:13:12   info : Title of the page after - switching window To: Create New Claim
2019.01.09 08:13:12   info : Desired window is activated!!
2019.01.09 08:13:12   info : Total static wait time 3
2019.01.09 08:13:15   info : Xml obj_repo path C:\Talent_Automation_Framework_Backup\Project_Talent/ObjectRepositories/BenefitAsia2_EE/EE_SimpliflexSG_Claims.xml
2019.01.09 08:13:15   info : xpath object successfully mapped!!
2019.01.09 08:13:15   info : xpath object contains property value !!
2019.01.09 08:13:15   info : Property name - xpath
2019.01.09 08:13:15   info : Property value - //*[contains(@id,"_ClaimsSubmit_ClaimSubmitControlV2_lstClaimItemName")]
2019.01.09 08:13:15   info : Finding xpath element on webpage..
2019.01.09 08:13:15   info : Searching for element. Try number 0
2019.01.09 08:13:15   info : element disappeared after trying for 1 times
2019.01.09 08:13:16   info : Current WebDriver Win Count is:: 1
2019.01.09 08:13:16   info : Element found!!
2019.01.09 08:13:16   info : ObjectTag select and ObjectType null
2019.01.09 08:13:16   info : select combobox operation 
2019.01.09 08:13:16   info : Xml obj_repo path C:\Talent_Automation_Framework_Backup\Project_Talent/ObjectRepositories/BenefitAsia2_EE/EE_SimpliflexSG_Claims.xml
2019.01.09 08:13:16   info : xpath object successfully mapped!!
2019.01.09 08:13:16   info : xpath object contains property value !!
2019.01.09 08:13:16   info : Property name - xpath
2019.01.09 08:13:16   info : Property value - //*[contains(@id,"_ClaimsSubmit_ClaimSubmitControlV2_lstClaimItemName")]
2019.01.09 08:13:16   info : Finding xpath element on webpage..
2019.01.09 08:13:16   info : Searching for element. Try number 0
2019.01.09 08:13:16   info : element disappeared after trying for 1 times
2019.01.09 08:13:17   info : Current WebDriver Win Count is:: 1
2019.01.09 08:13:17   info : Element found!!
2019.01.09 08:13:17   info : Xml obj_repo path C:\Talent_Automation_Framework_Backup\Project_Talent/ObjectRepositories/BenefitAsia2_EE/EE_SimpliflexSG_Claims.xml
2019.01.09 08:13:17   info : xpath object successfully mapped!!
2019.01.09 08:13:17   info : xpath object contains property value !!
2019.01.09 08:13:17   info : Property name - xpath
2019.01.09 08:13:17   info : Property value - //*[contains(@id,"_ClaimsSubmit_ClaimSubmitControlV2_lstClaimItemName")]
2019.01.09 08:13:17   info : Finding xpath element on webpage..
2019.01.09 08:13:17   info : Element found!!
2019.01.09 08:13:18   info :    Health screening expenses for employees & dependants value selected!!
2019.01.09 08:13:23   info : Alert is not present
2019.01.09 08:13:23   info : Total static wait time 3
2019.01.09 08:13:26   info : Xml obj_repo path C:\Talent_Automation_Framework_Backup\Project_Talent/ObjectRepositories/BenefitAsia2_EE/EE_SimpliflexSG_Claims.xml
2019.01.09 08:13:26   info : xpath object successfully mapped!!
2019.01.09 08:13:26   info : xpath object contains property value !!
2019.01.09 08:13:26   info : Property name - xpath
2019.01.09 08:13:26   info : Property value - //*[contains(@id,"_ClaimsSubmit_ClaimSubmitControlV2_txtProviderName")]
2019.01.09 08:13:26   info : Finding xpath element on webpage..
2019.01.09 08:13:26   info : Searching for element. Try number 0
2019.01.09 08:13:26   info : element disappeared after trying for 1 times
2019.01.09 08:13:27   info : Current WebDriver Win Count is:: 1
2019.01.09 08:13:27   info : Element found!!
2019.01.09 08:13:27   info : ObjectTag input and ObjectType text
2019.01.09 08:13:27   info : Enter data operation
2019.01.09 08:13:27   info : Xml obj_repo path C:\Talent_Automation_Framework_Backup\Project_Talent/ObjectRepositories/BenefitAsia2_EE/EE_SimpliflexSG_Claims.xml
2019.01.09 08:13:27   info : xpath object successfully mapped!!
2019.01.09 08:13:27   info : xpath object contains property value !!
2019.01.09 08:13:27   info : Property name - xpath
2019.01.09 08:13:27   info : Property value - //*[contains(@id,"_ClaimsSubmit_ClaimSubmitControlV2_txtProviderName")]
2019.01.09 08:13:27   info : Finding xpath element on webpage..
2019.01.09 08:13:27   info : Searching for element. Try number 0
2019.01.09 08:13:27   info : element disappeared after trying for 1 times
2019.01.09 08:13:28   info : Current WebDriver Win Count is:: 1
2019.01.09 08:13:28   info : Element found!!
2019.01.09 08:13:28   info : Xml obj_repo path C:\Talent_Automation_Framework_Backup\Project_Talent/ObjectRepositories/BenefitAsia2_EE/EE_SimpliflexSG_Claims.xml
2019.01.09 08:13:28   info : xpath object successfully mapped!!
2019.01.09 08:13:28   info : xpath object contains property value !!
2019.01.09 08:13:28   info : Property name - xpath
2019.01.09 08:13:28   info : Property value - //*[contains(@id,"_ClaimsSubmit_ClaimSubmitControlV2_txtProviderName")]
2019.01.09 08:13:28   info : Finding xpath element on webpage..
2019.01.09 08:13:28   info : Searching for element. Try number 0
2019.01.09 08:13:28   info : element disappeared after trying for 1 times
2019.01.09 08:13:29   info : Current WebDriver Win Count is:: 1
2019.01.09 08:13:30   info : Element found!!
2019.01.09 08:13:30   info : ValueToEnter fortis
2019.01.09 08:13:30   info : Entered value is fortis
2019.01.09 08:13:30   info : Attribute entered value fortis
2019.01.09 08:13:30   info : Total static wait time 3
2019.01.09 08:13:33   info : Xml obj_repo path C:\Talent_Automation_Framework_Backup\Project_Talent/ObjectRepositories/BenefitAsia2_EE/EE_SimpliflexSG_Claims.xml
2019.01.09 08:13:33   info : xpath object successfully mapped!!
2019.01.09 08:13:33   info : xpath object contains property value !!
2019.01.09 08:13:33   info : Property name - xpath
2019.01.09 08:13:33   info : Property value - //input[contains(@id,"_ClaimsSubmit_ClaimSubmitControlV2_txtReceiptDate")]
2019.01.09 08:13:33   info : Finding xpath element on webpage..
2019.01.09 08:13:33   info : Searching for element. Try number 0
2019.01.09 08:13:33   info : element disappeared after trying for 1 times
2019.01.09 08:13:34   info : Current WebDriver Win Count is:: 1
