2019.01.04 12:36:20   info : Selenium version :: 2.48.2
2019.01.04 12:36:20   info : Download fodler path created!!
2019.01.04 12:36:20   info : date_time_down_folder C:\Talent_Automation_Framework_Backup\Project_Talent\Downloads\2019_01_04\time_12_36_20\
2019.01.04 12:36:21   info : Total number of applications :: 4
2019.01.04 12:36:21   info : Application Name - TestCase_Simpli
2019.01.04 12:36:21   info : TestData_Sheet path:: C:\Talent_Automation_Framework_Backup\Project_Talent/TestCases/TestCase_Simpli.xlsx
2019.01.04 12:36:21   info : CSV updating and creating dump....
2019.01.04 12:36:22   info : Sheet name: Scenarios
2019.01.04 12:36:22   info : Sheet name: TestCaseScheduler
2019.01.04 12:36:22   info : Sheet name: Test Case
2019.01.04 12:36:22   info : TestCase_Simpli sheetname found!!
2019.01.04 12:36:22   info : Total row 379
2019.01.04 12:36:22   info : After row validation for blank or null!!
2019.01.04 12:36:22   info : Total final row 378
2019.01.04 12:36:22   info : Total number of test cases to be executed :: 1
2019.01.04 12:36:22   info : PrevTestID - null == null && row 24<= 378
2019.01.04 12:36:22   info : Test ID TC2 : previous test step/row 23 status is Passed and value of next test step/row is :: 24
2019.01.04 12:36:22   info : 

2019.01.04 12:36:22   info : -------------------- Executing Testcase ID TC2 and test step : 24 ---------------------- 
2019.01.04 12:36:22   info : please wait.. browser getting open !!
2019.01.04 12:36:33   info : Opening Application..
2019.01.04 12:36:39   info : Current WebDriver Win Count is:: 1
2019.01.04 12:36:40   info : restult status : 1
2019.01.04 12:36:40   error : java.lang.NullPointerException
2019.01.04 12:36:40   info : Test ID TC2 : previous test step/row 24 status is Passed and value of next test step/row is :: 25
2019.01.04 12:36:40   info : 

2019.01.04 12:36:40   info : -------------------- Executing Testcase ID TC2 and test step : 25 ---------------------- 
2019.01.04 12:36:41   info : Current WebDriver Win Count is:: 1
2019.01.04 12:36:41   info : Xml obj_repo path C:\Talent_Automation_Framework_Backup\Project_Talent/ObjectRepositories/BenefitAsia2_EE/EE_SimpliflexSG_LoginLogout.xml
2019.01.04 12:36:41   info : Title contains null value in xml!!
2019.01.04 12:36:41   info : Window title User Login
2019.01.04 12:36:41   info : Xml obj_repo path C:\Talent_Automation_Framework_Backup\Project_Talent/ObjectRepositories/BenefitAsia2_EE/EE_SimpliflexSG_LoginLogout.xml
2019.01.04 12:36:41   info : xpath object successfully mapped!!
2019.01.04 12:36:41   info : xpath object contains property value !!
2019.01.04 12:36:41   info : Property name - xpath
2019.01.04 12:36:41   info : Property value - //input[contains(@id,"_txtUsername")]
2019.01.04 12:36:41   info : Finding xpath element on webpage..
2019.01.04 12:36:41   info : Searching for element. Try number 0
2019.01.04 12:36:42   info : element disappeared after trying for 1 times
2019.01.04 12:36:43   info : Current WebDriver Win Count is:: 1
2019.01.04 12:36:43   info : Element found!!
2019.01.04 12:36:43   info : Desired window is activated!!
2019.01.04 12:36:43   info : FiledName UserName and FiledValue Simpli_5jan_001
2019.01.04 12:36:43   info : FiledName Password and FiledValue Password123$
2019.01.04 12:36:43   info : Total static wait time 3
2019.01.04 12:36:46   info : Xml obj_repo path C:\Talent_Automation_Framework_Backup\Project_Talent/ObjectRepositories/BenefitAsia2_EE/EE_SimpliflexSG_LoginLogout.xml
2019.01.04 12:36:46   info : xpath object successfully mapped!!
2019.01.04 12:36:46   info : xpath object contains property value !!
2019.01.04 12:36:46   info : Property name - xpath
2019.01.04 12:36:46   info : Property value - //input[contains(@id,"_txtUsername")]
2019.01.04 12:36:46   info : Finding xpath element on webpage..
2019.01.04 12:36:46   info : Searching for element. Try number 0
2019.01.04 12:36:47   info : element disappeared after trying for 1 times
2019.01.04 12:36:48   info : Current WebDriver Win Count is:: 1
2019.01.04 12:36:48   info : Element found!!
2019.01.04 12:36:48   info : ObjectTag input and ObjectType text
2019.01.04 12:36:48   info : Enter data operation
2019.01.04 12:36:49   info : Xml obj_repo path C:\Talent_Automation_Framework_Backup\Project_Talent/ObjectRepositories/BenefitAsia2_EE/EE_SimpliflexSG_LoginLogout.xml
2019.01.04 12:36:49   info : xpath object successfully mapped!!
2019.01.04 12:36:49   info : xpath object contains property value !!
2019.01.04 12:36:49   info : Property name - xpath
2019.01.04 12:36:49   info : Property value - //input[contains(@id,"_txtUsername")]
2019.01.04 12:36:49   info : Finding xpath element on webpage..
2019.01.04 12:36:49   info : Searching for element. Try number 0
2019.01.04 12:36:50   info : element disappeared after trying for 1 times
2019.01.04 12:36:51   info : Current WebDriver Win Count is:: 1
2019.01.04 12:36:51   info : Element found!!
2019.01.04 12:36:51   info : Xml obj_repo path C:\Talent_Automation_Framework_Backup\Project_Talent/ObjectRepositories/BenefitAsia2_EE/EE_SimpliflexSG_LoginLogout.xml
2019.01.04 12:36:51   info : xpath object successfully mapped!!
2019.01.04 12:36:51   info : xpath object contains property value !!
2019.01.04 12:36:51   info : Property name - xpath
2019.01.04 12:36:51   info : Property value - //input[contains(@id,"_txtUsername")]
2019.01.04 12:36:51   info : Finding xpath element on webpage..
2019.01.04 12:36:51   info : Searching for element. Try number 0
2019.01.04 12:36:52   info : element disappeared after trying for 1 times
2019.01.04 12:36:53   info : Current WebDriver Win Count is:: 1
2019.01.04 12:36:53   info : Element found!!
2019.01.04 12:36:53   info : ValueToEnter Simpli_5jan_001
2019.01.04 12:36:53   info : Entered value is Simpli_5jan_001
2019.01.04 12:36:53   info : Attribute entered value Simpli_5jan_001
2019.01.04 12:36:53   info : Total static wait time 3
2019.01.04 12:36:56   info : Xml obj_repo path C:\Talent_Automation_Framework_Backup\Project_Talent/ObjectRepositories/BenefitAsia2_EE/EE_SimpliflexSG_LoginLogout.xml
2019.01.04 12:36:56   info : xpath object successfully mapped!!
2019.01.04 12:36:57   info : xpath object contains property value !!
2019.01.04 12:36:57   info : Property name - xpath
2019.01.04 12:36:57   info : Property value - //input[contains(@id,"_txtPassword")]
2019.01.04 12:36:57   info : Finding xpath element on webpage..
2019.01.04 12:36:57   info : Searching for element. Try number 0
2019.01.04 12:36:58   info : element disappeared after trying for 1 times
2019.01.04 12:36:59   info : Current WebDriver Win Count is:: 1
2019.01.04 12:36:59   info : Element found!!
2019.01.04 12:36:59   info : ObjectTag input and ObjectType password
2019.01.04 12:36:59   info : Enter data operation
2019.01.04 12:36:59   info : Xml obj_repo path C:\Talent_Automation_Framework_Backup\Project_Talent/ObjectRepositories/BenefitAsia2_EE/EE_SimpliflexSG_LoginLogout.xml
2019.01.04 12:36:59   info : xpath object successfully mapped!!
2019.01.04 12:36:59   info : xpath object contains property value !!
2019.01.04 12:36:59   info : Property name - xpath
2019.01.04 12:36:59   info : Property value - //input[contains(@id,"_txtPassword")]
2019.01.04 12:36:59   info : Finding xpath element on webpage..
2019.01.04 12:36:59   info : Searching for element. Try number 0
2019.01.04 12:37:00   info : element disappeared after trying for 1 times
2019.01.04 12:37:01   info : Current WebDriver Win Count is:: 1
2019.01.04 12:37:01   info : Element found!!
2019.01.04 12:37:01   info : ValueToEnter Password123$
2019.01.04 12:37:01   info : Entered value is Password123$
2019.01.04 12:37:01   info : Attribute entered value Password123$
2019.01.04 12:37:01   info : Checking for object in click
2019.01.04 12:37:01   info : Xml obj_repo path C:\Talent_Automation_Framework_Backup\Project_Talent/ObjectRepositories/BenefitAsia2_EE/EE_SimpliflexSG_LoginLogout.xml
2019.01.04 12:37:01   info : xpath object successfully mapped!!
2019.01.04 12:37:01   info : xpath object contains property value !!
2019.01.04 12:37:01   info : Property name - xpath
2019.01.04 12:37:01   info : Property value - //input[contains(@id,"_cmdLogin")]
2019.01.04 12:37:01   info : Finding xpath element on webpage..
2019.01.04 12:37:01   info : Searching for element. Try number 0
2019.01.04 12:37:02   info : element disappeared after trying for 1 times
2019.01.04 12:37:03   info : Current WebDriver Win Count is:: 1
2019.01.04 12:37:03   info : Element found!!
2019.01.04 12:37:03   info : Xml obj_repo path C:\Talent_Automation_Framework_Backup\Project_Talent/ObjectRepositories/BenefitAsia2_EE/EE_SimpliflexSG_LoginLogout.xml
2019.01.04 12:37:03   info : xpath object successfully mapped!!
2019.01.04 12:37:03   info : xpath object contains property value !!
2019.01.04 12:37:03   info : Property name - xpath
2019.01.04 12:37:03   info : Property value - //input[contains(@id,"_cmdLogin")]
2019.01.04 12:37:03   info : Finding xpath element on webpage..
2019.01.04 12:37:03   info : Searching for element. Try number 0
2019.01.04 12:37:04   info : element disappeared after trying for 1 times
2019.01.04 12:37:05   info : Current WebDriver Win Count is:: 1
2019.01.04 12:37:05   info : Element found!!
2019.01.04 12:37:10   info : clicked on LoginButton
2019.01.04 12:37:11   info : Current WebDriver Win Count is:: 1
2019.01.04 12:37:11   info : restult status : 1
2019.01.04 12:37:11   error : java.lang.NullPointerException
2019.01.04 12:37:11   info : Test ID TC2 : previous test step/row 25 status is Passed and value of next test step/row is :: 26
2019.01.04 12:37:11   info : 

2019.01.04 12:37:11   info : -------------------- Executing Testcase ID TC2 and test step : 26 ---------------------- 
2019.01.04 12:37:12   info : Current WebDriver Win Count is:: 1
2019.01.04 12:37:12   info : Xml obj_repo path C:\Talent_Automation_Framework_Backup\Project_Talent/ObjectRepositories/BenefitAsia2_EE/EE_SimpliFlexSG_tabNavigation2.xml
2019.01.04 12:37:12   info : Title in xml file - My Enrollment
2019.01.04 12:37:12   warn : Window is not switched, now trying based on element!!
2019.01.04 12:37:12   info : Window title SimpliflexSG > Home
2019.01.04 12:37:12   info : Xml obj_repo path C:\Talent_Automation_Framework_Backup\Project_Talent/ObjectRepositories/BenefitAsia2_EE/EE_SimpliFlexSG_tabNavigation2.xml
2019.01.04 12:37:12   info : Defined excel object tag is not found in xml!!
2019.01.04 12:37:12   info : size of the element return by xmlreading is 0
2019.01.04 12:37:12   error : java.lang.NullPointerException
2019.01.04 12:37:12   info : page object present in excel : 4
2019.01.04 12:37:12   info : Under multiple object handle operation!!
2019.01.04 12:37:12   info : click operation perfomred!!
2019.01.04 12:37:12   info : textbased operation perfomred!!
2019.01.04 12:37:12   info : 4 operation perfomred!!
2019.01.04 12:37:12   info : Xml obj_repo path C:\Talent_Automation_Framework_Backup\Project_Talent/ObjectRepositories/BenefitAsia2_EE/EE_SimpliFlexSG_tabNavigation2.xml
2019.01.04 12:37:12   info : class object successfully mapped!!
2019.01.04 12:37:12   info : class object contains property value !!
2019.01.04 12:37:12   info : Property name - class
2019.01.04 12:37:12   info : Property value - nav
2019.01.04 12:37:12   info : Finding class element on webpage..
2019.01.04 12:37:12   info : Element found!!
2019.01.04 12:37:12   info : Xml obj_repo path C:\Talent_Automation_Framework_Backup\Project_Talent/ObjectRepositories/BenefitAsia2_EE/EE_SimpliFlexSG_tabNavigation2.xml
2019.01.04 12:37:12   info : tagname object successfully mapped!!
2019.01.04 12:37:12   info : tagname object contains property value !!
2019.01.04 12:37:12   info : Property name - tagname
2019.01.04 12:37:12   info : Property value - li
2019.01.04 12:37:12   info : Finding tagname element on webpage..
2019.01.04 12:37:12   info : Element found!!
2019.01.04 12:37:12   info : Xml obj_repo path C:\Talent_Automation_Framework_Backup\Project_Talent/ObjectRepositories/BenefitAsia2_EE/EE_SimpliFlexSG_tabNavigation2.xml
2019.01.04 12:37:12   info : tagname object successfully mapped!!
2019.01.04 12:37:12   info : tagname object contains property value !!
2019.01.04 12:37:12   info : Property name - tagname
2019.01.04 12:37:12   info : Property value - a
2019.01.04 12:37:12   info : Finding tagname element on webpage..
2019.01.04 12:37:12   info : Element found!!
2019.01.04 12:37:12   info : Xml obj_repo path C:\Talent_Automation_Framework_Backup\Project_Talent/ObjectRepositories/BenefitAsia2_EE/EE_SimpliFlexSG_tabNavigation2.xml
2019.01.04 12:37:12   info : tagname object successfully mapped!!
2019.01.04 12:37:12   info : tagname object contains property value !!
2019.01.04 12:37:12   info : Property name - tagname
2019.01.04 12:37:12   info : Property value - span
2019.01.04 12:37:12   info : Finding tagname element on webpage..
2019.01.04 12:37:12   info : Element found!!
2019.01.04 12:37:12   info : Size of element 6
2019.01.04 12:37:12   info : actData Home
2019.01.04 12:37:12   info : actData Start Enrollment
2019.01.04 12:37:16   info : Current WebDriver Win Count is:: 1
2019.01.04 12:37:16   info : restult status : 1
2019.01.04 12:37:16   error : java.lang.NullPointerException
2019.01.04 12:37:16   info : Test ID TC2 : previous test step/row 26 status is Passed and value of next test step/row is :: 27
2019.01.04 12:37:16   info : 

2019.01.04 12:37:16   info : -------------------- Executing Testcase ID TC2 and test step : 27 ---------------------- 
2019.01.04 12:37:17   info : Current WebDriver Win Count is:: 1
2019.01.04 12:37:17   info : Xml obj_repo path C:\Talent_Automation_Framework_Backup\Project_Talent/ObjectRepositories/BenefitAsia2_EE/EE_SimpliflexSG_Enrolment.xml
2019.01.04 12:37:17   info : Title in xml file - MyEnrollment
2019.01.04 12:37:17   warn : Window is not switched, now trying based on element!!
2019.01.04 12:37:17   info : Window title My Enrollment
2019.01.04 12:37:17   info : Xml obj_repo path C:\Talent_Automation_Framework_Backup\Project_Talent/ObjectRepositories/BenefitAsia2_EE/EE_SimpliflexSG_Enrolment.xml
2019.01.04 12:37:17   info : xpath object successfully mapped!!
2019.01.04 12:37:17   info : xpath object contains property value !!
2019.01.04 12:37:17   info : Property name - xpath
2019.01.04 12:37:17   info : Property value - //input[contains(@id,"_Introduction_v2_btnNextNew")]
2019.01.04 12:37:17   info : Finding xpath element on webpage..
2019.01.04 12:37:17   info : Searching for element. Try number 0
2019.01.04 12:37:18   info : element disappeared after trying for 1 times
2019.01.04 12:37:19   info : Current WebDriver Win Count is:: 1
2019.01.04 12:37:19   info : Element found!!
2019.01.04 12:37:19   info : Desired window is activated!!
2019.01.04 12:37:19   info : page object present in excel : 1
2019.01.04 12:37:19   info : Under single object handle operation!!
2019.01.04 12:37:19   info : col 6 data :  and col 5 data : Next
2019.01.04 12:37:19   info : Normal click operation !!
2019.01.04 12:37:19   info : Checking for object in click
2019.01.04 12:37:19   info : Xml obj_repo path C:\Talent_Automation_Framework_Backup\Project_Talent/ObjectRepositories/BenefitAsia2_EE/EE_SimpliflexSG_Enrolment.xml
2019.01.04 12:37:19   info : xpath object successfully mapped!!
2019.01.04 12:37:19   info : xpath object contains property value !!
2019.01.04 12:37:19   info : Property name - xpath
2019.01.04 12:37:19   info : Property value - //input[contains(@id,"_Introduction_v2_btnNextNew")]
2019.01.04 12:37:19   info : Finding xpath element on webpage..
2019.01.04 12:37:19   info : Searching for element. Try number 0
2019.01.04 12:37:20   info : element disappeared after trying for 1 times
2019.01.04 12:37:21   info : Current WebDriver Win Count is:: 1
2019.01.04 12:37:21   info : Element found!!
2019.01.04 12:37:21   info : Xml obj_repo path C:\Talent_Automation_Framework_Backup\Project_Talent/ObjectRepositories/BenefitAsia2_EE/EE_SimpliflexSG_Enrolment.xml
2019.01.04 12:37:21   info : xpath object successfully mapped!!
2019.01.04 12:37:21   info : xpath object contains property value !!
2019.01.04 12:37:21   info : Property name - xpath
2019.01.04 12:37:21   info : Property value - //input[contains(@id,"_Introduction_v2_btnNextNew")]
2019.01.04 12:37:21   info : Finding xpath element on webpage..
2019.01.04 12:37:21   info : Searching for element. Try number 0
2019.01.04 12:37:22   info : element disappeared after trying for 1 times
2019.01.04 12:37:23   info : Current WebDriver Win Count is:: 1
2019.01.04 12:37:23   info : Element found!!
2019.01.04 12:37:26   info : clicked on Next
2019.01.04 12:37:27   info : Current WebDriver Win Count is:: 1
2019.01.04 12:37:27   info : restult status : 1
2019.01.04 12:37:27   error : java.lang.NullPointerException
2019.01.04 12:37:27   info : Test ID TC2 : previous test step/row 27 status is Passed and value of next test step/row is :: 28
2019.01.04 12:37:27   info : 

2019.01.04 12:37:27   info : -------------------- Executing Testcase ID TC2 and test step : 28 ---------------------- 
2019.01.04 12:37:28   info : Current WebDriver Win Count is:: 1
2019.01.04 12:37:28   info : page object present in excel : 1
2019.01.04 12:37:28   info : Under single object handle operation!!
2019.01.04 12:37:28   info : col 6 data :  and col 5 data : StartEnrollmentButton
2019.01.04 12:37:28   info : Normal click operation !!
2019.01.04 12:37:28   info : Checking for object in click
2019.01.04 12:37:28   info : Xml obj_repo path C:\Talent_Automation_Framework_Backup\Project_Talent/ObjectRepositories/BenefitAsia2_EE/EE_SimpliflexSG_Enrolment.xml
2019.01.04 12:37:28   info : xpath object successfully mapped!!
2019.01.04 12:37:28   info : xpath object contains property value !!
2019.01.04 12:37:28   info : Property name - xpath
2019.01.04 12:37:28   info : Property value - //input[contains(@id,"_Introduction_v2_btnStartNew")]
2019.01.04 12:37:28   info : Finding xpath element on webpage..
2019.01.04 12:37:28   info : Searching for element. Try number 0
2019.01.04 12:37:29   info : element disappeared after trying for 1 times
2019.01.04 12:37:30   info : Current WebDriver Win Count is:: 1
2019.01.04 12:37:30   info : Element found!!
2019.01.04 12:37:30   info : Xml obj_repo path C:\Talent_Automation_Framework_Backup\Project_Talent/ObjectRepositories/BenefitAsia2_EE/EE_SimpliflexSG_Enrolment.xml
2019.01.04 12:37:30   info : xpath object successfully mapped!!
2019.01.04 12:37:30   info : xpath object contains property value !!
2019.01.04 12:37:30   info : Property name - xpath
2019.01.04 12:37:30   info : Property value - //input[contains(@id,"_Introduction_v2_btnStartNew")]
2019.01.04 12:37:30   info : Finding xpath element on webpage..
2019.01.04 12:37:30   info : Searching for element. Try number 0
2019.01.04 12:37:31   info : element disappeared after trying for 1 times
2019.01.04 12:37:32   info : Current WebDriver Win Count is:: 1
2019.01.04 12:37:32   info : Element found!!
2019.01.04 12:37:32   info : clicked on StartEnrollmentButton
2019.01.04 12:37:33   info : Current WebDriver Win Count is:: 1
2019.01.04 12:37:33   info : restult status : 1
2019.01.04 12:37:33   error : java.lang.NullPointerException
2019.01.04 12:37:33   info : Test ID TC2 : previous test step/row 28 status is Passed and value of next test step/row is :: 29
2019.01.04 12:37:33   info : 

2019.01.04 12:37:33   info : -------------------- Executing Testcase ID TC2 and test step : 29 ---------------------- 
2019.01.04 12:37:34   info : Current WebDriver Win Count is:: 1
2019.01.04 12:37:34   info : page object present in excel : 1
2019.01.04 12:37:34   info : Under single object handle operation!!
2019.01.04 12:37:34   info : col 6 data : javascript_click and col 5 data : AcknowledgeBeginButton
2019.01.04 12:37:34   info : Click case operation !!
2019.01.04 12:37:34   info : oprnm javascript_click
2019.01.04 12:37:34   info : click javascript_click operation perfomred!!
2019.01.04 12:37:34   info : Xml obj_repo path C:\Talent_Automation_Framework_Backup\Project_Talent/ObjectRepositories/BenefitAsia2_EE/EE_SimpliflexSG_Enrolment.xml
2019.01.04 12:37:34   info : xpath object successfully mapped!!
2019.01.04 12:37:34   info : xpath object contains property value !!
2019.01.04 12:37:34   info : Property name - xpath
2019.01.04 12:37:34   info : Property value - //*[contains(@id,"_Introduction_v2_btnBegin")]
2019.01.04 12:37:34   info : Finding xpath element on webpage..
2019.01.04 12:37:34   info : Searching for element. Try number 0
2019.01.04 12:37:35   info : element disappeared after trying for 1 times
2019.01.04 12:37:36   info : Current WebDriver Win Count is:: 1
2019.01.04 12:37:37   info : Element found!!
2019.01.04 12:37:38   info : Current WebDriver Win Count is:: 1
2019.01.04 12:37:43   info : restult status : 1
2019.01.04 12:37:43   error : java.lang.NullPointerException
2019.01.04 12:37:43   info : Test ID TC2 : previous test step/row 29 status is Passed and value of next test step/row is :: 30
2019.01.04 12:37:43   info : 

2019.01.04 12:37:43   info : -------------------- Executing Testcase ID TC2 and test step : 30 ---------------------- 
2019.01.04 12:37:44   info : Current WebDriver Win Count is:: 1
2019.01.04 12:37:44   info : Xml obj_repo path C:\Talent_Automation_Framework_Backup\Project_Talent/ObjectRepositories/BenefitAsia2_EE/EE_SimpliflexSG_Enrolment.xml
2019.01.04 12:37:44   info : xpath object successfully mapped!!
2019.01.04 12:37:44   info : xpath object contains property value !!
2019.01.04 12:37:44   info : Property name - xpath
2019.01.04 12:37:44   info : Property value - //*[contains(@id,"_EnrolmentSelection_FlexPointsNew_hlFlexPointsAllocationDetailsNew")]
2019.01.04 12:37:44   info : Finding xpath element on webpage..
2019.01.04 12:37:44   info : Searching for element. Try number 0
2019.01.04 12:37:45   info : element disappeared after trying for 1 times
2019.01.04 12:37:46   info : Current WebDriver Win Count is:: 1
2019.01.04 12:37:46   info : Element found!!
2019.01.04 12:37:46   info : ObjectTag a and ObjectType null
2019.01.04 12:37:46   info : Exp_value 0
2019.01.04 12:37:46   info : Searching for element. Try number 0
2019.01.04 12:37:47   info : element disappeared after trying for 1 times
2019.01.04 12:37:47   info : Actual Value2,528.00
2019.01.04 12:37:47   info : Exp : 0 and act : 2,528.00 value not matched!!
2019.01.04 12:37:48   info : Current WebDriver Win Count is:: 1
2019.01.04 12:37:48   info : restult status : 2
2019.01.04 12:37:48   error : java.lang.NullPointerException
2019.01.04 12:37:48   info : Test ID TC2 : previous test step/row 30 status is Failed and value of next test step/row is :: 31
2019.01.04 12:37:48   info : 

2019.01.04 12:37:48   info : -------------------- Executing Testcase ID TC2 and test step : 31 ---------------------- 
2019.01.04 12:37:49   info : Current WebDriver Win Count is:: 1
2019.01.04 12:37:49   info : page object present in excel : 1
2019.01.04 12:37:49   info : Under single object handle operation!!
2019.01.04 12:37:49   info : col 6 data :  and col 5 data : P2_Link_Local_GH
2019.01.04 12:37:49   info : Normal click operation !!
2019.01.04 12:37:49   info : Checking for object in click
2019.01.04 12:37:49   info : Xml obj_repo path C:\Talent_Automation_Framework_Backup\Project_Talent/ObjectRepositories/BenefitAsia2_EE/EE_SimpliflexSG_Enrolment.xml
2019.01.04 12:37:49   info : Defined excel object tag is not found in xml!!
2019.01.04 12:37:49   info : size of the element return by xmlreading is 0
2019.01.04 12:37:49   info : Xml obj_repo path C:\Talent_Automation_Framework_Backup\Project_Talent/ObjectRepositories/BenefitAsia2_EE/EE_SimpliflexSG_Enrolment.xml
2019.01.04 12:37:49   info : Defined excel object tag is not found in xml!!
2019.01.04 12:37:49   info : size of the element return by xmlreading is 0
2019.01.04 12:37:49   warn : exceptionHandler called!!
2019.01.04 12:37:50   info : Current WebDriver Win Count is:: 1
2019.01.04 12:37:50   error : java.lang.NullPointerException
2019.01.04 12:37:50   error : java.lang.NullPointerException
2019.01.04 12:37:50   info : Test ID TC2 : previous test step/row 31 status is Failed and value of next test step/row is :: 32
2019.01.04 12:37:50   info : 

2019.01.04 12:37:50   info : -------------------- Executing Testcase ID TC2 and test step : 32 ---------------------- 
2019.01.04 12:37:52   info : Current WebDriver Win Count is:: 1
2019.01.04 12:37:52   info : Total static wait time 3
2019.01.04 12:37:55   info : Xml obj_repo path C:\Talent_Automation_Framework_Backup\Project_Talent/ObjectRepositories/BenefitAsia2_EE/EE_SimpliflexSG_Enrolment.xml
2019.01.04 12:37:55   info : Defined excel object tag is not found in xml!!
2019.01.04 12:37:55   info : size of the element return by xmlreading is 0
2019.01.04 12:37:55   warn : exceptionHandler called!!
2019.01.04 12:37:56   info : Current WebDriver Win Count is:: 1
2019.01.04 12:37:56   error : java.lang.NullPointerException
2019.01.04 12:37:56   error : java.lang.NullPointerException
2019.01.04 12:37:56   info : Test ID TC2 : previous test step/row 32 status is Failed and value of next test step/row is :: 33
2019.01.04 12:37:56   info : 

2019.01.04 12:37:56   info : -------------------- Executing Testcase ID TC2 and test step : 33 ---------------------- 
