2019.01.04 12:22:13   info : Selenium version :: 2.48.2
2019.01.04 12:22:13   info : Download fodler path created!!
2019.01.04 12:22:13   info : date_time_down_folder C:\Talent_Automation_Framework_Backup\Project_Talent\Downloads\2019_01_04\time_12_22_13\
2019.01.04 12:22:14   info : Total number of applications :: 4
2019.01.04 12:22:14   info : Application Name - TestCase_Simpli
2019.01.04 12:22:14   info : TestData_Sheet path:: C:\Talent_Automation_Framework_Backup\Project_Talent/TestCases/TestCase_Simpli.xlsx
2019.01.04 12:22:14   info : CSV updating and creating dump....
2019.01.04 12:22:15   info : Sheet name: Scenarios
2019.01.04 12:22:15   info : Sheet name: TestCaseScheduler
2019.01.04 12:22:15   info : Sheet name: Test Case
2019.01.04 12:22:15   info : TestCase_Simpli sheetname found!!
2019.01.04 12:22:15   info : Total row 379
2019.01.04 12:22:15   info : After row validation for blank or null!!
2019.01.04 12:22:15   info : Total final row 378
2019.01.04 12:22:15   info : Total number of test cases to be executed :: 1
2019.01.04 12:22:15   info : PrevTestID - null == null && row 24<= 378
2019.01.04 12:22:15   info : Test ID TC2 : previous test step/row 23 status is Passed and value of next test step/row is :: 24
2019.01.04 12:22:15   info : 

2019.01.04 12:22:15   info : -------------------- Executing Testcase ID TC2 and test step : 24 ---------------------- 
2019.01.04 12:22:15   info : please wait.. browser getting open !!
2019.01.04 12:22:26   info : Opening Application..
2019.01.04 12:22:42   info : Current WebDriver Win Count is:: 1
2019.01.04 12:22:42   info : restult status : 1
2019.01.04 12:22:43   error : java.lang.NullPointerException
2019.01.04 12:22:43   info : Test ID TC2 : previous test step/row 24 status is Passed and value of next test step/row is :: 25
2019.01.04 12:22:43   info : 

2019.01.04 12:22:43   info : -------------------- Executing Testcase ID TC2 and test step : 25 ---------------------- 
2019.01.04 12:22:44   info : Current WebDriver Win Count is:: 1
2019.01.04 12:22:44   info : Xml obj_repo path C:\Talent_Automation_Framework_Backup\Project_Talent/ObjectRepositories/BenefitAsia2_EE/EE_SimpliflexSG_LoginLogout.xml
2019.01.04 12:22:44   info : Title contains null value in xml!!
2019.01.04 12:22:44   info : Window title User Login
2019.01.04 12:22:44   info : Xml obj_repo path C:\Talent_Automation_Framework_Backup\Project_Talent/ObjectRepositories/BenefitAsia2_EE/EE_SimpliflexSG_LoginLogout.xml
2019.01.04 12:22:44   info : xpath object successfully mapped!!
2019.01.04 12:22:44   info : xpath object contains property value !!
2019.01.04 12:22:44   info : Property name - xpath
2019.01.04 12:22:44   info : Property value - //input[contains(@id,"_txtUsername")]
2019.01.04 12:22:44   info : Finding xpath element on webpage..
2019.01.04 12:22:44   info : Searching for element. Try number 0
2019.01.04 12:22:45   info : element disappeared after trying for 1 times
2019.01.04 12:22:46   info : Current WebDriver Win Count is:: 1
2019.01.04 12:22:46   info : Element found!!
2019.01.04 12:22:46   info : Desired window is activated!!
2019.01.04 12:22:46   info : FiledName UserName and FiledValue Simpli_5jan_001
2019.01.04 12:22:46   info : FiledName Password and FiledValue #REF!
2019.01.04 12:22:46   info : Total static wait time 3
2019.01.04 12:22:49   info : Xml obj_repo path C:\Talent_Automation_Framework_Backup\Project_Talent/ObjectRepositories/BenefitAsia2_EE/EE_SimpliflexSG_LoginLogout.xml
2019.01.04 12:22:49   info : xpath object successfully mapped!!
2019.01.04 12:22:49   info : xpath object contains property value !!
2019.01.04 12:22:49   info : Property name - xpath
2019.01.04 12:22:49   info : Property value - //input[contains(@id,"_txtUsername")]
2019.01.04 12:22:49   info : Finding xpath element on webpage..
2019.01.04 12:22:49   info : Searching for element. Try number 0
2019.01.04 12:22:50   info : element disappeared after trying for 1 times
2019.01.04 12:22:51   info : Current WebDriver Win Count is:: 1
2019.01.04 12:22:51   info : Element found!!
2019.01.04 12:22:51   info : ObjectTag input and ObjectType text
2019.01.04 12:22:51   info : Enter data operation
2019.01.04 12:22:52   info : Xml obj_repo path C:\Talent_Automation_Framework_Backup\Project_Talent/ObjectRepositories/BenefitAsia2_EE/EE_SimpliflexSG_LoginLogout.xml
2019.01.04 12:22:52   info : xpath object successfully mapped!!
2019.01.04 12:22:52   info : xpath object contains property value !!
2019.01.04 12:22:52   info : Property name - xpath
2019.01.04 12:22:52   info : Property value - //input[contains(@id,"_txtUsername")]
2019.01.04 12:22:52   info : Finding xpath element on webpage..
2019.01.04 12:22:52   info : Searching for element. Try number 0
2019.01.04 12:22:53   info : element disappeared after trying for 1 times
2019.01.04 12:22:54   info : Current WebDriver Win Count is:: 1
2019.01.04 12:22:54   info : Element found!!
2019.01.04 12:22:54   info : Xml obj_repo path C:\Talent_Automation_Framework_Backup\Project_Talent/ObjectRepositories/BenefitAsia2_EE/EE_SimpliflexSG_LoginLogout.xml
2019.01.04 12:22:54   info : xpath object successfully mapped!!
2019.01.04 12:22:54   info : xpath object contains property value !!
2019.01.04 12:22:54   info : Property name - xpath
2019.01.04 12:22:54   info : Property value - //input[contains(@id,"_txtUsername")]
2019.01.04 12:22:54   info : Finding xpath element on webpage..
2019.01.04 12:22:54   info : Searching for element. Try number 0
2019.01.04 12:22:55   info : element disappeared after trying for 1 times
2019.01.04 12:22:56   info : Current WebDriver Win Count is:: 1
2019.01.04 12:22:56   info : Element found!!
2019.01.04 12:22:56   info : ValueToEnter Simpli_5jan_001
2019.01.04 12:22:56   info : Entered value is Simpli_5jan_001
2019.01.04 12:22:56   info : Attribute entered value Simpli_5jan_001
2019.01.04 12:22:56   info : Total static wait time 3
2019.01.04 12:22:59   info : Xml obj_repo path C:\Talent_Automation_Framework_Backup\Project_Talent/ObjectRepositories/BenefitAsia2_EE/EE_SimpliflexSG_LoginLogout.xml
2019.01.04 12:22:59   info : xpath object successfully mapped!!
2019.01.04 12:22:59   info : xpath object contains property value !!
2019.01.04 12:22:59   info : Property name - xpath
2019.01.04 12:22:59   info : Property value - //input[contains(@id,"_txtPassword")]
2019.01.04 12:22:59   info : Finding xpath element on webpage..
2019.01.04 12:22:59   info : Searching for element. Try number 0
2019.01.04 12:23:00   info : element disappeared after trying for 1 times
2019.01.04 12:23:01   info : Current WebDriver Win Count is:: 1
2019.01.04 12:23:01   info : Element found!!
2019.01.04 12:23:01   info : ObjectTag input and ObjectType password
2019.01.04 12:23:01   info : Enter data operation
2019.01.04 12:23:01   info : Xml obj_repo path C:\Talent_Automation_Framework_Backup\Project_Talent/ObjectRepositories/BenefitAsia2_EE/EE_SimpliflexSG_LoginLogout.xml
2019.01.04 12:23:01   info : xpath object successfully mapped!!
2019.01.04 12:23:01   info : xpath object contains property value !!
2019.01.04 12:23:01   info : Property name - xpath
2019.01.04 12:23:01   info : Property value - //input[contains(@id,"_txtPassword")]
2019.01.04 12:23:01   info : Finding xpath element on webpage..
2019.01.04 12:23:01   info : Searching for element. Try number 0
2019.01.04 12:23:02   info : element disappeared after trying for 1 times
2019.01.04 12:23:03   info : Current WebDriver Win Count is:: 1
2019.01.04 12:23:03   info : Element found!!
2019.01.04 12:23:03   info : ValueToEnter #REF!
2019.01.04 12:23:03   info : Entered value is #REF!
2019.01.04 12:23:03   info : Attribute entered value #REF!
2019.01.04 12:23:03   info : Checking for object in click
2019.01.04 12:23:03   info : Xml obj_repo path C:\Talent_Automation_Framework_Backup\Project_Talent/ObjectRepositories/BenefitAsia2_EE/EE_SimpliflexSG_LoginLogout.xml
2019.01.04 12:23:03   info : xpath object successfully mapped!!
2019.01.04 12:23:03   info : xpath object contains property value !!
2019.01.04 12:23:03   info : Property name - xpath
2019.01.04 12:23:03   info : Property value - //input[contains(@id,"_cmdLogin")]
2019.01.04 12:23:03   info : Finding xpath element on webpage..
2019.01.04 12:23:03   info : Searching for element. Try number 0
2019.01.04 12:23:05   info : element disappeared after trying for 1 times
2019.01.04 12:23:06   info : Current WebDriver Win Count is:: 1
2019.01.04 12:23:06   info : Element found!!
2019.01.04 12:23:06   info : Xml obj_repo path C:\Talent_Automation_Framework_Backup\Project_Talent/ObjectRepositories/BenefitAsia2_EE/EE_SimpliflexSG_LoginLogout.xml
2019.01.04 12:23:06   info : xpath object successfully mapped!!
2019.01.04 12:23:06   info : xpath object contains property value !!
2019.01.04 12:23:06   info : Property name - xpath
2019.01.04 12:23:06   info : Property value - //input[contains(@id,"_cmdLogin")]
2019.01.04 12:23:06   info : Finding xpath element on webpage..
2019.01.04 12:23:06   info : Searching for element. Try number 0
2019.01.04 12:23:07   info : element disappeared after trying for 1 times
2019.01.04 12:23:08   info : Current WebDriver Win Count is:: 1
2019.01.04 12:23:08   info : Element found!!
2019.01.04 12:23:11   info : clicked on LoginButton
2019.01.04 12:23:12   info : Current WebDriver Win Count is:: 1
2019.01.04 12:23:13   info : restult status : 1
2019.01.04 12:23:13   error : java.lang.NullPointerException
2019.01.04 12:23:13   info : Test ID TC2 : previous test step/row 25 status is Passed and value of next test step/row is :: 26
2019.01.04 12:23:13   info : 

2019.01.04 12:23:13   info : -------------------- Executing Testcase ID TC2 and test step : 26 ---------------------- 
2019.01.04 12:23:14   info : Current WebDriver Win Count is:: 1
2019.01.04 12:23:14   info : Xml obj_repo path C:\Talent_Automation_Framework_Backup\Project_Talent/ObjectRepositories/BenefitAsia2_EE/EE_SimpliFlexSG_tabNavigation2.xml
2019.01.04 12:23:14   info : Title in xml file - My Enrollment
2019.01.04 12:23:14   warn : Window is not switched, now trying based on element!!
2019.01.04 12:23:14   info : Window title User Login
2019.01.04 12:23:14   info : Xml obj_repo path C:\Talent_Automation_Framework_Backup\Project_Talent/ObjectRepositories/BenefitAsia2_EE/EE_SimpliFlexSG_tabNavigation2.xml
2019.01.04 12:23:14   info : Defined excel object tag is not found in xml!!
2019.01.04 12:23:14   info : size of the element return by xmlreading is 0
2019.01.04 12:23:14   error : java.lang.NullPointerException
2019.01.04 12:23:14   info : page object present in excel : 4
2019.01.04 12:23:14   info : Under multiple object handle operation!!
2019.01.04 12:23:14   info : click operation perfomred!!
2019.01.04 12:23:14   info : textbased operation perfomred!!
2019.01.04 12:23:14   info : 4 operation perfomred!!
2019.01.04 12:23:14   info : Xml obj_repo path C:\Talent_Automation_Framework_Backup\Project_Talent/ObjectRepositories/BenefitAsia2_EE/EE_SimpliFlexSG_tabNavigation2.xml
2019.01.04 12:23:14   info : class object successfully mapped!!
2019.01.04 12:23:14   info : class object contains property value !!
2019.01.04 12:23:14   info : Property name - class
2019.01.04 12:23:14   info : Property value - nav
2019.01.04 12:23:14   info : Finding class element on webpage..
2019.01.04 12:23:14   info : Element found!!
2019.01.04 12:23:14   info : Xml obj_repo path C:\Talent_Automation_Framework_Backup\Project_Talent/ObjectRepositories/BenefitAsia2_EE/EE_SimpliFlexSG_tabNavigation2.xml
2019.01.04 12:23:14   info : tagname object successfully mapped!!
2019.01.04 12:23:14   info : tagname object contains property value !!
2019.01.04 12:23:14   info : Property name - tagname
2019.01.04 12:23:14   info : Property value - li
2019.01.04 12:23:14   info : Finding tagname element on webpage..
2019.01.04 12:23:14   info : Element found!!
2019.01.04 12:23:14   info : Xml obj_repo path C:\Talent_Automation_Framework_Backup\Project_Talent/ObjectRepositories/BenefitAsia2_EE/EE_SimpliFlexSG_tabNavigation2.xml
2019.01.04 12:23:14   info : tagname object successfully mapped!!
2019.01.04 12:23:14   info : tagname object contains property value !!
2019.01.04 12:23:14   info : Property name - tagname
2019.01.04 12:23:14   info : Property value - a
2019.01.04 12:23:14   info : Finding tagname element on webpage..
2019.01.04 12:23:14   info : Element found!!
2019.01.04 12:23:14   info : Xml obj_repo path C:\Talent_Automation_Framework_Backup\Project_Talent/ObjectRepositories/BenefitAsia2_EE/EE_SimpliFlexSG_tabNavigation2.xml
2019.01.04 12:23:14   info : tagname object successfully mapped!!
2019.01.04 12:23:14   info : tagname object contains property value !!
2019.01.04 12:23:14   info : Property name - tagname
2019.01.04 12:23:14   info : Property value - span
2019.01.04 12:23:14   info : Finding tagname element on webpage..
2019.01.04 12:23:14   info : Element found!!
2019.01.04 12:23:15   info : Size of element 0
2019.01.04 12:23:15   info : expData Start Enrolmentis not found !!
2019.01.04 12:23:16   info : Current WebDriver Win Count is:: 1
2019.01.04 12:23:17   info : restult status : 2
2019.01.04 12:23:17   error : java.lang.NullPointerException
2019.01.04 12:23:17   info : Test ID TC2 : previous test step/row 26 status is Failed and value of next test step/row is :: 27
2019.01.04 12:23:17   info : Test ID TC2 : previous test step/row 27 status is Failed and value of next test step/row is :: 28
2019.01.04 12:23:17   info : Test ID TC2 : previous test step/row 28 status is Failed and value of next test step/row is :: 29
2019.01.04 12:23:17   info : Test ID TC2 : previous test step/row 29 status is Failed and value of next test step/row is :: 30
2019.01.04 12:23:17   info : Test ID TC2 : previous test step/row 30 status is Failed and value of next test step/row is :: 31
2019.01.04 12:23:17   info : Test ID TC2 : previous test step/row 31 status is Failed and value of next test step/row is :: 32
2019.01.04 12:23:17   info : Test ID TC2 : previous test step/row 32 status is Failed and value of next test step/row is :: 33
2019.01.04 12:23:17   info : Test ID TC2 : previous test step/row 33 status is Failed and value of next test step/row is :: 34
2019.01.04 12:23:17   info : Test ID TC2 : previous test step/row 34 status is Failed and value of next test step/row is :: 35
2019.01.04 12:23:17   info : Test ID TC2 : previous test step/row 35 status is Failed and value of next test step/row is :: 36
2019.01.04 12:23:17   info : Test ID TC2 : previous test step/row 36 status is Failed and value of next test step/row is :: 37
2019.01.04 12:23:17   info : Test ID TC2 : previous test step/row 37 status is Failed and value of next test step/row is :: 38
2019.01.04 12:23:17   info : Test ID TC2 : previous test step/row 38 status is Failed and value of next test step/row is :: 39
2019.01.04 12:23:17   info : Test ID TC2 : previous test step/row 39 status is Failed and value of next test step/row is :: 40
2019.01.04 12:23:17   info : Test ID TC2 : previous test step/row 40 status is Failed and value of next test step/row is :: 41
2019.01.04 12:23:17   info : Test ID TC2 : previous test step/row 41 status is Failed and value of next test step/row is :: 42
2019.01.04 12:23:17   info : Test ID TC2 : previous test step/row 42 status is Failed and value of next test step/row is :: 43
2019.01.04 12:23:17   info : Test ID TC2 : previous test step/row 43 status is Failed and value of next test step/row is :: 44
2019.01.04 12:23:17   info : Test ID TC2 : previous test step/row 44 status is Failed and value of next test step/row is :: 45
2019.01.04 12:23:17   info : Test ID TC2 : previous test step/row 45 status is Failed and value of next test step/row is :: 46
2019.01.04 12:23:17   info : Test ID TC2 : previous test step/row 46 status is Failed and value of next test step/row is :: 47
2019.01.04 12:23:17   info : Test ID TC2 : previous test step/row 47 status is Failed and value of next test step/row is :: 48
2019.01.04 12:23:17   info : Test ID TC2 : previous test step/row 48 status is Failed and value of next test step/row is :: 49
2019.01.04 12:23:17   info : Test ID TC2 : previous test step/row 49 status is Failed and value of next test step/row is :: 50
2019.01.04 12:23:17   info : Test ID TC2 : previous test step/row 50 status is Failed and value of next test step/row is :: 51
2019.01.04 12:23:17   info : Test ID TC2 : previous test step/row 51 status is Failed and value of next test step/row is :: 52
2019.01.04 12:23:17   info : Test ID TC2 : previous test step/row 52 status is Failed and value of next test step/row is :: 53
2019.01.04 12:23:17   info : Test ID TC2 : previous test step/row 53 status is Failed and value of next test step/row is :: 54
2019.01.04 12:23:17   info : Test ID TC2 : previous test step/row 54 status is Failed and value of next test step/row is :: 55
2019.01.04 12:23:17   info : Test ID TC2 : previous test step/row 55 status is Failed and value of next test step/row is :: 56
2019.01.04 12:23:17   info : Test ID TC2 : previous test step/row 56 status is Failed and value of next test step/row is :: 57
2019.01.04 12:23:17   info : Row TC2!=TC3 || (TC3==null)) && (57<=378)
2019.01.04 12:23:17   info : Status :: Failed :: Finalizing result report
2019.01.04 12:23:18   info : closing window...
2019.01.04 12:23:18   info : window size 1
2019.01.04 12:23:18   info : Window is closed!!
