2018.12.03 11:52:05   info : Selenium version :: 2.48.2
2018.12.03 11:52:05   info : Download fodler path created!!
2018.12.03 11:52:05   info : date_time_down_folder C:\Talent_Automation_Framework_Backup\Project_Talent\Downloads\2018_12_03\time_11_52_05\
2018.12.03 11:52:06   info : Total number of applications :: 4
2018.12.03 11:52:06   info : Application Name - Simpli_Enroll
2018.12.03 11:52:06   info : TestData_Sheet path:: C:\Talent_Automation_Framework_Backup\Project_Talent/TestCases/Simpli_Enroll.xlsx
2018.12.03 11:52:06   info : CSV updating and creating dump....
2018.12.03 11:52:07   info : Sheet name: TestCaseScheduler
2018.12.03 11:52:07   info : Sheet name: Test Case
2018.12.03 11:52:07   info : Simpli_Enroll sheetname found!!
2018.12.03 11:52:07   info : Total row 1694
2018.12.03 11:52:07   info : After row validation for blank or null!!
2018.12.03 11:52:07   info : Total final row 1693
2018.12.03 11:52:08   info : Total number of test cases to be executed :: 1
2018.12.03 11:52:08   info : PrevTestID - null == null && row 27<= 1693
2018.12.03 11:52:08   info : Test ID TC2 : previous test step/row 26 status is Passed and value of next test step/row is :: 27
2018.12.03 11:52:08   info : 

2018.12.03 11:52:08   info : -------------------- Executing Testcase ID TC2 and test step : 27 ---------------------- 
2018.12.03 11:52:09   info : please wait.. browser getting open !!
2018.12.03 11:52:20   info : Opening Application..
2018.12.03 11:52:34   info : Current WebDriver Win Count is:: 1
2018.12.03 11:52:35   info : restult status : 1
2018.12.03 11:52:35   info : Test ID TC2 : previous test step/row 27 status is Passed and value of next test step/row is :: 28
2018.12.03 11:52:35   info : 

2018.12.03 11:52:35   info : -------------------- Executing Testcase ID TC2 and test step : 28 ---------------------- 
2018.12.03 11:52:37   info : Current WebDriver Win Count is:: 1
2018.12.03 11:52:37   info : Xml obj_repo path C:\Talent_Automation_Framework_Backup\Project_Talent/ObjectRepositories/BenefitAsia2_EE/EE_DBSG_LoginLogout.xml
2018.12.03 11:52:37   info : Title contains null value in xml!!
2018.12.03 11:52:37   info : Window title User Login
2018.12.03 11:52:37   info : Xml obj_repo path C:\Talent_Automation_Framework_Backup\Project_Talent/ObjectRepositories/BenefitAsia2_EE/EE_DBSG_LoginLogout.xml
2018.12.03 11:52:37   info : xpath object successfully mapped!!
2018.12.03 11:52:37   info : xpath object contains property value !!
2018.12.03 11:52:37   info : Property name - xpath
2018.12.03 11:52:37   info : Property value - //input[contains(@id,"_txtUsername")]
2018.12.03 11:52:37   info : Finding xpath element on webpage..
2018.12.03 11:52:37   info : Searching for element. Try number 0
2018.12.03 11:52:38   info : element disappeared after trying for 1 times
2018.12.03 11:52:39   info : Current WebDriver Win Count is:: 1
2018.12.03 11:52:39   info : Element found!!
2018.12.03 11:52:39   info : Desired window is activated!!
2018.12.03 11:52:39   info : FiledName UserName and FiledValue Test4_EE_01
2018.12.03 11:52:39   info : FiledName Password and FiledValue Password123$
2018.12.03 11:52:39   info : Total static wait time 3
2018.12.03 11:52:42   info : Xml obj_repo path C:\Talent_Automation_Framework_Backup\Project_Talent/ObjectRepositories/BenefitAsia2_EE/EE_DBSG_LoginLogout.xml
2018.12.03 11:52:42   info : xpath object successfully mapped!!
2018.12.03 11:52:42   info : xpath object contains property value !!
2018.12.03 11:52:42   info : Property name - xpath
2018.12.03 11:52:42   info : Property value - //input[contains(@id,"_txtUsername")]
2018.12.03 11:52:42   info : Finding xpath element on webpage..
2018.12.03 11:52:42   info : Searching for element. Try number 0
2018.12.03 11:52:43   info : element disappeared after trying for 1 times
2018.12.03 11:52:44   info : Current WebDriver Win Count is:: 1
2018.12.03 11:52:44   info : Element found!!
2018.12.03 11:52:44   info : ObjectTag input and ObjectType text
2018.12.03 11:52:44   info : Enter data operation
2018.12.03 11:52:45   info : Xml obj_repo path C:\Talent_Automation_Framework_Backup\Project_Talent/ObjectRepositories/BenefitAsia2_EE/EE_DBSG_LoginLogout.xml
2018.12.03 11:52:45   info : xpath object successfully mapped!!
2018.12.03 11:52:45   info : xpath object contains property value !!
2018.12.03 11:52:45   info : Property name - xpath
2018.12.03 11:52:45   info : Property value - //input[contains(@id,"_txtUsername")]
2018.12.03 11:52:45   info : Finding xpath element on webpage..
2018.12.03 11:52:45   info : Searching for element. Try number 0
2018.12.03 11:52:46   info : element disappeared after trying for 1 times
2018.12.03 11:52:47   info : Current WebDriver Win Count is:: 1
2018.12.03 11:52:47   info : Element found!!
2018.12.03 11:52:47   info : Xml obj_repo path C:\Talent_Automation_Framework_Backup\Project_Talent/ObjectRepositories/BenefitAsia2_EE/EE_DBSG_LoginLogout.xml
2018.12.03 11:52:47   info : xpath object successfully mapped!!
2018.12.03 11:52:47   info : xpath object contains property value !!
2018.12.03 11:52:47   info : Property name - xpath
2018.12.03 11:52:47   info : Property value - //input[contains(@id,"_txtUsername")]
2018.12.03 11:52:47   info : Finding xpath element on webpage..
2018.12.03 11:52:47   info : Searching for element. Try number 0
2018.12.03 11:52:48   info : element disappeared after trying for 1 times
2018.12.03 11:52:49   info : Current WebDriver Win Count is:: 1
2018.12.03 11:52:49   info : Element found!!
2018.12.03 11:52:49   info : ValueToEnter Test4_EE_01
2018.12.03 11:52:49   info : Entered value is Test4_EE_01
2018.12.03 11:52:49   info : Attribute entered value Test4_EE_01
2018.12.03 11:52:49   info : Total static wait time 3
2018.12.03 11:52:52   info : Xml obj_repo path C:\Talent_Automation_Framework_Backup\Project_Talent/ObjectRepositories/BenefitAsia2_EE/EE_DBSG_LoginLogout.xml
2018.12.03 11:52:52   info : xpath object successfully mapped!!
2018.12.03 11:52:52   info : xpath object contains property value !!
2018.12.03 11:52:52   info : Property name - xpath
2018.12.03 11:52:52   info : Property value - //input[contains(@id,"_txtPassword")]
2018.12.03 11:52:52   info : Finding xpath element on webpage..
2018.12.03 11:52:52   info : Searching for element. Try number 0
2018.12.03 11:52:53   info : element disappeared after trying for 1 times
2018.12.03 11:52:54   info : Current WebDriver Win Count is:: 1
2018.12.03 11:52:54   info : Element found!!
2018.12.03 11:52:54   info : ObjectTag input and ObjectType password
2018.12.03 11:52:54   info : Enter data operation
2018.12.03 11:52:54   info : Xml obj_repo path C:\Talent_Automation_Framework_Backup\Project_Talent/ObjectRepositories/BenefitAsia2_EE/EE_DBSG_LoginLogout.xml
2018.12.03 11:52:54   info : xpath object successfully mapped!!
2018.12.03 11:52:54   info : xpath object contains property value !!
2018.12.03 11:52:54   info : Property name - xpath
2018.12.03 11:52:54   info : Property value - //input[contains(@id,"_txtPassword")]
2018.12.03 11:52:54   info : Finding xpath element on webpage..
2018.12.03 11:52:54   info : Searching for element. Try number 0
2018.12.03 11:52:55   info : element disappeared after trying for 1 times
2018.12.03 11:52:56   info : Current WebDriver Win Count is:: 1
2018.12.03 11:52:56   info : Element found!!
2018.12.03 11:52:56   info : ValueToEnter Password123$
2018.12.03 11:52:56   info : Entered value is Password123$
2018.12.03 11:52:56   info : Attribute entered value Password123$
2018.12.03 11:52:56   info : Checking for object in click
2018.12.03 11:52:56   info : Xml obj_repo path C:\Talent_Automation_Framework_Backup\Project_Talent/ObjectRepositories/BenefitAsia2_EE/EE_DBSG_LoginLogout.xml
2018.12.03 11:52:56   info : xpath object successfully mapped!!
2018.12.03 11:52:56   info : xpath object contains property value !!
2018.12.03 11:52:56   info : Property name - xpath
2018.12.03 11:52:56   info : Property value - //input[contains(@id,"_cmdLogin")]
2018.12.03 11:52:56   info : Finding xpath element on webpage..
2018.12.03 11:52:56   info : Searching for element. Try number 0
2018.12.03 11:52:57   info : element disappeared after trying for 1 times
2018.12.03 11:52:58   info : Current WebDriver Win Count is:: 1
2018.12.03 11:52:58   info : Element found!!
2018.12.03 11:52:58   info : Xml obj_repo path C:\Talent_Automation_Framework_Backup\Project_Talent/ObjectRepositories/BenefitAsia2_EE/EE_DBSG_LoginLogout.xml
2018.12.03 11:52:58   info : xpath object successfully mapped!!
2018.12.03 11:52:58   info : xpath object contains property value !!
2018.12.03 11:52:58   info : Property name - xpath
2018.12.03 11:52:58   info : Property value - //input[contains(@id,"_cmdLogin")]
2018.12.03 11:52:58   info : Finding xpath element on webpage..
2018.12.03 11:52:58   info : Searching for element. Try number 0
2018.12.03 11:52:59   info : element disappeared after trying for 1 times
2018.12.03 11:53:00   info : Current WebDriver Win Count is:: 1
2018.12.03 11:53:00   info : Element found!!
2018.12.03 11:53:05   info : clicked on LoginButton
2018.12.03 11:53:06   info : Current WebDriver Win Count is:: 1
2018.12.03 11:53:06   info : restult status : 1
2018.12.03 11:53:06   info : Test ID TC2 : previous test step/row 28 status is Passed and value of next test step/row is :: 29
2018.12.03 11:53:06   info : 

2018.12.03 11:53:06   info : -------------------- Executing Testcase ID TC2 and test step : 29 ---------------------- 
2018.12.03 11:53:07   info : Current WebDriver Win Count is:: 1
2018.12.03 11:53:07   info : Xml obj_repo path C:\Talent_Automation_Framework_Backup\Project_Talent/ObjectRepositories/BenefitAsia2_EE/EE_DBSG_TabNavigation.xml
2018.12.03 11:53:07   info : Title contains null value in xml!!
2018.12.03 11:53:07   info : Window title SimpliflexSG > Home
2018.12.03 11:53:07   info : Xml obj_repo path C:\Talent_Automation_Framework_Backup\Project_Talent/ObjectRepositories/BenefitAsia2_EE/EE_DBSG_TabNavigation.xml
2018.12.03 11:53:07   info : Defined excel object tag is not found in xml!!
2018.12.03 11:53:07   info : size of the element return by xmlreading is 0
2018.12.03 11:53:07   error : java.lang.NullPointerException
2018.12.03 11:53:31   info : page object present in excel : 4
2018.12.03 11:53:34   info : Under multiple object handle operation!!
2018.12.03 11:53:40   info : click operation perfomred!!
2018.12.03 11:53:40   info : textbased operation perfomred!!
