2018.12.03 03:22:25   info : Selenium version :: 2.48.2
2018.12.03 03:22:25   info : Download fodler path created!!
2018.12.03 03:22:25   info : date_time_down_folder C:\Talent_Automation_Framework_Backup\Project_Talent\Downloads\2018_12_03\time_15_22_25\
2018.12.03 03:22:26   info : Total number of applications :: 4
2018.12.03 03:22:26   info : Application Name - Simpli_Enroll
2018.12.03 03:22:26   info : TestData_Sheet path:: C:\Talent_Automation_Framework_Backup\Project_Talent/TestCases/Simpli_Enroll.xlsx
2018.12.03 03:22:26   info : CSV updating and creating dump....
2018.12.03 03:22:27   info : Sheet name: TestCaseScheduler
2018.12.03 03:22:27   info : Sheet name: Test Case
2018.12.03 03:22:27   info : Simpli_Enroll sheetname found!!
2018.12.03 03:22:27   info : Total row 1690
2018.12.03 03:22:27   info : After row validation for blank or null!!
2018.12.03 03:22:27   info : Total final row 1689
2018.12.03 03:22:28   info : Total number of test cases to be executed :: 1
2018.12.03 03:22:28   info : PrevTestID - null == null && row 27<= 1689
2018.12.03 03:22:28   info : Test ID TC2 : previous test step/row 26 status is Passed and value of next test step/row is :: 27
2018.12.03 03:22:28   info : 

2018.12.03 03:22:28   info : -------------------- Executing Testcase ID TC2 and test step : 27 ---------------------- 
2018.12.03 03:22:28   info : please wait.. browser getting open !!
2018.12.03 03:22:29   error : org.openqa.selenium.WebDriverException: Failed to connect to binary FirefoxBinary(C:\eclipse\firefox.exe) on port 7055; process output follows: 
null
Build info: version: '2.48.2', revision: '41bccdd', time: '2015-10-09 19:55:52'
System info: host: 'INGGNEDJ67QYX1', ip: '10.197.131.107', os.name: 'Windows 7', os.arch: 'amd64', os.version: '6.1', java.version: '1.7.0_71'
Driver info: driver.version: Driver
2018.12.03 03:22:30   info : restult status : 2
2018.12.03 03:22:30   info : Test ID TC2 : previous test step/row 27 status is Failed and value of next test step/row is :: 28
2018.12.03 03:22:30   info : Test ID TC2 : previous test step/row 28 status is Failed and value of next test step/row is :: 29
2018.12.03 03:22:30   info : Test ID TC2 : previous test step/row 29 status is Failed and value of next test step/row is :: 30
2018.12.03 03:22:30   info : Test ID TC2 : previous test step/row 30 status is Failed and value of next test step/row is :: 31
2018.12.03 03:22:30   info : Test ID TC2 : previous test step/row 31 status is Failed and value of next test step/row is :: 32
2018.12.03 03:22:30   info : Test ID TC2 : previous test step/row 32 status is Failed and value of next test step/row is :: 33
2018.12.03 03:22:30   info : Test ID TC2 : previous test step/row 33 status is Failed and value of next test step/row is :: 34
2018.12.03 03:22:30   info : Test ID TC2 : previous test step/row 34 status is Failed and value of next test step/row is :: 35
2018.12.03 03:22:30   info : Test ID TC2 : previous test step/row 35 status is Failed and value of next test step/row is :: 36
2018.12.03 03:22:30   info : Test ID TC2 : previous test step/row 36 status is Failed and value of next test step/row is :: 37
2018.12.03 03:22:30   info : Test ID TC2 : previous test step/row 37 status is Failed and value of next test step/row is :: 38
2018.12.03 03:22:30   info : Test ID TC2 : previous test step/row 38 status is Failed and value of next test step/row is :: 39
2018.12.03 03:22:30   info : Test ID TC2 : previous test step/row 39 status is Failed and value of next test step/row is :: 40
2018.12.03 03:22:30   info : Test ID TC2 : previous test step/row 40 status is Failed and value of next test step/row is :: 41
2018.12.03 03:22:30   info : Test ID TC2 : previous test step/row 41 status is Failed and value of next test step/row is :: 42
2018.12.03 03:22:30   info : Test ID TC2 : previous test step/row 42 status is Failed and value of next test step/row is :: 43
2018.12.03 03:22:30   info : Test ID TC2 : previous test step/row 43 status is Failed and value of next test step/row is :: 44
2018.12.03 03:22:30   info : Test ID TC2 : previous test step/row 44 status is Failed and value of next test step/row is :: 45
2018.12.03 03:22:30   info : Test ID TC2 : previous test step/row 45 status is Failed and value of next test step/row is :: 46
2018.12.03 03:22:30   info : Test ID TC2 : previous test step/row 46 status is Failed and value of next test step/row is :: 47
2018.12.03 03:22:30   info : Test ID TC2 : previous test step/row 47 status is Failed and value of next test step/row is :: 48
2018.12.03 03:22:30   info : Test ID TC2 : previous test step/row 48 status is Failed and value of next test step/row is :: 49
2018.12.03 03:22:30   info : Test ID TC2 : previous test step/row 49 status is Failed and value of next test step/row is :: 50
2018.12.03 03:22:30   info : Row TC2!=TC3 || (TC3==null)) && (50<=1689)
2018.12.03 03:22:30   info : Status :: Failed :: Finalizing result report
2018.12.03 03:22:30   info : closing window...
2018.12.03 03:22:30   warn : exceptionHandler called!!
2018.12.03 03:22:30   error : java.lang.NullPointerException
2018.12.03 03:22:30   info : Row TC2!=TC3 || (TC3==null)) && (51<=1689)
2018.12.03 03:22:30   info : Status :: Failed :: Finalizing result report
2018.12.03 03:22:31   info : closing window...
2018.12.03 03:22:31   warn : exceptionHandler called!!
2018.12.03 03:22:31   error : java.lang.NullPointerException
2018.12.03 03:22:31   info : Row TC2!=TC3 || (TC3==null)) && (52<=1689)
2018.12.03 03:22:31   info : Status :: Failed :: Finalizing result report
2018.12.03 03:22:31   info : closing window...
2018.12.03 03:22:31   warn : exceptionHandler called!!
2018.12.03 03:22:31   error : java.lang.NullPointerException
2018.12.03 03:22:31   info : Row TC2!=TC3 || (TC3==null)) && (53<=1689)
2018.12.03 03:22:31   info : Status :: Failed :: Finalizing result report
2018.12.03 03:22:31   info : closing window...
2018.12.03 03:22:31   warn : exceptionHandler called!!
2018.12.03 03:22:31   error : java.lang.NullPointerException
2018.12.03 03:22:31   info : Row TC2!=TC3 || (TC3==null)) && (54<=1689)
2018.12.03 03:22:31   info : Status :: Failed :: Finalizing result report
2018.12.03 03:22:31   info : closing window...
2018.12.03 03:22:31   warn : exceptionHandler called!!
2018.12.03 03:22:31   error : java.lang.NullPointerException
2018.12.03 03:22:31   info : Row TC2!=TC3 || (TC3==null)) && (55<=1689)
2018.12.03 03:22:31   info : Status :: Failed :: Finalizing result report
2018.12.03 03:22:31   info : closing window...
2018.12.03 03:22:31   warn : exceptionHandler called!!
2018.12.03 03:22:32   error : java.lang.NullPointerException
2018.12.03 03:22:32   info : Row TC2!=TC3 || (TC3==null)) && (56<=1689)
2018.12.03 03:22:32   info : Status :: Failed :: Finalizing result report
2018.12.03 03:22:32   info : closing window...
2018.12.03 03:22:32   warn : exceptionHandler called!!
2018.12.03 03:22:32   error : java.lang.NullPointerException
2018.12.03 03:22:32   info : Row TC2!=TC3 || (TC3==null)) && (57<=1689)
2018.12.03 03:22:32   info : Status :: Failed :: Finalizing result report
2018.12.03 03:22:32   info : closing window...
2018.12.03 03:22:32   warn : exceptionHandler called!!
2018.12.03 03:22:32   error : java.lang.NullPointerException
2018.12.03 03:22:32   info : Row TC2!=TC3 || (TC3==null)) && (58<=1689)
2018.12.03 03:22:32   info : Status :: Failed :: Finalizing result report
2018.12.03 03:22:32   info : closing window...
2018.12.03 03:22:32   warn : exceptionHandler called!!
2018.12.03 03:22:32   error : java.lang.NullPointerException
2018.12.03 03:22:32   info : Row TC2!=TC3 || (TC3==null)) && (59<=1689)
2018.12.03 03:22:32   info : Status :: Failed :: Finalizing result report
2018.12.03 03:22:33   info : closing window...
2018.12.03 03:22:33   warn : exceptionHandler called!!
2018.12.03 03:22:33   error : java.lang.NullPointerException
2018.12.03 03:22:33   info : Row TC2!=TC3 || (TC3==null)) && (60<=1689)
2018.12.03 03:22:33   info : Status :: Failed :: Finalizing result report
