2018.12.03 03:09:25   info : Selenium version :: 2.48.2
2018.12.03 03:09:25   info : Download fodler path created!!
2018.12.03 03:09:25   info : date_time_down_folder C:\Talent_Automation_Framework_Backup\Project_Talent\Downloads\2018_12_03\time_15_09_25\
2018.12.03 03:09:25   info : Total number of applications :: 4
2018.12.03 03:09:26   info : Application Name - Simpli_Enroll
2018.12.03 03:09:26   info : TestData_Sheet path:: C:\Talent_Automation_Framework_Backup\Project_Talent/TestCases/Simpli_Enroll.xlsx
2018.12.03 03:09:26   info : CSV updating and creating dump....
2018.12.03 03:09:27   info : Sheet name: TestCaseScheduler
2018.12.03 03:09:27   info : Sheet name: Test Case
2018.12.03 03:09:27   info : Simpli_Enroll sheetname found!!
2018.12.03 03:09:27   info : Total row 1691
2018.12.03 03:09:27   info : After row validation for blank or null!!
2018.12.03 03:09:27   info : Total final row 1690
2018.12.03 03:09:28   info : Total number of test cases to be executed :: 1
2018.12.03 03:09:28   info : PrevTestID - null == null && row 27<= 1690
2018.12.03 03:09:28   info : Test ID TC2 : previous test step/row 26 status is Passed and value of next test step/row is :: 27
2018.12.03 03:09:28   info : 

2018.12.03 03:09:28   info : -------------------- Executing Testcase ID TC2 and test step : 27 ---------------------- 
2018.12.03 03:09:28   info : please wait.. browser getting open !!
2018.12.03 03:09:39   info : Opening Application..
2018.12.03 03:09:50   info : Current WebDriver Win Count is:: 1
2018.12.03 03:09:50   info : restult status : 1
2018.12.03 03:09:51   info : Test ID TC2 : previous test step/row 27 status is Passed and value of next test step/row is :: 28
2018.12.03 03:09:51   info : 

2018.12.03 03:09:51   info : -------------------- Executing Testcase ID TC2 and test step : 28 ---------------------- 
2018.12.03 03:09:52   info : Current WebDriver Win Count is:: 1
2018.12.03 03:09:52   info : Xml obj_repo path C:\Talent_Automation_Framework_Backup\Project_Talent/ObjectRepositories/BenefitAsia2_EE/EE_DBSG_LoginLogout.xml
2018.12.03 03:09:52   info : Title contains null value in xml!!
2018.12.03 03:09:52   info : Window title User Login
2018.12.03 03:09:52   info : Xml obj_repo path C:\Talent_Automation_Framework_Backup\Project_Talent/ObjectRepositories/BenefitAsia2_EE/EE_DBSG_LoginLogout.xml
2018.12.03 03:09:52   info : xpath object successfully mapped!!
2018.12.03 03:09:52   info : xpath object contains property value !!
2018.12.03 03:09:52   info : Property name - xpath
2018.12.03 03:09:52   info : Property value - //input[contains(@id,"_txtUsername")]
2018.12.03 03:09:52   info : Finding xpath element on webpage..
2018.12.03 03:09:52   info : Searching for element. Try number 0
2018.12.03 03:09:53   info : element disappeared after trying for 1 times
2018.12.03 03:09:54   info : Current WebDriver Win Count is:: 1
2018.12.03 03:09:54   info : Element found!!
2018.12.03 03:09:54   info : Desired window is activated!!
2018.12.03 03:09:54   info : FiledName UserName and FiledValue Test4_EE_01
2018.12.03 03:09:54   info : FiledName Password and FiledValue Password123$
2018.12.03 03:09:54   info : Total static wait time 3
2018.12.03 03:09:57   info : Xml obj_repo path C:\Talent_Automation_Framework_Backup\Project_Talent/ObjectRepositories/BenefitAsia2_EE/EE_DBSG_LoginLogout.xml
2018.12.03 03:09:57   info : xpath object successfully mapped!!
2018.12.03 03:09:57   info : xpath object contains property value !!
2018.12.03 03:09:57   info : Property name - xpath
2018.12.03 03:09:57   info : Property value - //input[contains(@id,"_txtUsername")]
2018.12.03 03:09:57   info : Finding xpath element on webpage..
2018.12.03 03:09:57   info : Searching for element. Try number 0
2018.12.03 03:09:58   info : element disappeared after trying for 1 times
2018.12.03 03:09:59   info : Current WebDriver Win Count is:: 1
2018.12.03 03:09:59   info : Element found!!
2018.12.03 03:09:59   info : ObjectTag input and ObjectType text
2018.12.03 03:09:59   info : Enter data operation
2018.12.03 03:10:00   info : Xml obj_repo path C:\Talent_Automation_Framework_Backup\Project_Talent/ObjectRepositories/BenefitAsia2_EE/EE_DBSG_LoginLogout.xml
2018.12.03 03:10:00   info : xpath object successfully mapped!!
2018.12.03 03:10:00   info : xpath object contains property value !!
2018.12.03 03:10:00   info : Property name - xpath
2018.12.03 03:10:00   info : Property value - //input[contains(@id,"_txtUsername")]
2018.12.03 03:10:00   info : Finding xpath element on webpage..
2018.12.03 03:10:00   info : Searching for element. Try number 0
2018.12.03 03:10:01   info : element disappeared after trying for 1 times
2018.12.03 03:10:02   info : Current WebDriver Win Count is:: 1
2018.12.03 03:10:02   info : Element found!!
2018.12.03 03:10:02   info : Xml obj_repo path C:\Talent_Automation_Framework_Backup\Project_Talent/ObjectRepositories/BenefitAsia2_EE/EE_DBSG_LoginLogout.xml
2018.12.03 03:10:02   info : xpath object successfully mapped!!
2018.12.03 03:10:02   info : xpath object contains property value !!
2018.12.03 03:10:02   info : Property name - xpath
2018.12.03 03:10:02   info : Property value - //input[contains(@id,"_txtUsername")]
2018.12.03 03:10:02   info : Finding xpath element on webpage..
2018.12.03 03:10:02   info : Searching for element. Try number 0
2018.12.03 03:10:03   info : element disappeared after trying for 1 times
2018.12.03 03:10:04   info : Current WebDriver Win Count is:: 1
2018.12.03 03:10:04   info : Element found!!
2018.12.03 03:10:04   info : ValueToEnter Test4_EE_01
2018.12.03 03:10:04   info : Entered value is Test4_EE_01
2018.12.03 03:10:05   info : Attribute entered value Test4_EE_01
2018.12.03 03:10:05   info : Total static wait time 3
2018.12.03 03:10:08   info : Xml obj_repo path C:\Talent_Automation_Framework_Backup\Project_Talent/ObjectRepositories/BenefitAsia2_EE/EE_DBSG_LoginLogout.xml
2018.12.03 03:10:08   info : xpath object successfully mapped!!
2018.12.03 03:10:08   info : xpath object contains property value !!
2018.12.03 03:10:08   info : Property name - xpath
2018.12.03 03:10:08   info : Property value - //input[contains(@id,"_txtPassword")]
2018.12.03 03:10:08   info : Finding xpath element on webpage..
2018.12.03 03:10:08   info : Searching for element. Try number 0
2018.12.03 03:10:09   info : element disappeared after trying for 1 times
2018.12.03 03:10:10   info : Current WebDriver Win Count is:: 1
2018.12.03 03:10:10   info : Element found!!
2018.12.03 03:10:10   info : ObjectTag input and ObjectType password
2018.12.03 03:10:10   info : Enter data operation
2018.12.03 03:10:10   info : Xml obj_repo path C:\Talent_Automation_Framework_Backup\Project_Talent/ObjectRepositories/BenefitAsia2_EE/EE_DBSG_LoginLogout.xml
2018.12.03 03:10:10   info : xpath object successfully mapped!!
2018.12.03 03:10:10   info : xpath object contains property value !!
2018.12.03 03:10:10   info : Property name - xpath
2018.12.03 03:10:10   info : Property value - //input[contains(@id,"_txtPassword")]
2018.12.03 03:10:10   info : Finding xpath element on webpage..
2018.12.03 03:10:10   info : Searching for element. Try number 0
2018.12.03 03:10:11   info : element disappeared after trying for 1 times
2018.12.03 03:10:12   info : Current WebDriver Win Count is:: 1
2018.12.03 03:10:12   info : Element found!!
2018.12.03 03:10:12   info : ValueToEnter Password123$
2018.12.03 03:10:12   info : Entered value is Password123$
2018.12.03 03:10:12   info : Attribute entered value Password123$
2018.12.03 03:10:12   info : Checking for object in click
2018.12.03 03:10:12   info : Xml obj_repo path C:\Talent_Automation_Framework_Backup\Project_Talent/ObjectRepositories/BenefitAsia2_EE/EE_DBSG_LoginLogout.xml
2018.12.03 03:10:12   info : xpath object successfully mapped!!
2018.12.03 03:10:12   info : xpath object contains property value !!
2018.12.03 03:10:12   info : Property name - xpath
2018.12.03 03:10:12   info : Property value - //input[contains(@id,"_cmdLogin")]
2018.12.03 03:10:12   info : Finding xpath element on webpage..
2018.12.03 03:10:12   info : Searching for element. Try number 0
2018.12.03 03:10:13   info : element disappeared after trying for 1 times
2018.12.03 03:10:14   info : Current WebDriver Win Count is:: 1
2018.12.03 03:10:14   info : Element found!!
2018.12.03 03:10:14   info : Xml obj_repo path C:\Talent_Automation_Framework_Backup\Project_Talent/ObjectRepositories/BenefitAsia2_EE/EE_DBSG_LoginLogout.xml
2018.12.03 03:10:14   info : xpath object successfully mapped!!
2018.12.03 03:10:14   info : xpath object contains property value !!
2018.12.03 03:10:14   info : Property name - xpath
2018.12.03 03:10:14   info : Property value - //input[contains(@id,"_cmdLogin")]
2018.12.03 03:10:14   info : Finding xpath element on webpage..
2018.12.03 03:10:14   info : Searching for element. Try number 0
2018.12.03 03:10:15   info : element disappeared after trying for 1 times
2018.12.03 03:10:16   info : Current WebDriver Win Count is:: 1
2018.12.03 03:10:16   info : Element found!!
2018.12.03 03:10:19   info : clicked on LoginButton
2018.12.03 03:10:21   info : Current WebDriver Win Count is:: 1
2018.12.03 03:10:21   info : restult status : 1
2018.12.03 03:10:21   info : Test ID TC2 : previous test step/row 28 status is Passed and value of next test step/row is :: 29
2018.12.03 03:10:21   info : 

2018.12.03 03:10:21   info : -------------------- Executing Testcase ID TC2 and test step : 29 ---------------------- 
2018.12.03 03:10:22   info : Current WebDriver Win Count is:: 1
2018.12.03 03:10:22   info : Xml obj_repo path C:\Talent_Automation_Framework_Backup\Project_Talent/ObjectRepositories/BenefitAsia2_EE/EE_DBSG_TabNavigation.xml
2018.12.03 03:10:22   info : Title in xml file - Home
2018.12.03 03:10:22   warn : Window is not switched, now trying based on element!!
2018.12.03 03:10:22   info : Window title SimpliflexSG > Home
2018.12.03 03:10:22   info : Xml obj_repo path C:\Talent_Automation_Framework_Backup\Project_Talent/ObjectRepositories/BenefitAsia2_EE/EE_DBSG_TabNavigation.xml
2018.12.03 03:10:22   info : Defined excel object tag is not found in xml!!
2018.12.03 03:10:22   info : size of the element return by xmlreading is 0
2018.12.03 03:10:22   error : java.lang.NullPointerException
2018.12.03 03:10:22   info : page object present in excel : 4
2018.12.03 03:10:22   info : Under multiple object handle operation!!
2018.12.03 03:10:22   info : click operation perfomred!!
2018.12.03 03:10:22   info : textbased operation perfomred!!
2018.12.03 03:10:23   info : 4 operation perfomred!!
2018.12.03 03:10:23   info : Xml obj_repo path C:\Talent_Automation_Framework_Backup\Project_Talent/ObjectRepositories/BenefitAsia2_EE/EE_DBSG_TabNavigation.xml
2018.12.03 03:10:23   info : class object successfully mapped!!
2018.12.03 03:10:23   info : class object contains property value !!
2018.12.03 03:10:23   info : Property name - class
2018.12.03 03:10:23   info : Property value - nav
2018.12.03 03:10:23   info : Finding class element on webpage..
2018.12.03 03:10:23   info : Element found!!
2018.12.03 03:10:23   info : Xml obj_repo path C:\Talent_Automation_Framework_Backup\Project_Talent/ObjectRepositories/BenefitAsia2_EE/EE_DBSG_TabNavigation.xml
2018.12.03 03:10:23   info : tagname object successfully mapped!!
2018.12.03 03:10:23   info : tagname object contains property value !!
2018.12.03 03:10:23   info : Property name - tagname
2018.12.03 03:10:23   info : Property value - li
2018.12.03 03:10:23   info : Finding tagname element on webpage..
2018.12.03 03:10:23   info : Element found!!
2018.12.03 03:10:23   info : Xml obj_repo path C:\Talent_Automation_Framework_Backup\Project_Talent/ObjectRepositories/BenefitAsia2_EE/EE_DBSG_TabNavigation.xml
2018.12.03 03:10:23   info : tagname object successfully mapped!!
2018.12.03 03:10:23   info : tagname object contains property value !!
2018.12.03 03:10:23   info : Property name - tagname
2018.12.03 03:10:23   info : Property value - a
2018.12.03 03:10:23   info : Finding tagname element on webpage..
2018.12.03 03:10:23   info : Element found!!
2018.12.03 03:10:23   info : Xml obj_repo path C:\Talent_Automation_Framework_Backup\Project_Talent/ObjectRepositories/BenefitAsia2_EE/EE_DBSG_TabNavigation.xml
2018.12.03 03:10:23   info : tagname object successfully mapped!!
2018.12.03 03:10:23   info : tagname object contains property value !!
2018.12.03 03:10:23   info : Property name - tagname
2018.12.03 03:10:23   info : Property value - span
2018.12.03 03:10:23   info : Finding tagname element on webpage..
2018.12.03 03:10:23   info : Element found!!
2018.12.03 03:10:23   info : Size of element 6
2018.12.03 03:10:23   info : actData Home
2018.12.03 03:10:23   info : actData Start Enrollment
2018.12.03 03:10:27   info : Current WebDriver Win Count is:: 1
2018.12.03 03:10:27   info : restult status : 1
2018.12.03 03:10:27   info : Test ID TC2 : previous test step/row 29 status is Passed and value of next test step/row is :: 30
2018.12.03 03:10:27   info : 

2018.12.03 03:10:27   info : -------------------- Executing Testcase ID TC2 and test step : 30 ---------------------- 
2018.12.03 03:10:28   info : Current WebDriver Win Count is:: 1
2018.12.03 03:10:28   info : Xml obj_repo path C:\Talent_Automation_Framework_Backup\Project_Talent/ObjectRepositories/BenefitAsia2_EE/EE_DBSG_Enrolment.xml
2018.12.03 03:10:29   info : Title in xml file - MyEnrollment
2018.12.03 03:10:29   warn : Window is not switched, now trying based on element!!
2018.12.03 03:10:29   info : Window title My Enrollment
2018.12.03 03:10:29   info : Xml obj_repo path C:\Talent_Automation_Framework_Backup\Project_Talent/ObjectRepositories/BenefitAsia2_EE/EE_DBSG_Enrolment.xml
2018.12.03 03:10:29   info : xpath object successfully mapped!!
2018.12.03 03:10:29   info : xpath object contains property value !!
2018.12.03 03:10:29   info : Property name - xpath
2018.12.03 03:10:29   info : Property value - //*[contains(@id,"_EnrolmentSelection_FlexPointsNew_hlFlexPointsAllocationDetailsNew")]
2018.12.03 03:10:29   info : Finding xpath element on webpage..
2018.12.03 03:10:29   info : Searching for element. Try number 0
2018.12.03 03:10:30   info : element disappeared after trying for 1 times
2018.12.03 03:10:31   info : Current WebDriver Win Count is:: 1
2018.12.03 03:10:31   info : Element found!!
2018.12.03 03:10:31   info : Desired window is activated!!
2018.12.03 03:10:31   info : Xml obj_repo path C:\Talent_Automation_Framework_Backup\Project_Talent/ObjectRepositories/BenefitAsia2_EE/EE_DBSG_Enrolment.xml
2018.12.03 03:10:31   info : xpath object successfully mapped!!
2018.12.03 03:10:31   info : xpath object contains property value !!
2018.12.03 03:10:31   info : Property name - xpath
2018.12.03 03:10:31   info : Property value - //*[contains(@id,"_EnrolmentSelection_FlexPointsNew_hlFlexPointsAllocationDetailsNew")]
2018.12.03 03:10:31   info : Finding xpath element on webpage..
2018.12.03 03:10:31   info : Searching for element. Try number 0
2018.12.03 03:10:32   info : element disappeared after trying for 1 times
2018.12.03 03:10:33   info : Current WebDriver Win Count is:: 1
2018.12.03 03:10:33   info : Element found!!
2018.12.03 03:10:33   info : ObjectTag a and ObjectType null
2018.12.03 03:10:33   info : Exp_value 1661.00
2018.12.03 03:10:33   info : Searching for element. Try number 0
2018.12.03 03:10:34   info : element disappeared after trying for 1 times
2018.12.03 03:10:34   info : Actual Value1,661.00
2018.12.03 03:10:34   info : Exp : 1661.00 and act : 1,661.00 value not matched!!
2018.12.03 03:10:35   info : Current WebDriver Win Count is:: 1
2018.12.03 03:10:35   info : restult status : 2
2018.12.03 03:10:35   info : Test ID TC2 : previous test step/row 30 status is Failed and value of next test step/row is :: 31
2018.12.03 03:10:35   info : 

2018.12.03 03:10:35   info : -------------------- Executing Testcase ID TC2 and test step : 31 ---------------------- 
2018.12.03 03:10:36   info : Current WebDriver Win Count is:: 1
2018.12.03 03:10:36   info : Xml obj_repo path C:\Talent_Automation_Framework_Backup\Project_Talent/ObjectRepositories/BenefitAsia2_EE/EE_SimpliFlex_Enrolment.xml
2018.12.03 03:10:36   info : Title in xml file - MyEnrollment
2018.12.03 03:10:36   warn : Window is not switched, now trying based on element!!
2018.12.03 03:10:36   info : Window title My Enrollment
2018.12.03 03:10:36   info : Xml obj_repo path C:\Talent_Automation_Framework_Backup\Project_Talent/ObjectRepositories/BenefitAsia2_EE/EE_SimpliFlex_Enrolment.xml
2018.12.03 03:10:36   info : xpath object successfully mapped!!
2018.12.03 03:10:36   info : xpath object contains property value !!
2018.12.03 03:10:36   info : Property name - xpath
2018.12.03 03:10:36   info : Property value - //*[contains(@id,"_EnrolmentSelection_ctl08_gvInsuranceBenefitsNew")]/tbody/tr[td//text()[contains(translate(., 'ABCDEFGHIJKLMNOPQRSTUVWXYZ', 'abcdefghijklmnopqrstuvwxyz'), 'group hospital') and contains(translate(., 'ABCDEFGHIJKLMNOPQRSTUVWXYZ', 'abcdefghijklmnopqrstuvwxyz'), 'group major medical')]]/td[count(//*[contains(@id,"_EnrolmentSelection_ctl08_gvInsuranceBenefitsNew")]/tbody/tr[1]/th[contains(translate(., 'ABCDEFGHIJKLMNOPQRSTUVWXYZ', 'abcdefghijklmnopqrstuvwxyz'), 'benefit type')]/preceding-sibling::th)+1]/a
2018.12.03 03:10:36   info : Finding xpath element on webpage..
2018.12.03 03:10:36   info : Searching for element. Try number 0
2018.12.03 03:10:37   info : element disappeared after trying for 1 times
2018.12.03 03:10:38   info : Current WebDriver Win Count is:: 1
2018.12.03 03:10:38   info : Element found!!
2018.12.03 03:10:38   info : Desired window is activated!!
2018.12.03 03:10:38   info : page object present in excel : 1
2018.12.03 03:10:38   info : Under single object handle operation!!
2018.12.03 03:10:38   info : col 6 data :  and col 5 data : P2_Link_Local_GH
2018.12.03 03:10:38   info : Normal click operation !!
2018.12.03 03:10:38   info : Checking for object in click
2018.12.03 03:10:38   info : Xml obj_repo path C:\Talent_Automation_Framework_Backup\Project_Talent/ObjectRepositories/BenefitAsia2_EE/EE_SimpliFlex_Enrolment.xml
2018.12.03 03:10:38   info : xpath object successfully mapped!!
2018.12.03 03:10:38   info : xpath object contains property value !!
2018.12.03 03:10:38   info : Property name - xpath
2018.12.03 03:10:38   info : Property value - //*[contains(@id,"_EnrolmentSelection_ctl08_gvInsuranceBenefitsNew")]/tbody/tr[td//text()[contains(translate(., 'ABCDEFGHIJKLMNOPQRSTUVWXYZ', 'abcdefghijklmnopqrstuvwxyz'), 'group hospital') and contains(translate(., 'ABCDEFGHIJKLMNOPQRSTUVWXYZ', 'abcdefghijklmnopqrstuvwxyz'), 'group major medical')]]/td[count(//*[contains(@id,"_EnrolmentSelection_ctl08_gvInsuranceBenefitsNew")]/tbody/tr[1]/th[contains(translate(., 'ABCDEFGHIJKLMNOPQRSTUVWXYZ', 'abcdefghijklmnopqrstuvwxyz'), 'benefit type')]/preceding-sibling::th)+1]/a
2018.12.03 03:10:38   info : Finding xpath element on webpage..
2018.12.03 03:10:38   info : Searching for element. Try number 0
2018.12.03 03:10:39   info : element disappeared after trying for 1 times
2018.12.03 03:10:40   info : Current WebDriver Win Count is:: 1
2018.12.03 03:10:40   info : Element found!!
2018.12.03 03:10:40   info : Xml obj_repo path C:\Talent_Automation_Framework_Backup\Project_Talent/ObjectRepositories/BenefitAsia2_EE/EE_SimpliFlex_Enrolment.xml
2018.12.03 03:10:40   info : xpath object successfully mapped!!
2018.12.03 03:10:40   info : xpath object contains property value !!
2018.12.03 03:10:40   info : Property name - xpath
2018.12.03 03:10:40   info : Property value - //*[contains(@id,"_EnrolmentSelection_ctl08_gvInsuranceBenefitsNew")]/tbody/tr[td//text()[contains(translate(., 'ABCDEFGHIJKLMNOPQRSTUVWXYZ', 'abcdefghijklmnopqrstuvwxyz'), 'group hospital') and contains(translate(., 'ABCDEFGHIJKLMNOPQRSTUVWXYZ', 'abcdefghijklmnopqrstuvwxyz'), 'group major medical')]]/td[count(//*[contains(@id,"_EnrolmentSelection_ctl08_gvInsuranceBenefitsNew")]/tbody/tr[1]/th[contains(translate(., 'ABCDEFGHIJKLMNOPQRSTUVWXYZ', 'abcdefghijklmnopqrstuvwxyz'), 'benefit type')]/preceding-sibling::th)+1]/a
2018.12.03 03:10:40   info : Finding xpath element on webpage..
2018.12.03 03:10:40   info : Searching for element. Try number 0
2018.12.03 03:10:41   info : element disappeared after trying for 1 times
2018.12.03 03:10:42   info : Current WebDriver Win Count is:: 1
2018.12.03 03:10:42   info : Element found!!
2018.12.03 03:10:44   info : clicked on P2_Link_Local_GH
2018.12.03 03:10:45   info : Current WebDriver Win Count is:: 1
2018.12.03 03:10:46   info : restult status : 1
2018.12.03 03:10:46   info : Test ID TC2 : previous test step/row 31 status is Passed and value of next test step/row is :: 32
2018.12.03 03:10:46   info : 

2018.12.03 03:10:46   info : -------------------- Executing Testcase ID TC2 and test step : 32 ---------------------- 
2018.12.03 03:10:47   info : Current WebDriver Win Count is:: 1
2018.12.03 03:10:47   info : Total static wait time 3
2018.12.03 03:10:50   info : Xml obj_repo path C:\Talent_Automation_Framework_Backup\Project_Talent/ObjectRepositories/BenefitAsia2_EE/EE_SimpliFlex_Enrolment.xml
2018.12.03 03:10:50   info : Defined excel object tag is not found in xml!!
2018.12.03 03:10:50   info : size of the element return by xmlreading is 0
2018.12.03 03:10:50   warn : exceptionHandler called!!
2018.12.03 03:10:51   info : Current WebDriver Win Count is:: 1
2018.12.03 03:10:51   error : java.lang.NullPointerException
2018.12.03 03:10:51   info : Test ID TC2 : previous test step/row 32 status is Failed and value of next test step/row is :: 33
2018.12.03 03:10:51   info : 

2018.12.03 03:10:51   info : -------------------- Executing Testcase ID TC2 and test step : 33 ---------------------- 
2018.12.03 03:10:53   info : Current WebDriver Win Count is:: 1
2018.12.03 03:10:53   info : Xml obj_repo path C:\Talent_Automation_Framework_Backup\Project_Talent/ObjectRepositories/BenefitAsia2_EE/EE_SimpliFlex_Enrolment.xml
2018.12.03 03:10:53   info : Defined excel object tag is not found in xml!!
2018.12.03 03:10:53   info : size of the element return by xmlreading is 0
2018.12.03 03:10:53   warn : exceptionHandler called!!
2018.12.03 03:10:54   info : Current WebDriver Win Count is:: 1
2018.12.03 03:10:54   error : java.lang.NullPointerException
2018.12.03 03:10:54   info : Test ID TC2 : previous test step/row 33 status is Failed and value of next test step/row is :: 34
2018.12.03 03:10:54   info : 

2018.12.03 03:10:54   info : -------------------- Executing Testcase ID TC2 and test step : 34 ---------------------- 
