2018.12.03 12:56:59   info : Selenium version :: 2.48.2
2018.12.03 12:56:59   info : Download fodler path created!!
2018.12.03 12:56:59   info : date_time_down_folder C:\Talent_Automation_Framework_Backup\Project_Talent\Downloads\2018_12_03\time_12_56_59\
2018.12.03 12:57:00   info : Total number of applications :: 4
2018.12.03 12:57:00   info : Application Name - Simpli_Enroll
2018.12.03 12:57:00   info : TestData_Sheet path:: C:\Talent_Automation_Framework_Backup\Project_Talent/TestCases/Simpli_Enroll.xlsx
2018.12.03 12:57:00   info : CSV updating and creating dump....
2018.12.03 12:57:01   info : Sheet name: TestCaseScheduler
2018.12.03 12:57:01   info : Sheet name: Test Case
2018.12.03 12:57:01   info : Simpli_Enroll sheetname found!!
2018.12.03 12:57:01   info : Total row 1694
2018.12.03 12:57:01   info : After row validation for blank or null!!
2018.12.03 12:57:01   info : Total final row 1693
2018.12.03 12:57:02   info : Total number of test cases to be executed :: 1
2018.12.03 12:57:02   info : PrevTestID - null == null && row 27<= 1693
2018.12.03 12:57:02   info : Test ID TC2 : previous test step/row 26 status is Passed and value of next test step/row is :: 27
2018.12.03 12:57:02   info : 

2018.12.03 12:57:02   info : -------------------- Executing Testcase ID TC2 and test step : 27 ---------------------- 
2018.12.03 12:57:03   info : please wait.. browser getting open !!
2018.12.03 12:57:14   info : Opening Application..
2018.12.03 12:57:24   info : Current WebDriver Win Count is:: 1
2018.12.03 12:57:24   info : restult status : 1
2018.12.03 12:57:25   info : Test ID TC2 : previous test step/row 27 status is Passed and value of next test step/row is :: 28
2018.12.03 12:57:25   info : 

2018.12.03 12:57:25   info : -------------------- Executing Testcase ID TC2 and test step : 28 ---------------------- 
2018.12.03 12:57:26   info : Current WebDriver Win Count is:: 1
2018.12.03 12:57:26   info : Xml obj_repo path C:\Talent_Automation_Framework_Backup\Project_Talent/ObjectRepositories/BenefitAsia2_EE/EE_DBSG_LoginLogout.xml
2018.12.03 12:57:26   info : Title contains null value in xml!!
2018.12.03 12:57:26   info : Window title User Login
2018.12.03 12:57:26   info : Xml obj_repo path C:\Talent_Automation_Framework_Backup\Project_Talent/ObjectRepositories/BenefitAsia2_EE/EE_DBSG_LoginLogout.xml
2018.12.03 12:57:26   info : xpath object successfully mapped!!
2018.12.03 12:57:26   info : xpath object contains property value !!
2018.12.03 12:57:26   info : Property name - xpath
2018.12.03 12:57:26   info : Property value - //input[contains(@id,"_txtUsername")]
2018.12.03 12:57:26   info : Finding xpath element on webpage..
2018.12.03 12:57:26   info : Searching for element. Try number 0
2018.12.03 12:57:27   info : element disappeared after trying for 1 times
2018.12.03 12:57:28   info : Current WebDriver Win Count is:: 1
2018.12.03 12:57:28   info : Element found!!
2018.12.03 12:57:28   info : Desired window is activated!!
2018.12.03 12:57:28   info : FiledName UserName and FiledValue Test4_EE_01
2018.12.03 12:57:28   info : FiledName Password and FiledValue Password123$
2018.12.03 12:57:28   info : Total static wait time 3
2018.12.03 12:57:31   info : Xml obj_repo path C:\Talent_Automation_Framework_Backup\Project_Talent/ObjectRepositories/BenefitAsia2_EE/EE_DBSG_LoginLogout.xml
2018.12.03 12:57:31   info : xpath object successfully mapped!!
2018.12.03 12:57:31   info : xpath object contains property value !!
2018.12.03 12:57:31   info : Property name - xpath
2018.12.03 12:57:31   info : Property value - //input[contains(@id,"_txtUsername")]
2018.12.03 12:57:31   info : Finding xpath element on webpage..
2018.12.03 12:57:31   info : Searching for element. Try number 0
2018.12.03 12:57:32   info : element disappeared after trying for 1 times
2018.12.03 12:57:33   info : Current WebDriver Win Count is:: 1
2018.12.03 12:57:33   info : Element found!!
2018.12.03 12:57:33   info : ObjectTag input and ObjectType text
2018.12.03 12:57:33   info : Enter data operation
2018.12.03 12:57:34   info : Xml obj_repo path C:\Talent_Automation_Framework_Backup\Project_Talent/ObjectRepositories/BenefitAsia2_EE/EE_DBSG_LoginLogout.xml
2018.12.03 12:57:34   info : xpath object successfully mapped!!
2018.12.03 12:57:34   info : xpath object contains property value !!
2018.12.03 12:57:34   info : Property name - xpath
2018.12.03 12:57:34   info : Property value - //input[contains(@id,"_txtUsername")]
2018.12.03 12:57:34   info : Finding xpath element on webpage..
2018.12.03 12:57:34   info : Searching for element. Try number 0
2018.12.03 12:57:35   info : element disappeared after trying for 1 times
2018.12.03 12:57:36   info : Current WebDriver Win Count is:: 1
2018.12.03 12:57:36   info : Element found!!
2018.12.03 12:57:36   info : Xml obj_repo path C:\Talent_Automation_Framework_Backup\Project_Talent/ObjectRepositories/BenefitAsia2_EE/EE_DBSG_LoginLogout.xml
2018.12.03 12:57:36   info : xpath object successfully mapped!!
2018.12.03 12:57:36   info : xpath object contains property value !!
2018.12.03 12:57:36   info : Property name - xpath
2018.12.03 12:57:36   info : Property value - //input[contains(@id,"_txtUsername")]
2018.12.03 12:57:36   info : Finding xpath element on webpage..
2018.12.03 12:57:36   info : Searching for element. Try number 0
2018.12.03 12:57:37   info : element disappeared after trying for 1 times
2018.12.03 12:57:38   info : Current WebDriver Win Count is:: 1
2018.12.03 12:57:38   info : Element found!!
2018.12.03 12:57:38   info : ValueToEnter Test4_EE_01
2018.12.03 12:57:38   info : Entered value is Test4_EE_01
2018.12.03 12:57:38   info : Attribute entered value Test4_EE_01
2018.12.03 12:57:38   info : Total static wait time 3
2018.12.03 12:57:41   info : Xml obj_repo path C:\Talent_Automation_Framework_Backup\Project_Talent/ObjectRepositories/BenefitAsia2_EE/EE_DBSG_LoginLogout.xml
2018.12.03 12:57:41   info : xpath object successfully mapped!!
2018.12.03 12:57:41   info : xpath object contains property value !!
2018.12.03 12:57:41   info : Property name - xpath
2018.12.03 12:57:41   info : Property value - //input[contains(@id,"_txtPassword")]
2018.12.03 12:57:41   info : Finding xpath element on webpage..
2018.12.03 12:57:41   info : Searching for element. Try number 0
2018.12.03 12:57:42   info : element disappeared after trying for 1 times
2018.12.03 12:57:43   info : Current WebDriver Win Count is:: 1
2018.12.03 12:57:44   info : Element found!!
2018.12.03 12:57:44   info : ObjectTag input and ObjectType password
2018.12.03 12:57:44   info : Enter data operation
2018.12.03 12:57:44   info : Xml obj_repo path C:\Talent_Automation_Framework_Backup\Project_Talent/ObjectRepositories/BenefitAsia2_EE/EE_DBSG_LoginLogout.xml
2018.12.03 12:57:44   info : xpath object successfully mapped!!
2018.12.03 12:57:44   info : xpath object contains property value !!
2018.12.03 12:57:44   info : Property name - xpath
2018.12.03 12:57:44   info : Property value - //input[contains(@id,"_txtPassword")]
2018.12.03 12:57:44   info : Finding xpath element on webpage..
2018.12.03 12:57:44   info : Searching for element. Try number 0
2018.12.03 12:57:45   info : element disappeared after trying for 1 times
2018.12.03 12:57:46   info : Current WebDriver Win Count is:: 1
2018.12.03 12:57:46   info : Element found!!
2018.12.03 12:57:46   info : ValueToEnter Password123$
2018.12.03 12:57:46   info : Entered value is Password123$
2018.12.03 12:57:46   info : Attribute entered value Password123$
2018.12.03 12:57:46   info : Checking for object in click
2018.12.03 12:57:46   info : Xml obj_repo path C:\Talent_Automation_Framework_Backup\Project_Talent/ObjectRepositories/BenefitAsia2_EE/EE_DBSG_LoginLogout.xml
2018.12.03 12:57:46   info : xpath object successfully mapped!!
2018.12.03 12:57:46   info : xpath object contains property value !!
2018.12.03 12:57:46   info : Property name - xpath
2018.12.03 12:57:46   info : Property value - //input[contains(@id,"_cmdLogin")]
2018.12.03 12:57:46   info : Finding xpath element on webpage..
2018.12.03 12:57:46   info : Searching for element. Try number 0
2018.12.03 12:57:47   info : element disappeared after trying for 1 times
2018.12.03 12:57:48   info : Current WebDriver Win Count is:: 1
2018.12.03 12:57:48   info : Element found!!
2018.12.03 12:57:48   info : Xml obj_repo path C:\Talent_Automation_Framework_Backup\Project_Talent/ObjectRepositories/BenefitAsia2_EE/EE_DBSG_LoginLogout.xml
2018.12.03 12:57:48   info : xpath object successfully mapped!!
2018.12.03 12:57:48   info : xpath object contains property value !!
2018.12.03 12:57:48   info : Property name - xpath
2018.12.03 12:57:48   info : Property value - //input[contains(@id,"_cmdLogin")]
2018.12.03 12:57:48   info : Finding xpath element on webpage..
2018.12.03 12:57:48   info : Searching for element. Try number 0
2018.12.03 12:57:49   info : element disappeared after trying for 1 times
2018.12.03 12:57:50   info : Current WebDriver Win Count is:: 1
2018.12.03 12:57:50   info : Element found!!
2018.12.03 12:57:54   info : clicked on LoginButton
2018.12.03 12:57:55   info : Current WebDriver Win Count is:: 1
2018.12.03 12:57:55   info : restult status : 1
2018.12.03 12:57:55   info : Test ID TC2 : previous test step/row 28 status is Passed and value of next test step/row is :: 29
2018.12.03 12:57:55   info : 

2018.12.03 12:57:55   info : -------------------- Executing Testcase ID TC2 and test step : 29 ---------------------- 
2018.12.03 12:57:56   info : Current WebDriver Win Count is:: 1
2018.12.03 12:57:56   info : Xml obj_repo path C:\Talent_Automation_Framework_Backup\Project_Talent/ObjectRepositories/BenefitAsia2_EE/EE_DBSG_TabNavigation.xml
2018.12.03 12:57:56   info : Title in xml file - Home
2018.12.03 12:57:56   warn : Window is not switched, now trying based on element!!
2018.12.03 12:57:56   info : Window title SimpliflexSG > Home
2018.12.03 12:57:56   info : Xml obj_repo path C:\Talent_Automation_Framework_Backup\Project_Talent/ObjectRepositories/BenefitAsia2_EE/EE_DBSG_TabNavigation.xml
2018.12.03 12:57:56   info : Defined excel object tag is not found in xml!!
2018.12.03 12:57:56   info : size of the element return by xmlreading is 0
2018.12.03 12:57:56   error : java.lang.NullPointerException
2018.12.03 12:57:56   info : page object present in excel : 4
2018.12.03 12:57:56   info : Under multiple object handle operation!!
2018.12.03 12:57:56   info : click operation perfomred!!
2018.12.03 12:57:56   info : textbased operation perfomred!!
2018.12.03 12:57:57   info : 4 operation perfomred!!
2018.12.03 12:57:57   info : Xml obj_repo path C:\Talent_Automation_Framework_Backup\Project_Talent/ObjectRepositories/BenefitAsia2_EE/EE_DBSG_TabNavigation.xml
2018.12.03 12:57:57   info : class object successfully mapped!!
2018.12.03 12:57:57   info : class object contains property value !!
2018.12.03 12:57:57   info : Property name - class
2018.12.03 12:57:57   info : Property value - nav
2018.12.03 12:57:57   info : Finding class element on webpage..
2018.12.03 12:57:57   info : Element found!!
2018.12.03 12:57:57   info : Xml obj_repo path C:\Talent_Automation_Framework_Backup\Project_Talent/ObjectRepositories/BenefitAsia2_EE/EE_DBSG_TabNavigation.xml
2018.12.03 12:57:57   info : tagname object successfully mapped!!
2018.12.03 12:57:57   info : tagname object contains property value !!
2018.12.03 12:57:57   info : Property name - tagname
2018.12.03 12:57:57   info : Property value - li
2018.12.03 12:57:57   info : Finding tagname element on webpage..
2018.12.03 12:57:57   info : Element found!!
2018.12.03 12:57:57   info : Xml obj_repo path C:\Talent_Automation_Framework_Backup\Project_Talent/ObjectRepositories/BenefitAsia2_EE/EE_DBSG_TabNavigation.xml
2018.12.03 12:57:57   info : tagname object successfully mapped!!
2018.12.03 12:57:57   info : tagname object contains property value !!
2018.12.03 12:57:57   info : Property name - tagname
2018.12.03 12:57:57   info : Property value - a
2018.12.03 12:57:57   info : Finding tagname element on webpage..
2018.12.03 12:57:57   info : Element found!!
2018.12.03 12:57:57   info : Xml obj_repo path C:\Talent_Automation_Framework_Backup\Project_Talent/ObjectRepositories/BenefitAsia2_EE/EE_DBSG_TabNavigation.xml
2018.12.03 12:57:57   info : tagname object successfully mapped!!
2018.12.03 12:57:57   info : tagname object contains property value !!
2018.12.03 12:57:57   info : Property name - tagname
2018.12.03 12:57:57   info : Property value - span
2018.12.03 12:57:57   info : Finding tagname element on webpage..
2018.12.03 12:57:57   info : Element found!!
2018.12.03 12:57:57   info : Size of element 6
2018.12.03 12:57:57   info : actData Home
2018.12.03 12:59:45   info : actData Start Enrollment
2018.12.03 12:59:48   info : actData My Details
2018.12.03 12:59:49   info : actData Statement of Account
2018.12.03 12:59:51   info : actData My Benefits
2018.12.03 12:59:52   info : actData Claims
