2019.01.22 04:41:44   info : Selenium version :: 2.48.2
2019.01.22 04:41:44   info : Download fodler path created!!
2019.01.22 04:41:44   info : date_time_down_folder C:\Talent_Automation_Framework_Backup\Project_Talent\Downloads\2019_01_22\time_16_41_44\
2019.01.22 04:41:45   info : Total number of applications :: 4
2019.01.22 04:41:45   info : Application Name - Latest_Simp
2019.01.22 04:41:45   info : TestData_Sheet path:: C:\Talent_Automation_Framework_Backup\Project_Talent/TestCases/Latest_Simp.xlsx
2019.01.22 04:41:45   info : CSV updating and creating dump....
2019.01.22 04:41:46   info : Sheet name: Scenarios
2019.01.22 04:41:46   info : Sheet name: TestCaseScheduler
2019.01.22 04:41:46   info : Sheet name: Test Case
2019.01.22 04:41:46   info : Latest_Simp sheetname found!!
2019.01.22 04:41:46   info : Total row 1442
2019.01.22 04:41:46   info : After row validation for blank or null!!
2019.01.22 04:41:46   info : Total final row 1441
2019.01.22 04:41:47   info : Total number of test cases to be executed :: 1
2019.01.22 04:41:47   info : PrevTestID - null == null && row 1047<= 1441
2019.01.22 04:41:47   info : Test ID TC10 : previous test step/row 1046 status is Passed and value of next test step/row is :: 1047
2019.01.22 04:41:47   info : 

2019.01.22 04:41:47   info : -------------------- Executing Testcase ID TC10 and test step : 1047 ---------------------- 
2019.01.22 04:41:47   info : please wait.. browser getting open !!
2019.01.22 04:41:48   error : org.openqa.selenium.WebDriverException: Failed to connect to binary FirefoxBinary(C:\eclipse\firefox.exe) on port 7055; process output follows: 
null
Build info: version: '2.48.2', revision: '41bccdd', time: '2015-10-09 19:55:52'
System info: host: 'INGGNEDJ67QYX1', ip: '10.197.134.147', os.name: 'Windows 7', os.arch: 'amd64', os.version: '6.1', java.version: '1.7.0_71'
Driver info: driver.version: Driver
2019.01.22 04:41:49   info : restult status : 2
2019.01.22 04:41:49   info : Test ID TC10 : previous test step/row 1047 status is Failed and value of next test step/row is :: 1048
2019.01.22 04:41:49   info : Test ID TC10 : previous test step/row 1048 status is Failed and value of next test step/row is :: 1049
2019.01.22 04:41:49   info : Test ID TC10 : previous test step/row 1049 status is Failed and value of next test step/row is :: 1050
2019.01.22 04:41:49   info : Test ID TC10 : previous test step/row 1050 status is Failed and value of next test step/row is :: 1051
2019.01.22 04:41:49   info : Test ID TC10 : previous test step/row 1051 status is Failed and value of next test step/row is :: 1052
2019.01.22 04:41:49   info : Test ID TC10 : previous test step/row 1052 status is Failed and value of next test step/row is :: 1053
2019.01.22 04:41:49   info : Test ID TC10 : previous test step/row 1053 status is Failed and value of next test step/row is :: 1054
2019.01.22 04:41:49   info : Test ID TC10 : previous test step/row 1054 status is Failed and value of next test step/row is :: 1055
2019.01.22 04:41:49   info : Test ID TC10 : previous test step/row 1055 status is Failed and value of next test step/row is :: 1056
2019.01.22 04:41:49   info : Test ID TC10 : previous test step/row 1056 status is Failed and value of next test step/row is :: 1057
2019.01.22 04:41:49   info : Test ID TC10 : previous test step/row 1057 status is Failed and value of next test step/row is :: 1058
2019.01.22 04:41:49   info : Test ID TC10 : previous test step/row 1058 status is Failed and value of next test step/row is :: 1059
2019.01.22 04:41:49   info : Test ID TC10 : previous test step/row 1059 status is Failed and value of next test step/row is :: 1060
2019.01.22 04:41:49   info : Test ID TC10 : previous test step/row 1060 status is Failed and value of next test step/row is :: 1061
2019.01.22 04:41:49   info : Test ID TC10 : previous test step/row 1061 status is Failed and value of next test step/row is :: 1062
2019.01.22 04:41:49   info : Test ID TC10 : previous test step/row 1062 status is Failed and value of next test step/row is :: 1063
2019.01.22 04:41:49   info : Test ID TC10 : previous test step/row 1063 status is Failed and value of next test step/row is :: 1064
2019.01.22 04:41:49   info : Test ID TC10 : previous test step/row 1064 status is Failed and value of next test step/row is :: 1065
2019.01.22 04:41:49   info : Test ID TC10 : previous test step/row 1065 status is Failed and value of next test step/row is :: 1066
2019.01.22 04:41:49   info : Test ID TC10 : previous test step/row 1066 status is Failed and value of next test step/row is :: 1067
2019.01.22 04:41:49   info : Test ID TC10 : previous test step/row 1067 status is Failed and value of next test step/row is :: 1068
2019.01.22 04:41:49   info : Test ID TC10 : previous test step/row 1068 status is Failed and value of next test step/row is :: 1069
2019.01.22 04:41:49   info : Test ID TC10 : previous test step/row 1069 status is Failed and value of next test step/row is :: 1070
2019.01.22 04:41:49   info : Test ID TC10 : previous test step/row 1070 status is Failed and value of next test step/row is :: 1071
2019.01.22 04:41:49   info : Test ID TC10 : previous test step/row 1071 status is Failed and value of next test step/row is :: 1072
2019.01.22 04:41:49   info : Test ID TC10 : previous test step/row 1072 status is Failed and value of next test step/row is :: 1073
2019.01.22 04:41:49   info : Row TC10!=TC11 || (TC11==null)) && (1073<=1441)
2019.01.22 04:41:49   info : Status :: Failed :: Finalizing result report
2019.01.22 04:41:49   info : closing window...
2019.01.22 04:41:49   warn : exceptionHandler called!!
2019.01.22 04:41:49   error : java.lang.NullPointerException
2019.01.22 04:41:49   info : Row TC10!=TC11 || (TC11==null)) && (1074<=1441)
2019.01.22 04:41:49   info : Status :: Failed :: Finalizing result report
2019.01.22 04:41:49   info : closing window...
2019.01.22 04:41:49   warn : exceptionHandler called!!
2019.01.22 04:41:50   error : java.lang.NullPointerException
2019.01.22 04:41:50   info : Row TC10!=TC11 || (TC11==null)) && (1075<=1441)
2019.01.22 04:41:50   info : Status :: Failed :: Finalizing result report
2019.01.22 04:41:50   info : closing window...
2019.01.22 04:41:50   warn : exceptionHandler called!!
2019.01.22 04:41:50   error : java.lang.NullPointerException
2019.01.22 04:41:50   info : Row TC10!=TC11 || (TC11==null)) && (1076<=1441)
2019.01.22 04:41:50   info : Status :: Failed :: Finalizing result report
2019.01.22 04:41:50   info : closing window...
2019.01.22 04:41:50   warn : exceptionHandler called!!
2019.01.22 04:41:50   error : java.lang.NullPointerException
2019.01.22 04:41:50   info : Row TC10!=TC11 || (TC11==null)) && (1077<=1441)
2019.01.22 04:41:50   info : Status :: Failed :: Finalizing result report
2019.01.22 04:41:50   info : closing window...
2019.01.22 04:41:50   warn : exceptionHandler called!!
2019.01.22 04:41:50   error : java.lang.NullPointerException
2019.01.22 04:41:50   info : Row TC10!=TC11 || (TC11==null)) && (1078<=1441)
2019.01.22 04:41:50   info : Status :: Failed :: Finalizing result report
2019.01.22 04:41:50   info : closing window...
2019.01.22 04:41:50   warn : exceptionHandler called!!
2019.01.22 04:41:51   error : java.lang.NullPointerException
2019.01.22 04:41:51   info : Row TC10!=TC11 || (TC11==null)) && (1079<=1441)
2019.01.22 04:41:51   info : Status :: Failed :: Finalizing result report
2019.01.22 04:41:51   info : closing window...
2019.01.22 04:41:51   warn : exceptionHandler called!!
2019.01.22 04:41:51   error : java.lang.NullPointerException
2019.01.22 04:41:51   info : Row TC10!=TC11 || (TC11==null)) && (1080<=1441)
2019.01.22 04:41:51   info : Status :: Failed :: Finalizing result report
