2019.01.22 03:46:16   info : Selenium version :: 2.48.2
2019.01.22 03:46:16   info : Download fodler path created!!
2019.01.22 03:46:16   info : date_time_down_folder C:\Talent_Automation_Framework_Backup\Project_Talent\Downloads\2019_01_22\time_15_46_16\
2019.01.22 03:46:17   info : Total number of applications :: 4
2019.01.22 03:46:17   info : Application Name - Latest_Simp
2019.01.22 03:46:17   info : TestData_Sheet path:: C:\Talent_Automation_Framework_Backup\Project_Talent/TestCases/Latest_Simp.xlsx
2019.01.22 03:46:17   info : CSV updating and creating dump....
2019.01.22 03:46:18   info : Sheet name: Scenarios
2019.01.22 03:46:18   info : Sheet name: TestCaseScheduler
2019.01.22 03:46:18   info : Sheet name: Test Case
2019.01.22 03:46:18   info : Latest_Simp sheetname found!!
2019.01.22 03:46:18   info : Total row 1453
2019.01.22 03:46:18   info : After row validation for blank or null!!
2019.01.22 03:46:18   info : Total final row 1452
2019.01.22 03:46:19   info : Total number of test cases to be executed :: 1
2019.01.22 03:46:19   info : PrevTestID - null == null && row 1047<= 1452
2019.01.22 03:46:19   info : Test ID TC10 : previous test step/row 1046 status is Passed and value of next test step/row is :: 1047
2019.01.22 03:46:19   info : 

2019.01.22 03:46:19   info : -------------------- Executing Testcase ID TC10 and test step : 1047 ---------------------- 
2019.01.22 03:46:19   info : please wait.. browser getting open !!
2019.01.22 03:46:30   info : Opening Application..
2019.01.22 03:46:35   info : Current WebDriver Win Count is:: 1
2019.01.22 03:46:35   info : restult status : 1
2019.01.22 03:46:36   info : Test ID TC10 : previous test step/row 1047 status is Passed and value of next test step/row is :: 1048
2019.01.22 03:46:36   info : 

2019.01.22 03:46:36   info : -------------------- Executing Testcase ID TC10 and test step : 1048 ---------------------- 
2019.01.22 03:46:37   info : Current WebDriver Win Count is:: 1
2019.01.22 03:46:37   info : Xml obj_repo path C:\Talent_Automation_Framework_Backup\Project_Talent/ObjectRepositories/BenefitAsia2_MercerAdmin/MA_Home.xml
2019.01.22 03:46:37   info : Title in xml file - Home
2019.01.22 03:46:37   warn : Window is not switched, now trying based on element!!
2019.01.22 03:46:37   info : Window title Mercer Account Center
2019.01.22 03:46:37   info : Xml obj_repo path C:\Talent_Automation_Framework_Backup\Project_Talent/ObjectRepositories/BenefitAsia2_MercerAdmin/MA_Home.xml
2019.01.22 03:46:37   info : xpath object successfully mapped!!
2019.01.22 03:46:37   info : xpath object contains property value !!
2019.01.22 03:46:37   info : Property name - xpath
2019.01.22 03:46:37   info : Property value - //input[contains(@id,"ContentPlaceHolder1_TextBox1")]
2019.01.22 03:46:37   info : Finding xpath element on webpage..
2019.01.22 03:46:37   info : Searching for element. Try number 0
2019.01.22 03:46:38   info : element disappeared after trying for 1 times
2019.01.22 03:46:39   info : Current WebDriver Win Count is:: 1
2019.01.22 03:46:39   info : Element found!!
2019.01.22 03:46:39   info : Desired window is activated!!
2019.01.22 03:46:39   info : Total static wait time 3
2019.01.22 03:46:42   info : Xml obj_repo path C:\Talent_Automation_Framework_Backup\Project_Talent/ObjectRepositories/BenefitAsia2_MercerAdmin/MA_Home.xml
2019.01.22 03:46:42   info : xpath object successfully mapped!!
2019.01.22 03:46:42   info : xpath object contains property value !!
2019.01.22 03:46:42   info : Property name - xpath
2019.01.22 03:46:42   info : Property value - //input[contains(@id,"ContentPlaceHolder1_TextBox1")]
2019.01.22 03:46:42   info : Finding xpath element on webpage..
2019.01.22 03:46:42   info : Searching for element. Try number 0
2019.01.22 03:46:43   info : element disappeared after trying for 1 times
2019.01.22 03:46:44   info : Current WebDriver Win Count is:: 1
2019.01.22 03:46:44   info : Element found!!
2019.01.22 03:46:44   info : ObjectTag input and ObjectType text
2019.01.22 03:46:44   info : Enter data operation
2019.01.22 03:46:45   info : Xml obj_repo path C:\Talent_Automation_Framework_Backup\Project_Talent/ObjectRepositories/BenefitAsia2_MercerAdmin/MA_Home.xml
2019.01.22 03:46:45   info : xpath object successfully mapped!!
2019.01.22 03:46:45   info : xpath object contains property value !!
2019.01.22 03:46:45   info : Property name - xpath
2019.01.22 03:46:45   info : Property value - //input[contains(@id,"ContentPlaceHolder1_TextBox1")]
2019.01.22 03:46:45   info : Finding xpath element on webpage..
2019.01.22 03:46:45   info : Searching for element. Try number 0
2019.01.22 03:46:46   info : element disappeared after trying for 1 times
2019.01.22 03:46:47   info : Current WebDriver Win Count is:: 1
2019.01.22 03:46:48   info : Element found!!
2019.01.22 03:46:48   info : Xml obj_repo path C:\Talent_Automation_Framework_Backup\Project_Talent/ObjectRepositories/BenefitAsia2_MercerAdmin/MA_Home.xml
2019.01.22 03:46:48   info : xpath object successfully mapped!!
2019.01.22 03:46:48   info : xpath object contains property value !!
2019.01.22 03:46:48   info : Property name - xpath
2019.01.22 03:46:48   info : Property value - //input[contains(@id,"ContentPlaceHolder1_TextBox1")]
2019.01.22 03:46:48   info : Finding xpath element on webpage..
2019.01.22 03:46:48   info : Searching for element. Try number 0
2019.01.22 03:46:49   info : element disappeared after trying for 1 times
2019.01.22 03:46:50   info : Current WebDriver Win Count is:: 1
2019.01.22 03:46:50   info : Element found!!
2019.01.22 03:46:50   info : ValueToEnter ashish.choudhary@mercer.com
2019.01.22 03:46:50   info : Entered value is ashish.choudhary@mercer.com
2019.01.22 03:46:50   info : Attribute entered value ashish.choudhary@mercer.com
2019.01.22 03:46:51   info : Current WebDriver Win Count is:: 1
2019.01.22 03:46:51   info : restult status : 1
2019.01.22 03:46:51   info : Test ID TC10 : previous test step/row 1048 status is Passed and value of next test step/row is :: 1049
2019.01.22 03:46:51   info : 

2019.01.22 03:46:51   info : -------------------- Executing Testcase ID TC10 and test step : 1049 ---------------------- 
2019.01.22 03:46:53   info : Current WebDriver Win Count is:: 1
2019.01.22 03:46:53   info : page object present in excel : 1
2019.01.22 03:46:53   info : Under single object handle operation!!
2019.01.22 03:46:53   info : col 6 data :  and col 5 data : SSO_Next_Button
2019.01.22 03:46:53   info : Normal click operation !!
2019.01.22 03:46:53   info : Checking for object in click
2019.01.22 03:46:53   info : Xml obj_repo path C:\Talent_Automation_Framework_Backup\Project_Talent/ObjectRepositories/BenefitAsia2_MercerAdmin/MA_Home.xml
2019.01.22 03:46:53   info : xpath object successfully mapped!!
2019.01.22 03:46:53   info : xpath object contains property value !!
2019.01.22 03:46:53   info : Property name - xpath
2019.01.22 03:46:53   info : Property value - //input[contains(@id,"ContentPlaceHolder1_PassiveSignInButton")]
2019.01.22 03:46:53   info : Finding xpath element on webpage..
2019.01.22 03:46:53   info : Searching for element. Try number 0
2019.01.22 03:46:54   info : element disappeared after trying for 1 times
2019.01.22 03:46:55   info : Current WebDriver Win Count is:: 1
2019.01.22 03:46:55   info : Element found!!
2019.01.22 03:46:55   info : Xml obj_repo path C:\Talent_Automation_Framework_Backup\Project_Talent/ObjectRepositories/BenefitAsia2_MercerAdmin/MA_Home.xml
2019.01.22 03:46:55   info : xpath object successfully mapped!!
2019.01.22 03:46:55   info : xpath object contains property value !!
2019.01.22 03:46:55   info : Property name - xpath
2019.01.22 03:46:55   info : Property value - //input[contains(@id,"ContentPlaceHolder1_PassiveSignInButton")]
2019.01.22 03:46:55   info : Finding xpath element on webpage..
2019.01.22 03:46:55   info : Searching for element. Try number 0
2019.01.22 03:46:56   info : element disappeared after trying for 1 times
2019.01.22 03:46:57   info : Current WebDriver Win Count is:: 1
2019.01.22 03:46:57   info : Element found!!
2019.01.22 03:47:02   info : clicked on SSO_Next_Button
2019.01.22 03:47:03   info : Current WebDriver Win Count is:: 1
2019.01.22 03:47:07   info : restult status : 1
2019.01.22 03:47:07   info : Test ID TC10 : previous test step/row 1049 status is Passed and value of next test step/row is :: 1050
2019.01.22 03:47:07   info : 

2019.01.22 03:47:07   info : -------------------- Executing Testcase ID TC10 and test step : 1050 ---------------------- 
2019.01.22 03:47:09   info : Current WebDriver Win Count is:: 1
2019.01.22 03:47:09   info : not doing anything!!
2019.01.22 03:47:09   info : Navigating to another url..
2019.01.22 03:47:13   info : Current WebDriver Win Count is:: 1
2019.01.22 03:47:13   info : restult status : 1
2019.01.22 03:47:13   info : Test ID TC10 : previous test step/row 1050 status is Passed and value of next test step/row is :: 1051
2019.01.22 03:47:13   info : 

2019.01.22 03:47:13   info : -------------------- Executing Testcase ID TC10 and test step : 1051 ---------------------- 
2019.01.22 03:47:14   info : Current WebDriver Win Count is:: 1
2019.01.22 03:47:14   info : Total static wait time 3
2019.01.22 03:47:17   info : Xml obj_repo path C:\Talent_Automation_Framework_Backup\Project_Talent/ObjectRepositories/BenefitAsia2_MercerAdmin/MA_SOA.xml
2019.01.22 03:47:17   info : xpath object successfully mapped!!
2019.01.22 03:47:17   info : xpath object contains property value !!
2019.01.22 03:47:17   info : Property name - xpath
2019.01.22 03:47:17   info : Property value - //*[contains(@id,"_SearchEmployee_txtSearch")]
2019.01.22 03:47:17   info : Finding xpath element on webpage..
2019.01.22 03:47:17   info : Searching for element. Try number 0
2019.01.22 03:47:18   info : element disappeared after trying for 1 times
2019.01.22 03:47:19   info : Current WebDriver Win Count is:: 1
2019.01.22 03:47:19   info : Element found!!
2019.01.22 03:47:19   info : ObjectTag input and ObjectType text
2019.01.22 03:47:19   info : Enter data operation
2019.01.22 03:47:20   info : Xml obj_repo path C:\Talent_Automation_Framework_Backup\Project_Talent/ObjectRepositories/BenefitAsia2_MercerAdmin/MA_SOA.xml
2019.01.22 03:47:20   info : xpath object successfully mapped!!
2019.01.22 03:47:20   info : xpath object contains property value !!
2019.01.22 03:47:20   info : Property name - xpath
2019.01.22 03:47:20   info : Property value - //*[contains(@id,"_SearchEmployee_txtSearch")]
2019.01.22 03:47:20   info : Finding xpath element on webpage..
2019.01.22 03:47:20   info : Searching for element. Try number 0
2019.01.22 03:47:21   info : element disappeared after trying for 1 times
2019.01.22 03:47:23   info : Current WebDriver Win Count is:: 1
2019.01.22 03:47:23   info : Element found!!
2019.01.22 03:47:23   info : Xml obj_repo path C:\Talent_Automation_Framework_Backup\Project_Talent/ObjectRepositories/BenefitAsia2_MercerAdmin/MA_SOA.xml
2019.01.22 03:47:23   info : xpath object successfully mapped!!
2019.01.22 03:47:23   info : xpath object contains property value !!
2019.01.22 03:47:23   info : Property name - xpath
2019.01.22 03:47:23   info : Property value - //*[contains(@id,"_SearchEmployee_txtSearch")]
2019.01.22 03:47:23   info : Finding xpath element on webpage..
2019.01.22 03:47:23   info : Searching for element. Try number 0
2019.01.22 03:47:24   info : element disappeared after trying for 1 times
2019.01.22 03:47:25   info : Current WebDriver Win Count is:: 1
2019.01.22 03:47:25   info : Element found!!
2019.01.22 03:47:25   info : ValueToEnter Simpli_22jan_009
2019.01.22 03:47:25   info : Entered value is Simpli_22jan_009
2019.01.22 03:47:25   info : Attribute entered value Simpli_22jan_009
2019.01.22 03:47:26   info : Current WebDriver Win Count is:: 1
2019.01.22 03:47:26   info : restult status : 1
2019.01.22 03:47:26   info : Test ID TC10 : previous test step/row 1051 status is Passed and value of next test step/row is :: 1052
2019.01.22 03:47:26   info : 

2019.01.22 03:47:26   info : -------------------- Executing Testcase ID TC10 and test step : 1052 ---------------------- 
2019.01.22 03:47:27   info : Current WebDriver Win Count is:: 1
2019.01.22 03:47:27   info : Total static wait time 3
2019.01.22 03:47:30   info : Xml obj_repo path C:\Talent_Automation_Framework_Backup\Project_Talent/ObjectRepositories/BenefitAsia2_MercerAdmin/MA_SOA.xml
2019.01.22 03:47:30   info : xpath object successfully mapped!!
2019.01.22 03:47:30   info : xpath object contains property value !!
2019.01.22 03:47:30   info : Property name - xpath
2019.01.22 03:47:30   info : Property value - //*[contains(@id,"_SearchEmployee_rdbsearch_2")]
2019.01.22 03:47:30   info : Finding xpath element on webpage..
2019.01.22 03:47:30   info : Searching for element. Try number 0
2019.01.22 03:47:31   info : element disappeared after trying for 1 times
2019.01.22 03:47:32   info : Current WebDriver Win Count is:: 1
2019.01.22 03:47:32   info : Element found!!
2019.01.22 03:47:32   info : ObjectTag input and ObjectType radio
2019.01.22 03:47:32   info : Radio operation 
2019.01.22 03:47:32   info : Xml obj_repo path C:\Talent_Automation_Framework_Backup\Project_Talent/ObjectRepositories/BenefitAsia2_MercerAdmin/MA_SOA.xml
2019.01.22 03:47:32   info : xpath object successfully mapped!!
2019.01.22 03:47:32   info : xpath object contains property value !!
2019.01.22 03:47:32   info : Property name - xpath
2019.01.22 03:47:32   info : Property value - //*[contains(@id,"_SearchEmployee_rdbsearch_2")]
2019.01.22 03:47:32   info : Finding xpath element on webpage..
2019.01.22 03:47:32   info : Searching for element. Try number 0
2019.01.22 03:47:33   info : element disappeared after trying for 1 times
2019.01.22 03:47:34   info : Current WebDriver Win Count is:: 1
2019.01.22 03:47:34   info : Element found!!
2019.01.22 03:47:35   info : Current WebDriver Win Count is:: 1
2019.01.22 03:47:35   info : restult status : 1
2019.01.22 03:47:36   info : Test ID TC10 : previous test step/row 1052 status is Passed and value of next test step/row is :: 1053
2019.01.22 03:47:36   info : 

2019.01.22 03:47:36   info : -------------------- Executing Testcase ID TC10 and test step : 1053 ---------------------- 
2019.01.22 03:47:37   info : Current WebDriver Win Count is:: 1
2019.01.22 03:47:37   info : page object present in excel : 1
2019.01.22 03:47:37   info : Under single object handle operation!!
2019.01.22 03:47:37   info : col 6 data :  and col 5 data : SearchButton
2019.01.22 03:47:37   info : Normal click operation !!
2019.01.22 03:47:37   info : Checking for object in click
2019.01.22 03:47:37   info : Xml obj_repo path C:\Talent_Automation_Framework_Backup\Project_Talent/ObjectRepositories/BenefitAsia2_MercerAdmin/MA_SOA.xml
2019.01.22 03:47:37   info : xpath object successfully mapped!!
2019.01.22 03:47:37   info : xpath object contains property value !!
2019.01.22 03:47:37   info : Property name - xpath
2019.01.22 03:47:37   info : Property value - //*[contains(@id,"_SearchEmployee_btnSearch")]
2019.01.22 03:47:37   info : Finding xpath element on webpage..
2019.01.22 03:47:37   info : Searching for element. Try number 0
2019.01.22 03:47:38   info : element disappeared after trying for 1 times
2019.01.22 03:47:39   info : Current WebDriver Win Count is:: 1
2019.01.22 03:47:39   info : Element found!!
2019.01.22 03:47:39   info : Xml obj_repo path C:\Talent_Automation_Framework_Backup\Project_Talent/ObjectRepositories/BenefitAsia2_MercerAdmin/MA_SOA.xml
2019.01.22 03:47:39   info : xpath object successfully mapped!!
2019.01.22 03:47:39   info : xpath object contains property value !!
2019.01.22 03:47:39   info : Property name - xpath
2019.01.22 03:47:39   info : Property value - //*[contains(@id,"_SearchEmployee_btnSearch")]
2019.01.22 03:47:39   info : Finding xpath element on webpage..
2019.01.22 03:47:39   info : Searching for element. Try number 0
2019.01.22 03:47:40   info : element disappeared after trying for 1 times
2019.01.22 03:47:41   info : Current WebDriver Win Count is:: 1
2019.01.22 03:47:41   info : Element found!!
2019.01.22 03:47:42   info : clicked on SearchButton
2019.01.22 03:47:43   info : Current WebDriver Win Count is:: 1
2019.01.22 03:47:43   info : restult status : 1
2019.01.22 03:47:43   info : Test ID TC10 : previous test step/row 1053 status is Passed and value of next test step/row is :: 1054
2019.01.22 03:47:43   info : 

2019.01.22 03:47:43   info : -------------------- Executing Testcase ID TC10 and test step : 1054 ---------------------- 
2019.01.22 03:47:44   info : Current WebDriver Win Count is:: 1
2019.01.22 03:47:44   info : page object present in excel : 1
2019.01.22 03:47:44   info : Under single object handle operation!!
2019.01.22 03:47:44   info : col 6 data :  and col 5 data : EmployeeName
2019.01.22 03:47:44   info : Normal click operation !!
2019.01.22 03:47:44   info : Checking for object in click
2019.01.22 03:47:44   info : Xml obj_repo path C:\Talent_Automation_Framework_Backup\Project_Talent/ObjectRepositories/BenefitAsia2_MercerAdmin/MA_SOA.xml
2019.01.22 03:47:44   info : xpath object successfully mapped!!
2019.01.22 03:47:44   info : xpath object contains property value !!
2019.01.22 03:47:44   info : Property name - xpath
2019.01.22 03:47:44   info : Property value - //*[contains(@id,"_SearchEmployee_GrdEmployee")]/tbody/tr[td//text()[contains(translate(.,'ABCDEFGHIJKLMNOPQRSTUVWXYZ','abcdefghijklmnopqrstuvwxyz'), '1')]]/td[count(//*[contains(@id,"_SearchEmployee_GrdEmployee")]/tbody/tr[1]/th[contains(translate(., 'ABCDEFGHIJKLMNOPQRSTUVWXYZ', 'abcdefghijklmnopqrstuvwxyz'), 'name')]/preceding-sibling::th)+1]/a
2019.01.22 03:47:44   info : Finding xpath element on webpage..
2019.01.22 03:47:44   info : Searching for element. Try number 0
2019.01.22 03:47:45   info : element disappeared after trying for 1 times
2019.01.22 03:47:46   info : Current WebDriver Win Count is:: 1
2019.01.22 03:47:46   info : Element found!!
2019.01.22 03:47:46   info : Xml obj_repo path C:\Talent_Automation_Framework_Backup\Project_Talent/ObjectRepositories/BenefitAsia2_MercerAdmin/MA_SOA.xml
2019.01.22 03:47:46   info : xpath object successfully mapped!!
2019.01.22 03:47:46   info : xpath object contains property value !!
2019.01.22 03:47:46   info : Property name - xpath
2019.01.22 03:47:46   info : Property value - //*[contains(@id,"_SearchEmployee_GrdEmployee")]/tbody/tr[td//text()[contains(translate(.,'ABCDEFGHIJKLMNOPQRSTUVWXYZ','abcdefghijklmnopqrstuvwxyz'), '1')]]/td[count(//*[contains(@id,"_SearchEmployee_GrdEmployee")]/tbody/tr[1]/th[contains(translate(., 'ABCDEFGHIJKLMNOPQRSTUVWXYZ', 'abcdefghijklmnopqrstuvwxyz'), 'name')]/preceding-sibling::th)+1]/a
2019.01.22 03:47:46   info : Finding xpath element on webpage..
2019.01.22 03:47:46   info : Searching for element. Try number 0
2019.01.22 03:47:47   info : element disappeared after trying for 1 times
2019.01.22 03:47:48   info : Current WebDriver Win Count is:: 1
2019.01.22 03:47:48   info : Element found!!
2019.01.22 03:47:50   info : clicked on EmployeeName
2019.01.22 03:47:51   info : Current WebDriver Win Count is:: 1
2019.01.22 03:47:51   info : restult status : 1
2019.01.22 03:47:51   info : Test ID TC10 : previous test step/row 1054 status is Passed and value of next test step/row is :: 1055
2019.01.22 03:47:51   info : 

2019.01.22 03:47:51   info : -------------------- Executing Testcase ID TC10 and test step : 1055 ---------------------- 
2019.01.22 03:47:53   info : Current WebDriver Win Count is:: 1
2019.01.22 03:47:53   info : Xml obj_repo path C:\Talent_Automation_Framework_Backup\Project_Talent/ObjectRepositories/BenefitAsia2_MercerAdmin/MA_AddNewHire.xml
2019.01.22 03:47:53   info : Title contains null value in xml!!
2019.01.22 03:47:53   info : Window title BA2Admin > My Details > Personal Details
2019.01.22 03:47:53   info : Xml obj_repo path C:\Talent_Automation_Framework_Backup\Project_Talent/ObjectRepositories/BenefitAsia2_MercerAdmin/MA_AddNewHire.xml
2019.01.22 03:47:53   info : xpath object successfully mapped!!
2019.01.22 03:47:53   info : xpath object contains property value !!
2019.01.22 03:47:53   info : Property name - xpath
2019.01.22 03:47:53   info : Property value - //*[contains(@id,"_EditEmployee_btnEdit")]
2019.01.22 03:47:53   info : Finding xpath element on webpage..
2019.01.22 03:47:53   info : Searching for element. Try number 0
2019.01.22 03:47:54   info : element disappeared after trying for 1 times
2019.01.22 03:47:55   info : Current WebDriver Win Count is:: 1
2019.01.22 03:47:55   info : Element found!!
2019.01.22 03:47:55   info : Desired window is activated!!
2019.01.22 03:47:55   info : page object present in excel : 1
2019.01.22 03:47:55   info : Under single object handle operation!!
2019.01.22 03:47:55   info : col 6 data :  and col 5 data : Edit_Button
2019.01.22 03:47:55   info : Normal click operation !!
2019.01.22 03:47:55   info : Checking for object in click
2019.01.22 03:47:55   info : Xml obj_repo path C:\Talent_Automation_Framework_Backup\Project_Talent/ObjectRepositories/BenefitAsia2_MercerAdmin/MA_AddNewHire.xml
2019.01.22 03:47:55   info : xpath object successfully mapped!!
2019.01.22 03:47:55   info : xpath object contains property value !!
2019.01.22 03:47:55   info : Property name - xpath
2019.01.22 03:47:55   info : Property value - //*[contains(@id,"_EditEmployee_btnEdit")]
2019.01.22 03:47:55   info : Finding xpath element on webpage..
2019.01.22 03:47:55   info : Searching for element. Try number 0
2019.01.22 03:47:56   info : element disappeared after trying for 1 times
2019.01.22 03:47:57   info : Current WebDriver Win Count is:: 1
2019.01.22 03:47:57   info : Element found!!
2019.01.22 03:47:57   info : Xml obj_repo path C:\Talent_Automation_Framework_Backup\Project_Talent/ObjectRepositories/BenefitAsia2_MercerAdmin/MA_AddNewHire.xml
2019.01.22 03:47:57   info : xpath object successfully mapped!!
2019.01.22 03:47:57   info : xpath object contains property value !!
2019.01.22 03:47:57   info : Property name - xpath
2019.01.22 03:47:57   info : Property value - //*[contains(@id,"_EditEmployee_btnEdit")]
2019.01.22 03:47:57   info : Finding xpath element on webpage..
2019.01.22 03:47:57   info : Searching for element. Try number 0
2019.01.22 03:47:58   info : element disappeared after trying for 1 times
2019.01.22 03:47:59   info : Current WebDriver Win Count is:: 1
2019.01.22 03:47:59   info : Element found!!
2019.01.22 03:47:59   info : clicked on Edit_Button
2019.01.22 03:48:00   info : Current WebDriver Win Count is:: 1
2019.01.22 03:48:01   info : restult status : 1
2019.01.22 03:48:01   info : Test ID TC10 : previous test step/row 1055 status is Passed and value of next test step/row is :: 1056
2019.01.22 03:48:01   info : 

2019.01.22 03:48:01   info : -------------------- Executing Testcase ID TC10 and test step : 1056 ---------------------- 
2019.01.22 03:48:02   info : Current WebDriver Win Count is:: 1
2019.01.22 03:48:02   info : Total static wait time 3
2019.01.22 03:48:05   info : Xml obj_repo path C:\Talent_Automation_Framework_Backup\Project_Talent/ObjectRepositories/BenefitAsia2_MercerAdmin/MA_AddNewHire.xml
2019.01.22 03:48:05   info : xpath object successfully mapped!!
2019.01.22 03:48:05   info : xpath object contains property value !!
2019.01.22 03:48:05   info : Property name - xpath
2019.01.22 03:48:05   info : Property value - //*[contains(@id,"_EditEmployee_lstStatus")]
2019.01.22 03:48:05   info : Finding xpath element on webpage..
2019.01.22 03:48:05   info : Searching for element. Try number 0
2019.01.22 03:48:06   info : element disappeared after trying for 1 times
2019.01.22 03:48:07   info : Current WebDriver Win Count is:: 1
2019.01.22 03:48:07   info : Element found!!
2019.01.22 03:48:07   info : ObjectTag select and ObjectType null
2019.01.22 03:48:07   info : select combobox operation 
2019.01.22 03:48:07   info : Xml obj_repo path C:\Talent_Automation_Framework_Backup\Project_Talent/ObjectRepositories/BenefitAsia2_MercerAdmin/MA_AddNewHire.xml
2019.01.22 03:48:07   info : xpath object successfully mapped!!
2019.01.22 03:48:07   info : xpath object contains property value !!
2019.01.22 03:48:08   info : Property name - xpath
2019.01.22 03:48:08   info : Property value - //*[contains(@id,"_EditEmployee_lstStatus")]
2019.01.22 03:48:08   info : Finding xpath element on webpage..
2019.01.22 03:48:08   info : Searching for element. Try number 0
2019.01.22 03:48:09   info : element disappeared after trying for 1 times
2019.01.22 03:48:10   info : Current WebDriver Win Count is:: 1
2019.01.22 03:48:10   info : Element found!!
2019.01.22 03:48:10   info : Xml obj_repo path C:\Talent_Automation_Framework_Backup\Project_Talent/ObjectRepositories/BenefitAsia2_MercerAdmin/MA_AddNewHire.xml
2019.01.22 03:48:10   info : xpath object successfully mapped!!
2019.01.22 03:48:10   info : xpath object contains property value !!
2019.01.22 03:48:10   info : Property name - xpath
2019.01.22 03:48:10   info : Property value - //*[contains(@id,"_EditEmployee_lstStatus")]
2019.01.22 03:48:10   info : Finding xpath element on webpage..
2019.01.22 03:48:10   info : Element found!!
2019.01.22 03:48:10   info : TERMINATED value selected!!
2019.01.22 03:48:12   info : Alert is not present
2019.01.22 03:48:13   info : Current WebDriver Win Count is:: 1
2019.01.22 03:48:13   info : restult status : 1
2019.01.22 03:48:13   info : Test ID TC10 : previous test step/row 1056 status is Passed and value of next test step/row is :: 1057
2019.01.22 03:48:13   info : 

2019.01.22 03:48:13   info : -------------------- Executing Testcase ID TC10 and test step : 1057 ---------------------- 
2019.01.22 03:48:14   info : Current WebDriver Win Count is:: 1
2019.01.22 03:48:14   info : Total static wait time 3
2019.01.22 03:48:17   info : Xml obj_repo path C:\Talent_Automation_Framework_Backup\Project_Talent/ObjectRepositories/BenefitAsia2_MercerAdmin/MA_AddNewHire.xml
2019.01.22 03:48:17   info : xpath object successfully mapped!!
2019.01.22 03:48:17   info : xpath object contains property value !!
2019.01.22 03:48:17   info : Property name - xpath
2019.01.22 03:48:17   info : Property value - //table//*[text()='Termination Type']/parent::td/following-sibling::td/select
2019.01.22 03:48:17   info : Finding xpath element on webpage..
2019.01.22 03:48:17   info : Searching for element. Try number 0
2019.01.22 03:48:18   info : element disappeared after trying for 1 times
2019.01.22 03:48:19   info : Current WebDriver Win Count is:: 1
2019.01.22 03:48:19   info : Element found!!
2019.01.22 03:48:19   info : ObjectTag select and ObjectType null
2019.01.22 03:48:19   info : select combobox operation 
2019.01.22 03:48:19   info : Xml obj_repo path C:\Talent_Automation_Framework_Backup\Project_Talent/ObjectRepositories/BenefitAsia2_MercerAdmin/MA_AddNewHire.xml
2019.01.22 03:48:19   info : xpath object successfully mapped!!
2019.01.22 03:48:19   info : xpath object contains property value !!
2019.01.22 03:48:19   info : Property name - xpath
2019.01.22 03:48:19   info : Property value - //table//*[text()='Termination Type']/parent::td/following-sibling::td/select
2019.01.22 03:48:19   info : Finding xpath element on webpage..
2019.01.22 03:48:19   info : Searching for element. Try number 0
2019.01.22 03:48:20   info : element disappeared after trying for 1 times
2019.01.22 03:48:21   info : Current WebDriver Win Count is:: 1
2019.01.22 03:48:21   info : Element found!!
2019.01.22 03:48:22   info : Xml obj_repo path C:\Talent_Automation_Framework_Backup\Project_Talent/ObjectRepositories/BenefitAsia2_MercerAdmin/MA_AddNewHire.xml
2019.01.22 03:48:22   info : xpath object successfully mapped!!
2019.01.22 03:48:22   info : xpath object contains property value !!
2019.01.22 03:48:22   info : Property name - xpath
2019.01.22 03:48:22   info : Property value - //table//*[text()='Termination Type']/parent::td/following-sibling::td/select
2019.01.22 03:48:22   info : Finding xpath element on webpage..
2019.01.22 03:48:22   info : Element found!!
2019.01.22 03:48:22   info : Involuntary Terminations value selected!!
2019.01.22 03:48:24   info : Alert is not present
2019.01.22 03:48:25   info : Current WebDriver Win Count is:: 1
2019.01.22 03:48:25   info : restult status : 1
2019.01.22 03:48:25   info : Test ID TC10 : previous test step/row 1057 status is Passed and value of next test step/row is :: 1058
2019.01.22 03:48:25   info : 

2019.01.22 03:48:25   info : -------------------- Executing Testcase ID TC10 and test step : 1058 ---------------------- 
2019.01.22 03:48:26   info : Current WebDriver Win Count is:: 1
2019.01.22 03:48:26   info : page object present in excel : 1
2019.01.22 03:48:26   info : Under single object handle operation!!
2019.01.22 03:48:26   info : col 6 data :  and col 5 data : Update_Button
2019.01.22 03:48:26   info : Normal click operation !!
2019.01.22 03:48:26   info : Checking for object in click
2019.01.22 03:48:26   info : Xml obj_repo path C:\Talent_Automation_Framework_Backup\Project_Talent/ObjectRepositories/BenefitAsia2_MercerAdmin/MA_AddNewHire.xml
2019.01.22 03:48:26   info : xpath object successfully mapped!!
2019.01.22 03:48:26   info : xpath object contains property value !!
2019.01.22 03:48:26   info : Property name - xpath
2019.01.22 03:48:26   info : Property value - //*[contains(@id,"_EditEmployee_btnUpdate")]
2019.01.22 03:48:26   info : Finding xpath element on webpage..
2019.01.22 03:48:26   info : Searching for element. Try number 0
2019.01.22 03:48:27   info : element disappeared after trying for 1 times
2019.01.22 03:48:28   info : Current WebDriver Win Count is:: 1
2019.01.22 03:48:28   info : Element found!!
2019.01.22 03:48:28   info : Xml obj_repo path C:\Talent_Automation_Framework_Backup\Project_Talent/ObjectRepositories/BenefitAsia2_MercerAdmin/MA_AddNewHire.xml
2019.01.22 03:48:28   info : xpath object successfully mapped!!
2019.01.22 03:48:28   info : xpath object contains property value !!
2019.01.22 03:48:28   info : Property name - xpath
2019.01.22 03:48:28   info : Property value - //*[contains(@id,"_EditEmployee_btnUpdate")]
2019.01.22 03:48:28   info : Finding xpath element on webpage..
2019.01.22 03:48:28   info : Searching for element. Try number 0
2019.01.22 03:48:29   info : element disappeared after trying for 1 times
2019.01.22 03:48:30   info : Current WebDriver Win Count is:: 1
2019.01.22 03:48:30   info : Element found!!
2019.01.22 03:48:32   info : clicked on Update_Button
2019.01.22 03:48:33   info : Current WebDriver Win Count is:: 1
2019.01.22 03:48:33   info : restult status : 1
2019.01.22 03:48:33   info : Test ID TC10 : previous test step/row 1058 status is Passed and value of next test step/row is :: 1059
2019.01.22 03:48:33   info : 

2019.01.22 03:48:33   info : -------------------- Executing Testcase ID TC10 and test step : 1059 ---------------------- 
2019.01.22 03:48:34   info : Current WebDriver Win Count is:: 1
2019.01.22 03:48:34   info : Total static wait time 3
2019.01.22 03:48:37   info : Xml obj_repo path C:\Talent_Automation_Framework_Backup\Project_Talent/ObjectRepositories/BenefitAsia2_MercerAdmin/MA_AddNewHire.xml
2019.01.22 03:48:37   info : xpath object successfully mapped!!
2019.01.22 03:48:37   info : xpath object contains property value !!
2019.01.22 03:48:37   info : Property name - xpath
2019.01.22 03:48:37   info : Property value - //*[contains(@id,"_EditEmployee_GridView1") and contains(@id,"_txtLEEffectivedate")]
2019.01.22 03:48:37   info : Finding xpath element on webpage..
2019.01.22 03:48:37   info : Searching for element. Try number 0
2019.01.22 03:48:38   info : element disappeared after trying for 1 times
2019.01.22 03:48:39   info : Current WebDriver Win Count is:: 1
2019.01.22 03:48:39   info : Element found!!
2019.01.22 03:48:39   info : ObjectTag input and ObjectType text
2019.01.22 03:48:39   info : Enter data operation
2019.01.22 03:48:41   info : Xml obj_repo path C:\Talent_Automation_Framework_Backup\Project_Talent/ObjectRepositories/BenefitAsia2_MercerAdmin/MA_AddNewHire.xml
2019.01.22 03:48:41   info : xpath object successfully mapped!!
2019.01.22 03:48:41   info : xpath object contains property value !!
2019.01.22 03:48:41   info : Property name - xpath
2019.01.22 03:48:41   info : Property value - //*[contains(@id,"_EditEmployee_GridView1") and contains(@id,"_txtLEEffectivedate")]
2019.01.22 03:48:41   info : Finding xpath element on webpage..
2019.01.22 03:48:41   info : Searching for element. Try number 0
2019.01.22 03:48:42   info : element disappeared after trying for 1 times
2019.01.22 03:48:43   info : Current WebDriver Win Count is:: 1
2019.01.22 03:48:43   info : Element found!!
2019.01.22 03:48:43   info : Xml obj_repo path C:\Talent_Automation_Framework_Backup\Project_Talent/ObjectRepositories/BenefitAsia2_MercerAdmin/MA_AddNewHire.xml
2019.01.22 03:48:43   info : xpath object successfully mapped!!
2019.01.22 03:48:43   info : xpath object contains property value !!
2019.01.22 03:48:43   info : Property name - xpath
2019.01.22 03:48:43   info : Property value - //*[contains(@id,"_EditEmployee_GridView1") and contains(@id,"_txtLEEffectivedate")]
2019.01.22 03:48:43   info : Finding xpath element on webpage..
2019.01.22 03:48:43   info : Searching for element. Try number 0
2019.01.22 03:48:44   info : element disappeared after trying for 1 times
2019.01.22 03:48:45   info : Current WebDriver Win Count is:: 1
2019.01.22 03:48:45   info : Element found!!
2019.01.22 03:48:45   info : ValueToEnter 10-Jan-19
2019.01.22 03:48:45   info : Entered value is 10-Jan-19
2019.01.22 03:48:45   info : Attribute entered value 10-Jan-19
2019.01.22 03:48:46   info : Current WebDriver Win Count is:: 1
2019.01.22 03:48:46   info : restult status : 1
2019.01.22 03:48:46   info : Test ID TC10 : previous test step/row 1059 status is Passed and value of next test step/row is :: 1060
2019.01.22 03:48:46   info : 

2019.01.22 03:48:46   info : -------------------- Executing Testcase ID TC10 and test step : 1060 ---------------------- 
2019.01.22 03:48:47   info : Current WebDriver Win Count is:: 1
2019.01.22 03:48:47   info : page object present in excel : 1
2019.01.22 03:48:47   info : Under single object handle operation!!
2019.01.22 03:48:47   info : col 6 data :  and col 5 data : OK_Button
2019.01.22 03:48:47   info : Normal click operation !!
2019.01.22 03:48:47   info : Checking for object in click
2019.01.22 03:48:47   info : Xml obj_repo path C:\Talent_Automation_Framework_Backup\Project_Talent/ObjectRepositories/BenefitAsia2_MercerAdmin/MA_AddNewHire.xml
2019.01.22 03:48:47   info : xpath object successfully mapped!!
2019.01.22 03:48:47   info : xpath object contains property value !!
2019.01.22 03:48:47   info : Property name - xpath
2019.01.22 03:48:47   info : Property value - //*[contains(@id,"_EditEmployee_btnOkPopUp")]
2019.01.22 03:48:47   info : Finding xpath element on webpage..
2019.01.22 03:48:47   info : Searching for element. Try number 0
2019.01.22 03:48:48   info : element disappeared after trying for 1 times
2019.01.22 03:48:49   info : Current WebDriver Win Count is:: 1
2019.01.22 03:48:49   info : Element found!!
2019.01.22 03:48:49   info : Xml obj_repo path C:\Talent_Automation_Framework_Backup\Project_Talent/ObjectRepositories/BenefitAsia2_MercerAdmin/MA_AddNewHire.xml
2019.01.22 03:48:49   info : xpath object successfully mapped!!
2019.01.22 03:48:49   info : xpath object contains property value !!
2019.01.22 03:48:49   info : Property name - xpath
2019.01.22 03:48:49   info : Property value - //*[contains(@id,"_EditEmployee_btnOkPopUp")]
2019.01.22 03:48:49   info : Finding xpath element on webpage..
2019.01.22 03:48:49   info : Searching for element. Try number 0
2019.01.22 03:48:50   info : element disappeared after trying for 1 times
2019.01.22 03:48:51   info : Current WebDriver Win Count is:: 1
2019.01.22 03:48:51   info : Element found!!
2019.01.22 03:48:51   info : clicked on OK_Button
2019.01.22 03:48:52   info : Current WebDriver Win Count is:: 1
2019.01.22 03:48:53   info : restult status : 1
2019.01.22 03:48:53   info : Test ID TC10 : previous test step/row 1060 status is Passed and value of next test step/row is :: 1061
2019.01.22 03:48:53   info : 

2019.01.22 03:48:53   info : -------------------- Executing Testcase ID TC10 and test step : 1061 ---------------------- 
2019.01.22 03:48:54   info : Current WebDriver Win Count is:: 1
2019.01.22 03:48:54   info : not doing anything!!
2019.01.22 03:48:54   info : Navigating to another url..
2019.01.22 03:48:58   info : Current WebDriver Win Count is:: 1
2019.01.22 03:48:58   info : restult status : 1
2019.01.22 03:48:58   info : Test ID TC10 : previous test step/row 1061 status is Passed and value of next test step/row is :: 1062
2019.01.22 03:48:58   info : 

2019.01.22 03:48:58   info : -------------------- Executing Testcase ID TC10 and test step : 1062 ---------------------- 
2019.01.22 03:48:59   info : Current WebDriver Win Count is:: 1
2019.01.22 03:48:59   info : Xml obj_repo path C:\Talent_Automation_Framework_Backup\Project_Talent/ObjectRepositories/BenefitAsia2_MercerAdmin/LifeEvent_Process.xml
2019.01.22 03:48:59   info : Title in xml file - Life Events
2019.01.22 03:48:59   warn : Window is not switched, now trying based on element!!
2019.01.22 03:48:59   info : Window title Life Events (New)
2019.01.22 03:48:59   info : Xml obj_repo path C:\Talent_Automation_Framework_Backup\Project_Talent/ObjectRepositories/BenefitAsia2_MercerAdmin/LifeEvent_Process.xml
2019.01.22 03:48:59   info : xpath object successfully mapped!!
2019.01.22 03:48:59   info : xpath object contains property value !!
2019.01.22 03:48:59   info : Property name - xpath
2019.01.22 03:48:59   info : Property value - //*[contains(@id,"_LEDashboardNew_lnkChangesPending")]
2019.01.22 03:48:59   info : Finding xpath element on webpage..
2019.01.22 03:48:59   info : Searching for element. Try number 0
2019.01.22 03:49:00   info : element disappeared after trying for 1 times
2019.01.22 03:49:01   info : Current WebDriver Win Count is:: 1
2019.01.22 03:49:01   info : Element found!!
2019.01.22 03:49:01   info : Desired window is activated!!
2019.01.22 03:49:01   info : page object present in excel : 1
2019.01.22 03:49:01   info : Under single object handle operation!!
2019.01.22 03:49:01   info : col 6 data :  and col 5 data : LE_Changes
2019.01.22 03:49:01   info : Normal click operation !!
2019.01.22 03:49:01   info : Checking for object in click
2019.01.22 03:49:01   info : Xml obj_repo path C:\Talent_Automation_Framework_Backup\Project_Talent/ObjectRepositories/BenefitAsia2_MercerAdmin/LifeEvent_Process.xml
2019.01.22 03:49:01   info : xpath object successfully mapped!!
2019.01.22 03:49:01   info : xpath object contains property value !!
2019.01.22 03:49:01   info : Property name - xpath
2019.01.22 03:49:01   info : Property value - //*[contains(@id,"_LEDashboardNew_lnkChangesPending")]
2019.01.22 03:49:01   info : Finding xpath element on webpage..
2019.01.22 03:49:01   info : Searching for element. Try number 0
2019.01.22 03:49:02   info : element disappeared after trying for 1 times
2019.01.22 03:49:03   info : Current WebDriver Win Count is:: 1
2019.01.22 03:49:03   info : Element found!!
2019.01.22 03:49:03   info : Xml obj_repo path C:\Talent_Automation_Framework_Backup\Project_Talent/ObjectRepositories/BenefitAsia2_MercerAdmin/LifeEvent_Process.xml
2019.01.22 03:49:03   info : xpath object successfully mapped!!
2019.01.22 03:49:03   info : xpath object contains property value !!
2019.01.22 03:49:03   info : Property name - xpath
2019.01.22 03:49:03   info : Property value - //*[contains(@id,"_LEDashboardNew_lnkChangesPending")]
2019.01.22 03:49:03   info : Finding xpath element on webpage..
2019.01.22 03:49:03   info : Searching for element. Try number 0
2019.01.22 03:49:04   info : element disappeared after trying for 1 times
2019.01.22 03:49:05   info : Current WebDriver Win Count is:: 1
2019.01.22 03:49:05   info : Element found!!
2019.01.22 03:49:09   info : clicked on LE_Changes
2019.01.22 03:49:10   info : Current WebDriver Win Count is:: 1
2019.01.22 03:49:10   info : restult status : 1
2019.01.22 03:49:10   info : Test ID TC10 : previous test step/row 1062 status is Passed and value of next test step/row is :: 1063
2019.01.22 03:49:10   info : 

2019.01.22 03:49:10   info : -------------------- Executing Testcase ID TC10 and test step : 1063 ---------------------- 
2019.01.22 03:49:11   info : Current WebDriver Win Count is:: 1
2019.01.22 03:49:11   info : Xml obj_repo path C:\Talent_Automation_Framework_Backup\Project_Talent/ObjectRepositories/BenefitAsia2_MercerAdmin/LifeEvent_PendingProcess.xml
2019.01.22 03:49:11   info : Title contains null value in xml!!
2019.01.22 03:49:11   info : Window title Pending Process (New)
2019.01.22 03:49:11   info : Xml obj_repo path C:\Talent_Automation_Framework_Backup\Project_Talent/ObjectRepositories/BenefitAsia2_MercerAdmin/LifeEvent_PendingProcess.xml
2019.01.22 03:49:11   info : xpath object successfully mapped!!
2019.01.22 03:49:11   info : xpath object contains property value !!
2019.01.22 03:49:11   info : Property name - xpath
2019.01.22 03:49:11   info : Property value - //*[contains(@id,"_LEEmployeeLifeEventNew_lnkSearch")]
2019.01.22 03:49:11   info : Finding xpath element on webpage..
2019.01.22 03:49:11   info : Searching for element. Try number 0
2019.01.22 03:49:12   info : element disappeared after trying for 1 times
2019.01.22 03:49:13   info : Current WebDriver Win Count is:: 1
2019.01.22 03:49:13   info : Element found!!
2019.01.22 03:49:13   info : Desired window is activated!!
2019.01.22 03:49:13   info : page object present in excel : 1
2019.01.22 03:49:13   info : Under single object handle operation!!
2019.01.22 03:49:13   info : col 6 data :  and col 5 data : SearchWithinResults
2019.01.22 03:49:13   info : Normal click operation !!
2019.01.22 03:49:13   info : Checking for object in click
2019.01.22 03:49:13   info : Xml obj_repo path C:\Talent_Automation_Framework_Backup\Project_Talent/ObjectRepositories/BenefitAsia2_MercerAdmin/LifeEvent_PendingProcess.xml
2019.01.22 03:49:13   info : xpath object successfully mapped!!
2019.01.22 03:49:13   info : xpath object contains property value !!
2019.01.22 03:49:13   info : Property name - xpath
2019.01.22 03:49:13   info : Property value - //*[contains(@id,"_LEEmployeeLifeEventNew_lnkSearch")]
2019.01.22 03:49:13   info : Finding xpath element on webpage..
2019.01.22 03:49:13   info : Searching for element. Try number 0
2019.01.22 03:49:14   info : element disappeared after trying for 1 times
2019.01.22 03:49:15   info : Current WebDriver Win Count is:: 1
2019.01.22 03:49:15   info : Element found!!
2019.01.22 03:49:15   info : Xml obj_repo path C:\Talent_Automation_Framework_Backup\Project_Talent/ObjectRepositories/BenefitAsia2_MercerAdmin/LifeEvent_PendingProcess.xml
2019.01.22 03:49:15   info : xpath object successfully mapped!!
2019.01.22 03:49:15   info : xpath object contains property value !!
2019.01.22 03:49:15   info : Property name - xpath
2019.01.22 03:49:15   info : Property value - //*[contains(@id,"_LEEmployeeLifeEventNew_lnkSearch")]
2019.01.22 03:49:15   info : Finding xpath element on webpage..
2019.01.22 03:49:15   info : Searching for element. Try number 0
2019.01.22 03:49:16   info : element disappeared after trying for 1 times
2019.01.22 03:49:17   info : Current WebDriver Win Count is:: 1
2019.01.22 03:49:17   info : Element found!!
2019.01.22 03:49:17   info : clicked on SearchWithinResults
2019.01.22 03:49:18   info : Current WebDriver Win Count is:: 1
2019.01.22 03:49:18   info : restult status : 1
2019.01.22 03:49:19   info : Test ID TC10 : previous test step/row 1063 status is Passed and value of next test step/row is :: 1064
2019.01.22 03:49:19   info : 

2019.01.22 03:49:19   info : -------------------- Executing Testcase ID TC10 and test step : 1064 ---------------------- 
2019.01.22 03:49:20   info : Current WebDriver Win Count is:: 1
2019.01.22 03:49:20   info : Total static wait time 3
2019.01.22 03:49:23   info : Xml obj_repo path C:\Talent_Automation_Framework_Backup\Project_Talent/ObjectRepositories/BenefitAsia2_MercerAdmin/LifeEvent_PendingProcess.xml
2019.01.22 03:49:23   info : xpath object successfully mapped!!
2019.01.22 03:49:23   info : xpath object contains property value !!
2019.01.22 03:49:23   info : Property name - xpath
2019.01.22 03:49:23   info : Property value - //input[contains(@id,"_LEEmployeeLifeEventNew_txtBoxEmployeeInfo")]
2019.01.22 03:49:23   info : Finding xpath element on webpage..
2019.01.22 03:49:23   info : Searching for element. Try number 0
2019.01.22 03:49:24   info : element disappeared after trying for 1 times
2019.01.22 03:49:25   info : Current WebDriver Win Count is:: 1
2019.01.22 03:49:25   info : Element found!!
2019.01.22 03:49:25   info : ObjectTag input and ObjectType text
2019.01.22 03:49:25   info : Enter data operation
2019.01.22 03:49:26   info : Xml obj_repo path C:\Talent_Automation_Framework_Backup\Project_Talent/ObjectRepositories/BenefitAsia2_MercerAdmin/LifeEvent_PendingProcess.xml
2019.01.22 03:49:26   info : xpath object successfully mapped!!
2019.01.22 03:49:26   info : xpath object contains property value !!
2019.01.22 03:49:26   info : Property name - xpath
2019.01.22 03:49:26   info : Property value - //input[contains(@id,"_LEEmployeeLifeEventNew_txtBoxEmployeeInfo")]
2019.01.22 03:49:26   info : Finding xpath element on webpage..
2019.01.22 03:49:26   info : Searching for element. Try number 0
2019.01.22 03:49:27   info : element disappeared after trying for 1 times
2019.01.22 03:49:28   info : Current WebDriver Win Count is:: 1
2019.01.22 03:49:28   info : Element found!!
2019.01.22 03:49:28   info : Xml obj_repo path C:\Talent_Automation_Framework_Backup\Project_Talent/ObjectRepositories/BenefitAsia2_MercerAdmin/LifeEvent_PendingProcess.xml
2019.01.22 03:49:28   info : xpath object successfully mapped!!
2019.01.22 03:49:28   info : xpath object contains property value !!
2019.01.22 03:49:28   info : Property name - xpath
2019.01.22 03:49:28   info : Property value - //input[contains(@id,"_LEEmployeeLifeEventNew_txtBoxEmployeeInfo")]
2019.01.22 03:49:28   info : Finding xpath element on webpage..
2019.01.22 03:49:28   info : Searching for element. Try number 0
2019.01.22 03:49:29   info : element disappeared after trying for 1 times
2019.01.22 03:49:30   info : Current WebDriver Win Count is:: 1
2019.01.22 03:49:30   info : Element found!!
2019.01.22 03:49:30   info : ValueToEnter Simpli_22jan_009
2019.01.22 03:49:30   info : Entered value is Simpli_22jan_009
2019.01.22 03:49:30   info : Attribute entered value Simpli_22jan_009
2019.01.22 03:49:31   info : Current WebDriver Win Count is:: 1
2019.01.22 03:49:31   info : restult status : 1
2019.01.22 03:49:31   info : Test ID TC10 : previous test step/row 1064 status is Passed and value of next test step/row is :: 1065
2019.01.22 03:49:31   info : 

2019.01.22 03:49:31   info : -------------------- Executing Testcase ID TC10 and test step : 1065 ---------------------- 
2019.01.22 03:49:33   info : Current WebDriver Win Count is:: 1
2019.01.22 03:49:33   info : page object present in excel : 1
2019.01.22 03:49:33   info : Under single object handle operation!!
2019.01.22 03:49:33   info : col 6 data : javascript_click and col 5 data : Radio_EmployeeID
2019.01.22 03:49:33   info : Click case operation !!
2019.01.22 03:49:33   info : oprnm javascript_click
2019.01.22 03:49:33   info : click javascript_click operation perfomred!!
2019.01.22 03:49:33   info : Xml obj_repo path C:\Talent_Automation_Framework_Backup\Project_Talent/ObjectRepositories/BenefitAsia2_MercerAdmin/LifeEvent_PendingProcess.xml
2019.01.22 03:49:33   info : xpath object successfully mapped!!
2019.01.22 03:49:33   info : xpath object contains property value !!
2019.01.22 03:49:33   info : Property name - xpath
2019.01.22 03:49:33   info : Property value - //input[contains(@id,"_LEEmployeeLifeEventNew_rdoEmpID")]
2019.01.22 03:49:33   info : Finding xpath element on webpage..
2019.01.22 03:49:33   info : Searching for element. Try number 0
2019.01.22 03:49:34   info : element disappeared after trying for 1 times
2019.01.22 03:49:35   info : Current WebDriver Win Count is:: 1
2019.01.22 03:49:35   info : Element found!!
2019.01.22 03:49:36   info : Current WebDriver Win Count is:: 1
2019.01.22 03:49:36   info : restult status : 1
2019.01.22 03:49:36   info : Test ID TC10 : previous test step/row 1065 status is Passed and value of next test step/row is :: 1066
2019.01.22 03:49:36   info : 

2019.01.22 03:49:36   info : -------------------- Executing Testcase ID TC10 and test step : 1066 ---------------------- 
2019.01.22 03:49:37   info : Current WebDriver Win Count is:: 1
2019.01.22 03:49:37   info : page object present in excel : 1
2019.01.22 03:49:37   info : Under single object handle operation!!
2019.01.22 03:49:37   info : col 6 data :  and col 5 data : Search_Button
2019.01.22 03:49:37   info : Normal click operation !!
2019.01.22 03:49:37   info : Checking for object in click
2019.01.22 03:49:37   info : Xml obj_repo path C:\Talent_Automation_Framework_Backup\Project_Talent/ObjectRepositories/BenefitAsia2_MercerAdmin/LifeEvent_PendingProcess.xml
2019.01.22 03:49:37   info : xpath object successfully mapped!!
2019.01.22 03:49:37   info : xpath object contains property value !!
2019.01.22 03:49:37   info : Property name - xpath
2019.01.22 03:49:37   info : Property value - //input[contains(@id,"_LEEmployeeLifeEventNew_cmdSearch")]
2019.01.22 03:49:37   info : Finding xpath element on webpage..
2019.01.22 03:49:37   info : Searching for element. Try number 0
2019.01.22 03:49:38   info : element disappeared after trying for 1 times
2019.01.22 03:49:39   info : Current WebDriver Win Count is:: 1
2019.01.22 03:49:39   info : Element found!!
2019.01.22 03:49:39   info : Xml obj_repo path C:\Talent_Automation_Framework_Backup\Project_Talent/ObjectRepositories/BenefitAsia2_MercerAdmin/LifeEvent_PendingProcess.xml
2019.01.22 03:49:39   info : xpath object successfully mapped!!
2019.01.22 03:49:39   info : xpath object contains property value !!
2019.01.22 03:49:39   info : Property name - xpath
2019.01.22 03:49:39   info : Property value - //input[contains(@id,"_LEEmployeeLifeEventNew_cmdSearch")]
2019.01.22 03:49:39   info : Finding xpath element on webpage..
2019.01.22 03:49:39   info : Searching for element. Try number 0
2019.01.22 03:49:40   info : element disappeared after trying for 1 times
2019.01.22 03:49:41   info : Current WebDriver Win Count is:: 1
2019.01.22 03:49:41   info : Element found!!
2019.01.22 03:49:42   info : clicked on Search_Button
2019.01.22 03:49:43   info : Current WebDriver Win Count is:: 1
2019.01.22 03:49:44   info : restult status : 1
2019.01.22 03:49:44   info : Test ID TC10 : previous test step/row 1066 status is Passed and value of next test step/row is :: 1067
2019.01.22 03:49:44   info : 

2019.01.22 03:49:44   info : -------------------- Executing Testcase ID TC10 and test step : 1067 ---------------------- 
2019.01.22 03:49:45   info : Current WebDriver Win Count is:: 1
2019.01.22 03:49:45   info : page object present in excel : 1
2019.01.22 03:49:45   info : Under single object handle operation!!
2019.01.22 03:49:45   info : col 6 data :  and col 5 data : SelectAll
2019.01.22 03:49:45   info : Normal click operation !!
2019.01.22 03:49:45   info : Checking for object in click
2019.01.22 03:49:45   info : Xml obj_repo path C:\Talent_Automation_Framework_Backup\Project_Talent/ObjectRepositories/BenefitAsia2_MercerAdmin/LifeEvent_PendingProcess.xml
2019.01.22 03:49:45   info : xpath object successfully mapped!!
2019.01.22 03:49:45   info : xpath object contains property value !!
2019.01.22 03:49:45   info : Property name - xpath
2019.01.22 03:49:45   info : Property value - //input[contains(@id,"_LEEmployeeLifeEventNew_chkSelectAll_LifeEventSearch")]
2019.01.22 03:49:45   info : Finding xpath element on webpage..
2019.01.22 03:49:45   info : Searching for element. Try number 0
2019.01.22 03:49:46   info : element disappeared after trying for 1 times
2019.01.22 03:49:47   info : Current WebDriver Win Count is:: 1
2019.01.22 03:49:47   info : Element found!!
2019.01.22 03:49:47   info : Xml obj_repo path C:\Talent_Automation_Framework_Backup\Project_Talent/ObjectRepositories/BenefitAsia2_MercerAdmin/LifeEvent_PendingProcess.xml
2019.01.22 03:49:47   info : xpath object successfully mapped!!
2019.01.22 03:49:47   info : xpath object contains property value !!
2019.01.22 03:49:47   info : Property name - xpath
2019.01.22 03:49:47   info : Property value - //input[contains(@id,"_LEEmployeeLifeEventNew_chkSelectAll_LifeEventSearch")]
2019.01.22 03:49:47   info : Finding xpath element on webpage..
2019.01.22 03:49:47   info : Searching for element. Try number 0
2019.01.22 03:49:48   info : element disappeared after trying for 1 times
2019.01.22 03:49:49   info : Current WebDriver Win Count is:: 1
2019.01.22 03:49:49   info : Element found!!
2019.01.22 03:49:50   info : clicked on SelectAll
2019.01.22 03:49:51   info : Current WebDriver Win Count is:: 1
2019.01.22 03:49:51   info : restult status : 1
2019.01.22 03:49:51   info : Test ID TC10 : previous test step/row 1067 status is Passed and value of next test step/row is :: 1068
2019.01.22 03:49:51   info : 

2019.01.22 03:49:51   info : -------------------- Executing Testcase ID TC10 and test step : 1068 ---------------------- 
2019.01.22 03:49:53   info : Current WebDriver Win Count is:: 1
2019.01.22 03:49:53   info : page object present in excel : 1
2019.01.22 03:49:53   info : Under single object handle operation!!
2019.01.22 03:49:53   info : col 6 data :  and col 5 data : ChooseSelectedEmployeeButton
2019.01.22 03:49:53   info : Normal click operation !!
2019.01.22 03:49:53   info : Checking for object in click
2019.01.22 03:49:53   info : Xml obj_repo path C:\Talent_Automation_Framework_Backup\Project_Talent/ObjectRepositories/BenefitAsia2_MercerAdmin/LifeEvent_PendingProcess.xml
2019.01.22 03:49:53   info : xpath object successfully mapped!!
2019.01.22 03:49:53   info : xpath object contains property value !!
2019.01.22 03:49:53   info : Property name - xpath
2019.01.22 03:49:53   info : Property value - //input[contains(@id,"_LEEmployeeLifeEventNew_btnChoose")]
2019.01.22 03:49:53   info : Finding xpath element on webpage..
2019.01.22 03:49:53   info : Searching for element. Try number 0
2019.01.22 03:49:54   info : element disappeared after trying for 1 times
2019.01.22 03:49:55   info : Current WebDriver Win Count is:: 1
2019.01.22 03:49:55   info : Element found!!
2019.01.22 03:49:55   info : Xml obj_repo path C:\Talent_Automation_Framework_Backup\Project_Talent/ObjectRepositories/BenefitAsia2_MercerAdmin/LifeEvent_PendingProcess.xml
2019.01.22 03:49:55   info : xpath object successfully mapped!!
2019.01.22 03:49:55   info : xpath object contains property value !!
2019.01.22 03:49:55   info : Property name - xpath
2019.01.22 03:49:55   info : Property value - //input[contains(@id,"_LEEmployeeLifeEventNew_btnChoose")]
2019.01.22 03:49:55   info : Finding xpath element on webpage..
2019.01.22 03:49:55   info : Searching for element. Try number 0
2019.01.22 03:49:56   info : element disappeared after trying for 1 times
2019.01.22 03:49:57   info : Current WebDriver Win Count is:: 1
2019.01.22 03:49:57   info : Element found!!
2019.01.22 03:49:58   info : clicked on ChooseSelectedEmployeeButton
2019.01.22 03:49:59   info : Current WebDriver Win Count is:: 1
2019.01.22 03:49:59   info : restult status : 1
2019.01.22 03:49:59   info : Test ID TC10 : previous test step/row 1068 status is Passed and value of next test step/row is :: 1069
2019.01.22 03:49:59   info : 

2019.01.22 03:49:59   info : -------------------- Executing Testcase ID TC10 and test step : 1069 ---------------------- 
2019.01.22 03:50:00   info : Current WebDriver Win Count is:: 1
2019.01.22 03:50:00   info : page object present in excel : 1
2019.01.22 03:50:00   info : Under single object handle operation!!
2019.01.22 03:50:00   info : col 6 data :  and col 5 data : SelectAllLENew
2019.01.22 03:50:00   info : Normal click operation !!
2019.01.22 03:50:00   info : Checking for object in click
2019.01.22 03:50:00   info : Xml obj_repo path C:\Talent_Automation_Framework_Backup\Project_Talent/ObjectRepositories/BenefitAsia2_MercerAdmin/LifeEvent_PendingProcess.xml
2019.01.22 03:50:00   info : xpath object successfully mapped!!
2019.01.22 03:50:00   info : xpath object contains property value !!
2019.01.22 03:50:00   info : Property name - xpath
2019.01.22 03:50:00   info : Property value - //input[contains(@id,"_LEEmployeeLifeEventNew_chkSelectAll_LifeEvent")]
2019.01.22 03:50:00   info : Finding xpath element on webpage..
2019.01.22 03:50:00   info : Searching for element. Try number 0
2019.01.22 03:50:01   info : element disappeared after trying for 1 times
2019.01.22 03:50:02   info : Current WebDriver Win Count is:: 1
2019.01.22 03:50:02   info : Element found!!
2019.01.22 03:50:02   info : Xml obj_repo path C:\Talent_Automation_Framework_Backup\Project_Talent/ObjectRepositories/BenefitAsia2_MercerAdmin/LifeEvent_PendingProcess.xml
2019.01.22 03:50:02   info : xpath object successfully mapped!!
2019.01.22 03:50:02   info : xpath object contains property value !!
2019.01.22 03:50:02   info : Property name - xpath
2019.01.22 03:50:02   info : Property value - //input[contains(@id,"_LEEmployeeLifeEventNew_chkSelectAll_LifeEvent")]
2019.01.22 03:50:02   info : Finding xpath element on webpage..
2019.01.22 03:50:02   info : Searching for element. Try number 0
2019.01.22 03:50:03   info : element disappeared after trying for 1 times
2019.01.22 03:50:04   info : Current WebDriver Win Count is:: 1
2019.01.22 03:50:04   info : Element found!!
2019.01.22 03:50:04   info : clicked on SelectAllLENew
2019.01.22 03:50:05   info : Current WebDriver Win Count is:: 1
2019.01.22 03:50:06   info : restult status : 1
2019.01.22 03:50:06   info : Test ID TC10 : previous test step/row 1069 status is Passed and value of next test step/row is :: 1070
2019.01.22 03:50:06   info : 

2019.01.22 03:50:06   info : -------------------- Executing Testcase ID TC10 and test step : 1070 ---------------------- 
2019.01.22 03:50:07   info : Current WebDriver Win Count is:: 1
2019.01.22 03:50:07   info : Xml obj_repo path C:\Talent_Automation_Framework_Backup\Project_Talent/ObjectRepositories/BenefitAsia2_MercerAdmin/LifeEvent_BatchProcess.xml
2019.01.22 03:50:07   info : Title contains null value in xml!!
2019.01.22 03:50:07   info : Window title Pending Process (New)
2019.01.22 03:50:07   info : Xml obj_repo path C:\Talent_Automation_Framework_Backup\Project_Talent/ObjectRepositories/BenefitAsia2_MercerAdmin/LifeEvent_BatchProcess.xml
2019.01.22 03:50:07   info : xpath object successfully mapped!!
2019.01.22 03:50:07   info : xpath object contains property value !!
2019.01.22 03:50:07   info : Property name - xpath
2019.01.22 03:50:07   info : Property value - //input[contains(@id,"_LEEmployeeLifeEventNew_btnBatchProcess")]
2019.01.22 03:50:07   info : Finding xpath element on webpage..
2019.01.22 03:50:07   info : Searching for element. Try number 0
2019.01.22 03:50:08   info : element disappeared after trying for 1 times
2019.01.22 03:50:09   info : Current WebDriver Win Count is:: 1
2019.01.22 03:50:09   info : Element found!!
2019.01.22 03:50:09   info : Desired window is activated!!
2019.01.22 03:50:09   info : page object present in excel : 1
2019.01.22 03:50:09   info : Under single object handle operation!!
2019.01.22 03:50:09   info : col 6 data : javascript_click and col 5 data : BatchProcess
2019.01.22 03:50:09   info : Click case operation !!
2019.01.22 03:50:09   info : oprnm javascript_click
2019.01.22 03:50:09   info : click javascript_click operation perfomred!!
2019.01.22 03:50:09   info : Xml obj_repo path C:\Talent_Automation_Framework_Backup\Project_Talent/ObjectRepositories/BenefitAsia2_MercerAdmin/LifeEvent_BatchProcess.xml
2019.01.22 03:50:09   info : xpath object successfully mapped!!
2019.01.22 03:50:09   info : xpath object contains property value !!
2019.01.22 03:50:09   info : Property name - xpath
2019.01.22 03:50:09   info : Property value - //input[contains(@id,"_LEEmployeeLifeEventNew_btnBatchProcess")]
2019.01.22 03:50:09   info : Finding xpath element on webpage..
2019.01.22 03:50:09   info : Searching for element. Try number 0
2019.01.22 03:50:10   info : element disappeared after trying for 1 times
2019.01.22 03:50:11   info : Current WebDriver Win Count is:: 1
2019.01.22 03:50:11   info : Element found!!
2019.01.22 03:50:12   info : Current WebDriver Win Count is:: 1
2019.01.22 03:50:12   info : restult status : 1
2019.01.22 03:50:12   info : Test ID TC10 : previous test step/row 1070 status is Passed and value of next test step/row is :: 1071
2019.01.22 03:50:12   info : 

2019.01.22 03:50:12   info : -------------------- Executing Testcase ID TC10 and test step : 1071 ---------------------- 
2019.01.22 03:50:14   info : Current WebDriver Win Count is:: 1
2019.01.22 03:50:14   info : page object present in excel : 1
2019.01.22 03:50:14   info : Under single object handle operation!!
2019.01.22 03:50:14   info : col 6 data :  and col 5 data : Next_Button
2019.01.22 03:50:14   info : Normal click operation !!
2019.01.22 03:50:14   info : Checking for object in click
2019.01.22 03:50:14   info : Xml obj_repo path C:\Talent_Automation_Framework_Backup\Project_Talent/ObjectRepositories/BenefitAsia2_MercerAdmin/LifeEvent_BatchProcess.xml
2019.01.22 03:50:14   info : xpath object successfully mapped!!
2019.01.22 03:50:14   info : xpath object contains property value !!
2019.01.22 03:50:14   info : Property name - xpath
2019.01.22 03:50:14   info : Property value - //*[contains(@id,"_LEPreviewLifeEventEmailList_btnNext")]
2019.01.22 03:50:14   info : Finding xpath element on webpage..
2019.01.22 03:50:14   info : Searching for element. Try number 0
2019.01.22 03:50:15   info : element disappeared after trying for 1 times
2019.01.22 03:50:16   info : Current WebDriver Win Count is:: 1
