2019.01.22 03:12:30   info : Selenium version :: 2.48.2
2019.01.22 03:12:30   info : Download fodler path created!!
2019.01.22 03:12:30   info : date_time_down_folder C:\Talent_Automation_Framework_Backup\Project_Talent\Downloads\2019_01_22\time_15_12_30\
2019.01.22 03:12:31   info : Total number of applications :: 4
2019.01.22 03:12:31   info : Application Name - Latest_Simp
2019.01.22 03:12:31   info : TestData_Sheet path:: C:\Talent_Automation_Framework_Backup\Project_Talent/TestCases/Latest_Simp.xlsx
2019.01.22 03:12:31   info : CSV updating and creating dump....
2019.01.22 03:12:32   info : Sheet name: Scenarios
2019.01.22 03:12:32   info : Sheet name: TestCaseScheduler
2019.01.22 03:12:32   info : Sheet name: Test Case
2019.01.22 03:12:32   info : Latest_Simp sheetname found!!
2019.01.22 03:12:32   info : Total row 1512
2019.01.22 03:12:32   info : After row validation for blank or null!!
2019.01.22 03:12:32   info : Total final row 1511
