2019.02.11 03:08:39   info : Selenium version :: 2.48.2
2019.02.11 03:08:39   info : Download fodler path created!!
2019.02.11 03:08:39   info : date_time_down_folder C:\Talent_Automation_Framework_Backup\Project_Talent\Downloads\2019_02_11\time_15_08_39\
2019.02.11 03:08:39   info : Total number of applications :: 4
2019.02.11 03:08:39   info : Application Name - Latest_Simp
2019.02.11 03:08:39   info : TestData_Sheet path:: C:\Talent_Automation_Framework_Backup\Project_Talent/TestCases/Latest_Simp.xlsx
2019.02.11 03:08:39   info : CSV updating and creating dump....
2019.02.11 03:08:41   info : Sheet name: Scenarios
2019.02.11 03:08:41   info : Sheet name: TestCaseScheduler
2019.02.11 03:08:41   info : Sheet name: Test Case
2019.02.11 03:08:41   info : Latest_Simp sheetname found!!
2019.02.11 03:08:41   info : Total row 1579
2019.02.11 03:08:41   info : After row validation for blank or null!!
2019.02.11 03:08:41   info : Total final row 1578
2019.02.11 03:08:41   info : Total number of test cases to be executed :: 1
2019.02.11 03:08:42   info : PrevTestID - null == null && row 1143<= 1578
2019.02.11 03:08:42   info : Test ID TC11 : previous test step/row 1142 status is Passed and value of next test step/row is :: 1143
2019.02.11 03:08:42   info : 

2019.02.11 03:08:42   info : -------------------- Executing Testcase ID TC11 and test step : 1143 ---------------------- 
2019.02.11 03:08:42   info : please wait.. browser getting open !!
2019.02.11 03:08:53   info : Opening Application..
2019.02.11 03:08:59   info : Current WebDriver Win Count is:: 1
2019.02.11 03:08:59   info : restult status : 1
2019.02.11 03:09:00   info : Test ID TC11 : previous test step/row 1143 status is Passed and value of next test step/row is :: 1144
2019.02.11 03:09:00   info : 

2019.02.11 03:09:00   info : -------------------- Executing Testcase ID TC11 and test step : 1144 ---------------------- 
2019.02.11 03:09:01   info : Current WebDriver Win Count is:: 1
2019.02.11 03:09:01   info : Xml obj_repo path C:\Talent_Automation_Framework_Backup\Project_Talent/ObjectRepositories/BenefitAsia2_MercerAdmin/MA_Home.xml
2019.02.11 03:09:01   info : Title in xml file - Home
2019.02.11 03:09:01   warn : Window is not switched, now trying based on element!!
2019.02.11 03:09:01   info : Window title Mercer Account Center
2019.02.11 03:09:01   info : Xml obj_repo path C:\Talent_Automation_Framework_Backup\Project_Talent/ObjectRepositories/BenefitAsia2_MercerAdmin/MA_Home.xml
2019.02.11 03:09:01   info : xpath object successfully mapped!!
2019.02.11 03:09:01   info : xpath object contains property value !!
2019.02.11 03:09:01   info : Property name - xpath
2019.02.11 03:09:01   info : Property value - //input[contains(@id,"ContentPlaceHolder1_TextBox1")]
2019.02.11 03:09:01   info : Finding xpath element on webpage..
2019.02.11 03:09:01   info : Searching for element. Try number 0
2019.02.11 03:09:02   info : element disappeared after trying for 1 times
2019.02.11 03:09:03   info : Current WebDriver Win Count is:: 1
2019.02.11 03:09:03   info : Element found!!
2019.02.11 03:09:03   info : Desired window is activated!!
2019.02.11 03:09:03   info : Total static wait time 3
2019.02.11 03:09:06   info : Xml obj_repo path C:\Talent_Automation_Framework_Backup\Project_Talent/ObjectRepositories/BenefitAsia2_MercerAdmin/MA_Home.xml
2019.02.11 03:09:06   info : xpath object successfully mapped!!
2019.02.11 03:09:06   info : xpath object contains property value !!
2019.02.11 03:09:06   info : Property name - xpath
2019.02.11 03:09:06   info : Property value - //input[contains(@id,"ContentPlaceHolder1_TextBox1")]
2019.02.11 03:09:06   info : Finding xpath element on webpage..
2019.02.11 03:09:06   info : Searching for element. Try number 0
2019.02.11 03:09:07   info : element disappeared after trying for 1 times
2019.02.11 03:09:08   info : Current WebDriver Win Count is:: 1
2019.02.11 03:09:08   info : Element found!!
2019.02.11 03:09:08   info : ObjectTag input and ObjectType text
2019.02.11 03:09:08   info : Enter data operation
2019.02.11 03:09:09   info : Xml obj_repo path C:\Talent_Automation_Framework_Backup\Project_Talent/ObjectRepositories/BenefitAsia2_MercerAdmin/MA_Home.xml
2019.02.11 03:09:09   info : xpath object successfully mapped!!
2019.02.11 03:09:09   info : xpath object contains property value !!
2019.02.11 03:09:09   info : Property name - xpath
2019.02.11 03:09:09   info : Property value - //input[contains(@id,"ContentPlaceHolder1_TextBox1")]
2019.02.11 03:09:09   info : Finding xpath element on webpage..
2019.02.11 03:09:09   info : Searching for element. Try number 0
2019.02.11 03:09:10   info : element disappeared after trying for 1 times
2019.02.11 03:09:11   info : Current WebDriver Win Count is:: 1
2019.02.11 03:09:12   info : Element found!!
2019.02.11 03:09:12   info : Xml obj_repo path C:\Talent_Automation_Framework_Backup\Project_Talent/ObjectRepositories/BenefitAsia2_MercerAdmin/MA_Home.xml
2019.02.11 03:09:12   info : xpath object successfully mapped!!
2019.02.11 03:09:12   info : xpath object contains property value !!
2019.02.11 03:09:12   info : Property name - xpath
2019.02.11 03:09:12   info : Property value - //input[contains(@id,"ContentPlaceHolder1_TextBox1")]
2019.02.11 03:09:12   info : Finding xpath element on webpage..
2019.02.11 03:09:12   info : Searching for element. Try number 0
2019.02.11 03:09:13   info : element disappeared after trying for 1 times
2019.02.11 03:09:14   info : Current WebDriver Win Count is:: 1
2019.02.11 03:09:14   info : Element found!!
2019.02.11 03:09:14   info : ValueToEnter ashish.choudhary@mercer.com
2019.02.11 03:09:14   info : Entered value is ashish.choudhary@mercer.com
2019.02.11 03:09:14   info : Attribute entered value ashish.choudhary@mercer.com
2019.02.11 03:09:15   info : Current WebDriver Win Count is:: 1
2019.02.11 03:09:15   info : restult status : 1
2019.02.11 03:09:15   info : Test ID TC11 : previous test step/row 1144 status is Passed and value of next test step/row is :: 1145
2019.02.11 03:09:15   info : 

2019.02.11 03:09:15   info : -------------------- Executing Testcase ID TC11 and test step : 1145 ---------------------- 
2019.02.11 03:09:17   info : Current WebDriver Win Count is:: 1
2019.02.11 03:09:17   info : page object present in excel : 1
2019.02.11 03:09:17   info : Under single object handle operation!!
2019.02.11 03:09:17   info : col 6 data :  and col 5 data : SSO_Next_Button
2019.02.11 03:09:17   info : Normal click operation !!
2019.02.11 03:09:17   info : Checking for object in click
2019.02.11 03:09:17   info : Xml obj_repo path C:\Talent_Automation_Framework_Backup\Project_Talent/ObjectRepositories/BenefitAsia2_MercerAdmin/MA_Home.xml
2019.02.11 03:09:17   info : xpath object successfully mapped!!
2019.02.11 03:09:17   info : xpath object contains property value !!
2019.02.11 03:09:17   info : Property name - xpath
2019.02.11 03:09:17   info : Property value - //input[contains(@id,"ContentPlaceHolder1_PassiveSignInButton")]
2019.02.11 03:09:17   info : Finding xpath element on webpage..
2019.02.11 03:09:17   info : Searching for element. Try number 0
2019.02.11 03:09:18   info : element disappeared after trying for 1 times
2019.02.11 03:09:19   info : Current WebDriver Win Count is:: 1
2019.02.11 03:09:19   info : Element found!!
2019.02.11 03:09:19   info : Xml obj_repo path C:\Talent_Automation_Framework_Backup\Project_Talent/ObjectRepositories/BenefitAsia2_MercerAdmin/MA_Home.xml
2019.02.11 03:09:19   info : xpath object successfully mapped!!
2019.02.11 03:09:19   info : xpath object contains property value !!
2019.02.11 03:09:19   info : Property name - xpath
2019.02.11 03:09:19   info : Property value - //input[contains(@id,"ContentPlaceHolder1_PassiveSignInButton")]
2019.02.11 03:09:19   info : Finding xpath element on webpage..
2019.02.11 03:09:19   info : Searching for element. Try number 0
2019.02.11 03:09:20   info : element disappeared after trying for 1 times
2019.02.11 03:09:21   info : Current WebDriver Win Count is:: 1
2019.02.11 03:09:21   info : Element found!!
2019.02.11 03:09:25   info : clicked on SSO_Next_Button
2019.02.11 03:09:26   info : Current WebDriver Win Count is:: 1
2019.02.11 03:09:31   info : restult status : 1
2019.02.11 03:09:31   info : Test ID TC11 : previous test step/row 1145 status is Passed and value of next test step/row is :: 1146
2019.02.11 03:09:31   info : 

2019.02.11 03:09:31   info : -------------------- Executing Testcase ID TC11 and test step : 1146 ---------------------- 
2019.02.11 03:09:32   info : Current WebDriver Win Count is:: 1
2019.02.11 03:09:32   info : not doing anything!!
2019.02.11 03:09:32   info : Navigating to another url..
2019.02.11 03:09:37   info : Current WebDriver Win Count is:: 1
2019.02.11 03:09:37   info : restult status : 1
2019.02.11 03:09:37   info : Test ID TC11 : previous test step/row 1146 status is Passed and value of next test step/row is :: 1147
2019.02.11 03:09:37   info : 

2019.02.11 03:09:37   info : -------------------- Executing Testcase ID TC11 and test step : 1147 ---------------------- 
2019.02.11 03:09:39   info : Current WebDriver Win Count is:: 1
2019.02.11 03:09:39   info : page object present in excel : 1
2019.02.11 03:09:39   info : Under single object handle operation!!
2019.02.11 03:09:39   info : col 6 data :  and col 5 data : Portal_Configurations
2019.02.11 03:09:39   info : Normal click operation !!
2019.02.11 03:09:39   info : Checking for object in click
2019.02.11 03:09:39   info : Xml obj_repo path C:\Talent_Automation_Framework_Backup\Project_Talent/ObjectRepositories/BenefitAsia2_MercerAdmin/MA_SecurityAccess.xml
2019.02.11 03:09:39   info : xpath object successfully mapped!!
2019.02.11 03:09:39   info : xpath object contains property value !!
2019.02.11 03:09:39   info : Property name - xpath
2019.02.11 03:09:39   info : Property value - //*[contains(@id,"_lbtnPortalConfig")]
2019.02.11 03:09:39   info : Finding xpath element on webpage..
2019.02.11 03:09:39   info : Searching for element. Try number 0
2019.02.11 03:09:40   info : element disappeared after trying for 1 times
2019.02.11 03:09:41   info : Current WebDriver Win Count is:: 1
2019.02.11 03:09:41   info : Element found!!
2019.02.11 03:09:41   info : Xml obj_repo path C:\Talent_Automation_Framework_Backup\Project_Talent/ObjectRepositories/BenefitAsia2_MercerAdmin/MA_SecurityAccess.xml
2019.02.11 03:09:41   info : xpath object successfully mapped!!
2019.02.11 03:09:41   info : xpath object contains property value !!
2019.02.11 03:09:41   info : Property name - xpath
2019.02.11 03:09:41   info : Property value - //*[contains(@id,"_lbtnPortalConfig")]
2019.02.11 03:09:41   info : Finding xpath element on webpage..
2019.02.11 03:09:41   info : Searching for element. Try number 0
2019.02.11 03:09:42   info : element disappeared after trying for 1 times
2019.02.11 03:09:43   info : Current WebDriver Win Count is:: 1
2019.02.11 03:09:43   info : Element found!!
2019.02.11 03:09:44   info : clicked on Portal_Configurations
2019.02.11 03:09:45   info : Current WebDriver Win Count is:: 1
2019.02.11 03:09:45   info : restult status : 1
2019.02.11 03:09:45   info : Test ID TC11 : previous test step/row 1147 status is Passed and value of next test step/row is :: 1148
2019.02.11 03:09:45   info : 

2019.02.11 03:09:45   info : -------------------- Executing Testcase ID TC11 and test step : 1148 ---------------------- 
2019.02.11 03:09:46   info : Current WebDriver Win Count is:: 1
2019.02.11 03:09:46   info : Total static wait time 3
2019.02.11 03:09:49   info : Xml obj_repo path C:\Talent_Automation_Framework_Backup\Project_Talent/ObjectRepositories/BenefitAsia2_MercerAdmin/MA_SecurityAccess.xml
2019.02.11 03:09:49   info : xpath object successfully mapped!!
2019.02.11 03:09:49   info : xpath object contains property value !!
2019.02.11 03:09:49   info : Property name - xpath
2019.02.11 03:09:49   info : Property value - //*[contains(@id,"_PortalConfigurations_ddlPortal2")]
2019.02.11 03:09:49   info : Finding xpath element on webpage..
2019.02.11 03:09:49   info : Searching for element. Try number 0
2019.02.11 03:09:50   info : element disappeared after trying for 1 times
2019.02.11 03:09:51   info : Current WebDriver Win Count is:: 1
2019.02.11 03:09:51   info : Element found!!
2019.02.11 03:09:51   info : ObjectTag select and ObjectType null
2019.02.11 03:09:51   info : select combobox operation 
2019.02.11 03:09:51   info : Xml obj_repo path C:\Talent_Automation_Framework_Backup\Project_Talent/ObjectRepositories/BenefitAsia2_MercerAdmin/MA_SecurityAccess.xml
2019.02.11 03:09:51   info : xpath object successfully mapped!!
2019.02.11 03:09:51   info : xpath object contains property value !!
2019.02.11 03:09:52   info : Property name - xpath
2019.02.11 03:09:52   info : Property value - //*[contains(@id,"_PortalConfigurations_ddlPortal2")]
2019.02.11 03:09:52   info : Finding xpath element on webpage..
2019.02.11 03:09:52   info : Searching for element. Try number 0
2019.02.11 03:09:53   info : element disappeared after trying for 1 times
2019.02.11 03:09:54   info : Current WebDriver Win Count is:: 1
2019.02.11 03:09:54   info : Element found!!
2019.02.11 03:09:54   info : Xml obj_repo path C:\Talent_Automation_Framework_Backup\Project_Talent/ObjectRepositories/BenefitAsia2_MercerAdmin/MA_SecurityAccess.xml
2019.02.11 03:09:54   info : xpath object successfully mapped!!
2019.02.11 03:09:54   info : xpath object contains property value !!
2019.02.11 03:09:54   info : Property name - xpath
2019.02.11 03:09:54   info : Property value - //*[contains(@id,"_PortalConfigurations_ddlPortal2")]
2019.02.11 03:09:54   info : Finding xpath element on webpage..
2019.02.11 03:09:54   info : Element found!!
2019.02.11 03:09:54   info : SimpliflexSG value selected!!
2019.02.11 03:09:56   info : Alert is not present
2019.02.11 03:09:57   info : Current WebDriver Win Count is:: 1
2019.02.11 03:09:57   info : restult status : 1
2019.02.11 03:09:57   info : Test ID TC11 : previous test step/row 1148 status is Passed and value of next test step/row is :: 1149
2019.02.11 03:09:57   info : 

2019.02.11 03:09:57   info : -------------------- Executing Testcase ID TC11 and test step : 1149 ---------------------- 
2019.02.11 03:09:58   info : Current WebDriver Win Count is:: 1
2019.02.11 03:09:58   info : Total static wait time 3
2019.02.11 03:10:01   info : Xml obj_repo path C:\Talent_Automation_Framework_Backup\Project_Talent/ObjectRepositories/BenefitAsia2_MercerAdmin/MA_SecurityAccess.xml
2019.02.11 03:10:01   info : xpath object successfully mapped!!
2019.02.11 03:10:01   info : xpath object contains property value !!
2019.02.11 03:10:01   info : Property name - xpath
2019.02.11 03:10:01   info : Property value - //input[contains(@id,"_txtClientUserName")]
2019.02.11 03:10:01   info : Finding xpath element on webpage..
2019.02.11 03:10:01   info : Searching for element. Try number 0
2019.02.11 03:10:02   info : element disappeared after trying for 1 times
2019.02.11 03:10:03   info : Current WebDriver Win Count is:: 1
2019.02.11 03:10:03   info : Element found!!
2019.02.11 03:10:03   info : ObjectTag input and ObjectType text
2019.02.11 03:10:03   info : Enter data operation
2019.02.11 03:10:05   info : Xml obj_repo path C:\Talent_Automation_Framework_Backup\Project_Talent/ObjectRepositories/BenefitAsia2_MercerAdmin/MA_SecurityAccess.xml
2019.02.11 03:10:05   info : xpath object successfully mapped!!
2019.02.11 03:10:05   info : xpath object contains property value !!
2019.02.11 03:10:05   info : Property name - xpath
2019.02.11 03:10:05   info : Property value - //input[contains(@id,"_txtClientUserName")]
2019.02.11 03:10:05   info : Finding xpath element on webpage..
2019.02.11 03:10:05   info : Searching for element. Try number 0
2019.02.11 03:10:06   info : element disappeared after trying for 1 times
2019.02.11 03:10:07   info : Current WebDriver Win Count is:: 1
2019.02.11 03:10:07   info : Element found!!
2019.02.11 03:10:07   info : Xml obj_repo path C:\Talent_Automation_Framework_Backup\Project_Talent/ObjectRepositories/BenefitAsia2_MercerAdmin/MA_SecurityAccess.xml
2019.02.11 03:10:07   info : xpath object successfully mapped!!
2019.02.11 03:10:07   info : xpath object contains property value !!
2019.02.11 03:10:07   info : Property name - xpath
2019.02.11 03:10:07   info : Property value - //input[contains(@id,"_txtClientUserName")]
2019.02.11 03:10:07   info : Finding xpath element on webpage..
2019.02.11 03:10:07   info : Searching for element. Try number 0
2019.02.11 03:10:08   info : element disappeared after trying for 1 times
2019.02.11 03:10:09   info : Current WebDriver Win Count is:: 1
2019.02.11 03:10:09   info : Element found!!
2019.02.11 03:10:09   info : ValueToEnter Simpli_26jan_010
2019.02.11 03:10:09   info : Entered value is Simpli_26jan_010
2019.02.11 03:10:09   info : Attribute entered value Simpli_26jan_010
2019.02.11 03:10:10   info : Current WebDriver Win Count is:: 1
2019.02.11 03:10:10   info : restult status : 1
2019.02.11 03:10:10   info : Test ID TC11 : previous test step/row 1149 status is Passed and value of next test step/row is :: 1150
2019.02.11 03:10:10   info : 

2019.02.11 03:10:10   info : -------------------- Executing Testcase ID TC11 and test step : 1150 ---------------------- 
2019.02.11 03:10:11   info : Current WebDriver Win Count is:: 1
2019.02.11 03:10:11   info : page object present in excel : 1
2019.02.11 03:10:11   info : Under single object handle operation!!
2019.02.11 03:10:11   info : col 6 data :  and col 5 data : User_Info
2019.02.11 03:10:11   info : Normal click operation !!
2019.02.11 03:10:11   info : Checking for object in click
2019.02.11 03:10:11   info : Xml obj_repo path C:\Talent_Automation_Framework_Backup\Project_Talent/ObjectRepositories/BenefitAsia2_MercerAdmin/MA_SecurityAccess.xml
2019.02.11 03:10:11   info : xpath object successfully mapped!!
2019.02.11 03:10:11   info : xpath object contains property value !!
2019.02.11 03:10:11   info : Property name - xpath
2019.02.11 03:10:11   info : Property value - //input[contains(@id,"_btnUserInfo")]
2019.02.11 03:10:11   info : Finding xpath element on webpage..
2019.02.11 03:10:11   info : Searching for element. Try number 0
2019.02.11 03:10:12   info : element disappeared after trying for 1 times
2019.02.11 03:10:13   info : Current WebDriver Win Count is:: 1
2019.02.11 03:10:13   info : Element found!!
2019.02.11 03:10:13   info : Xml obj_repo path C:\Talent_Automation_Framework_Backup\Project_Talent/ObjectRepositories/BenefitAsia2_MercerAdmin/MA_SecurityAccess.xml
2019.02.11 03:10:13   info : xpath object successfully mapped!!
2019.02.11 03:10:13   info : xpath object contains property value !!
2019.02.11 03:10:13   info : Property name - xpath
2019.02.11 03:10:13   info : Property value - //input[contains(@id,"_btnUserInfo")]
2019.02.11 03:10:13   info : Finding xpath element on webpage..
2019.02.11 03:10:13   info : Searching for element. Try number 0
2019.02.11 03:10:14   info : element disappeared after trying for 1 times
2019.02.11 03:10:15   info : Current WebDriver Win Count is:: 1
2019.02.11 03:10:15   info : Element found!!
2019.02.11 03:10:16   info : clicked on User_Info
2019.02.11 03:10:17   info : Current WebDriver Win Count is:: 1
2019.02.11 03:10:18   info : restult status : 1
2019.02.11 03:10:18   info : Test ID TC11 : previous test step/row 1150 status is Passed and value of next test step/row is :: 1151
2019.02.11 03:10:18   info : 

2019.02.11 03:10:18   info : -------------------- Executing Testcase ID TC11 and test step : 1151 ---------------------- 
2019.02.11 03:10:19   info : Current WebDriver Win Count is:: 1
2019.02.11 03:10:19   info : Total static wait time 3
2019.02.11 03:10:22   info : Xml obj_repo path C:\Talent_Automation_Framework_Backup\Project_Talent/ObjectRepositories/BenefitAsia2_MercerAdmin/MA_SecurityAccess.xml
2019.02.11 03:10:22   info : xpath object successfully mapped!!
2019.02.11 03:10:22   info : xpath object contains property value !!
2019.02.11 03:10:22   info : Property name - xpath
2019.02.11 03:10:22   info : Property value - //input[contains(@id,"_txtClientPassword")]
2019.02.11 03:10:22   info : Finding xpath element on webpage..
2019.02.11 03:10:22   info : Searching for element. Try number 0
2019.02.11 03:10:23   info : element disappeared after trying for 1 times
2019.02.11 03:10:24   info : Current WebDriver Win Count is:: 1
2019.02.11 03:10:24   info : Element found!!
2019.02.11 03:10:24   info : ObjectTag input and ObjectType text
2019.02.11 03:10:24   info : Enter data operation
2019.02.11 03:10:25   info : Xml obj_repo path C:\Talent_Automation_Framework_Backup\Project_Talent/ObjectRepositories/BenefitAsia2_MercerAdmin/MA_SecurityAccess.xml
2019.02.11 03:10:25   info : xpath object successfully mapped!!
2019.02.11 03:10:25   info : xpath object contains property value !!
2019.02.11 03:10:25   info : Property name - xpath
2019.02.11 03:10:25   info : Property value - //input[contains(@id,"_txtClientPassword")]
2019.02.11 03:10:25   info : Finding xpath element on webpage..
2019.02.11 03:10:25   info : Searching for element. Try number 0
2019.02.11 03:10:26   info : element disappeared after trying for 1 times
2019.02.11 03:10:27   info : Current WebDriver Win Count is:: 1
2019.02.11 03:10:27   info : Element found!!
2019.02.11 03:10:27   info : Xml obj_repo path C:\Talent_Automation_Framework_Backup\Project_Talent/ObjectRepositories/BenefitAsia2_MercerAdmin/MA_SecurityAccess.xml
2019.02.11 03:10:27   info : xpath object successfully mapped!!
2019.02.11 03:10:27   info : xpath object contains property value !!
2019.02.11 03:10:27   info : Property name - xpath
2019.02.11 03:10:27   info : Property value - //input[contains(@id,"_txtClientPassword")]
2019.02.11 03:10:27   info : Finding xpath element on webpage..
2019.02.11 03:10:27   info : Searching for element. Try number 0
2019.02.11 03:10:28   info : element disappeared after trying for 1 times
2019.02.11 03:10:29   info : Current WebDriver Win Count is:: 1
2019.02.11 03:10:29   info : Element found!!
2019.02.11 03:10:29   info : ValueToEnter 1
2019.02.11 03:10:29   info : Entered value is 1
2019.02.11 03:10:29   info : Attribute entered value 1
2019.02.11 03:10:30   info : Current WebDriver Win Count is:: 1
2019.02.11 03:10:30   info : restult status : 1
2019.02.11 03:10:31   info : Test ID TC11 : previous test step/row 1151 status is Passed and value of next test step/row is :: 1152
2019.02.11 03:10:31   info : 

2019.02.11 03:10:31   info : -------------------- Executing Testcase ID TC11 and test step : 1152 ---------------------- 
2019.02.11 03:10:32   info : Current WebDriver Win Count is:: 1
2019.02.11 03:10:32   info : page object present in excel : 1
2019.02.11 03:10:32   info : Under single object handle operation!!
2019.02.11 03:10:32   info : col 6 data :  and col 5 data : Reset_Password
2019.02.11 03:10:32   info : Normal click operation !!
2019.02.11 03:10:32   info : Checking for object in click
2019.02.11 03:10:32   info : Xml obj_repo path C:\Talent_Automation_Framework_Backup\Project_Talent/ObjectRepositories/BenefitAsia2_MercerAdmin/MA_SecurityAccess.xml
2019.02.11 03:10:32   info : xpath object successfully mapped!!
2019.02.11 03:10:32   info : xpath object contains property value !!
2019.02.11 03:10:32   info : Property name - xpath
2019.02.11 03:10:32   info : Property value - //input[contains(@id,"_btnResetPassword")]
2019.02.11 03:10:32   info : Finding xpath element on webpage..
2019.02.11 03:10:32   info : Searching for element. Try number 0
2019.02.11 03:10:33   info : element disappeared after trying for 1 times
2019.02.11 03:10:34   info : Current WebDriver Win Count is:: 1
2019.02.11 03:10:34   info : Element found!!
2019.02.11 03:10:34   info : Xml obj_repo path C:\Talent_Automation_Framework_Backup\Project_Talent/ObjectRepositories/BenefitAsia2_MercerAdmin/MA_SecurityAccess.xml
2019.02.11 03:10:34   info : xpath object successfully mapped!!
2019.02.11 03:10:34   info : xpath object contains property value !!
2019.02.11 03:10:34   info : Property name - xpath
2019.02.11 03:10:34   info : Property value - //input[contains(@id,"_btnResetPassword")]
2019.02.11 03:10:34   info : Finding xpath element on webpage..
2019.02.11 03:10:34   info : Searching for element. Try number 0
2019.02.11 03:10:35   info : element disappeared after trying for 1 times
2019.02.11 03:10:36   info : Current WebDriver Win Count is:: 1
2019.02.11 03:10:36   info : Element found!!
2019.02.11 03:10:37   info : clicked on Reset_Password
2019.02.11 03:10:38   info : Current WebDriver Win Count is:: 1
2019.02.11 03:10:38   info : restult status : 1
2019.02.11 03:10:38   info : Test ID TC11 : previous test step/row 1152 status is Passed and value of next test step/row is :: 1153
2019.02.11 03:10:38   info : 

2019.02.11 03:10:38   info : -------------------- Executing Testcase ID TC11 and test step : 1153 ---------------------- 
2019.02.11 03:10:39   info : Current WebDriver Win Count is:: 1
2019.02.11 03:10:39   info : not doing anything!!
2019.02.11 03:10:39   info : Navigating to another url..
2019.02.11 03:10:44   info : Current WebDriver Win Count is:: 1
2019.02.11 03:10:44   info : restult status : 1
2019.02.11 03:10:44   info : Test ID TC11 : previous test step/row 1153 status is Passed and value of next test step/row is :: 1154
2019.02.11 03:10:44   info : 

2019.02.11 03:10:44   info : -------------------- Executing Testcase ID TC11 and test step : 1154 ---------------------- 
2019.02.11 03:10:45   info : Current WebDriver Win Count is:: 1
2019.02.11 03:10:45   info : Total static wait time 3
2019.02.11 03:10:48   info : Xml obj_repo path C:\Talent_Automation_Framework_Backup\Project_Talent/ObjectRepositories/BenefitAsia2_MercerAdmin/MA_Enrollment.xml
2019.02.11 03:10:48   info : xpath object successfully mapped!!
2019.02.11 03:10:48   info : xpath object contains property value !!
2019.02.11 03:10:48   info : Property name - xpath
2019.02.11 03:10:48   info : Property value - //input[contains(@id,"_txtSearch")]
2019.02.11 03:10:48   info : Finding xpath element on webpage..
2019.02.11 03:10:48   info : Searching for element. Try number 0
2019.02.11 03:10:49   info : element disappeared after trying for 1 times
2019.02.11 03:10:50   info : Current WebDriver Win Count is:: 1
2019.02.11 03:10:50   info : Element found!!
2019.02.11 03:10:50   info : ObjectTag input and ObjectType text
2019.02.11 03:10:50   info : Enter data operation
2019.02.11 03:10:51   info : Xml obj_repo path C:\Talent_Automation_Framework_Backup\Project_Talent/ObjectRepositories/BenefitAsia2_MercerAdmin/MA_Enrollment.xml
2019.02.11 03:10:51   info : xpath object successfully mapped!!
2019.02.11 03:10:51   info : xpath object contains property value !!
2019.02.11 03:10:51   info : Property name - xpath
2019.02.11 03:10:51   info : Property value - //input[contains(@id,"_txtSearch")]
2019.02.11 03:10:51   info : Finding xpath element on webpage..
2019.02.11 03:10:51   info : Searching for element. Try number 0
2019.02.11 03:10:52   info : element disappeared after trying for 1 times
2019.02.11 03:10:53   info : Current WebDriver Win Count is:: 1
2019.02.11 03:10:53   info : Element found!!
2019.02.11 03:10:53   info : Xml obj_repo path C:\Talent_Automation_Framework_Backup\Project_Talent/ObjectRepositories/BenefitAsia2_MercerAdmin/MA_Enrollment.xml
2019.02.11 03:10:53   info : xpath object successfully mapped!!
2019.02.11 03:10:53   info : xpath object contains property value !!
2019.02.11 03:10:53   info : Property name - xpath
2019.02.11 03:10:53   info : Property value - //input[contains(@id,"_txtSearch")]
2019.02.11 03:10:53   info : Finding xpath element on webpage..
2019.02.11 03:10:53   info : Searching for element. Try number 0
2019.02.11 03:10:54   info : element disappeared after trying for 1 times
2019.02.11 03:10:55   info : Current WebDriver Win Count is:: 1
2019.02.11 03:10:55   info : Element found!!
2019.02.11 03:10:55   info : ValueToEnter Simpli_26jan_010
2019.02.11 03:10:55   info : Entered value is Simpli_26jan_010
2019.02.11 03:10:55   info : Attribute entered value Simpli_26jan_010
2019.02.11 03:10:56   info : Current WebDriver Win Count is:: 1
2019.02.11 03:10:57   info : restult status : 1
2019.02.11 03:10:57   info : Test ID TC11 : previous test step/row 1154 status is Passed and value of next test step/row is :: 1155
2019.02.11 03:10:57   info : 

2019.02.11 03:10:57   info : -------------------- Executing Testcase ID TC11 and test step : 1155 ---------------------- 
2019.02.11 03:10:58   info : Current WebDriver Win Count is:: 1
2019.02.11 03:10:58   info : page object present in excel : 1
2019.02.11 03:10:58   info : Under single object handle operation!!
2019.02.11 03:10:58   info : col 6 data : javascript_click and col 5 data : Radio_EmployeeID
2019.02.11 03:10:58   info : Click case operation !!
2019.02.11 03:10:58   info : oprnm javascript_click
2019.02.11 03:10:58   info : click javascript_click operation perfomred!!
2019.02.11 03:10:58   info : Xml obj_repo path C:\Talent_Automation_Framework_Backup\Project_Talent/ObjectRepositories/BenefitAsia2_MercerAdmin/MA_Enrollment.xml
2019.02.11 03:10:58   info : xpath object successfully mapped!!
2019.02.11 03:10:58   info : xpath object contains property value !!
2019.02.11 03:10:58   info : Property name - xpath
2019.02.11 03:10:58   info : Property value - //input[contains(@id,"_rdbsearch_3")]
2019.02.11 03:10:58   info : Finding xpath element on webpage..
2019.02.11 03:10:58   info : Searching for element. Try number 0
2019.02.11 03:10:59   info : element disappeared after trying for 1 times
2019.02.11 03:11:00   info : Current WebDriver Win Count is:: 1
2019.02.11 03:11:00   info : Element found!!
2019.02.11 03:11:01   info : Current WebDriver Win Count is:: 1
2019.02.11 03:11:01   info : restult status : 1
2019.02.11 03:11:01   info : Test ID TC11 : previous test step/row 1155 status is Passed and value of next test step/row is :: 1156
2019.02.11 03:11:01   info : 

2019.02.11 03:11:01   info : -------------------- Executing Testcase ID TC11 and test step : 1156 ---------------------- 
2019.02.11 03:11:02   info : Current WebDriver Win Count is:: 1
2019.02.11 03:11:02   info : page object present in excel : 1
2019.02.11 03:11:02   info : Under single object handle operation!!
2019.02.11 03:11:02   info : col 6 data :  and col 5 data : Search_Button
2019.02.11 03:11:02   info : Normal click operation !!
2019.02.11 03:11:02   info : Checking for object in click
2019.02.11 03:11:02   info : Xml obj_repo path C:\Talent_Automation_Framework_Backup\Project_Talent/ObjectRepositories/BenefitAsia2_MercerAdmin/MA_Enrollment.xml
2019.02.11 03:11:02   info : xpath object successfully mapped!!
2019.02.11 03:11:02   info : xpath object contains property value !!
2019.02.11 03:11:02   info : Property name - xpath
2019.02.11 03:11:02   info : Property value - //input[contains(@id,"_btnSearch")]
2019.02.11 03:11:02   info : Finding xpath element on webpage..
2019.02.11 03:11:02   info : Searching for element. Try number 0
2019.02.11 03:11:03   info : element disappeared after trying for 1 times
2019.02.11 03:11:05   info : Current WebDriver Win Count is:: 1
2019.02.11 03:11:05   info : Element found!!
2019.02.11 03:11:05   info : Xml obj_repo path C:\Talent_Automation_Framework_Backup\Project_Talent/ObjectRepositories/BenefitAsia2_MercerAdmin/MA_Enrollment.xml
2019.02.11 03:11:05   info : xpath object successfully mapped!!
2019.02.11 03:11:05   info : xpath object contains property value !!
2019.02.11 03:11:05   info : Property name - xpath
2019.02.11 03:11:05   info : Property value - //input[contains(@id,"_btnSearch")]
2019.02.11 03:11:05   info : Finding xpath element on webpage..
2019.02.11 03:11:05   info : Searching for element. Try number 0
2019.02.11 03:11:06   info : element disappeared after trying for 1 times
2019.02.11 03:11:07   info : Current WebDriver Win Count is:: 1
2019.02.11 03:11:07   info : Element found!!
2019.02.11 03:11:08   info : clicked on Search_Button
2019.02.11 03:11:09   info : Current WebDriver Win Count is:: 1
2019.02.11 03:11:09   info : restult status : 1
2019.02.11 03:11:09   info : Test ID TC11 : previous test step/row 1156 status is Passed and value of next test step/row is :: 1157
2019.02.11 03:11:09   info : 

2019.02.11 03:11:09   info : -------------------- Executing Testcase ID TC11 and test step : 1157 ---------------------- 
2019.02.11 03:11:10   info : Current WebDriver Win Count is:: 1
2019.02.11 03:11:10   info : Xml obj_repo path C:\Talent_Automation_Framework_Backup\Project_Talent/ObjectRepositories/BenefitAsia2_MercerAdmin/MA_Enrollment.xml
2019.02.11 03:11:10   info : xpath object successfully mapped!!
2019.02.11 03:11:10   info : xpath object contains property value !!
2019.02.11 03:11:10   info : Property name - xpath
2019.02.11 03:11:10   info : Property value - //*[contains(@id,"_SearchEnrolmentStatus_GrdEmployee")]/tbody/tr[2]/td[count(//*[contains(@id,"_SearchEnrolmentStatus_GrdEmployee")]/tbody/tr[1]/th[contains(translate(., 'ABCDEFGHIJKLMNOPQRSTUVWXYZ', 'abcdefghijklmnopqrstuvwxyz'), 'employee id')]/preceding-sibling::th)+1]
2019.02.11 03:11:10   info : Finding xpath element on webpage..
2019.02.11 03:11:10   info : Searching for element. Try number 0
2019.02.11 03:11:11   info : element disappeared after trying for 1 times
2019.02.11 03:11:12   info : Current WebDriver Win Count is:: 1
2019.02.11 03:11:12   info : Element found!!
2019.02.11 03:11:12   info : ObjectTag td and ObjectType null
2019.02.11 03:11:12   info : Exp_value Simpli_26jan_010
2019.02.11 03:11:12   info : Searching for element. Try number 0
2019.02.11 03:11:13   info : element disappeared after trying for 1 times
2019.02.11 03:11:13   info : Actual ValueSimpli_26jan_010
2019.02.11 03:11:13   info : Exp : Simpli_26jan_010 and act : Simpli_26jan_010 value matched!!
2019.02.11 03:11:14   info : Current WebDriver Win Count is:: 1
2019.02.11 03:11:14   info : restult status : 1
2019.02.11 03:11:14   info : Test ID TC11 : previous test step/row 1157 status is Passed and value of next test step/row is :: 1158
2019.02.11 03:11:14   info : 

2019.02.11 03:11:14   info : -------------------- Executing Testcase ID TC11 and test step : 1158 ---------------------- 
2019.02.11 03:11:16   info : Current WebDriver Win Count is:: 1
2019.02.11 03:11:16   info : page object present in excel : 1
2019.02.11 03:11:16   info : Under single object handle operation!!
2019.02.11 03:11:16   info : col 6 data :  and col 5 data : Edit_Period
2019.02.11 03:11:16   info : Normal click operation !!
2019.02.11 03:11:16   info : Checking for object in click
2019.02.11 03:11:16   info : Xml obj_repo path C:\Talent_Automation_Framework_Backup\Project_Talent/ObjectRepositories/BenefitAsia2_MercerAdmin/MA_Enrollment.xml
2019.02.11 03:11:16   info : xpath object successfully mapped!!
2019.02.11 03:11:16   info : xpath object contains property value !!
2019.02.11 03:11:16   info : Property name - xpath
2019.02.11 03:11:16   info : Property value - //input[contains(@id,"_btnEditPeriod")]
2019.02.11 03:11:16   info : Finding xpath element on webpage..
2019.02.11 03:11:16   info : Searching for element. Try number 0
2019.02.11 03:11:17   info : element disappeared after trying for 1 times
2019.02.11 03:11:18   info : Current WebDriver Win Count is:: 1
2019.02.11 03:11:18   info : Element found!!
2019.02.11 03:11:18   info : Xml obj_repo path C:\Talent_Automation_Framework_Backup\Project_Talent/ObjectRepositories/BenefitAsia2_MercerAdmin/MA_Enrollment.xml
2019.02.11 03:11:18   info : xpath object successfully mapped!!
2019.02.11 03:11:18   info : xpath object contains property value !!
2019.02.11 03:11:18   info : Property name - xpath
2019.02.11 03:11:18   info : Property value - //input[contains(@id,"_btnEditPeriod")]
2019.02.11 03:11:18   info : Finding xpath element on webpage..
2019.02.11 03:11:18   info : Searching for element. Try number 0
2019.02.11 03:11:19   info : element disappeared after trying for 1 times
2019.02.11 03:11:20   info : Current WebDriver Win Count is:: 1
2019.02.11 03:11:20   info : Element found!!
2019.02.11 03:11:22   info : clicked on Edit_Period
2019.02.11 03:11:23   info : Current WebDriver Win Count is:: 1
2019.02.11 03:11:23   info : restult status : 1
2019.02.11 03:11:23   info : Test ID TC11 : previous test step/row 1158 status is Passed and value of next test step/row is :: 1159
2019.02.11 03:11:23   info : 

2019.02.11 03:11:23   info : -------------------- Executing Testcase ID TC11 and test step : 1159 ---------------------- 
2019.02.11 03:11:24   info : Current WebDriver Win Count is:: 1
2019.02.11 03:11:24   info : page object present in excel : 1
2019.02.11 03:11:24   info : Under single object handle operation!!
2019.02.11 03:11:24   info : col 6 data :  and col 5 data : Submit_Button
2019.02.11 03:11:24   info : Normal click operation !!
2019.02.11 03:11:24   info : Checking for object in click
2019.02.11 03:11:24   info : Xml obj_repo path C:\Talent_Automation_Framework_Backup\Project_Talent/ObjectRepositories/BenefitAsia2_MercerAdmin/MA_Enrollment.xml
2019.02.11 03:11:24   info : xpath object successfully mapped!!
2019.02.11 03:11:24   info : xpath object contains property value !!
2019.02.11 03:11:24   info : Property name - xpath
2019.02.11 03:11:24   info : Property value - //input[contains(@id,"_btnSubmit")]
2019.02.11 03:11:24   info : Finding xpath element on webpage..
2019.02.11 03:11:24   info : Searching for element. Try number 0
2019.02.11 03:11:25   info : element disappeared after trying for 1 times
2019.02.11 03:11:26   info : Current WebDriver Win Count is:: 1
2019.02.11 03:11:26   info : Element found!!
2019.02.11 03:11:26   info : Xml obj_repo path C:\Talent_Automation_Framework_Backup\Project_Talent/ObjectRepositories/BenefitAsia2_MercerAdmin/MA_Enrollment.xml
2019.02.11 03:11:26   info : xpath object successfully mapped!!
2019.02.11 03:11:26   info : xpath object contains property value !!
2019.02.11 03:11:26   info : Property name - xpath
2019.02.11 03:11:26   info : Property value - //input[contains(@id,"_btnSubmit")]
2019.02.11 03:11:26   info : Finding xpath element on webpage..
2019.02.11 03:11:26   info : Searching for element. Try number 0
2019.02.11 03:11:27   info : element disappeared after trying for 1 times
2019.02.11 03:11:28   info : Current WebDriver Win Count is:: 1
2019.02.11 03:11:28   info : Element found!!
2019.02.11 03:11:29   info : clicked on Submit_Button
2019.02.11 03:11:30   info : Current WebDriver Win Count is:: 1
2019.02.11 03:11:31   info : restult status : 1
2019.02.11 03:11:31   info : Test ID TC11 : previous test step/row 1159 status is Passed and value of next test step/row is :: 1160
2019.02.11 03:11:31   info : 

2019.02.11 03:11:31   info : -------------------- Executing Testcase ID TC11 and test step : 1160 ---------------------- 
2019.02.11 03:11:32   info : Current WebDriver Win Count is:: 1
2019.02.11 03:11:32   info : Xml obj_repo path C:\Talent_Automation_Framework_Backup\Project_Talent/ObjectRepositories/BenefitAsia2_MercerAdmin/MA_LoginLogout.xml
2019.02.11 03:11:32   info : Title contains null value in xml!!
2019.02.11 03:11:32   info : Window title View Enrollment Status
2019.02.11 03:11:32   info : Xml obj_repo path C:\Talent_Automation_Framework_Backup\Project_Talent/ObjectRepositories/BenefitAsia2_MercerAdmin/MA_LoginLogout.xml
2019.02.11 03:11:32   info : xpath object successfully mapped!!
2019.02.11 03:11:32   info : xpath object contains property value !!
2019.02.11 03:11:32   info : Property name - xpath
2019.02.11 03:11:32   info : Property value - //a[contains(@id,"_cmdLogin")]
2019.02.11 03:11:32   info : Finding xpath element on webpage..
2019.02.11 03:11:32   info : Searching for element. Try number 0
2019.02.11 03:11:33   info : element disappeared after trying for 1 times
2019.02.11 03:11:33   info : Element found!!
2019.02.11 03:11:33   info : Desired window is activated!!
2019.02.11 03:11:33   info : page object present in excel : 1
2019.02.11 03:11:33   info : Under single object handle operation!!
2019.02.11 03:11:33   info : col 6 data :  and col 5 data : Logout
2019.02.11 03:11:33   info : Normal click operation !!
2019.02.11 03:11:33   info : Checking for object in click
2019.02.11 03:11:33   info : Xml obj_repo path C:\Talent_Automation_Framework_Backup\Project_Talent/ObjectRepositories/BenefitAsia2_MercerAdmin/MA_LoginLogout.xml
2019.02.11 03:11:33   info : xpath object successfully mapped!!
2019.02.11 03:11:33   info : xpath object contains property value !!
2019.02.11 03:11:33   info : Property name - xpath
2019.02.11 03:11:33   info : Property value - //a[contains(@id,"_cmdLogin")]
2019.02.11 03:11:33   info : Finding xpath element on webpage..
2019.02.11 03:11:33   info : Searching for element. Try number 0
2019.02.11 03:11:34   info : element disappeared after trying for 1 times
2019.02.11 03:11:34   info : Element found!!
2019.02.11 03:11:34   info : Xml obj_repo path C:\Talent_Automation_Framework_Backup\Project_Talent/ObjectRepositories/BenefitAsia2_MercerAdmin/MA_LoginLogout.xml
2019.02.11 03:11:34   info : xpath object successfully mapped!!
2019.02.11 03:11:34   info : xpath object contains property value !!
2019.02.11 03:11:34   info : Property name - xpath
2019.02.11 03:11:34   info : Property value - //a[contains(@id,"_cmdLogin")]
2019.02.11 03:11:34   info : Finding xpath element on webpage..
2019.02.11 03:11:34   info : Searching for element. Try number 0
2019.02.11 03:11:35   info : element disappeared after trying for 1 times
2019.02.11 03:11:35   info : Element found!!
2019.02.11 03:11:38   info : clicked on Logout
2019.02.11 03:11:39   info : Current WebDriver Win Count is:: 1
2019.02.11 03:11:39   info : restult status : 1
2019.02.11 03:11:39   info : Test ID TC11 : previous test step/row 1160 status is Passed and value of next test step/row is :: 1161
2019.02.11 03:11:39   info : 

2019.02.11 03:11:39   info : -------------------- Executing Testcase ID TC11 and test step : 1161 ---------------------- 
2019.02.11 03:11:40   info : Current WebDriver Win Count is:: 1
2019.02.11 03:11:40   info : not doing anything!!
2019.02.11 03:11:40   info : Navigating to another url..
2019.02.11 03:11:54   info : Current WebDriver Win Count is:: 1
2019.02.11 03:11:54   info : restult status : 1
2019.02.11 03:11:54   info : Test ID TC11 : previous test step/row 1161 status is Passed and value of next test step/row is :: 1162
2019.02.11 03:11:54   info : 

2019.02.11 03:11:54   info : -------------------- Executing Testcase ID TC11 and test step : 1162 ---------------------- 
2019.02.11 03:11:56   info : Current WebDriver Win Count is:: 1
2019.02.11 03:11:56   info : Xml obj_repo path C:\Talent_Automation_Framework_Backup\Project_Talent/ObjectRepositories/BenefitAsia2_EE/EE_SimpliflexSG_LoginLogout.xml
2019.02.11 03:11:56   info : Title contains null value in xml!!
2019.02.11 03:11:56   info : Window title User Login
2019.02.11 03:11:56   info : Xml obj_repo path C:\Talent_Automation_Framework_Backup\Project_Talent/ObjectRepositories/BenefitAsia2_EE/EE_SimpliflexSG_LoginLogout.xml
2019.02.11 03:11:56   info : xpath object successfully mapped!!
2019.02.11 03:11:56   info : xpath object contains property value !!
2019.02.11 03:11:56   info : Property name - xpath
2019.02.11 03:11:56   info : Property value - //input[contains(@id,"_txtUsername")]
2019.02.11 03:11:56   info : Finding xpath element on webpage..
2019.02.11 03:11:56   info : Searching for element. Try number 0
2019.02.11 03:11:57   info : element disappeared after trying for 1 times
2019.02.11 03:11:58   info : Current WebDriver Win Count is:: 1
2019.02.11 03:11:58   info : Element found!!
2019.02.11 03:11:58   info : Desired window is activated!!
2019.02.11 03:11:58   info : FiledName UserName and FiledValue Simpli_26jan_010
2019.02.11 03:11:58   info : FiledName Password and FiledValue 1
2019.02.11 03:11:58   info : Total static wait time 3
2019.02.11 03:12:01   info : Xml obj_repo path C:\Talent_Automation_Framework_Backup\Project_Talent/ObjectRepositories/BenefitAsia2_EE/EE_SimpliflexSG_LoginLogout.xml
2019.02.11 03:12:01   info : xpath object successfully mapped!!
2019.02.11 03:12:01   info : xpath object contains property value !!
2019.02.11 03:12:01   info : Property name - xpath
2019.02.11 03:12:01   info : Property value - //input[contains(@id,"_txtUsername")]
2019.02.11 03:12:01   info : Finding xpath element on webpage..
2019.02.11 03:12:01   info : Searching for element. Try number 0
2019.02.11 03:12:02   info : element disappeared after trying for 1 times
2019.02.11 03:12:03   info : Current WebDriver Win Count is:: 1
2019.02.11 03:12:03   info : Element found!!
2019.02.11 03:12:03   info : ObjectTag input and ObjectType text
2019.02.11 03:12:03   info : Enter data operation
2019.02.11 03:12:04   info : Xml obj_repo path C:\Talent_Automation_Framework_Backup\Project_Talent/ObjectRepositories/BenefitAsia2_EE/EE_SimpliflexSG_LoginLogout.xml
2019.02.11 03:12:04   info : xpath object successfully mapped!!
2019.02.11 03:12:04   info : xpath object contains property value !!
2019.02.11 03:12:04   info : Property name - xpath
2019.02.11 03:12:04   info : Property value - //input[contains(@id,"_txtUsername")]
2019.02.11 03:12:04   info : Finding xpath element on webpage..
2019.02.11 03:12:04   info : Searching for element. Try number 0
2019.02.11 03:12:05   info : element disappeared after trying for 1 times
2019.02.11 03:12:06   info : Current WebDriver Win Count is:: 1
2019.02.11 03:12:06   info : Element found!!
2019.02.11 03:12:06   info : Xml obj_repo path C:\Talent_Automation_Framework_Backup\Project_Talent/ObjectRepositories/BenefitAsia2_EE/EE_SimpliflexSG_LoginLogout.xml
2019.02.11 03:12:06   info : xpath object successfully mapped!!
2019.02.11 03:12:06   info : xpath object contains property value !!
2019.02.11 03:12:06   info : Property name - xpath
2019.02.11 03:12:06   info : Property value - //input[contains(@id,"_txtUsername")]
2019.02.11 03:12:06   info : Finding xpath element on webpage..
2019.02.11 03:12:06   info : Searching for element. Try number 0
2019.02.11 03:12:07   info : element disappeared after trying for 1 times
2019.02.11 03:12:08   info : Current WebDriver Win Count is:: 1
2019.02.11 03:12:08   info : Element found!!
2019.02.11 03:12:08   info : ValueToEnter Simpli_26jan_010
2019.02.11 03:12:08   info : Entered value is Simpli_26jan_010
2019.02.11 03:12:08   info : Attribute entered value Simpli_26jan_010
2019.02.11 03:12:08   info : Total static wait time 3
2019.02.11 03:12:11   info : Xml obj_repo path C:\Talent_Automation_Framework_Backup\Project_Talent/ObjectRepositories/BenefitAsia2_EE/EE_SimpliflexSG_LoginLogout.xml
2019.02.11 03:12:11   info : xpath object successfully mapped!!
2019.02.11 03:12:11   info : xpath object contains property value !!
2019.02.11 03:12:11   info : Property name - xpath
2019.02.11 03:12:11   info : Property value - //input[contains(@id,"_txtPassword")]
2019.02.11 03:12:11   info : Finding xpath element on webpage..
2019.02.11 03:12:11   info : Searching for element. Try number 0
2019.02.11 03:12:12   info : element disappeared after trying for 1 times
2019.02.11 03:12:13   info : Current WebDriver Win Count is:: 1
2019.02.11 03:12:13   info : Element found!!
2019.02.11 03:12:13   info : ObjectTag input and ObjectType password
2019.02.11 03:12:13   info : Enter data operation
2019.02.11 03:12:13   info : Xml obj_repo path C:\Talent_Automation_Framework_Backup\Project_Talent/ObjectRepositories/BenefitAsia2_EE/EE_SimpliflexSG_LoginLogout.xml
2019.02.11 03:12:13   info : xpath object successfully mapped!!
2019.02.11 03:12:13   info : xpath object contains property value !!
2019.02.11 03:12:13   info : Property name - xpath
2019.02.11 03:12:13   info : Property value - //input[contains(@id,"_txtPassword")]
2019.02.11 03:12:13   info : Finding xpath element on webpage..
2019.02.11 03:12:13   info : Searching for element. Try number 0
2019.02.11 03:12:14   info : element disappeared after trying for 1 times
2019.02.11 03:12:15   info : Current WebDriver Win Count is:: 1
2019.02.11 03:12:15   info : Element found!!
2019.02.11 03:12:15   info : ValueToEnter 1
2019.02.11 03:12:15   info : Entered value is 1
2019.02.11 03:12:15   info : Attribute entered value 1
2019.02.11 03:12:15   info : Checking for object in click
2019.02.11 03:12:15   info : Xml obj_repo path C:\Talent_Automation_Framework_Backup\Project_Talent/ObjectRepositories/BenefitAsia2_EE/EE_SimpliflexSG_LoginLogout.xml
2019.02.11 03:12:15   info : xpath object successfully mapped!!
2019.02.11 03:12:15   info : xpath object contains property value !!
2019.02.11 03:12:15   info : Property name - xpath
2019.02.11 03:12:15   info : Property value - //input[contains(@id,"_cmdLogin")]
2019.02.11 03:12:15   info : Finding xpath element on webpage..
2019.02.11 03:12:15   info : Searching for element. Try number 0
2019.02.11 03:12:16   info : element disappeared after trying for 1 times
2019.02.11 03:12:17   info : Current WebDriver Win Count is:: 1
2019.02.11 03:12:17   info : Element found!!
2019.02.11 03:12:17   info : Xml obj_repo path C:\Talent_Automation_Framework_Backup\Project_Talent/ObjectRepositories/BenefitAsia2_EE/EE_SimpliflexSG_LoginLogout.xml
2019.02.11 03:12:17   info : xpath object successfully mapped!!
2019.02.11 03:12:17   info : xpath object contains property value !!
2019.02.11 03:12:17   info : Property name - xpath
2019.02.11 03:12:17   info : Property value - //input[contains(@id,"_cmdLogin")]
2019.02.11 03:12:17   info : Finding xpath element on webpage..
2019.02.11 03:12:17   info : Searching for element. Try number 0
2019.02.11 03:12:18   info : element disappeared after trying for 1 times
2019.02.11 03:12:19   info : Current WebDriver Win Count is:: 1
2019.02.11 03:12:19   info : Element found!!
2019.02.11 03:12:23   info : clicked on LoginButton
2019.02.11 03:12:24   info : Current WebDriver Win Count is:: 1
2019.02.11 03:12:24   info : restult status : 1
2019.02.11 03:12:24   info : Test ID TC11 : previous test step/row 1162 status is Passed and value of next test step/row is :: 1163
2019.02.11 03:12:24   info : 

2019.02.11 03:12:24   info : -------------------- Executing Testcase ID TC11 and test step : 1163 ---------------------- 
2019.02.11 03:12:25   info : Current WebDriver Win Count is:: 1
2019.02.11 03:12:25   info : Xml obj_repo path C:\Talent_Automation_Framework_Backup\Project_Talent/ObjectRepositories/BenefitAsia2_EE/EE_SimpliflexSG_Enrolment.xml
2019.02.11 03:12:25   info : Title in xml file - MyEnrollment
2019.02.11 03:12:25   warn : Window is not switched, now trying based on element!!
2019.02.11 03:12:25   info : Window title Terms and Agreement
2019.02.11 03:12:25   info : Xml obj_repo path C:\Talent_Automation_Framework_Backup\Project_Talent/ObjectRepositories/BenefitAsia2_EE/EE_SimpliflexSG_Enrolment.xml
2019.02.11 03:12:25   info : xpath object successfully mapped!!
2019.02.11 03:12:25   info : xpath object contains property value !!
2019.02.11 03:12:25   info : Property name - xpath
2019.02.11 03:12:25   info : Property value - //input[contains(@id,"ctlTermsAndAgreements_btnAgreeNew")]
2019.02.11 03:12:25   info : Finding xpath element on webpage..
2019.02.11 03:12:25   info : Searching for element. Try number 0
2019.02.11 03:12:26   info : element disappeared after trying for 1 times
2019.02.11 03:12:27   info : Current WebDriver Win Count is:: 1
2019.02.11 03:12:27   info : Element found!!
2019.02.11 03:12:27   info : Desired window is activated!!
2019.02.11 03:12:27   info : page object present in excel : 1
2019.02.11 03:12:27   info : Under single object handle operation!!
2019.02.11 03:12:27   info : col 6 data :  and col 5 data : AgreementButton
2019.02.11 03:12:27   info : Normal click operation !!
2019.02.11 03:12:27   info : Checking for object in click
2019.02.11 03:12:27   info : Xml obj_repo path C:\Talent_Automation_Framework_Backup\Project_Talent/ObjectRepositories/BenefitAsia2_EE/EE_SimpliflexSG_Enrolment.xml
2019.02.11 03:12:27   info : xpath object successfully mapped!!
2019.02.11 03:12:27   info : xpath object contains property value !!
2019.02.11 03:12:27   info : Property name - xpath
2019.02.11 03:12:27   info : Property value - //input[contains(@id,"ctlTermsAndAgreements_btnAgreeNew")]
2019.02.11 03:12:27   info : Finding xpath element on webpage..
2019.02.11 03:12:27   info : Searching for element. Try number 0
2019.02.11 03:12:28   info : element disappeared after trying for 1 times
2019.02.11 03:12:29   info : Current WebDriver Win Count is:: 1
2019.02.11 03:12:29   info : Element found!!
2019.02.11 03:12:29   info : Xml obj_repo path C:\Talent_Automation_Framework_Backup\Project_Talent/ObjectRepositories/BenefitAsia2_EE/EE_SimpliflexSG_Enrolment.xml
2019.02.11 03:12:29   info : xpath object successfully mapped!!
2019.02.11 03:12:29   info : xpath object contains property value !!
2019.02.11 03:12:29   info : Property name - xpath
2019.02.11 03:12:29   info : Property value - //input[contains(@id,"ctlTermsAndAgreements_btnAgreeNew")]
2019.02.11 03:12:29   info : Finding xpath element on webpage..
2019.02.11 03:12:29   info : Searching for element. Try number 0
2019.02.11 03:12:30   info : element disappeared after trying for 1 times
2019.02.11 03:12:31   info : Current WebDriver Win Count is:: 1
2019.02.11 03:12:31   info : Element found!!
2019.02.11 03:12:34   info : clicked on AgreementButton
2019.02.11 03:12:35   info : Current WebDriver Win Count is:: 1
2019.02.11 03:12:35   info : restult status : 1
2019.02.11 03:12:35   info : Test ID TC11 : previous test step/row 1163 status is Passed and value of next test step/row is :: 1164
2019.02.11 03:12:35   info : 

2019.02.11 03:12:35   info : -------------------- Executing Testcase ID TC11 and test step : 1164 ---------------------- 
2019.02.11 03:12:36   info : Current WebDriver Win Count is:: 1
2019.02.11 03:12:36   info : Total static wait time 3
2019.02.11 03:12:39   info : Xml obj_repo path C:\Talent_Automation_Framework_Backup\Project_Talent/ObjectRepositories/BenefitAsia2_EE/EE_SimpliflexSG_Enrolment.xml
2019.02.11 03:12:39   info : xpath object successfully mapped!!
2019.02.11 03:12:39   info : xpath object contains property value !!
2019.02.11 03:12:39   info : Property name - xpath
2019.02.11 03:12:39   info : Property value - //input[contains(@id,"_LoginDefault_NewLoginDefault1_SignIn_v2_Password_txtOldPassword")]
2019.02.11 03:12:39   info : Finding xpath element on webpage..
2019.02.11 03:12:39   info : Searching for element. Try number 0
2019.02.11 03:12:40   info : element disappeared after trying for 1 times
2019.02.11 03:12:41   info : Current WebDriver Win Count is:: 1
2019.02.11 03:12:41   info : Element found!!
2019.02.11 03:12:41   info : ObjectTag input and ObjectType password
2019.02.11 03:12:41   info : Enter data operation
2019.02.11 03:12:41   info : Xml obj_repo path C:\Talent_Automation_Framework_Backup\Project_Talent/ObjectRepositories/BenefitAsia2_EE/EE_SimpliflexSG_Enrolment.xml
2019.02.11 03:12:41   info : xpath object successfully mapped!!
2019.02.11 03:12:41   info : xpath object contains property value !!
2019.02.11 03:12:41   info : Property name - xpath
2019.02.11 03:12:41   info : Property value - //input[contains(@id,"_LoginDefault_NewLoginDefault1_SignIn_v2_Password_txtOldPassword")]
2019.02.11 03:12:41   info : Finding xpath element on webpage..
2019.02.11 03:12:41   info : Searching for element. Try number 0
2019.02.11 03:12:42   info : element disappeared after trying for 1 times
2019.02.11 03:12:43   info : Current WebDriver Win Count is:: 1
2019.02.11 03:12:43   info : Element found!!
2019.02.11 03:12:43   info : ValueToEnter 1
2019.02.11 03:12:43   info : Entered value is 1
2019.02.11 03:12:43   info : Attribute entered value 1
2019.02.11 03:12:44   info : Current WebDriver Win Count is:: 1
2019.02.11 03:12:44   info : restult status : 1
2019.02.11 03:12:44   info : Test ID TC11 : previous test step/row 1164 status is Passed and value of next test step/row is :: 1165
2019.02.11 03:12:45   info : 

2019.02.11 03:12:45   info : -------------------- Executing Testcase ID TC11 and test step : 1165 ---------------------- 
2019.02.11 03:12:46   info : Current WebDriver Win Count is:: 1
2019.02.11 03:12:46   info : Total static wait time 3
2019.02.11 03:12:49   info : Xml obj_repo path C:\Talent_Automation_Framework_Backup\Project_Talent/ObjectRepositories/BenefitAsia2_EE/EE_SimpliflexSG_Enrolment.xml
2019.02.11 03:12:49   info : xpath object successfully mapped!!
2019.02.11 03:12:49   info : xpath object contains property value !!
2019.02.11 03:12:49   info : Property name - xpath
2019.02.11 03:12:49   info : Property value - //input[contains(@id,"_LoginDefault_NewLoginDefault1_SignIn_v2_Password_txtNewPassword")]
2019.02.11 03:12:49   info : Finding xpath element on webpage..
2019.02.11 03:12:49   info : Searching for element. Try number 0
2019.02.11 03:12:50   info : element disappeared after trying for 1 times
2019.02.11 03:12:51   info : Current WebDriver Win Count is:: 1
2019.02.11 03:12:51   info : Element found!!
2019.02.11 03:12:51   info : ObjectTag input and ObjectType password
2019.02.11 03:12:51   info : Enter data operation
2019.02.11 03:12:51   info : Xml obj_repo path C:\Talent_Automation_Framework_Backup\Project_Talent/ObjectRepositories/BenefitAsia2_EE/EE_SimpliflexSG_Enrolment.xml
2019.02.11 03:12:51   info : xpath object successfully mapped!!
2019.02.11 03:12:51   info : xpath object contains property value !!
2019.02.11 03:12:51   info : Property name - xpath
2019.02.11 03:12:51   info : Property value - //input[contains(@id,"_LoginDefault_NewLoginDefault1_SignIn_v2_Password_txtNewPassword")]
2019.02.11 03:12:51   info : Finding xpath element on webpage..
2019.02.11 03:12:51   info : Searching for element. Try number 0
2019.02.11 03:12:52   info : element disappeared after trying for 1 times
2019.02.11 03:12:53   info : Current WebDriver Win Count is:: 1
2019.02.11 03:12:53   info : Element found!!
2019.02.11 03:12:53   info : ValueToEnter Password123$
2019.02.11 03:12:53   info : Entered value is Password123$
2019.02.11 03:12:53   info : Attribute entered value Password123$
2019.02.11 03:12:54   info : Current WebDriver Win Count is:: 1
2019.02.11 03:12:54   info : restult status : 1
2019.02.11 03:12:54   info : Test ID TC11 : previous test step/row 1165 status is Passed and value of next test step/row is :: 1166
2019.02.11 03:12:54   info : 

2019.02.11 03:12:54   info : -------------------- Executing Testcase ID TC11 and test step : 1166 ---------------------- 
2019.02.11 03:12:55   info : Current WebDriver Win Count is:: 1
2019.02.11 03:12:55   info : Total static wait time 3
2019.02.11 03:12:58   info : Xml obj_repo path C:\Talent_Automation_Framework_Backup\Project_Talent/ObjectRepositories/BenefitAsia2_EE/EE_SimpliflexSG_Enrolment.xml
2019.02.11 03:12:58   info : xpath object successfully mapped!!
2019.02.11 03:12:58   info : xpath object contains property value !!
2019.02.11 03:12:58   info : Property name - xpath
2019.02.11 03:12:58   info : Property value - //input[contains(@id,"_LoginDefault_NewLoginDefault1_SignIn_v2_Password_txtNewConfirm")]
2019.02.11 03:12:58   info : Finding xpath element on webpage..
2019.02.11 03:12:58   info : Searching for element. Try number 0
2019.02.11 03:12:59   info : element disappeared after trying for 1 times
2019.02.11 03:13:00   info : Current WebDriver Win Count is:: 1
2019.02.11 03:13:00   info : Element found!!
2019.02.11 03:13:00   info : ObjectTag input and ObjectType password
2019.02.11 03:13:00   info : Enter data operation
2019.02.11 03:13:00   info : Xml obj_repo path C:\Talent_Automation_Framework_Backup\Project_Talent/ObjectRepositories/BenefitAsia2_EE/EE_SimpliflexSG_Enrolment.xml
2019.02.11 03:13:00   info : xpath object successfully mapped!!
2019.02.11 03:13:00   info : xpath object contains property value !!
2019.02.11 03:13:00   info : Property name - xpath
2019.02.11 03:13:00   info : Property value - //input[contains(@id,"_LoginDefault_NewLoginDefault1_SignIn_v2_Password_txtNewConfirm")]
2019.02.11 03:13:00   info : Finding xpath element on webpage..
2019.02.11 03:13:00   info : Searching for element. Try number 0
2019.02.11 03:13:01   info : element disappeared after trying for 1 times
2019.02.11 03:13:02   info : Current WebDriver Win Count is:: 1
2019.02.11 03:13:02   info : Element found!!
2019.02.11 03:13:02   info : ValueToEnter Password123$
2019.02.11 03:13:03   info : Entered value is Password123$
2019.02.11 03:13:03   info : Attribute entered value Password123$
2019.02.11 03:13:04   info : Current WebDriver Win Count is:: 1
2019.02.11 03:13:04   info : restult status : 1
2019.02.11 03:13:04   info : Test ID TC11 : previous test step/row 1166 status is Passed and value of next test step/row is :: 1167
2019.02.11 03:13:04   info : 

2019.02.11 03:13:04   info : -------------------- Executing Testcase ID TC11 and test step : 1167 ---------------------- 
2019.02.11 03:13:05   info : Current WebDriver Win Count is:: 1
2019.02.11 03:13:05   info : page object present in excel : 1
2019.02.11 03:13:05   info : Under single object handle operation!!
2019.02.11 03:13:05   info : col 6 data :  and col 5 data : UpdatePassword
2019.02.11 03:13:05   info : Normal click operation !!
2019.02.11 03:13:05   info : Checking for object in click
2019.02.11 03:13:05   info : Xml obj_repo path C:\Talent_Automation_Framework_Backup\Project_Talent/ObjectRepositories/BenefitAsia2_EE/EE_SimpliflexSG_Enrolment.xml
2019.02.11 03:13:05   info : xpath object successfully mapped!!
2019.02.11 03:13:05   info : xpath object contains property value !!
2019.02.11 03:13:05   info : Property name - xpath
2019.02.11 03:13:05   info : Property value - //input[contains(@id,"_LoginDefault_NewLoginDefault1_SignIn_v2_Password_cmdUpdate")]
2019.02.11 03:13:05   info : Finding xpath element on webpage..
2019.02.11 03:13:05   info : Searching for element. Try number 0
2019.02.11 03:13:06   info : element disappeared after trying for 1 times
2019.02.11 03:13:07   info : Current WebDriver Win Count is:: 1
2019.02.11 03:13:07   info : Element found!!
2019.02.11 03:13:07   info : Xml obj_repo path C:\Talent_Automation_Framework_Backup\Project_Talent/ObjectRepositories/BenefitAsia2_EE/EE_SimpliflexSG_Enrolment.xml
2019.02.11 03:13:07   info : xpath object successfully mapped!!
2019.02.11 03:13:07   info : xpath object contains property value !!
2019.02.11 03:13:07   info : Property name - xpath
2019.02.11 03:13:07   info : Property value - //input[contains(@id,"_LoginDefault_NewLoginDefault1_SignIn_v2_Password_cmdUpdate")]
2019.02.11 03:13:07   info : Finding xpath element on webpage..
2019.02.11 03:13:07   info : Searching for element. Try number 0
2019.02.11 03:13:08   info : element disappeared after trying for 1 times
2019.02.11 03:13:09   info : Current WebDriver Win Count is:: 1
2019.02.11 03:13:09   info : Element found!!
2019.02.11 03:13:12   info : clicked on UpdatePassword
2019.02.11 03:13:13   info : Current WebDriver Win Count is:: 1
2019.02.11 03:13:13   info : restult status : 1
2019.02.11 03:13:13   info : Test ID TC11 : previous test step/row 1167 status is Passed and value of next test step/row is :: 1168
2019.02.11 03:13:13   info : 

2019.02.11 03:13:13   info : -------------------- Executing Testcase ID TC11 and test step : 1168 ---------------------- 
2019.02.11 03:13:14   info : Current WebDriver Win Count is:: 1
2019.02.11 03:13:14   info : Navigating to another url..
2019.02.11 03:13:20   info : Current WebDriver Win Count is:: 1
2019.02.11 03:13:21   info : restult status : 1
2019.02.11 03:13:21   info : Test ID TC11 : previous test step/row 1168 status is Passed and value of next test step/row is :: 1169
2019.02.11 03:13:21   info : 

2019.02.11 03:13:21   info : -------------------- Executing Testcase ID TC11 and test step : 1169 ---------------------- 
2019.02.11 03:13:22   info : Current WebDriver Win Count is:: 1
2019.02.11 03:13:22   info : Xml obj_repo path C:\Talent_Automation_Framework_Backup\Project_Talent/ObjectRepositories/BenefitAsia2_EE/EE_SimpliflexSG_LoginLogout.xml
2019.02.11 03:13:22   info : Title contains null value in xml!!
2019.02.11 03:13:22   info : Window title User Login
2019.02.11 03:13:22   info : Xml obj_repo path C:\Talent_Automation_Framework_Backup\Project_Talent/ObjectRepositories/BenefitAsia2_EE/EE_SimpliflexSG_LoginLogout.xml
2019.02.11 03:13:22   info : xpath object successfully mapped!!
2019.02.11 03:13:22   info : xpath object contains property value !!
2019.02.11 03:13:22   info : Property name - xpath
2019.02.11 03:13:22   info : Property value - //input[contains(@id,"_txtUsername")]
2019.02.11 03:13:22   info : Finding xpath element on webpage..
2019.02.11 03:13:22   info : Searching for element. Try number 0
2019.02.11 03:13:23   info : element disappeared after trying for 1 times
2019.02.11 03:13:24   info : Current WebDriver Win Count is:: 1
2019.02.11 03:13:24   info : Element found!!
2019.02.11 03:13:24   info : Desired window is activated!!
2019.02.11 03:13:24   info : FiledName UserName and FiledValue Simpli_26jan_010
2019.02.11 03:13:24   info : FiledName Password and FiledValue Password123$
2019.02.11 03:13:24   info : Total static wait time 3
2019.02.11 03:13:27   info : Xml obj_repo path C:\Talent_Automation_Framework_Backup\Project_Talent/ObjectRepositories/BenefitAsia2_EE/EE_SimpliflexSG_LoginLogout.xml
2019.02.11 03:13:27   info : xpath object successfully mapped!!
2019.02.11 03:13:27   info : xpath object contains property value !!
2019.02.11 03:13:27   info : Property name - xpath
2019.02.11 03:13:27   info : Property value - //input[contains(@id,"_txtUsername")]
2019.02.11 03:13:27   info : Finding xpath element on webpage..
2019.02.11 03:13:27   info : Searching for element. Try number 0
2019.02.11 03:13:28   info : element disappeared after trying for 1 times
2019.02.11 03:13:29   info : Current WebDriver Win Count is:: 1
2019.02.11 03:13:29   info : Element found!!
2019.02.11 03:13:29   info : ObjectTag input and ObjectType text
2019.02.11 03:13:29   info : Enter data operation
2019.02.11 03:13:30   info : Xml obj_repo path C:\Talent_Automation_Framework_Backup\Project_Talent/ObjectRepositories/BenefitAsia2_EE/EE_SimpliflexSG_LoginLogout.xml
2019.02.11 03:13:30   info : xpath object successfully mapped!!
2019.02.11 03:13:30   info : xpath object contains property value !!
2019.02.11 03:13:30   info : Property name - xpath
2019.02.11 03:13:30   info : Property value - //input[contains(@id,"_txtUsername")]
2019.02.11 03:13:30   info : Finding xpath element on webpage..
2019.02.11 03:13:30   info : Searching for element. Try number 0
2019.02.11 03:13:31   info : element disappeared after trying for 1 times
2019.02.11 03:13:32   info : Current WebDriver Win Count is:: 1
2019.02.11 03:13:32   info : Element found!!
2019.02.11 03:13:32   info : Xml obj_repo path C:\Talent_Automation_Framework_Backup\Project_Talent/ObjectRepositories/BenefitAsia2_EE/EE_SimpliflexSG_LoginLogout.xml
2019.02.11 03:13:32   info : xpath object successfully mapped!!
2019.02.11 03:13:32   info : xpath object contains property value !!
2019.02.11 03:13:32   info : Property name - xpath
2019.02.11 03:13:32   info : Property value - //input[contains(@id,"_txtUsername")]
2019.02.11 03:13:32   info : Finding xpath element on webpage..
2019.02.11 03:13:32   info : Searching for element. Try number 0
2019.02.11 03:13:33   info : element disappeared after trying for 1 times
2019.02.11 03:13:34   info : Current WebDriver Win Count is:: 1
2019.02.11 03:13:34   info : Element found!!
2019.02.11 03:13:34   info : ValueToEnter Simpli_26jan_010
2019.02.11 03:13:34   info : Entered value is Simpli_26jan_010
2019.02.11 03:13:34   info : Attribute entered value Simpli_26jan_010
2019.02.11 03:13:34   info : Total static wait time 3
2019.02.11 03:13:37   info : Xml obj_repo path C:\Talent_Automation_Framework_Backup\Project_Talent/ObjectRepositories/BenefitAsia2_EE/EE_SimpliflexSG_LoginLogout.xml
2019.02.11 03:13:37   info : xpath object successfully mapped!!
2019.02.11 03:13:37   info : xpath object contains property value !!
2019.02.11 03:13:37   info : Property name - xpath
2019.02.11 03:13:37   info : Property value - //input[contains(@id,"_txtPassword")]
2019.02.11 03:13:37   info : Finding xpath element on webpage..
2019.02.11 03:13:37   info : Searching for element. Try number 0
2019.02.11 03:13:38   info : element disappeared after trying for 1 times
2019.02.11 03:13:39   info : Current WebDriver Win Count is:: 1
2019.02.11 03:13:39   info : Element found!!
2019.02.11 03:13:39   info : ObjectTag input and ObjectType password
2019.02.11 03:13:39   info : Enter data operation
2019.02.11 03:13:39   info : Xml obj_repo path C:\Talent_Automation_Framework_Backup\Project_Talent/ObjectRepositories/BenefitAsia2_EE/EE_SimpliflexSG_LoginLogout.xml
2019.02.11 03:13:39   info : xpath object successfully mapped!!
2019.02.11 03:13:39   info : xpath object contains property value !!
2019.02.11 03:13:39   info : Property name - xpath
2019.02.11 03:13:39   info : Property value - //input[contains(@id,"_txtPassword")]
2019.02.11 03:13:39   info : Finding xpath element on webpage..
2019.02.11 03:13:39   info : Searching for element. Try number 0
2019.02.11 03:13:40   info : element disappeared after trying for 1 times
2019.02.11 03:13:41   info : Current WebDriver Win Count is:: 1
2019.02.11 03:13:41   info : Element found!!
2019.02.11 03:13:41   info : ValueToEnter Password123$
2019.02.11 03:13:41   info : Entered value is Password123$
2019.02.11 03:13:41   info : Attribute entered value Password123$
2019.02.11 03:13:41   info : Checking for object in click
2019.02.11 03:13:41   info : Xml obj_repo path C:\Talent_Automation_Framework_Backup\Project_Talent/ObjectRepositories/BenefitAsia2_EE/EE_SimpliflexSG_LoginLogout.xml
2019.02.11 03:13:41   info : xpath object successfully mapped!!
2019.02.11 03:13:41   info : xpath object contains property value !!
2019.02.11 03:13:41   info : Property name - xpath
2019.02.11 03:13:41   info : Property value - //input[contains(@id,"_cmdLogin")]
2019.02.11 03:13:41   info : Finding xpath element on webpage..
2019.02.11 03:13:41   info : Searching for element. Try number 0
2019.02.11 03:13:42   info : element disappeared after trying for 1 times
2019.02.11 03:13:43   info : Current WebDriver Win Count is:: 1
2019.02.11 03:13:43   info : Element found!!
2019.02.11 03:13:43   info : Xml obj_repo path C:\Talent_Automation_Framework_Backup\Project_Talent/ObjectRepositories/BenefitAsia2_EE/EE_SimpliflexSG_LoginLogout.xml
2019.02.11 03:13:43   info : xpath object successfully mapped!!
2019.02.11 03:13:43   info : xpath object contains property value !!
2019.02.11 03:13:43   info : Property name - xpath
2019.02.11 03:13:43   info : Property value - //input[contains(@id,"_cmdLogin")]
2019.02.11 03:13:43   info : Finding xpath element on webpage..
2019.02.11 03:13:43   info : Searching for element. Try number 0
2019.02.11 03:13:44   info : element disappeared after trying for 1 times
2019.02.11 03:13:45   info : Current WebDriver Win Count is:: 1
2019.02.11 03:13:45   info : Element found!!
2019.02.11 03:13:50   info : clicked on LoginButton
2019.02.11 03:13:51   info : Current WebDriver Win Count is:: 1
2019.02.11 03:13:51   info : restult status : 1
2019.02.11 03:13:51   info : Test ID TC11 : previous test step/row 1169 status is Passed and value of next test step/row is :: 1170
2019.02.11 03:13:51   info : 

2019.02.11 03:13:51   info : -------------------- Executing Testcase ID TC11 and test step : 1170 ---------------------- 
2019.02.11 03:13:52   info : Current WebDriver Win Count is:: 1
2019.02.11 03:13:52   info : Xml obj_repo path C:\Talent_Automation_Framework_Backup\Project_Talent/ObjectRepositories/BenefitAsia2_EE/EE_SimpliFlexSG_tabNavigation2.xml
2019.02.11 03:13:52   info : Title in xml file - My Enrollment
2019.02.11 03:13:52   warn : Window is not switched, now trying based on element!!
2019.02.11 03:13:53   info : Window title SimpliflexSG > Home
2019.02.11 03:13:53   info : Xml obj_repo path C:\Talent_Automation_Framework_Backup\Project_Talent/ObjectRepositories/BenefitAsia2_EE/EE_SimpliFlexSG_tabNavigation2.xml
2019.02.11 03:13:53   info : Defined excel object tag is not found in xml!!
2019.02.11 03:13:53   info : size of the element return by xmlreading is 0
2019.02.11 03:13:53   error : java.lang.NullPointerException
2019.02.11 03:13:53   info : page object present in excel : 4
2019.02.11 03:13:53   info : Under multiple object handle operation!!
2019.02.11 03:13:53   info : click operation perfomred!!
2019.02.11 03:13:53   info : textbased operation perfomred!!
2019.02.11 03:13:53   info : 4 operation perfomred!!
2019.02.11 03:13:53   info : Xml obj_repo path C:\Talent_Automation_Framework_Backup\Project_Talent/ObjectRepositories/BenefitAsia2_EE/EE_SimpliFlexSG_tabNavigation2.xml
2019.02.11 03:13:53   info : class object successfully mapped!!
2019.02.11 03:13:53   info : class object contains property value !!
2019.02.11 03:13:53   info : Property name - class
2019.02.11 03:13:53   info : Property value - nav
2019.02.11 03:13:53   info : Finding class element on webpage..
2019.02.11 03:13:53   info : Element found!!
2019.02.11 03:13:53   info : Xml obj_repo path C:\Talent_Automation_Framework_Backup\Project_Talent/ObjectRepositories/BenefitAsia2_EE/EE_SimpliFlexSG_tabNavigation2.xml
2019.02.11 03:13:53   info : tagname object successfully mapped!!
2019.02.11 03:13:53   info : tagname object contains property value !!
2019.02.11 03:13:53   info : Property name - tagname
2019.02.11 03:13:53   info : Property value - li
2019.02.11 03:13:53   info : Finding tagname element on webpage..
2019.02.11 03:13:53   info : Element found!!
2019.02.11 03:13:53   info : Xml obj_repo path C:\Talent_Automation_Framework_Backup\Project_Talent/ObjectRepositories/BenefitAsia2_EE/EE_SimpliFlexSG_tabNavigation2.xml
2019.02.11 03:13:53   info : tagname object successfully mapped!!
2019.02.11 03:13:53   info : tagname object contains property value !!
2019.02.11 03:13:53   info : Property name - tagname
2019.02.11 03:13:53   info : Property value - a
2019.02.11 03:13:53   info : Finding tagname element on webpage..
2019.02.11 03:13:53   info : Element found!!
2019.02.11 03:13:53   info : Xml obj_repo path C:\Talent_Automation_Framework_Backup\Project_Talent/ObjectRepositories/BenefitAsia2_EE/EE_SimpliFlexSG_tabNavigation2.xml
2019.02.11 03:13:53   info : tagname object successfully mapped!!
2019.02.11 03:13:53   info : tagname object contains property value !!
2019.02.11 03:13:53   info : Property name - tagname
2019.02.11 03:13:53   info : Property value - span
2019.02.11 03:13:53   info : Finding tagname element on webpage..
2019.02.11 03:13:53   info : Element found!!
2019.02.11 03:13:53   info : Size of element 6
2019.02.11 03:13:53   info : actData Home
2019.02.11 03:13:53   info : actData Start Enrollment
2019.02.11 03:13:57   info : Current WebDriver Win Count is:: 1
2019.02.11 03:13:57   info : restult status : 1
2019.02.11 03:13:57   info : Test ID TC11 : previous test step/row 1170 status is Passed and value of next test step/row is :: 1171
2019.02.11 03:13:57   info : 

2019.02.11 03:13:57   info : -------------------- Executing Testcase ID TC11 and test step : 1171 ---------------------- 
2019.02.11 03:13:58   info : Current WebDriver Win Count is:: 1
2019.02.11 03:13:58   info : Xml obj_repo path C:\Talent_Automation_Framework_Backup\Project_Talent/ObjectRepositories/BenefitAsia2_EE/EE_SimpliflexSG_Enrolment.xml
2019.02.11 03:13:58   info : Title in xml file - MyEnrollment
2019.02.11 03:13:58   warn : Window is not switched, now trying based on element!!
2019.02.11 03:13:58   info : Window title My Enrollment
2019.02.11 03:13:58   info : Xml obj_repo path C:\Talent_Automation_Framework_Backup\Project_Talent/ObjectRepositories/BenefitAsia2_EE/EE_SimpliflexSG_Enrolment.xml
2019.02.11 03:13:58   info : xpath object successfully mapped!!
2019.02.11 03:13:58   info : xpath object contains property value !!
2019.02.11 03:13:58   info : Property name - xpath
2019.02.11 03:13:58   info : Property value - //input[contains(@id,"_Introduction_v2_btnNextNew")]
2019.02.11 03:13:58   info : Finding xpath element on webpage..
2019.02.11 03:13:58   info : Searching for element. Try number 0
2019.02.11 03:13:59   info : element disappeared after trying for 1 times
2019.02.11 03:14:00   info : Current WebDriver Win Count is:: 1
2019.02.11 03:14:00   info : Element found!!
2019.02.11 03:14:00   info : Desired window is activated!!
2019.02.11 03:14:00   info : page object present in excel : 1
2019.02.11 03:14:00   info : Under single object handle operation!!
2019.02.11 03:14:00   info : col 6 data :  and col 5 data : Next
2019.02.11 03:14:00   info : Normal click operation !!
2019.02.11 03:14:00   info : Checking for object in click
2019.02.11 03:14:00   info : Xml obj_repo path C:\Talent_Automation_Framework_Backup\Project_Talent/ObjectRepositories/BenefitAsia2_EE/EE_SimpliflexSG_Enrolment.xml
2019.02.11 03:14:00   info : xpath object successfully mapped!!
2019.02.11 03:14:00   info : xpath object contains property value !!
2019.02.11 03:14:00   info : Property name - xpath
2019.02.11 03:14:00   info : Property value - //input[contains(@id,"_Introduction_v2_btnNextNew")]
2019.02.11 03:14:00   info : Finding xpath element on webpage..
2019.02.11 03:14:00   info : Searching for element. Try number 0
2019.02.11 03:14:01   info : element disappeared after trying for 1 times
2019.02.11 03:14:02   info : Current WebDriver Win Count is:: 1
2019.02.11 03:14:02   info : Element found!!
2019.02.11 03:14:02   info : Xml obj_repo path C:\Talent_Automation_Framework_Backup\Project_Talent/ObjectRepositories/BenefitAsia2_EE/EE_SimpliflexSG_Enrolment.xml
2019.02.11 03:14:02   info : xpath object successfully mapped!!
2019.02.11 03:14:02   info : xpath object contains property value !!
2019.02.11 03:14:02   info : Property name - xpath
2019.02.11 03:14:02   info : Property value - //input[contains(@id,"_Introduction_v2_btnNextNew")]
2019.02.11 03:14:02   info : Finding xpath element on webpage..
2019.02.11 03:14:02   info : Searching for element. Try number 0
2019.02.11 03:14:03   info : element disappeared after trying for 1 times
2019.02.11 03:14:04   info : Current WebDriver Win Count is:: 1
2019.02.11 03:14:04   info : Element found!!
2019.02.11 03:14:07   info : clicked on Next
2019.02.11 03:14:08   info : Current WebDriver Win Count is:: 1
2019.02.11 03:14:08   info : restult status : 1
2019.02.11 03:14:08   info : Test ID TC11 : previous test step/row 1171 status is Passed and value of next test step/row is :: 1172
2019.02.11 03:14:08   info : 

2019.02.11 03:14:08   info : -------------------- Executing Testcase ID TC11 and test step : 1172 ---------------------- 
2019.02.11 03:14:09   info : Current WebDriver Win Count is:: 1
2019.02.11 03:14:09   info : page object present in excel : 1
2019.02.11 03:14:09   info : Under single object handle operation!!
2019.02.11 03:14:09   info : col 6 data :  and col 5 data : StartEnrollmentButton
2019.02.11 03:14:09   info : Normal click operation !!
2019.02.11 03:14:09   info : Checking for object in click
2019.02.11 03:14:09   info : Xml obj_repo path C:\Talent_Automation_Framework_Backup\Project_Talent/ObjectRepositories/BenefitAsia2_EE/EE_SimpliflexSG_Enrolment.xml
2019.02.11 03:14:09   info : xpath object successfully mapped!!
2019.02.11 03:14:09   info : xpath object contains property value !!
2019.02.11 03:14:09   info : Property name - xpath
2019.02.11 03:14:09   info : Property value - //input[contains(@id,"_Introduction_v2_btnStartNew")]
2019.02.11 03:14:09   info : Finding xpath element on webpage..
2019.02.11 03:14:09   info : Searching for element. Try number 0
2019.02.11 03:14:10   info : element disappeared after trying for 1 times
2019.02.11 03:14:11   info : Current WebDriver Win Count is:: 1
2019.02.11 03:14:11   info : Element found!!
2019.02.11 03:14:11   info : Xml obj_repo path C:\Talent_Automation_Framework_Backup\Project_Talent/ObjectRepositories/BenefitAsia2_EE/EE_SimpliflexSG_Enrolment.xml
2019.02.11 03:14:11   info : xpath object successfully mapped!!
2019.02.11 03:14:11   info : xpath object contains property value !!
2019.02.11 03:14:11   info : Property name - xpath
2019.02.11 03:14:11   info : Property value - //input[contains(@id,"_Introduction_v2_btnStartNew")]
2019.02.11 03:14:11   info : Finding xpath element on webpage..
2019.02.11 03:14:11   info : Searching for element. Try number 0
2019.02.11 03:14:12   info : element disappeared after trying for 1 times
2019.02.11 03:14:13   info : Current WebDriver Win Count is:: 1
2019.02.11 03:14:13   info : Element found!!
2019.02.11 03:14:13   info : clicked on StartEnrollmentButton
2019.02.11 03:14:14   info : Current WebDriver Win Count is:: 1
2019.02.11 03:14:14   info : restult status : 1
2019.02.11 03:14:14   info : Test ID TC11 : previous test step/row 1172 status is Passed and value of next test step/row is :: 1173
2019.02.11 03:14:14   info : 

2019.02.11 03:14:14   info : -------------------- Executing Testcase ID TC11 and test step : 1173 ---------------------- 
2019.02.11 03:14:16   info : Current WebDriver Win Count is:: 1
2019.02.11 03:14:16   info : page object present in excel : 1
2019.02.11 03:14:16   info : Under single object handle operation!!
2019.02.11 03:14:16   info : col 6 data : javascript_click and col 5 data : AcknowledgeBeginButton
2019.02.11 03:14:16   info : Click case operation !!
2019.02.11 03:14:16   info : oprnm javascript_click
2019.02.11 03:14:16   info : click javascript_click operation perfomred!!
2019.02.11 03:14:16   info : Xml obj_repo path C:\Talent_Automation_Framework_Backup\Project_Talent/ObjectRepositories/BenefitAsia2_EE/EE_SimpliflexSG_Enrolment.xml
2019.02.11 03:14:16   info : xpath object successfully mapped!!
2019.02.11 03:14:16   info : xpath object contains property value !!
2019.02.11 03:14:16   info : Property name - xpath
2019.02.11 03:14:16   info : Property value - //*[contains(@id,"_Introduction_v2_btnBegin")]
2019.02.11 03:14:16   info : Finding xpath element on webpage..
2019.02.11 03:14:16   info : Searching for element. Try number 0
2019.02.11 03:14:17   info : element disappeared after trying for 1 times
2019.02.11 03:14:18   info : Current WebDriver Win Count is:: 1
2019.02.11 03:14:18   info : Element found!!
2019.02.11 03:14:19   info : Current WebDriver Win Count is:: 1
2019.02.11 03:14:22   info : restult status : 1
2019.02.11 03:14:22   info : Test ID TC11 : previous test step/row 1173 status is Passed and value of next test step/row is :: 1174
2019.02.11 03:14:22   info : 

2019.02.11 03:14:22   info : -------------------- Executing Testcase ID TC11 and test step : 1174 ---------------------- 
2019.02.11 03:14:24   info : Current WebDriver Win Count is:: 1
2019.02.11 03:14:24   info : Xml obj_repo path C:\Talent_Automation_Framework_Backup\Project_Talent/ObjectRepositories/BenefitAsia2_EE/EE_SimpliflexSG_Enrolment.xml
2019.02.11 03:14:24   info : xpath object successfully mapped!!
2019.02.11 03:14:24   info : xpath object contains property value !!
2019.02.11 03:14:24   info : Property name - xpath
2019.02.11 03:14:24   info : Property value - //*[contains(@id,"_EnrolmentSelection_FlexPointsNew_hlFlexPointsAllocationDetailsNew")]
2019.02.11 03:14:24   info : Finding xpath element on webpage..
2019.02.11 03:14:24   info : Searching for element. Try number 0
2019.02.11 03:14:25   info : element disappeared after trying for 1 times
2019.02.11 03:14:26   info : Current WebDriver Win Count is:: 1
2019.02.11 03:14:26   info : Element found!!
2019.02.11 03:14:26   info : ObjectTag a and ObjectType null
2019.02.11 03:14:26   info : Exp_value 3,600.00
2019.02.11 03:14:26   info : Searching for element. Try number 0
2019.02.11 03:14:27   info : element disappeared after trying for 1 times
2019.02.11 03:14:27   info : Actual Value3,600.00
2019.02.11 03:14:27   info : Exp : 3,600.00 and act : 3,600.00 value matched!!
2019.02.11 03:14:28   info : Current WebDriver Win Count is:: 1
2019.02.11 03:14:28   info : restult status : 1
2019.02.11 03:14:28   info : Test ID TC11 : previous test step/row 1174 status is Passed and value of next test step/row is :: 1175
2019.02.11 03:14:28   info : 

2019.02.11 03:14:28   info : -------------------- Executing Testcase ID TC11 and test step : 1175 ---------------------- 
2019.02.11 03:14:29   info : Current WebDriver Win Count is:: 1
2019.02.11 03:14:29   info : page object present in excel : 1
2019.02.11 03:14:29   info : Under single object handle operation!!
2019.02.11 03:14:29   info : col 6 data :  and col 5 data : P2_Link_Local_GH
2019.02.11 03:14:29   info : Normal click operation !!
2019.02.11 03:14:29   info : Checking for object in click
2019.02.11 03:14:29   info : Xml obj_repo path C:\Talent_Automation_Framework_Backup\Project_Talent/ObjectRepositories/BenefitAsia2_EE/EE_SimpliflexSG_Enrolment.xml
2019.02.11 03:14:29   info : Defined excel object tag is not found in xml!!
2019.02.11 03:14:29   info : size of the element return by xmlreading is 0
2019.02.11 03:14:29   info : Xml obj_repo path C:\Talent_Automation_Framework_Backup\Project_Talent/ObjectRepositories/BenefitAsia2_EE/EE_SimpliflexSG_Enrolment.xml
2019.02.11 03:14:29   info : Defined excel object tag is not found in xml!!
2019.02.11 03:14:29   info : size of the element return by xmlreading is 0
2019.02.11 03:14:29   warn : exceptionHandler called!!
2019.02.11 03:14:30   info : Current WebDriver Win Count is:: 1
2019.02.11 03:14:31   error : java.lang.NullPointerException
2019.02.11 03:14:31   info : Test ID TC11 : previous test step/row 1175 status is Failed and value of next test step/row is :: 1176
2019.02.11 03:14:31   info : Test ID TC11 : previous test step/row 1176 status is Failed and value of next test step/row is :: 1177
2019.02.11 03:14:31   info : Test ID TC11 : previous test step/row 1177 status is Failed and value of next test step/row is :: 1178
2019.02.11 03:14:31   info : Test ID TC11 : previous test step/row 1178 status is Failed and value of next test step/row is :: 1179
2019.02.11 03:14:31   info : Test ID TC11 : previous test step/row 1179 status is Failed and value of next test step/row is :: 1180
2019.02.11 03:14:31   info : Test ID TC11 : previous test step/row 1180 status is Failed and value of next test step/row is :: 1181
2019.02.11 03:14:31   info : Test ID TC11 : previous test step/row 1181 status is Failed and value of next test step/row is :: 1182
2019.02.11 03:14:31   info : Test ID TC11 : previous test step/row 1182 status is Failed and value of next test step/row is :: 1183
2019.02.11 03:14:31   info : Test ID TC11 : previous test step/row 1183 status is Failed and value of next test step/row is :: 1184
2019.02.11 03:14:31   info : Test ID TC11 : previous test step/row 1184 status is Failed and value of next test step/row is :: 1185
2019.02.11 03:14:31   info : Test ID TC11 : previous test step/row 1185 status is Failed and value of next test step/row is :: 1186
2019.02.11 03:14:31   info : Test ID TC11 : previous test step/row 1186 status is Failed and value of next test step/row is :: 1187
2019.02.11 03:14:31   info : Test ID TC11 : previous test step/row 1187 status is Failed and value of next test step/row is :: 1188
2019.02.11 03:14:31   info : Test ID TC11 : previous test step/row 1188 status is Failed and value of next test step/row is :: 1189
2019.02.11 03:14:31   info : Test ID TC11 : previous test step/row 1189 status is Failed and value of next test step/row is :: 1190
2019.02.11 03:14:31   info : Test ID TC11 : previous test step/row 1190 status is Failed and value of next test step/row is :: 1191
2019.02.11 03:14:31   info : Test ID TC11 : previous test step/row 1191 status is Failed and value of next test step/row is :: 1192
2019.02.11 03:14:31   info : Test ID TC11 : previous test step/row 1192 status is Failed and value of next test step/row is :: 1193
2019.02.11 03:14:31   info : Test ID TC11 : previous test step/row 1193 status is Failed and value of next test step/row is :: 1194
2019.02.11 03:14:31   info : Test ID TC11 : previous test step/row 1194 status is Failed and value of next test step/row is :: 1195
2019.02.11 03:14:31   info : Test ID TC11 : previous test step/row 1195 status is Failed and value of next test step/row is :: 1196
2019.02.11 03:14:31   info : Test ID TC11 : previous test step/row 1196 status is Failed and value of next test step/row is :: 1197
2019.02.11 03:14:31   info : Test ID TC11 : previous test step/row 1197 status is Failed and value of next test step/row is :: 1198
2019.02.11 03:14:31   info : Test ID TC11 : previous test step/row 1198 status is Failed and value of next test step/row is :: 1199
2019.02.11 03:14:31   info : Test ID TC11 : previous test step/row 1199 status is Failed and value of next test step/row is :: 1200
2019.02.11 03:14:31   info : Test ID TC11 : previous test step/row 1200 status is Failed and value of next test step/row is :: 1201
2019.02.11 03:14:31   info : Test ID TC11 : previous test step/row 1201 status is Failed and value of next test step/row is :: 1202
2019.02.11 03:14:31   info : Test ID TC11 : previous test step/row 1202 status is Failed and value of next test step/row is :: 1203
2019.02.11 03:14:31   info : Test ID TC11 : previous test step/row 1203 status is Failed and value of next test step/row is :: 1204
2019.02.11 03:14:31   info : Test ID TC11 : previous test step/row 1204 status is Failed and value of next test step/row is :: 1205
2019.02.11 03:14:31   info : Test ID TC11 : previous test step/row 1205 status is Failed and value of next test step/row is :: 1206
2019.02.11 03:14:31   info : Test ID TC11 : previous test step/row 1206 status is Failed and value of next test step/row is :: 1207
2019.02.11 03:14:31   info : Test ID TC11 : previous test step/row 1207 status is Failed and value of next test step/row is :: 1208
2019.02.11 03:14:31   info : Test ID TC11 : previous test step/row 1208 status is Failed and value of next test step/row is :: 1209
2019.02.11 03:14:31   info : Test ID TC11 : previous test step/row 1209 status is Failed and value of next test step/row is :: 1210
2019.02.11 03:14:31   info : Test ID TC11 : previous test step/row 1210 status is Failed and value of next test step/row is :: 1211
2019.02.11 03:14:31   info : Test ID TC11 : previous test step/row 1211 status is Failed and value of next test step/row is :: 1212
2019.02.11 03:14:31   info : Test ID TC11 : previous test step/row 1212 status is Failed and value of next test step/row is :: 1213
2019.02.11 03:14:31   info : Test ID TC11 : previous test step/row 1213 status is Failed and value of next test step/row is :: 1214
2019.02.11 03:14:31   info : Test ID TC11 : previous test step/row 1214 status is Failed and value of next test step/row is :: 1215
2019.02.11 03:14:31   info : Test ID TC11 : previous test step/row 1215 status is Failed and value of next test step/row is :: 1216
2019.02.11 03:14:31   info : Test ID TC11 : previous test step/row 1216 status is Failed and value of next test step/row is :: 1217
2019.02.11 03:14:31   info : Test ID TC11 : previous test step/row 1217 status is Failed and value of next test step/row is :: 1218
2019.02.11 03:14:31   info : Test ID TC11 : previous test step/row 1218 status is Failed and value of next test step/row is :: 1219
2019.02.11 03:14:31   info : Test ID TC11 : previous test step/row 1219 status is Failed and value of next test step/row is :: 1220
2019.02.11 03:14:31   info : Test ID TC11 : previous test step/row 1220 status is Failed and value of next test step/row is :: 1221
2019.02.11 03:14:31   info : Test ID TC11 : previous test step/row 1221 status is Failed and value of next test step/row is :: 1222
2019.02.11 03:14:31   info : Test ID TC11 : previous test step/row 1222 status is Failed and value of next test step/row is :: 1223
2019.02.11 03:14:31   info : Test ID TC11 : previous test step/row 1223 status is Failed and value of next test step/row is :: 1224
2019.02.11 03:14:31   info : Test ID TC11 : previous test step/row 1224 status is Failed and value of next test step/row is :: 1225
2019.02.11 03:14:31   info : Test ID TC11 : previous test step/row 1225 status is Failed and value of next test step/row is :: 1226
2019.02.11 03:14:31   info : Test ID TC11 : previous test step/row 1226 status is Failed and value of next test step/row is :: 1227
2019.02.11 03:14:31   info : Test ID TC11 : previous test step/row 1227 status is Failed and value of next test step/row is :: 1228
2019.02.11 03:14:31   info : Test ID TC11 : previous test step/row 1228 status is Failed and value of next test step/row is :: 1229
2019.02.11 03:14:31   info : Test ID TC11 : previous test step/row 1229 status is Failed and value of next test step/row is :: 1230
2019.02.11 03:14:31   info : Test ID TC11 : previous test step/row 1230 status is Failed and value of next test step/row is :: 1231
2019.02.11 03:14:31   info : Test ID TC11 : previous test step/row 1231 status is Failed and value of next test step/row is :: 1232
2019.02.11 03:14:31   info : Test ID TC11 : previous test step/row 1232 status is Failed and value of next test step/row is :: 1233
2019.02.11 03:14:31   info : Row TC11!=TC12 || (TC12==null)) && (1233<=1578)
2019.02.11 03:14:31   info : Status :: Failed :: Finalizing result report
2019.02.11 03:14:31   info : closing window...
2019.02.11 03:14:31   info : window size 1
2019.02.11 03:14:32   info : Window is closed!!
