2019.01.14 03:36:54   info : Selenium version :: 2.48.2
2019.01.14 03:36:54   info : Download fodler path created!!
2019.01.14 03:36:54   info : date_time_down_folder C:\Talent_Automation_Framework_Backup\Project_Talent\Downloads\2019_01_14\time_15_36_54\
2019.01.14 03:36:55   info : Total number of applications :: 4
2019.01.14 03:36:55   info : Application Name - Latest_Simp
2019.01.14 03:36:55   info : TestData_Sheet path:: C:\Talent_Automation_Framework_Backup\Project_Talent/TestCases/Latest_Simp.xlsx
2019.01.14 03:36:55   info : CSV updating and creating dump....
2019.01.14 03:36:56   info : Sheet name: Scenarios
2019.01.14 03:36:56   info : Sheet name: TestCaseScheduler
2019.01.14 03:36:56   info : Sheet name: Test Case
2019.01.14 03:36:56   info : Latest_Simp sheetname found!!
2019.01.14 03:36:56   info : Total row 777
2019.01.14 03:36:56   info : After row validation for blank or null!!
2019.01.14 03:36:56   info : Total final row 776
2019.01.14 03:36:57   info : Total number of test cases to be executed :: 1
2019.01.14 03:36:57   info : PrevTestID - null == null && row 24<= 776
2019.01.14 03:36:57   info : Test ID TC2 : previous test step/row 23 status is Passed and value of next test step/row is :: 24
2019.01.14 03:36:57   info : 

2019.01.14 03:36:57   info : -------------------- Executing Testcase ID TC2 and test step : 24 ---------------------- 
2019.01.14 03:36:57   info : please wait.. browser getting open !!
2019.01.14 03:37:08   info : Opening Application..
2019.01.14 03:37:13   info : Current WebDriver Win Count is:: 1
2019.01.14 03:37:14   info : restult status : 1
2019.01.14 03:37:14   info : Test ID TC2 : previous test step/row 24 status is Passed and value of next test step/row is :: 25
2019.01.14 03:37:14   info : 

2019.01.14 03:37:14   info : -------------------- Executing Testcase ID TC2 and test step : 25 ---------------------- 
2019.01.14 03:37:16   info : Current WebDriver Win Count is:: 1
2019.01.14 03:37:16   info : Xml obj_repo path C:\Talent_Automation_Framework_Backup\Project_Talent/ObjectRepositories/BenefitAsia2_MercerAdmin/MA_Home.xml
2019.01.14 03:37:16   info : Title in xml file - Home
2019.01.14 03:37:16   warn : Window is not switched, now trying based on element!!
2019.01.14 03:37:16   info : Window title Mercer Account Center
2019.01.14 03:37:16   info : Xml obj_repo path C:\Talent_Automation_Framework_Backup\Project_Talent/ObjectRepositories/BenefitAsia2_MercerAdmin/MA_Home.xml
2019.01.14 03:37:16   info : xpath object successfully mapped!!
2019.01.14 03:37:16   info : xpath object contains property value !!
2019.01.14 03:37:16   info : Property name - xpath
2019.01.14 03:37:16   info : Property value - //input[contains(@id,"ContentPlaceHolder1_TextBox1")]
2019.01.14 03:37:16   info : Finding xpath element on webpage..
2019.01.14 03:37:16   info : Searching for element. Try number 0
2019.01.14 03:37:17   info : element disappeared after trying for 1 times
2019.01.14 03:37:18   info : Current WebDriver Win Count is:: 1
2019.01.14 03:37:18   info : Element found!!
2019.01.14 03:37:18   info : Desired window is activated!!
2019.01.14 03:37:18   info : Total static wait time 3
2019.01.14 03:37:21   info : Xml obj_repo path C:\Talent_Automation_Framework_Backup\Project_Talent/ObjectRepositories/BenefitAsia2_MercerAdmin/MA_Home.xml
2019.01.14 03:37:21   info : xpath object successfully mapped!!
2019.01.14 03:37:21   info : xpath object contains property value !!
2019.01.14 03:37:21   info : Property name - xpath
2019.01.14 03:37:21   info : Property value - //input[contains(@id,"ContentPlaceHolder1_TextBox1")]
2019.01.14 03:37:21   info : Finding xpath element on webpage..
2019.01.14 03:37:21   info : Searching for element. Try number 0
2019.01.14 03:37:22   info : element disappeared after trying for 1 times
2019.01.14 03:37:23   info : Current WebDriver Win Count is:: 1
2019.01.14 03:37:23   info : Element found!!
2019.01.14 03:37:23   info : ObjectTag input and ObjectType text
2019.01.14 03:37:23   info : Enter data operation
2019.01.14 03:37:24   info : Xml obj_repo path C:\Talent_Automation_Framework_Backup\Project_Talent/ObjectRepositories/BenefitAsia2_MercerAdmin/MA_Home.xml
2019.01.14 03:37:24   info : xpath object successfully mapped!!
2019.01.14 03:37:24   info : xpath object contains property value !!
2019.01.14 03:37:24   info : Property name - xpath
2019.01.14 03:37:24   info : Property value - //input[contains(@id,"ContentPlaceHolder1_TextBox1")]
2019.01.14 03:37:24   info : Finding xpath element on webpage..
2019.01.14 03:37:24   info : Searching for element. Try number 0
2019.01.14 03:37:25   info : element disappeared after trying for 1 times
2019.01.14 03:37:26   info : Current WebDriver Win Count is:: 1
2019.01.14 03:37:26   info : Element found!!
2019.01.14 03:37:26   info : Xml obj_repo path C:\Talent_Automation_Framework_Backup\Project_Talent/ObjectRepositories/BenefitAsia2_MercerAdmin/MA_Home.xml
2019.01.14 03:37:26   info : xpath object successfully mapped!!
2019.01.14 03:37:26   info : xpath object contains property value !!
2019.01.14 03:37:26   info : Property name - xpath
2019.01.14 03:37:26   info : Property value - //input[contains(@id,"ContentPlaceHolder1_TextBox1")]
2019.01.14 03:37:26   info : Finding xpath element on webpage..
2019.01.14 03:37:26   info : Searching for element. Try number 0
2019.01.14 03:37:27   info : element disappeared after trying for 1 times
2019.01.14 03:37:28   info : Current WebDriver Win Count is:: 1
2019.01.14 03:37:28   info : Element found!!
2019.01.14 03:37:28   info : ValueToEnter ashish.choudhary@mercer.com
2019.01.14 03:37:28   info : Entered value is ashish.choudhary@mercer.com
2019.01.14 03:37:28   info : Attribute entered value ashish.choudhary@mercer.com
2019.01.14 03:37:29   info : Current WebDriver Win Count is:: 1
2019.01.14 03:37:30   info : restult status : 1
2019.01.14 03:37:30   info : Test ID TC2 : previous test step/row 25 status is Passed and value of next test step/row is :: 26
2019.01.14 03:37:30   info : 

2019.01.14 03:37:30   info : -------------------- Executing Testcase ID TC2 and test step : 26 ---------------------- 
2019.01.14 03:37:31   info : Current WebDriver Win Count is:: 1
2019.01.14 03:37:31   info : page object present in excel : 1
2019.01.14 03:37:31   info : Under single object handle operation!!
2019.01.14 03:37:31   info : col 6 data :  and col 5 data : SSO_Next_Button
2019.01.14 03:37:31   info : Normal click operation !!
2019.01.14 03:37:31   info : Checking for object in click
2019.01.14 03:37:31   info : Xml obj_repo path C:\Talent_Automation_Framework_Backup\Project_Talent/ObjectRepositories/BenefitAsia2_MercerAdmin/MA_Home.xml
2019.01.14 03:37:31   info : xpath object successfully mapped!!
2019.01.14 03:37:31   info : xpath object contains property value !!
2019.01.14 03:37:31   info : Property name - xpath
2019.01.14 03:37:31   info : Property value - //input[contains(@id,"ContentPlaceHolder1_PassiveSignInButton")]
2019.01.14 03:37:31   info : Finding xpath element on webpage..
2019.01.14 03:37:31   info : Searching for element. Try number 0
2019.01.14 03:37:32   info : element disappeared after trying for 1 times
2019.01.14 03:37:33   info : Current WebDriver Win Count is:: 1
2019.01.14 03:37:33   info : Element found!!
2019.01.14 03:37:33   info : Xml obj_repo path C:\Talent_Automation_Framework_Backup\Project_Talent/ObjectRepositories/BenefitAsia2_MercerAdmin/MA_Home.xml
2019.01.14 03:37:33   info : xpath object successfully mapped!!
2019.01.14 03:37:33   info : xpath object contains property value !!
2019.01.14 03:37:33   info : Property name - xpath
2019.01.14 03:37:33   info : Property value - //input[contains(@id,"ContentPlaceHolder1_PassiveSignInButton")]
2019.01.14 03:37:33   info : Finding xpath element on webpage..
2019.01.14 03:37:33   info : Searching for element. Try number 0
2019.01.14 03:37:34   info : element disappeared after trying for 1 times
2019.01.14 03:37:35   info : Current WebDriver Win Count is:: 1
2019.01.14 03:37:35   info : Element found!!
2019.01.14 03:37:39   info : clicked on SSO_Next_Button
2019.01.14 03:37:40   info : Current WebDriver Win Count is:: 1
2019.01.14 03:37:46   info : restult status : 1
2019.01.14 03:37:46   info : Test ID TC2 : previous test step/row 26 status is Passed and value of next test step/row is :: 27
2019.01.14 03:37:46   info : 

2019.01.14 03:37:46   info : -------------------- Executing Testcase ID TC2 and test step : 27 ---------------------- 
2019.01.14 03:37:47   info : Current WebDriver Win Count is:: 1
2019.01.14 03:37:47   info : not doing anything!!
2019.01.14 03:37:47   info : Navigating to another url..
2019.01.14 03:37:51   info : Current WebDriver Win Count is:: 1
2019.01.14 03:37:52   info : restult status : 1
2019.01.14 03:37:52   info : Test ID TC2 : previous test step/row 27 status is Passed and value of next test step/row is :: 28
2019.01.14 03:37:52   info : 

2019.01.14 03:37:52   info : -------------------- Executing Testcase ID TC2 and test step : 28 ---------------------- 
2019.01.14 03:37:53   info : Current WebDriver Win Count is:: 1
2019.01.14 03:37:53   info : Total static wait time 3
2019.01.14 03:37:56   info : Xml obj_repo path C:\Talent_Automation_Framework_Backup\Project_Talent/ObjectRepositories/BenefitAsia2_MercerAdmin/MA_SOA.xml
2019.01.14 03:37:56   info : xpath object successfully mapped!!
2019.01.14 03:37:56   info : xpath object contains property value !!
2019.01.14 03:37:56   info : Property name - xpath
2019.01.14 03:37:56   info : Property value - //*[contains(@id,"_SearchEmployee_txtSearch")]
2019.01.14 03:37:56   info : Finding xpath element on webpage..
2019.01.14 03:37:56   info : Searching for element. Try number 0
2019.01.14 03:37:57   info : element disappeared after trying for 1 times
2019.01.14 03:37:58   info : Current WebDriver Win Count is:: 1
2019.01.14 03:37:58   info : Element found!!
2019.01.14 03:37:58   info : ObjectTag input and ObjectType text
2019.01.14 03:37:58   info : Enter data operation
2019.01.14 03:37:59   info : Xml obj_repo path C:\Talent_Automation_Framework_Backup\Project_Talent/ObjectRepositories/BenefitAsia2_MercerAdmin/MA_SOA.xml
2019.01.14 03:37:59   info : xpath object successfully mapped!!
2019.01.14 03:37:59   info : xpath object contains property value !!
2019.01.14 03:37:59   info : Property name - xpath
2019.01.14 03:37:59   info : Property value - //*[contains(@id,"_SearchEmployee_txtSearch")]
2019.01.14 03:37:59   info : Finding xpath element on webpage..
2019.01.14 03:37:59   info : Searching for element. Try number 0
2019.01.14 03:38:00   info : element disappeared after trying for 1 times
2019.01.14 03:38:01   info : Current WebDriver Win Count is:: 1
2019.01.14 03:38:01   info : Element found!!
2019.01.14 03:38:01   info : Xml obj_repo path C:\Talent_Automation_Framework_Backup\Project_Talent/ObjectRepositories/BenefitAsia2_MercerAdmin/MA_SOA.xml
2019.01.14 03:38:01   info : xpath object successfully mapped!!
2019.01.14 03:38:01   info : xpath object contains property value !!
2019.01.14 03:38:01   info : Property name - xpath
2019.01.14 03:38:01   info : Property value - //*[contains(@id,"_SearchEmployee_txtSearch")]
2019.01.14 03:38:01   info : Finding xpath element on webpage..
2019.01.14 03:38:01   info : Searching for element. Try number 0
2019.01.14 03:38:02   info : element disappeared after trying for 1 times
2019.01.14 03:38:03   info : Current WebDriver Win Count is:: 1
2019.01.14 03:38:03   info : Element found!!
2019.01.14 03:38:03   info : ValueToEnter Simpli_10jan_001
2019.01.14 03:38:03   info : Entered value is Simpli_10jan_001
2019.01.14 03:38:03   info : Attribute entered value Simpli_10jan_001
2019.01.14 03:38:04   info : Current WebDriver Win Count is:: 1
2019.01.14 03:38:04   info : restult status : 1
2019.01.14 03:38:04   info : Test ID TC2 : previous test step/row 28 status is Passed and value of next test step/row is :: 29
2019.01.14 03:38:04   info : 

2019.01.14 03:38:04   info : -------------------- Executing Testcase ID TC2 and test step : 29 ---------------------- 
2019.01.14 03:38:06   info : Current WebDriver Win Count is:: 1
2019.01.14 03:38:06   info : Total static wait time 3
2019.01.14 03:38:09   info : Xml obj_repo path C:\Talent_Automation_Framework_Backup\Project_Talent/ObjectRepositories/BenefitAsia2_MercerAdmin/MA_SOA.xml
2019.01.14 03:38:09   info : xpath object successfully mapped!!
2019.01.14 03:38:09   info : xpath object contains property value !!
2019.01.14 03:38:09   info : Property name - xpath
2019.01.14 03:38:09   info : Property value - //*[contains(@id,"_SearchEmployee_rdbsearch_2")]
2019.01.14 03:38:09   info : Finding xpath element on webpage..
2019.01.14 03:38:09   info : Searching for element. Try number 0
2019.01.14 03:38:10   info : element disappeared after trying for 1 times
2019.01.14 03:38:11   info : Current WebDriver Win Count is:: 1
2019.01.14 03:38:11   info : Element found!!
2019.01.14 03:38:11   info : ObjectTag input and ObjectType radio
2019.01.14 03:38:11   info : Radio operation 
2019.01.14 03:38:11   info : Xml obj_repo path C:\Talent_Automation_Framework_Backup\Project_Talent/ObjectRepositories/BenefitAsia2_MercerAdmin/MA_SOA.xml
2019.01.14 03:38:11   info : xpath object successfully mapped!!
2019.01.14 03:38:11   info : xpath object contains property value !!
2019.01.14 03:38:11   info : Property name - xpath
2019.01.14 03:38:11   info : Property value - //*[contains(@id,"_SearchEmployee_rdbsearch_2")]
2019.01.14 03:38:11   info : Finding xpath element on webpage..
2019.01.14 03:38:11   info : Searching for element. Try number 0
2019.01.14 03:38:12   info : element disappeared after trying for 1 times
2019.01.14 03:38:13   info : Current WebDriver Win Count is:: 1
2019.01.14 03:38:13   info : Element found!!
2019.01.14 03:38:14   info : Current WebDriver Win Count is:: 1
2019.01.14 03:38:14   info : restult status : 1
2019.01.14 03:38:14   info : Test ID TC2 : previous test step/row 29 status is Passed and value of next test step/row is :: 30
2019.01.14 03:38:14   info : 

2019.01.14 03:38:14   info : -------------------- Executing Testcase ID TC2 and test step : 30 ---------------------- 
2019.01.14 03:38:15   info : Current WebDriver Win Count is:: 1
2019.01.14 03:38:15   info : page object present in excel : 1
2019.01.14 03:38:15   info : Under single object handle operation!!
2019.01.14 03:38:15   info : col 6 data :  and col 5 data : SearchButton
2019.01.14 03:38:15   info : Normal click operation !!
2019.01.14 03:38:15   info : Checking for object in click
2019.01.14 03:38:15   info : Xml obj_repo path C:\Talent_Automation_Framework_Backup\Project_Talent/ObjectRepositories/BenefitAsia2_MercerAdmin/MA_SOA.xml
2019.01.14 03:38:15   info : xpath object successfully mapped!!
2019.01.14 03:38:15   info : xpath object contains property value !!
2019.01.14 03:38:15   info : Property name - xpath
2019.01.14 03:38:15   info : Property value - //*[contains(@id,"_SearchEmployee_btnSearch")]
2019.01.14 03:38:15   info : Finding xpath element on webpage..
2019.01.14 03:38:15   info : Searching for element. Try number 0
2019.01.14 03:38:16   info : element disappeared after trying for 1 times
2019.01.14 03:38:17   info : Current WebDriver Win Count is:: 1
2019.01.14 03:38:17   info : Element found!!
2019.01.14 03:38:17   info : Xml obj_repo path C:\Talent_Automation_Framework_Backup\Project_Talent/ObjectRepositories/BenefitAsia2_MercerAdmin/MA_SOA.xml
2019.01.14 03:38:17   info : xpath object successfully mapped!!
2019.01.14 03:38:17   info : xpath object contains property value !!
2019.01.14 03:38:17   info : Property name - xpath
2019.01.14 03:38:17   info : Property value - //*[contains(@id,"_SearchEmployee_btnSearch")]
2019.01.14 03:38:17   info : Finding xpath element on webpage..
2019.01.14 03:38:17   info : Searching for element. Try number 0
2019.01.14 03:38:18   info : element disappeared after trying for 1 times
2019.01.14 03:38:19   info : Current WebDriver Win Count is:: 1
2019.01.14 03:38:19   info : Element found!!
2019.01.14 03:38:21   info : clicked on SearchButton
2019.01.14 03:38:22   info : Current WebDriver Win Count is:: 1
2019.01.14 03:38:22   info : restult status : 1
2019.01.14 03:38:22   info : Test ID TC2 : previous test step/row 30 status is Passed and value of next test step/row is :: 31
2019.01.14 03:38:22   info : 

2019.01.14 03:38:22   info : -------------------- Executing Testcase ID TC2 and test step : 31 ---------------------- 
2019.01.14 03:38:23   info : Current WebDriver Win Count is:: 1
2019.01.14 03:38:23   info : page object present in excel : 1
2019.01.14 03:38:23   info : Under single object handle operation!!
2019.01.14 03:38:23   info : col 6 data :  and col 5 data : EmployeeName
2019.01.14 03:38:23   info : Normal click operation !!
2019.01.14 03:38:23   info : Checking for object in click
2019.01.14 03:38:23   info : Xml obj_repo path C:\Talent_Automation_Framework_Backup\Project_Talent/ObjectRepositories/BenefitAsia2_MercerAdmin/MA_SOA.xml
2019.01.14 03:38:23   info : xpath object successfully mapped!!
2019.01.14 03:38:23   info : xpath object contains property value !!
2019.01.14 03:38:23   info : Property name - xpath
2019.01.14 03:38:23   info : Property value - //*[contains(@id,"_SearchEmployee_GrdEmployee")]/tbody/tr[td//text()[contains(translate(.,'ABCDEFGHIJKLMNOPQRSTUVWXYZ','abcdefghijklmnopqrstuvwxyz'), '1')]]/td[count(//*[contains(@id,"_SearchEmployee_GrdEmployee")]/tbody/tr[1]/th[contains(translate(., 'ABCDEFGHIJKLMNOPQRSTUVWXYZ', 'abcdefghijklmnopqrstuvwxyz'), 'name')]/preceding-sibling::th)+1]/a
2019.01.14 03:38:23   info : Finding xpath element on webpage..
2019.01.14 03:38:23   info : Searching for element. Try number 0
2019.01.14 03:38:24   info : element disappeared after trying for 1 times
2019.01.14 03:38:25   info : Current WebDriver Win Count is:: 1
2019.01.14 03:38:25   info : Element found!!
2019.01.14 03:38:25   info : Xml obj_repo path C:\Talent_Automation_Framework_Backup\Project_Talent/ObjectRepositories/BenefitAsia2_MercerAdmin/MA_SOA.xml
2019.01.14 03:38:25   info : xpath object successfully mapped!!
2019.01.14 03:38:25   info : xpath object contains property value !!
2019.01.14 03:38:25   info : Property name - xpath
2019.01.14 03:38:25   info : Property value - //*[contains(@id,"_SearchEmployee_GrdEmployee")]/tbody/tr[td//text()[contains(translate(.,'ABCDEFGHIJKLMNOPQRSTUVWXYZ','abcdefghijklmnopqrstuvwxyz'), '1')]]/td[count(//*[contains(@id,"_SearchEmployee_GrdEmployee")]/tbody/tr[1]/th[contains(translate(., 'ABCDEFGHIJKLMNOPQRSTUVWXYZ', 'abcdefghijklmnopqrstuvwxyz'), 'name')]/preceding-sibling::th)+1]/a
2019.01.14 03:38:25   info : Finding xpath element on webpage..
2019.01.14 03:38:25   info : Searching for element. Try number 0
2019.01.14 03:38:26   info : element disappeared after trying for 1 times
2019.01.14 03:38:27   info : Current WebDriver Win Count is:: 1
2019.01.14 03:38:28   info : Element found!!
2019.01.14 03:38:29   info : clicked on EmployeeName
2019.01.14 03:38:30   info : Current WebDriver Win Count is:: 1
2019.01.14 03:38:30   info : restult status : 1
2019.01.14 03:38:31   info : Test ID TC2 : previous test step/row 31 status is Passed and value of next test step/row is :: 32
2019.01.14 03:38:31   info : 

2019.01.14 03:38:31   info : -------------------- Executing Testcase ID TC2 and test step : 32 ---------------------- 
2019.01.14 03:38:32   info : Current WebDriver Win Count is:: 1
2019.01.14 03:38:32   info : Xml obj_repo path C:\Talent_Automation_Framework_Backup\Project_Talent/ObjectRepositories/BenefitAsia2_MercerAdmin/MA_AddNewHire.xml
2019.01.14 03:38:32   info : Title contains null value in xml!!
2019.01.14 03:38:32   info : Window title BA2Admin > My Details > Personal Details
2019.01.14 03:38:32   info : Xml obj_repo path C:\Talent_Automation_Framework_Backup\Project_Talent/ObjectRepositories/BenefitAsia2_MercerAdmin/MA_AddNewHire.xml
2019.01.14 03:38:32   info : xpath object successfully mapped!!
2019.01.14 03:38:32   info : xpath object contains property value !!
2019.01.14 03:38:32   info : Property name - xpath
2019.01.14 03:38:32   info : Property value - //*[contains(@id,"_EditEmployee_imgBtnViewDependent")]
2019.01.14 03:38:32   info : Finding xpath element on webpage..
2019.01.14 03:38:32   info : Searching for element. Try number 0
2019.01.14 03:38:33   info : element disappeared after trying for 1 times
2019.01.14 03:38:34   info : Current WebDriver Win Count is:: 1
2019.01.14 03:38:34   info : Element found!!
2019.01.14 03:38:34   info : Desired window is activated!!
2019.01.14 03:38:34   info : page object present in excel : 1
2019.01.14 03:38:34   info : Under single object handle operation!!
2019.01.14 03:38:34   info : col 6 data :  and col 5 data : AddDependent_icon
2019.01.14 03:38:34   info : Normal click operation !!
2019.01.14 03:38:34   info : Checking for object in click
2019.01.14 03:38:34   info : Xml obj_repo path C:\Talent_Automation_Framework_Backup\Project_Talent/ObjectRepositories/BenefitAsia2_MercerAdmin/MA_AddNewHire.xml
2019.01.14 03:38:34   info : xpath object successfully mapped!!
2019.01.14 03:38:34   info : xpath object contains property value !!
2019.01.14 03:38:34   info : Property name - xpath
2019.01.14 03:38:34   info : Property value - //*[contains(@id,"_EditEmployee_imgBtnViewDependent")]
2019.01.14 03:38:34   info : Finding xpath element on webpage..
2019.01.14 03:38:34   info : Searching for element. Try number 0
2019.01.14 03:38:35   info : element disappeared after trying for 1 times
2019.01.14 03:38:36   info : Current WebDriver Win Count is:: 1
2019.01.14 03:38:36   info : Element found!!
2019.01.14 03:38:36   info : Xml obj_repo path C:\Talent_Automation_Framework_Backup\Project_Talent/ObjectRepositories/BenefitAsia2_MercerAdmin/MA_AddNewHire.xml
2019.01.14 03:38:36   info : xpath object successfully mapped!!
2019.01.14 03:38:36   info : xpath object contains property value !!
2019.01.14 03:38:36   info : Property name - xpath
2019.01.14 03:38:36   info : Property value - //*[contains(@id,"_EditEmployee_imgBtnViewDependent")]
2019.01.14 03:38:36   info : Finding xpath element on webpage..
2019.01.14 03:38:36   info : Searching for element. Try number 0
2019.01.14 03:38:37   info : element disappeared after trying for 1 times
2019.01.14 03:38:38   info : Current WebDriver Win Count is:: 1
2019.01.14 03:38:38   info : Element found!!
2019.01.14 03:38:38   info : clicked on AddDependent_icon
2019.01.14 03:38:39   info : Current WebDriver Win Count is:: 1
2019.01.14 03:38:40   info : restult status : 1
2019.01.14 03:38:40   info : Test ID TC2 : previous test step/row 32 status is Passed and value of next test step/row is :: 33
2019.01.14 03:38:40   info : 

2019.01.14 03:38:40   info : -------------------- Executing Testcase ID TC2 and test step : 33 ---------------------- 
2019.01.14 03:38:41   info : Current WebDriver Win Count is:: 1
2019.01.14 03:38:41   info : Total static wait time 3
2019.01.14 03:38:44   info : Xml obj_repo path C:\Talent_Automation_Framework_Backup\Project_Talent/ObjectRepositories/BenefitAsia2_MercerAdmin/MA_AddNewHire.xml
2019.01.14 03:38:44   info : xpath object successfully mapped!!
2019.01.14 03:38:44   info : xpath object contains property value !!
2019.01.14 03:38:44   info : Property name - xpath
2019.01.14 03:38:44   info : Property value - //*[contains(@id,"_DependantList_ddlDependant")]
2019.01.14 03:38:44   info : Finding xpath element on webpage..
2019.01.14 03:38:44   info : Searching for element. Try number 0
2019.01.14 03:38:45   info : element disappeared after trying for 1 times
2019.01.14 03:38:46   info : Current WebDriver Win Count is:: 1
2019.01.14 03:38:46   info : Element found!!
2019.01.14 03:38:46   info : ObjectTag select and ObjectType null
2019.01.14 03:38:46   info : select combobox operation 
2019.01.14 03:38:46   info : Xml obj_repo path C:\Talent_Automation_Framework_Backup\Project_Talent/ObjectRepositories/BenefitAsia2_MercerAdmin/MA_AddNewHire.xml
2019.01.14 03:38:46   info : xpath object successfully mapped!!
2019.01.14 03:38:46   info : xpath object contains property value !!
2019.01.14 03:38:46   info : Property name - xpath
2019.01.14 03:38:46   info : Property value - //*[contains(@id,"_DependantList_ddlDependant")]
2019.01.14 03:38:46   info : Finding xpath element on webpage..
2019.01.14 03:38:46   info : Searching for element. Try number 0
2019.01.14 03:38:47   info : element disappeared after trying for 1 times
2019.01.14 03:38:48   info : Current WebDriver Win Count is:: 1
2019.01.14 03:38:48   info : Element found!!
2019.01.14 03:38:48   info : Xml obj_repo path C:\Talent_Automation_Framework_Backup\Project_Talent/ObjectRepositories/BenefitAsia2_MercerAdmin/MA_AddNewHire.xml
2019.01.14 03:38:48   info : xpath object successfully mapped!!
2019.01.14 03:38:48   info : xpath object contains property value !!
2019.01.14 03:38:48   info : Property name - xpath
2019.01.14 03:38:48   info : Property value - //*[contains(@id,"_DependantList_ddlDependant")]
2019.01.14 03:38:48   info : Finding xpath element on webpage..
2019.01.14 03:38:48   info : Element found!!
2019.01.14 03:38:48   info : Son value selected!!
2019.01.14 03:38:50   info : Alert is not present
2019.01.14 03:38:51   info : Current WebDriver Win Count is:: 1
2019.01.14 03:38:52   info : restult status : 1
2019.01.14 03:38:52   info : Test ID TC2 : previous test step/row 33 status is Passed and value of next test step/row is :: 34
2019.01.14 03:38:52   info : 

2019.01.14 03:38:52   info : -------------------- Executing Testcase ID TC2 and test step : 34 ---------------------- 
2019.01.14 03:38:53   info : Current WebDriver Win Count is:: 1
2019.01.14 03:38:53   info : Xml obj_repo path C:\Talent_Automation_Framework_Backup\Project_Talent/ObjectRepositories/BenefitAsia2_MercerAdmin/MA_AddDependents.xml
2019.01.14 03:38:53   info : Title contains null value in xml!!
2019.01.14 03:38:53   info : Window title BA2Admin > My Details > Personal Details
2019.01.14 03:38:53   info : Xml obj_repo path C:\Talent_Automation_Framework_Backup\Project_Talent/ObjectRepositories/BenefitAsia2_MercerAdmin/MA_AddDependents.xml
2019.01.14 03:38:53   info : xpath object successfully mapped!!
2019.01.14 03:38:53   info : xpath object contains property value !!
2019.01.14 03:38:53   info : Property name - xpath
2019.01.14 03:38:53   info : Property value - //*[contains(@id,"_DependantList_btnAdd")]
2019.01.14 03:38:53   info : Finding xpath element on webpage..
2019.01.14 03:38:53   info : Searching for element. Try number 0
2019.01.14 03:38:54   info : element disappeared after trying for 1 times
2019.01.14 03:38:55   info : Current WebDriver Win Count is:: 1
2019.01.14 03:38:55   info : Element found!!
2019.01.14 03:38:55   info : Desired window is activated!!
2019.01.14 03:38:55   info : page object present in excel : 1
2019.01.14 03:38:55   info : Under single object handle operation!!
2019.01.14 03:38:55   info : col 6 data : javascript_click and col 5 data : Go_Button
2019.01.14 03:38:55   info : Click case operation !!
2019.01.14 03:38:55   info : oprnm javascript_click
2019.01.14 03:38:55   info : click javascript_click operation perfomred!!
2019.01.14 03:38:55   info : Xml obj_repo path C:\Talent_Automation_Framework_Backup\Project_Talent/ObjectRepositories/BenefitAsia2_MercerAdmin/MA_AddDependents.xml
2019.01.14 03:38:55   info : xpath object successfully mapped!!
2019.01.14 03:38:55   info : xpath object contains property value !!
2019.01.14 03:38:55   info : Property name - xpath
2019.01.14 03:38:55   info : Property value - //*[contains(@id,"_DependantList_btnAdd")]
2019.01.14 03:38:55   info : Finding xpath element on webpage..
2019.01.14 03:38:55   info : Searching for element. Try number 0
2019.01.14 03:38:56   info : element disappeared after trying for 1 times
2019.01.14 03:38:57   info : Current WebDriver Win Count is:: 1
2019.01.14 03:38:57   info : Element found!!
2019.01.14 03:38:58   info : Current WebDriver Win Count is:: 1
2019.01.14 03:38:59   info : restult status : 1
2019.01.14 03:38:59   info : Test ID TC2 : previous test step/row 34 status is Passed and value of next test step/row is :: 35
2019.01.14 03:38:59   info : 

2019.01.14 03:38:59   info : -------------------- Executing Testcase ID TC2 and test step : 35 ---------------------- 
2019.01.14 03:39:00   info : Current WebDriver Win Count is:: 1
2019.01.14 03:39:00   info : Total static wait time 3
2019.01.14 03:39:03   info : Xml obj_repo path C:\Talent_Automation_Framework_Backup\Project_Talent/ObjectRepositories/BenefitAsia2_MercerAdmin/MA_AddDependents.xml
2019.01.14 03:39:03   info : xpath object successfully mapped!!
2019.01.14 03:39:03   info : xpath object contains property value !!
2019.01.14 03:39:03   info : Property name - xpath
2019.01.14 03:39:03   info : Property value - //*[contains(@id,"_AddDependant_txtFullName")]
2019.01.14 03:39:03   info : Finding xpath element on webpage..
2019.01.14 03:39:03   info : Searching for element. Try number 0
2019.01.14 03:39:03   info : element disappeared after trying for 1 times
2019.01.14 03:39:04   info : Current WebDriver Win Count is:: 1
2019.01.14 03:39:04   info : Element found!!
2019.01.14 03:39:04   info : ObjectTag input and ObjectType text
2019.01.14 03:39:04   info : Enter data operation
2019.01.14 03:39:05   info : Xml obj_repo path C:\Talent_Automation_Framework_Backup\Project_Talent/ObjectRepositories/BenefitAsia2_MercerAdmin/MA_AddDependents.xml
2019.01.14 03:39:05   info : xpath object successfully mapped!!
2019.01.14 03:39:05   info : xpath object contains property value !!
2019.01.14 03:39:05   info : Property name - xpath
2019.01.14 03:39:05   info : Property value - //*[contains(@id,"_AddDependant_txtFullName")]
2019.01.14 03:39:05   info : Finding xpath element on webpage..
2019.01.14 03:39:05   info : Searching for element. Try number 0
2019.01.14 03:39:05   info : element disappeared after trying for 1 times
2019.01.14 03:39:06   info : Current WebDriver Win Count is:: 1
2019.01.14 03:39:06   info : Element found!!
2019.01.14 03:39:06   info : Xml obj_repo path C:\Talent_Automation_Framework_Backup\Project_Talent/ObjectRepositories/BenefitAsia2_MercerAdmin/MA_AddDependents.xml
2019.01.14 03:39:06   info : xpath object successfully mapped!!
2019.01.14 03:39:06   info : xpath object contains property value !!
2019.01.14 03:39:06   info : Property name - xpath
2019.01.14 03:39:06   info : Property value - //*[contains(@id,"_AddDependant_txtFullName")]
2019.01.14 03:39:06   info : Finding xpath element on webpage..
2019.01.14 03:39:06   info : Searching for element. Try number 0
2019.01.14 03:39:06   info : element disappeared after trying for 1 times
2019.01.14 03:39:07   info : Current WebDriver Win Count is:: 1
2019.01.14 03:39:07   info : Element found!!
2019.01.14 03:39:07   info : ValueToEnter Simpli_10jan_001_Ch1
2019.01.14 03:39:07   info : Entered value is Simpli_10jan_001_Ch1
2019.01.14 03:39:07   info : Attribute entered value Simpli_10jan_001_Ch1
2019.01.14 03:39:07   info : Total static wait time 3
