2019.01.14 12:19:33   info : Selenium version :: 2.48.2
2019.01.14 12:19:33   info : Download fodler path created!!
2019.01.14 12:19:33   info : date_time_down_folder C:\Talent_Automation_Framework_Backup\Project_Talent\Downloads\2019_01_14\time_12_19_33\
2019.01.14 12:19:34   info : Total number of applications :: 4
2019.01.14 12:19:34   info : Application Name - Latest_Simp
2019.01.14 12:19:34   info : TestData_Sheet path:: C:\Talent_Automation_Framework_Backup\Project_Talent/TestCases/Latest_Simp.xlsx
2019.01.14 12:19:34   info : CSV updating and creating dump....
2019.01.14 12:19:35   info : Sheet name: Scenarios
2019.01.14 12:19:35   info : Sheet name: TestCaseScheduler
2019.01.14 12:19:35   info : Sheet name: Test Case
2019.01.14 12:19:35   info : Latest_Simp sheetname found!!
2019.01.14 12:19:35   info : Total row 834
2019.01.14 12:19:35   info : After row validation for blank or null!!
2019.01.14 12:19:35   info : Total final row 833
2019.01.14 12:19:35   info : Total number of test cases to be executed :: 1
2019.01.14 12:19:35   info : PrevTestID - null == null && row 24<= 833
2019.01.14 12:19:35   info : Test ID TC2 : previous test step/row 23 status is Passed and value of next test step/row is :: 24
2019.01.14 12:19:35   info : 

2019.01.14 12:19:35   info : -------------------- Executing Testcase ID TC2 and test step : 24 ---------------------- 
2019.01.14 12:19:36   info : please wait.. browser getting open !!
2019.01.14 12:19:47   info : Opening Application..
2019.01.14 12:19:57   info : Current WebDriver Win Count is:: 1
2019.01.14 12:19:57   info : restult status : 1
2019.01.14 12:19:58   info : Test ID TC2 : previous test step/row 24 status is Passed and value of next test step/row is :: 25
2019.01.14 12:19:58   info : 

2019.01.14 12:19:58   info : -------------------- Executing Testcase ID TC2 and test step : 25 ---------------------- 
2019.01.14 12:19:59   info : Current WebDriver Win Count is:: 1
2019.01.14 12:19:59   info : Xml obj_repo path C:\Talent_Automation_Framework_Backup\Project_Talent/ObjectRepositories/BenefitAsia2_EE/EE_SimpliflexSG_LoginLogout.xml
2019.01.14 12:19:59   info : Title contains null value in xml!!
2019.01.14 12:19:59   info : Window title User Login
2019.01.14 12:19:59   info : Xml obj_repo path C:\Talent_Automation_Framework_Backup\Project_Talent/ObjectRepositories/BenefitAsia2_EE/EE_SimpliflexSG_LoginLogout.xml
2019.01.14 12:19:59   info : xpath object successfully mapped!!
2019.01.14 12:19:59   info : xpath object contains property value !!
2019.01.14 12:19:59   info : Property name - xpath
2019.01.14 12:19:59   info : Property value - //input[contains(@id,"_txtUsername")]
2019.01.14 12:19:59   info : Finding xpath element on webpage..
2019.01.14 12:19:59   info : Searching for element. Try number 0
2019.01.14 12:20:00   info : element disappeared after trying for 1 times
2019.01.14 12:20:01   info : Current WebDriver Win Count is:: 1
2019.01.14 12:20:01   info : Element found!!
2019.01.14 12:20:01   info : Desired window is activated!!
2019.01.14 12:20:01   info : FiledName UserName and FiledValue Simpli_10jan_001
2019.01.14 12:20:01   info : FiledName Password and FiledValue Password123$
2019.01.14 12:20:01   info : Total static wait time 3
2019.01.14 12:20:04   info : Xml obj_repo path C:\Talent_Automation_Framework_Backup\Project_Talent/ObjectRepositories/BenefitAsia2_EE/EE_SimpliflexSG_LoginLogout.xml
2019.01.14 12:20:04   info : xpath object successfully mapped!!
2019.01.14 12:20:04   info : xpath object contains property value !!
2019.01.14 12:20:04   info : Property name - xpath
2019.01.14 12:20:04   info : Property value - //input[contains(@id,"_txtUsername")]
2019.01.14 12:20:04   info : Finding xpath element on webpage..
2019.01.14 12:20:04   info : Searching for element. Try number 0
2019.01.14 12:20:05   info : element disappeared after trying for 1 times
2019.01.14 12:20:06   info : Current WebDriver Win Count is:: 1
2019.01.14 12:20:06   info : Element found!!
2019.01.14 12:20:06   info : ObjectTag input and ObjectType text
2019.01.14 12:20:06   info : Enter data operation
2019.01.14 12:20:07   info : Xml obj_repo path C:\Talent_Automation_Framework_Backup\Project_Talent/ObjectRepositories/BenefitAsia2_EE/EE_SimpliflexSG_LoginLogout.xml
2019.01.14 12:20:07   info : xpath object successfully mapped!!
2019.01.14 12:20:07   info : xpath object contains property value !!
2019.01.14 12:20:07   info : Property name - xpath
2019.01.14 12:20:07   info : Property value - //input[contains(@id,"_txtUsername")]
2019.01.14 12:20:07   info : Finding xpath element on webpage..
2019.01.14 12:20:07   info : Searching for element. Try number 0
2019.01.14 12:20:08   info : element disappeared after trying for 1 times
2019.01.14 12:20:09   info : Current WebDriver Win Count is:: 1
2019.01.14 12:20:10   info : Element found!!
2019.01.14 12:20:10   info : Xml obj_repo path C:\Talent_Automation_Framework_Backup\Project_Talent/ObjectRepositories/BenefitAsia2_EE/EE_SimpliflexSG_LoginLogout.xml
2019.01.14 12:20:10   info : xpath object successfully mapped!!
2019.01.14 12:20:10   info : xpath object contains property value !!
2019.01.14 12:20:10   info : Property name - xpath
2019.01.14 12:20:10   info : Property value - //input[contains(@id,"_txtUsername")]
2019.01.14 12:20:10   info : Finding xpath element on webpage..
2019.01.14 12:20:10   info : Searching for element. Try number 0
2019.01.14 12:20:11   info : element disappeared after trying for 1 times
2019.01.14 12:20:12   info : Current WebDriver Win Count is:: 1
2019.01.14 12:20:12   info : Element found!!
2019.01.14 12:20:12   info : ValueToEnter Simpli_10jan_001
2019.01.14 12:20:12   info : Entered value is Simpli_10jan_001
2019.01.14 12:20:12   info : Attribute entered value Simpli_10jan_001
2019.01.14 12:20:12   info : Total static wait time 3
2019.01.14 12:20:15   info : Xml obj_repo path C:\Talent_Automation_Framework_Backup\Project_Talent/ObjectRepositories/BenefitAsia2_EE/EE_SimpliflexSG_LoginLogout.xml
2019.01.14 12:20:15   info : xpath object successfully mapped!!
2019.01.14 12:20:15   info : xpath object contains property value !!
2019.01.14 12:20:15   info : Property name - xpath
2019.01.14 12:20:15   info : Property value - //input[contains(@id,"_txtPassword")]
2019.01.14 12:20:15   info : Finding xpath element on webpage..
2019.01.14 12:20:15   info : Searching for element. Try number 0
2019.01.14 12:20:16   info : element disappeared after trying for 1 times
2019.01.14 12:20:17   info : Current WebDriver Win Count is:: 1
2019.01.14 12:20:17   info : Element found!!
2019.01.14 12:20:17   info : ObjectTag input and ObjectType password
2019.01.14 12:20:17   info : Enter data operation
2019.01.14 12:20:17   info : Xml obj_repo path C:\Talent_Automation_Framework_Backup\Project_Talent/ObjectRepositories/BenefitAsia2_EE/EE_SimpliflexSG_LoginLogout.xml
2019.01.14 12:20:17   info : xpath object successfully mapped!!
2019.01.14 12:20:17   info : xpath object contains property value !!
2019.01.14 12:20:17   info : Property name - xpath
2019.01.14 12:20:17   info : Property value - //input[contains(@id,"_txtPassword")]
2019.01.14 12:20:17   info : Finding xpath element on webpage..
2019.01.14 12:20:17   info : Searching for element. Try number 0
2019.01.14 12:20:18   info : element disappeared after trying for 1 times
2019.01.14 12:20:19   info : Current WebDriver Win Count is:: 1
2019.01.14 12:20:19   info : Element found!!
2019.01.14 12:20:19   info : ValueToEnter Password123$
2019.01.14 12:20:19   info : Entered value is Password123$
2019.01.14 12:20:19   info : Attribute entered value Password123$
2019.01.14 12:20:19   info : Checking for object in click
2019.01.14 12:20:19   info : Xml obj_repo path C:\Talent_Automation_Framework_Backup\Project_Talent/ObjectRepositories/BenefitAsia2_EE/EE_SimpliflexSG_LoginLogout.xml
2019.01.14 12:20:19   info : xpath object successfully mapped!!
2019.01.14 12:20:19   info : xpath object contains property value !!
2019.01.14 12:20:19   info : Property name - xpath
2019.01.14 12:20:19   info : Property value - //input[contains(@id,"_cmdLogin")]
2019.01.14 12:20:19   info : Finding xpath element on webpage..
2019.01.14 12:20:19   info : Searching for element. Try number 0
2019.01.14 12:20:20   info : element disappeared after trying for 1 times
2019.01.14 12:20:21   info : Current WebDriver Win Count is:: 1
2019.01.14 12:20:21   info : Element found!!
2019.01.14 12:20:21   info : Xml obj_repo path C:\Talent_Automation_Framework_Backup\Project_Talent/ObjectRepositories/BenefitAsia2_EE/EE_SimpliflexSG_LoginLogout.xml
2019.01.14 12:20:21   info : xpath object successfully mapped!!
2019.01.14 12:20:21   info : xpath object contains property value !!
2019.01.14 12:20:21   info : Property name - xpath
2019.01.14 12:20:21   info : Property value - //input[contains(@id,"_cmdLogin")]
2019.01.14 12:20:21   info : Finding xpath element on webpage..
2019.01.14 12:20:21   info : Searching for element. Try number 0
2019.01.14 12:20:22   info : element disappeared after trying for 1 times
2019.01.14 12:20:23   info : Current WebDriver Win Count is:: 1
2019.01.14 12:20:23   info : Element found!!
2019.01.14 12:20:27   info : clicked on LoginButton
2019.01.14 12:20:28   info : Current WebDriver Win Count is:: 1
2019.01.14 12:20:28   info : restult status : 1
2019.01.14 12:20:28   info : Test ID TC2 : previous test step/row 25 status is Passed and value of next test step/row is :: 26
2019.01.14 12:20:28   info : 

2019.01.14 12:20:28   info : -------------------- Executing Testcase ID TC2 and test step : 26 ---------------------- 
2019.01.14 12:20:29   info : Current WebDriver Win Count is:: 1
2019.01.14 12:20:29   info : Xml obj_repo path C:\Talent_Automation_Framework_Backup\Project_Talent/ObjectRepositories/BenefitAsia2_EE/EE_SimpliflexSG_Home.xml
2019.01.14 12:20:29   info : Title in xml file - SimpliflexSG > Home
2019.01.14 12:20:29   info : Title of the page after - switching window To: SimpliflexSG > Home
2019.01.14 12:20:29   info : Desired window is activated!!
2019.01.14 12:20:29   info : page object present in excel : 1
2019.01.14 12:20:29   info : Under single object handle operation!!
2019.01.14 12:20:29   info : col 6 data :  and col 5 data : CreateNewClaim
2019.01.14 12:20:29   info : Normal click operation !!
2019.01.14 12:20:29   info : Checking for object in click
2019.01.14 12:20:29   info : Xml obj_repo path C:\Talent_Automation_Framework_Backup\Project_Talent/ObjectRepositories/BenefitAsia2_EE/EE_SimpliflexSG_Home.xml
2019.01.14 12:20:29   info : xpath object successfully mapped!!
2019.01.14 12:20:29   info : xpath object contains property value !!
2019.01.14 12:20:29   info : Property name - xpath
2019.01.14 12:20:29   info : Property value - //a[contains(@id,"_BA2DashBoard_SUBMITCLAIM")]
2019.01.14 12:20:29   info : Finding xpath element on webpage..
2019.01.14 12:20:29   info : Searching for element. Try number 0
2019.01.14 12:20:30   info : element disappeared after trying for 1 times
2019.01.14 12:20:31   info : Current WebDriver Win Count is:: 1
2019.01.14 12:20:31   info : Element found!!
2019.01.14 12:20:31   info : Xml obj_repo path C:\Talent_Automation_Framework_Backup\Project_Talent/ObjectRepositories/BenefitAsia2_EE/EE_SimpliflexSG_Home.xml
2019.01.14 12:20:31   info : xpath object successfully mapped!!
2019.01.14 12:20:31   info : xpath object contains property value !!
2019.01.14 12:20:31   info : Property name - xpath
2019.01.14 12:20:31   info : Property value - //a[contains(@id,"_BA2DashBoard_SUBMITCLAIM")]
2019.01.14 12:20:31   info : Finding xpath element on webpage..
2019.01.14 12:20:31   info : Searching for element. Try number 0
2019.01.14 12:20:32   info : element disappeared after trying for 1 times
2019.01.14 12:20:33   info : Current WebDriver Win Count is:: 1
2019.01.14 12:20:33   info : Element found!!
2019.01.14 12:20:37   info : clicked on CreateNewClaim
2019.01.14 12:20:38   info : Current WebDriver Win Count is:: 1
2019.01.14 12:20:38   info : restult status : 1
2019.01.14 12:20:38   info : Test ID TC2 : previous test step/row 26 status is Passed and value of next test step/row is :: 27
2019.01.14 12:20:38   info : 

2019.01.14 12:20:38   info : -------------------- Executing Testcase ID TC2 and test step : 27 ---------------------- 
2019.01.14 12:20:39   info : Current WebDriver Win Count is:: 1
2019.01.14 12:20:39   info : Xml obj_repo path C:\Talent_Automation_Framework_Backup\Project_Talent/ObjectRepositories/BenefitAsia2_EE/EE_SimpliflexSG_Claims.xml
2019.01.14 12:20:39   info : Title in xml file - Create New Claim
2019.01.14 12:20:39   info : Title of the page after - switching window To: Create New Claim
2019.01.14 12:20:39   info : Desired window is activated!!
2019.01.14 12:20:39   info : Total static wait time 3
2019.01.14 12:20:42   info : Xml obj_repo path C:\Talent_Automation_Framework_Backup\Project_Talent/ObjectRepositories/BenefitAsia2_EE/EE_SimpliflexSG_Claims.xml
2019.01.14 12:20:42   info : xpath object successfully mapped!!
2019.01.14 12:20:42   info : xpath object contains property value !!
2019.01.14 12:20:42   info : Property name - xpath
2019.01.14 12:20:42   info : Property value - //*[contains(@id,"_ClaimsSubmit_ClaimSubmitControlV2_lstClaimantName")]
2019.01.14 12:20:42   info : Finding xpath element on webpage..
2019.01.14 12:20:42   info : Searching for element. Try number 0
2019.01.14 12:20:42   info : element disappeared after trying for 1 times
2019.01.14 12:20:43   info : Current WebDriver Win Count is:: 1
2019.01.14 12:20:43   info : Element found!!
2019.01.14 12:20:43   info : ObjectTag select and ObjectType null
2019.01.14 12:20:43   info : select combobox operation 
2019.01.14 12:20:43   info : Xml obj_repo path C:\Talent_Automation_Framework_Backup\Project_Talent/ObjectRepositories/BenefitAsia2_EE/EE_SimpliflexSG_Claims.xml
2019.01.14 12:20:43   info : xpath object successfully mapped!!
2019.01.14 12:20:43   info : xpath object contains property value !!
2019.01.14 12:20:43   info : Property name - xpath
2019.01.14 12:20:43   info : Property value - //*[contains(@id,"_ClaimsSubmit_ClaimSubmitControlV2_lstClaimantName")]
2019.01.14 12:20:43   info : Finding xpath element on webpage..
2019.01.14 12:20:43   info : Searching for element. Try number 0
2019.01.14 12:20:43   info : element disappeared after trying for 1 times
2019.01.14 12:20:44   info : Current WebDriver Win Count is:: 1
2019.01.14 12:20:44   info : Element found!!
2019.01.14 12:20:44   info : Xml obj_repo path C:\Talent_Automation_Framework_Backup\Project_Talent/ObjectRepositories/BenefitAsia2_EE/EE_SimpliflexSG_Claims.xml
2019.01.14 12:20:44   info : xpath object successfully mapped!!
2019.01.14 12:20:44   info : xpath object contains property value !!
2019.01.14 12:20:44   info : Property name - xpath
2019.01.14 12:20:44   info : Property value - //*[contains(@id,"_ClaimsSubmit_ClaimSubmitControlV2_lstClaimantName")]
2019.01.14 12:20:44   info : Finding xpath element on webpage..
2019.01.14 12:20:44   info : Element found!!
2019.01.14 12:20:44   info : Simpli_10jan_001 Value is already selected in dropdown!!
2019.01.14 12:20:45   info : Current WebDriver Win Count is:: 1
2019.01.14 12:20:45   info : restult status : 1
2019.01.14 12:20:45   info : Test ID TC2 : previous test step/row 27 status is Passed and value of next test step/row is :: 28
2019.01.14 12:20:45   info : 

2019.01.14 12:20:45   info : -------------------- Executing Testcase ID TC2 and test step : 28 ---------------------- 
2019.01.14 12:20:47   info : Current WebDriver Win Count is:: 1
2019.01.14 12:20:47   info : Total static wait time 3
2019.01.14 12:20:50   info : Xml obj_repo path C:\Talent_Automation_Framework_Backup\Project_Talent/ObjectRepositories/BenefitAsia2_EE/EE_SimpliflexSG_Claims.xml
2019.01.14 12:20:50   info : xpath object successfully mapped!!
2019.01.14 12:20:50   info : xpath object contains property value !!
2019.01.14 12:20:50   info : Property name - xpath
2019.01.14 12:20:50   info : Property value - //*[contains(@id,"_ClaimsSubmit_ClaimSubmitControlV2_lstClaimItemName")]
2019.01.14 12:20:50   info : Finding xpath element on webpage..
2019.01.14 12:20:50   info : Searching for element. Try number 0
2019.01.14 12:20:50   info : element disappeared after trying for 1 times
2019.01.14 12:20:51   info : Current WebDriver Win Count is:: 1
2019.01.14 12:20:51   info : Element found!!
2019.01.14 12:20:51   info : ObjectTag select and ObjectType null
2019.01.14 12:20:51   info : select combobox operation 
2019.01.14 12:20:51   info : Xml obj_repo path C:\Talent_Automation_Framework_Backup\Project_Talent/ObjectRepositories/BenefitAsia2_EE/EE_SimpliflexSG_Claims.xml
2019.01.14 12:20:51   info : xpath object successfully mapped!!
2019.01.14 12:20:51   info : xpath object contains property value !!
2019.01.14 12:20:51   info : Property name - xpath
2019.01.14 12:20:51   info : Property value - //*[contains(@id,"_ClaimsSubmit_ClaimSubmitControlV2_lstClaimItemName")]
2019.01.14 12:20:51   info : Finding xpath element on webpage..
2019.01.14 12:20:51   info : Searching for element. Try number 0
2019.01.14 12:20:51   info : element disappeared after trying for 1 times
2019.01.14 12:20:52   info : Current WebDriver Win Count is:: 1
2019.01.14 12:20:52   info : Element found!!
2019.01.14 12:20:52   info : Xml obj_repo path C:\Talent_Automation_Framework_Backup\Project_Talent/ObjectRepositories/BenefitAsia2_EE/EE_SimpliflexSG_Claims.xml
2019.01.14 12:20:52   info : xpath object successfully mapped!!
2019.01.14 12:20:52   info : xpath object contains property value !!
2019.01.14 12:20:52   info : Property name - xpath
2019.01.14 12:20:52   info : Property value - //*[contains(@id,"_ClaimsSubmit_ClaimSubmitControlV2_lstClaimItemName")]
2019.01.14 12:20:52   info : Finding xpath element on webpage..
2019.01.14 12:20:52   info : Element found!!
2019.01.14 12:20:53   info :    Child daycare expenses value selected!!
2019.01.14 12:20:55   info : Alert is not present
2019.01.14 12:20:55   info : Total static wait time 3
2019.01.14 12:20:58   info : Xml obj_repo path C:\Talent_Automation_Framework_Backup\Project_Talent/ObjectRepositories/BenefitAsia2_EE/EE_SimpliflexSG_Claims.xml
2019.01.14 12:20:58   info : xpath object successfully mapped!!
2019.01.14 12:20:58   info : xpath object contains property value !!
2019.01.14 12:20:58   info : Property name - xpath
2019.01.14 12:20:58   info : Property value - //*[contains(@id,"_ClaimsSubmit_ClaimSubmitControlV2_txtProviderName")]
2019.01.14 12:20:58   info : Finding xpath element on webpage..
2019.01.14 12:20:58   info : Searching for element. Try number 0
2019.01.14 12:20:58   info : element disappeared after trying for 1 times
2019.01.14 12:20:59   info : Current WebDriver Win Count is:: 1
2019.01.14 12:20:59   info : Element found!!
2019.01.14 12:20:59   info : ObjectTag input and ObjectType text
2019.01.14 12:20:59   info : Enter data operation
2019.01.14 12:20:59   info : Xml obj_repo path C:\Talent_Automation_Framework_Backup\Project_Talent/ObjectRepositories/BenefitAsia2_EE/EE_SimpliflexSG_Claims.xml
2019.01.14 12:20:59   info : xpath object successfully mapped!!
2019.01.14 12:20:59   info : xpath object contains property value !!
2019.01.14 12:20:59   info : Property name - xpath
2019.01.14 12:20:59   info : Property value - //*[contains(@id,"_ClaimsSubmit_ClaimSubmitControlV2_txtProviderName")]
2019.01.14 12:20:59   info : Finding xpath element on webpage..
2019.01.14 12:20:59   info : Searching for element. Try number 0
2019.01.14 12:20:59   info : element disappeared after trying for 1 times
2019.01.14 12:21:00   info : Current WebDriver Win Count is:: 1
2019.01.14 12:21:00   info : Element found!!
2019.01.14 12:21:00   info : Xml obj_repo path C:\Talent_Automation_Framework_Backup\Project_Talent/ObjectRepositories/BenefitAsia2_EE/EE_SimpliflexSG_Claims.xml
2019.01.14 12:21:00   info : xpath object successfully mapped!!
2019.01.14 12:21:00   info : xpath object contains property value !!
2019.01.14 12:21:00   info : Property name - xpath
2019.01.14 12:21:00   info : Property value - //*[contains(@id,"_ClaimsSubmit_ClaimSubmitControlV2_txtProviderName")]
2019.01.14 12:21:00   info : Finding xpath element on webpage..
2019.01.14 12:21:00   info : Searching for element. Try number 0
2019.01.14 12:21:00   info : element disappeared after trying for 1 times
2019.01.14 12:21:01   info : Current WebDriver Win Count is:: 1
2019.01.14 12:21:01   info : Element found!!
2019.01.14 12:21:01   info : ValueToEnter Provider77
2019.01.14 12:21:01   info : Entered value is Provider77
2019.01.14 12:21:01   info : Attribute entered value Provider77
2019.01.14 12:21:01   info : Total static wait time 3
2019.01.14 12:21:04   info : Xml obj_repo path C:\Talent_Automation_Framework_Backup\Project_Talent/ObjectRepositories/BenefitAsia2_EE/EE_SimpliflexSG_Claims.xml
2019.01.14 12:21:04   info : xpath object successfully mapped!!
2019.01.14 12:21:04   info : xpath object contains property value !!
2019.01.14 12:21:04   info : Property name - xpath
2019.01.14 12:21:04   info : Property value - //input[contains(@id,"_ClaimsSubmit_ClaimSubmitControlV2_txtReceiptDate")]
2019.01.14 12:21:04   info : Finding xpath element on webpage..
2019.01.14 12:21:04   info : Searching for element. Try number 0
2019.01.14 12:21:04   info : element disappeared after trying for 1 times
2019.01.14 12:21:05   info : Current WebDriver Win Count is:: 1
2019.01.14 12:21:05   info : Element found!!
2019.01.14 12:21:05   info : ObjectTag input and ObjectType text
2019.01.14 12:21:05   info : Enter data operation
2019.01.14 12:21:06   info : Xml obj_repo path C:\Talent_Automation_Framework_Backup\Project_Talent/ObjectRepositories/BenefitAsia2_EE/EE_SimpliflexSG_Claims.xml
2019.01.14 12:21:06   info : xpath object successfully mapped!!
2019.01.14 12:21:06   info : xpath object contains property value !!
2019.01.14 12:21:06   info : Property name - xpath
2019.01.14 12:21:06   info : Property value - //input[contains(@id,"_ClaimsSubmit_ClaimSubmitControlV2_txtReceiptDate")]
2019.01.14 12:21:06   info : Finding xpath element on webpage..
2019.01.14 12:21:06   info : Searching for element. Try number 0
2019.01.14 12:21:06   info : element disappeared after trying for 1 times
2019.01.14 12:21:07   info : Current WebDriver Win Count is:: 1
2019.01.14 12:21:07   info : Element found!!
2019.01.14 12:21:07   info : Xml obj_repo path C:\Talent_Automation_Framework_Backup\Project_Talent/ObjectRepositories/BenefitAsia2_EE/EE_SimpliflexSG_Claims.xml
2019.01.14 12:21:07   info : xpath object successfully mapped!!
2019.01.14 12:21:07   info : xpath object contains property value !!
2019.01.14 12:21:07   info : Property name - xpath
2019.01.14 12:21:07   info : Property value - //input[contains(@id,"_ClaimsSubmit_ClaimSubmitControlV2_txtReceiptDate")]
2019.01.14 12:21:07   info : Finding xpath element on webpage..
2019.01.14 12:21:07   info : Searching for element. Try number 0
2019.01.14 12:21:07   info : element disappeared after trying for 1 times
2019.01.14 12:21:08   info : Current WebDriver Win Count is:: 1
2019.01.14 12:21:08   info : Element found!!
2019.01.14 12:21:08   info : ValueToEnter 14/Jan/2019
2019.01.14 12:21:08   info : Entered value is 14/Jan/2019
2019.01.14 12:21:08   info : Attribute entered value 14/Jan/2019
2019.01.14 12:21:08   info : Total static wait time 3
2019.01.14 12:21:11   info : Xml obj_repo path C:\Talent_Automation_Framework_Backup\Project_Talent/ObjectRepositories/BenefitAsia2_EE/EE_SimpliflexSG_Claims.xml
2019.01.14 12:21:11   info : xpath object successfully mapped!!
2019.01.14 12:21:11   info : xpath object contains property value !!
2019.01.14 12:21:11   info : Property name - xpath
2019.01.14 12:21:11   info : Property value - //input[contains(@id,"_ClaimsSubmit_ClaimSubmitControlV2_txtReceiptNo")]
2019.01.14 12:21:11   info : Finding xpath element on webpage..
2019.01.14 12:21:11   info : Searching for element. Try number 0
2019.01.14 12:21:11   info : element disappeared after trying for 1 times
2019.01.14 12:21:12   info : Current WebDriver Win Count is:: 1
2019.01.14 12:21:12   info : Element found!!
2019.01.14 12:21:12   info : ObjectTag input and ObjectType text
2019.01.14 12:21:12   info : Enter data operation
2019.01.14 12:21:12   info : Xml obj_repo path C:\Talent_Automation_Framework_Backup\Project_Talent/ObjectRepositories/BenefitAsia2_EE/EE_SimpliflexSG_Claims.xml
2019.01.14 12:21:12   info : xpath object successfully mapped!!
2019.01.14 12:21:12   info : xpath object contains property value !!
2019.01.14 12:21:12   info : Property name - xpath
2019.01.14 12:21:12   info : Property value - //input[contains(@id,"_ClaimsSubmit_ClaimSubmitControlV2_txtReceiptNo")]
2019.01.14 12:21:12   info : Finding xpath element on webpage..
2019.01.14 12:21:12   info : Searching for element. Try number 0
2019.01.14 12:21:12   info : element disappeared after trying for 1 times
2019.01.14 12:21:13   info : Current WebDriver Win Count is:: 1
2019.01.14 12:21:13   info : Element found!!
2019.01.14 12:21:13   info : Xml obj_repo path C:\Talent_Automation_Framework_Backup\Project_Talent/ObjectRepositories/BenefitAsia2_EE/EE_SimpliflexSG_Claims.xml
2019.01.14 12:21:13   info : xpath object successfully mapped!!
2019.01.14 12:21:13   info : xpath object contains property value !!
2019.01.14 12:21:13   info : Property name - xpath
2019.01.14 12:21:13   info : Property value - //input[contains(@id,"_ClaimsSubmit_ClaimSubmitControlV2_txtReceiptNo")]
2019.01.14 12:21:13   info : Finding xpath element on webpage..
2019.01.14 12:21:13   info : Searching for element. Try number 0
2019.01.14 12:21:13   info : element disappeared after trying for 1 times
2019.01.14 12:21:14   info : Current WebDriver Win Count is:: 1
2019.01.14 12:21:14   info : Element found!!
2019.01.14 12:21:14   info : ValueToEnter Receipt21
2019.01.14 12:21:14   info : Entered value is Receipt21
2019.01.14 12:21:14   info : Attribute entered value Receipt21
2019.01.14 12:21:14   info : Total static wait time 3
2019.01.14 12:21:17   info : Xml obj_repo path C:\Talent_Automation_Framework_Backup\Project_Talent/ObjectRepositories/BenefitAsia2_EE/EE_SimpliflexSG_Claims.xml
2019.01.14 12:21:17   info : xpath object successfully mapped!!
2019.01.14 12:21:17   info : xpath object contains property value !!
2019.01.14 12:21:17   info : Property name - xpath
2019.01.14 12:21:17   info : Property value - //input[contains(@id,"_ClaimsSubmit_ClaimSubmitControlV2_txtReceiptAmount")]
2019.01.14 12:21:17   info : Finding xpath element on webpage..
2019.01.14 12:21:17   info : Searching for element. Try number 0
2019.01.14 12:21:17   info : element disappeared after trying for 1 times
2019.01.14 12:21:18   info : Current WebDriver Win Count is:: 1
2019.01.14 12:21:18   info : Element found!!
2019.01.14 12:21:18   info : ObjectTag input and ObjectType text
2019.01.14 12:21:18   info : Enter data operation
2019.01.14 12:21:18   info : Xml obj_repo path C:\Talent_Automation_Framework_Backup\Project_Talent/ObjectRepositories/BenefitAsia2_EE/EE_SimpliflexSG_Claims.xml
2019.01.14 12:21:18   info : xpath object successfully mapped!!
2019.01.14 12:21:18   info : xpath object contains property value !!
2019.01.14 12:21:18   info : Property name - xpath
2019.01.14 12:21:18   info : Property value - //input[contains(@id,"_ClaimsSubmit_ClaimSubmitControlV2_txtReceiptAmount")]
2019.01.14 12:21:18   info : Finding xpath element on webpage..
2019.01.14 12:21:18   info : Searching for element. Try number 0
2019.01.14 12:21:18   info : element disappeared after trying for 1 times
2019.01.14 12:21:19   info : Current WebDriver Win Count is:: 1
2019.01.14 12:21:19   info : Element found!!
2019.01.14 12:21:19   info : Xml obj_repo path C:\Talent_Automation_Framework_Backup\Project_Talent/ObjectRepositories/BenefitAsia2_EE/EE_SimpliflexSG_Claims.xml
2019.01.14 12:21:19   info : xpath object successfully mapped!!
2019.01.14 12:21:19   info : xpath object contains property value !!
2019.01.14 12:21:19   info : Property name - xpath
2019.01.14 12:21:19   info : Property value - //input[contains(@id,"_ClaimsSubmit_ClaimSubmitControlV2_txtReceiptAmount")]
2019.01.14 12:21:19   info : Finding xpath element on webpage..
2019.01.14 12:21:19   info : Searching for element. Try number 0
2019.01.14 12:21:19   info : element disappeared after trying for 1 times
2019.01.14 12:21:20   info : Current WebDriver Win Count is:: 1
2019.01.14 12:21:20   info : Element found!!
2019.01.14 12:21:20   info : ValueToEnter 10
2019.01.14 12:21:20   info : Entered value is 10
2019.01.14 12:21:20   info : Attribute entered value 10
2019.01.14 12:21:21   info : Current WebDriver Win Count is:: 1
2019.01.14 12:21:21   info : restult status : 1
2019.01.14 12:21:21   info : Test ID TC2 : previous test step/row 28 status is Passed and value of next test step/row is :: 29
2019.01.14 12:21:21   info : 

2019.01.14 12:21:21   info : -------------------- Executing Testcase ID TC2 and test step : 29 ---------------------- 
2019.01.14 12:21:23   info : Current WebDriver Win Count is:: 1
2019.01.14 12:21:23   info : page object present in excel : 1
2019.01.14 12:21:23   info : Under single object handle operation!!
2019.01.14 12:21:23   info : col 6 data : javascript_click and col 5 data : AttachFile
2019.01.14 12:21:23   info : Click case operation !!
2019.01.14 12:21:23   info : oprnm javascript_click
2019.01.14 12:21:23   info : click javascript_click operation perfomred!!
2019.01.14 12:21:23   info : Xml obj_repo path C:\Talent_Automation_Framework_Backup\Project_Talent/ObjectRepositories/BenefitAsia2_EE/EE_SimpliflexSG_Claims.xml
2019.01.14 12:21:23   info : xpath object successfully mapped!!
2019.01.14 12:21:23   info : xpath object contains property value !!
2019.01.14 12:21:23   info : Property name - xpath
2019.01.14 12:21:23   info : Property value - //*[contains(@id,"_ClaimsSubmit_ClaimSubmitControlV2_AttachFiles_File1")]
2019.01.14 12:21:23   info : Finding xpath element on webpage..
2019.01.14 12:21:23   info : Searching for element. Try number 0
2019.01.14 12:21:23   info : element disappeared after trying for 1 times
2019.01.14 12:21:24   info : Current WebDriver Win Count is:: 1
2019.01.14 12:21:24   info : Element found!!
2019.01.14 12:21:25   info : Current WebDriver Win Count is:: 1
2019.01.14 12:21:25   info : restult status : 1
2019.01.14 12:21:25   info : Test ID TC2 : previous test step/row 29 status is Passed and value of next test step/row is :: 30
2019.01.14 12:21:25   info : 

2019.01.14 12:21:25   info : -------------------- Executing Testcase ID TC2 and test step : 30 ---------------------- 
2019.01.14 12:21:26   info : Current WebDriver Win Count is:: 1
2019.01.14 12:21:37   info : Current WebDriver Win Count is:: 1
2019.01.14 12:21:42   info : restult status : 1
2019.01.14 12:21:42   info : Test ID TC2 : previous test step/row 30 status is Passed and value of next test step/row is :: 31
2019.01.14 12:21:42   info : 

2019.01.14 12:21:42   info : -------------------- Executing Testcase ID TC2 and test step : 31 ---------------------- 
2019.01.14 12:21:43   info : Current WebDriver Win Count is:: 1
2019.01.14 12:21:43   info : page object present in excel : 1
2019.01.14 12:21:43   info : Under single object handle operation!!
2019.01.14 12:21:43   info : col 6 data :  and col 5 data : ReadyToSubmitButton
2019.01.14 12:21:43   info : Normal click operation !!
2019.01.14 12:21:43   info : Checking for object in click
2019.01.14 12:21:43   info : Xml obj_repo path C:\Talent_Automation_Framework_Backup\Project_Talent/ObjectRepositories/BenefitAsia2_EE/EE_SimpliflexSG_Claims.xml
2019.01.14 12:21:43   info : xpath object successfully mapped!!
2019.01.14 12:21:43   info : xpath object contains property value !!
2019.01.14 12:21:43   info : Property name - xpath
2019.01.14 12:21:43   info : Property value - //*[contains(@id,"_ClaimsSubmit_ClaimSubmitControlV2_ready")]
2019.01.14 12:21:43   info : Finding xpath element on webpage..
2019.01.14 12:21:43   info : Searching for element. Try number 0
2019.01.14 12:21:43   info : element disappeared after trying for 1 times
2019.01.14 12:21:44   info : Current WebDriver Win Count is:: 1
2019.01.14 12:21:44   info : Element found!!
2019.01.14 12:21:44   info : Xml obj_repo path C:\Talent_Automation_Framework_Backup\Project_Talent/ObjectRepositories/BenefitAsia2_EE/EE_SimpliflexSG_Claims.xml
2019.01.14 12:21:44   info : xpath object successfully mapped!!
2019.01.14 12:21:44   info : xpath object contains property value !!
2019.01.14 12:21:44   info : Property name - xpath
2019.01.14 12:21:44   info : Property value - //*[contains(@id,"_ClaimsSubmit_ClaimSubmitControlV2_ready")]
2019.01.14 12:21:44   info : Finding xpath element on webpage..
2019.01.14 12:21:44   info : Searching for element. Try number 0
2019.01.14 12:21:44   info : element disappeared after trying for 1 times
2019.01.14 12:21:45   info : Current WebDriver Win Count is:: 1
2019.01.14 12:21:45   info : Element found!!
2019.01.14 12:21:45   info : clicked on ReadyToSubmitButton
2019.01.14 12:21:46   info : Current WebDriver Win Count is:: 1
2019.01.14 12:21:46   info : restult status : 1
2019.01.14 12:21:46   info : Test ID TC2 : previous test step/row 31 status is Passed and value of next test step/row is :: 32
2019.01.14 12:21:46   info : 

2019.01.14 12:21:46   info : -------------------- Executing Testcase ID TC2 and test step : 32 ---------------------- 
2019.01.14 12:21:48   info : Current WebDriver Win Count is:: 1
2019.01.14 12:21:48   info : page object present in excel : 1
2019.01.14 12:21:48   info : Under single object handle operation!!
2019.01.14 12:21:48   info : col 6 data :  and col 5 data : ConfirmClaimButton
2019.01.14 12:21:48   info : Normal click operation !!
2019.01.14 12:21:48   info : Checking for object in click
2019.01.14 12:21:48   info : Xml obj_repo path C:\Talent_Automation_Framework_Backup\Project_Talent/ObjectRepositories/BenefitAsia2_EE/EE_SimpliflexSG_Claims.xml
2019.01.14 12:21:48   info : xpath object successfully mapped!!
2019.01.14 12:21:48   info : xpath object contains property value !!
2019.01.14 12:21:48   info : Property name - xpath
2019.01.14 12:21:48   info : Property value - //input[contains(@id,"ClaimsSubmit_ClaimSubmissionListV2_btnConfirmClaims")]
2019.01.14 12:21:48   info : Finding xpath element on webpage..
2019.01.14 12:21:48   info : Searching for element. Try number 0
2019.01.14 12:21:48   info : element disappeared after trying for 1 times
2019.01.14 12:21:49   info : Current WebDriver Win Count is:: 1
2019.01.14 12:21:54   info : Element found!!
2019.01.14 12:21:54   info : Xml obj_repo path C:\Talent_Automation_Framework_Backup\Project_Talent/ObjectRepositories/BenefitAsia2_EE/EE_SimpliflexSG_Claims.xml
2019.01.14 12:21:54   info : xpath object successfully mapped!!
2019.01.14 12:21:54   info : xpath object contains property value !!
2019.01.14 12:21:54   info : Property name - xpath
2019.01.14 12:21:54   info : Property value - //input[contains(@id,"ClaimsSubmit_ClaimSubmissionListV2_btnConfirmClaims")]
2019.01.14 12:21:54   info : Finding xpath element on webpage..
2019.01.14 12:21:54   info : Searching for element. Try number 0
2019.01.14 12:21:54   info : element disappeared after trying for 1 times
2019.01.14 12:21:55   info : Current WebDriver Win Count is:: 1
2019.01.14 12:21:55   info : Element found!!
2019.01.14 12:21:55   info : clicked on ConfirmClaimButton
2019.01.14 12:21:56   info : Current WebDriver Win Count is:: 1
2019.01.14 12:21:56   info : restult status : 1
2019.01.14 12:21:57   info : Test ID TC2 : previous test step/row 32 status is Passed and value of next test step/row is :: 33
2019.01.14 12:21:57   info : 

2019.01.14 12:21:57   info : -------------------- Executing Testcase ID TC2 and test step : 33 ---------------------- 
2019.01.14 12:21:58   info : Current WebDriver Win Count is:: 1
2019.01.14 12:21:58   info : page object present in excel : 1
2019.01.14 12:21:58   info : Under single object handle operation!!
2019.01.14 12:21:58   info : col 6 data :  and col 5 data : confirmButton_popup
2019.01.14 12:21:58   info : Normal click operation !!
2019.01.14 12:21:58   info : Checking for object in click
2019.01.14 12:21:58   info : Xml obj_repo path C:\Talent_Automation_Framework_Backup\Project_Talent/ObjectRepositories/BenefitAsia2_EE/EE_SimpliflexSG_Claims.xml
2019.01.14 12:21:58   info : xpath object successfully mapped!!
2019.01.14 12:21:58   info : xpath object contains property value !!
2019.01.14 12:21:58   info : Property name - xpath
2019.01.14 12:21:58   info : Property value - //*[@id="confirmButton"]
2019.01.14 12:21:58   info : Finding xpath element on webpage..
2019.01.14 12:21:58   info : Searching for element. Try number 0
2019.01.14 12:21:58   info : element disappeared after trying for 1 times
2019.01.14 12:21:59   info : Current WebDriver Win Count is:: 1
2019.01.14 12:21:59   info : Element found!!
2019.01.14 12:21:59   info : Xml obj_repo path C:\Talent_Automation_Framework_Backup\Project_Talent/ObjectRepositories/BenefitAsia2_EE/EE_SimpliflexSG_Claims.xml
2019.01.14 12:21:59   info : xpath object successfully mapped!!
2019.01.14 12:21:59   info : xpath object contains property value !!
2019.01.14 12:21:59   info : Property name - xpath
2019.01.14 12:21:59   info : Property value - //*[@id="confirmButton"]
2019.01.14 12:21:59   info : Finding xpath element on webpage..
2019.01.14 12:21:59   info : Searching for element. Try number 0
2019.01.14 12:21:59   info : element disappeared after trying for 1 times
2019.01.14 12:22:00   info : Current WebDriver Win Count is:: 1
2019.01.14 12:22:00   info : Element found!!
2019.01.14 12:22:00   info : clicked on confirmButton_popup
2019.01.14 12:22:01   info : Current WebDriver Win Count is:: 1
2019.01.14 12:22:01   info : restult status : 1
2019.01.14 12:22:01   info : Test ID TC2 : previous test step/row 33 status is Passed and value of next test step/row is :: 34
2019.01.14 12:22:01   info : 

2019.01.14 12:22:01   info : -------------------- Executing Testcase ID TC2 and test step : 34 ---------------------- 
2019.01.14 12:22:03   info : Current WebDriver Win Count is:: 1
2019.01.14 12:22:03   info : page object present in excel : 1
2019.01.14 12:22:03   info : Under single object handle operation!!
2019.01.14 12:22:03   info : col 6 data :  and col 5 data : ClaimSearchButton
2019.01.14 12:22:03   info : Normal click operation !!
2019.01.14 12:22:03   info : Checking for object in click
2019.01.14 12:22:03   info : Xml obj_repo path C:\Talent_Automation_Framework_Backup\Project_Talent/ObjectRepositories/BenefitAsia2_EE/EE_SimpliflexSG_Claims.xml
2019.01.14 12:22:03   info : xpath object successfully mapped!!
2019.01.14 12:22:03   info : xpath object contains property value !!
2019.01.14 12:22:03   info : Property name - xpath
2019.01.14 12:22:03   info : Property value - //*[contains(@id,"_ClaimsSearch_btnSearchNew")]
2019.01.14 12:22:03   info : Finding xpath element on webpage..
2019.01.14 12:22:03   info : Searching for element. Try number 0
2019.01.14 12:22:03   info : element disappeared after trying for 1 times
2019.01.14 12:22:04   info : Current WebDriver Win Count is:: 1
2019.01.14 12:22:04   info : Element found!!
2019.01.14 12:22:04   info : Xml obj_repo path C:\Talent_Automation_Framework_Backup\Project_Talent/ObjectRepositories/BenefitAsia2_EE/EE_SimpliflexSG_Claims.xml
2019.01.14 12:22:04   info : xpath object successfully mapped!!
2019.01.14 12:22:04   info : xpath object contains property value !!
2019.01.14 12:22:04   info : Property name - xpath
2019.01.14 12:22:04   info : Property value - //*[contains(@id,"_ClaimsSearch_btnSearchNew")]
2019.01.14 12:22:04   info : Finding xpath element on webpage..
2019.01.14 12:22:04   info : Searching for element. Try number 0
2019.01.14 12:22:04   info : element disappeared after trying for 1 times
2019.01.14 12:22:05   info : Current WebDriver Win Count is:: 1
2019.01.14 12:22:05   info : Element found!!
2019.01.14 12:22:05   info : clicked on ClaimSearchButton
2019.01.14 12:22:06   info : Current WebDriver Win Count is:: 1
2019.01.14 12:22:07   info : restult status : 1
2019.01.14 12:22:07   info : Test ID TC2 : previous test step/row 34 status is Passed and value of next test step/row is :: 35
2019.01.14 12:22:07   info : 

2019.01.14 12:22:07   info : -------------------- Executing Testcase ID TC2 and test step : 35 ---------------------- 
2019.01.14 12:22:08   info : Current WebDriver Win Count is:: 1
2019.01.14 12:22:08   info : Xml obj_repo path C:\Talent_Automation_Framework_Backup\Project_Talent/ObjectRepositories/BenefitAsia2_EE/EE_SimpliflexSG_Claims.xml
2019.01.14 12:22:08   info : xpath object successfully mapped!!
2019.01.14 12:22:08   info : xpath object contains property value !!
2019.01.14 12:22:08   info : Property name - xpath
2019.01.14 12:22:08   info : Property value - //*[contains(@id,"ClaimSubmittedListSummary_v2_page_section")]/table
2019.01.14 12:22:08   info : Finding xpath element on webpage..
2019.01.14 12:22:08   info : Searching for element. Try number 0
2019.01.14 12:22:09   info : element disappeared after trying for 1 times
2019.01.14 12:22:10   info : Current WebDriver Win Count is:: 1
