2019.01.14 12:28:26   info : Selenium version :: 2.48.2
2019.01.14 12:28:26   info : Download fodler path created!!
2019.01.14 12:28:26   info : date_time_down_folder C:\Talent_Automation_Framework_Backup\Project_Talent\Downloads\2019_01_14\time_12_28_26\
2019.01.14 12:28:26   info : Total number of applications :: 4
2019.01.14 12:28:26   info : Application Name - Latest_Simp
2019.01.14 12:28:26   info : TestData_Sheet path:: C:\Talent_Automation_Framework_Backup\Project_Talent/TestCases/Latest_Simp.xlsx
2019.01.14 12:28:26   info : CSV updating and creating dump....
2019.01.14 12:28:28   info : Sheet name: Scenarios
2019.01.14 12:28:28   info : Sheet name: TestCaseScheduler
2019.01.14 12:28:28   info : Sheet name: Test Case
2019.01.14 12:28:28   info : Latest_Simp sheetname found!!
2019.01.14 12:28:28   info : Total row 834
2019.01.14 12:28:28   info : After row validation for blank or null!!
2019.01.14 12:28:28   info : Total final row 833
2019.01.14 12:28:28   info : Total number of test cases to be executed :: 1
2019.01.14 12:28:28   info : PrevTestID - null == null && row 24<= 833
2019.01.14 12:28:28   info : Test ID TC2 : previous test step/row 23 status is Passed and value of next test step/row is :: 24
2019.01.14 12:28:28   info : 

2019.01.14 12:28:28   info : -------------------- Executing Testcase ID TC2 and test step : 24 ---------------------- 
2019.01.14 12:28:29   info : please wait.. browser getting open !!
2019.01.14 12:28:40   info : Opening Application..
2019.01.14 12:28:50   info : Current WebDriver Win Count is:: 1
2019.01.14 12:28:50   info : restult status : 1
2019.01.14 12:28:51   info : Test ID TC2 : previous test step/row 24 status is Passed and value of next test step/row is :: 25
2019.01.14 12:28:51   info : 

2019.01.14 12:28:51   info : -------------------- Executing Testcase ID TC2 and test step : 25 ---------------------- 
2019.01.14 12:28:52   info : Current WebDriver Win Count is:: 1
2019.01.14 12:28:52   info : Xml obj_repo path C:\Talent_Automation_Framework_Backup\Project_Talent/ObjectRepositories/BenefitAsia2_EE/EE_SimpliflexSG_LoginLogout.xml
2019.01.14 12:28:52   info : Title contains null value in xml!!
2019.01.14 12:28:52   info : Window title User Login
2019.01.14 12:28:52   info : Xml obj_repo path C:\Talent_Automation_Framework_Backup\Project_Talent/ObjectRepositories/BenefitAsia2_EE/EE_SimpliflexSG_LoginLogout.xml
2019.01.14 12:28:52   info : xpath object successfully mapped!!
2019.01.14 12:28:52   info : xpath object contains property value !!
2019.01.14 12:28:52   info : Property name - xpath
2019.01.14 12:28:52   info : Property value - //input[contains(@id,"_txtUsername")]
2019.01.14 12:28:52   info : Finding xpath element on webpage..
2019.01.14 12:28:52   info : Searching for element. Try number 0
2019.01.14 12:28:53   info : element disappeared after trying for 1 times
2019.01.14 12:28:54   info : Current WebDriver Win Count is:: 1
2019.01.14 12:28:54   info : Element found!!
2019.01.14 12:28:54   info : Desired window is activated!!
2019.01.14 12:28:54   info : FiledName UserName and FiledValue Simpli_10jan_001
2019.01.14 12:28:54   info : FiledName Password and FiledValue Password123$
2019.01.14 12:28:54   info : Total static wait time 3
2019.01.14 12:28:57   info : Xml obj_repo path C:\Talent_Automation_Framework_Backup\Project_Talent/ObjectRepositories/BenefitAsia2_EE/EE_SimpliflexSG_LoginLogout.xml
2019.01.14 12:28:57   info : xpath object successfully mapped!!
2019.01.14 12:28:57   info : xpath object contains property value !!
2019.01.14 12:28:57   info : Property name - xpath
2019.01.14 12:28:57   info : Property value - //input[contains(@id,"_txtUsername")]
2019.01.14 12:28:57   info : Finding xpath element on webpage..
2019.01.14 12:28:57   info : Searching for element. Try number 0
2019.01.14 12:28:58   info : element disappeared after trying for 1 times
2019.01.14 12:28:59   info : Current WebDriver Win Count is:: 1
2019.01.14 12:28:59   info : Element found!!
2019.01.14 12:28:59   info : ObjectTag input and ObjectType text
2019.01.14 12:28:59   info : Enter data operation
2019.01.14 12:29:00   info : Xml obj_repo path C:\Talent_Automation_Framework_Backup\Project_Talent/ObjectRepositories/BenefitAsia2_EE/EE_SimpliflexSG_LoginLogout.xml
2019.01.14 12:29:00   info : xpath object successfully mapped!!
2019.01.14 12:29:00   info : xpath object contains property value !!
2019.01.14 12:29:00   info : Property name - xpath
2019.01.14 12:29:00   info : Property value - //input[contains(@id,"_txtUsername")]
2019.01.14 12:29:00   info : Finding xpath element on webpage..
2019.01.14 12:29:00   info : Searching for element. Try number 0
2019.01.14 12:29:01   info : element disappeared after trying for 1 times
2019.01.14 12:29:02   info : Current WebDriver Win Count is:: 1
2019.01.14 12:29:02   info : Element found!!
2019.01.14 12:29:02   info : Xml obj_repo path C:\Talent_Automation_Framework_Backup\Project_Talent/ObjectRepositories/BenefitAsia2_EE/EE_SimpliflexSG_LoginLogout.xml
2019.01.14 12:29:02   info : xpath object successfully mapped!!
2019.01.14 12:29:02   info : xpath object contains property value !!
2019.01.14 12:29:02   info : Property name - xpath
2019.01.14 12:29:02   info : Property value - //input[contains(@id,"_txtUsername")]
2019.01.14 12:29:02   info : Finding xpath element on webpage..
2019.01.14 12:29:02   info : Searching for element. Try number 0
2019.01.14 12:29:03   info : element disappeared after trying for 1 times
2019.01.14 12:29:04   info : Current WebDriver Win Count is:: 1
2019.01.14 12:29:04   info : Element found!!
2019.01.14 12:29:04   info : ValueToEnter Simpli_10jan_001
2019.01.14 12:29:04   info : Entered value is Simpli_10jan_001
2019.01.14 12:29:04   info : Attribute entered value Simpli_10jan_001
2019.01.14 12:29:04   info : Total static wait time 3
2019.01.14 12:29:07   info : Xml obj_repo path C:\Talent_Automation_Framework_Backup\Project_Talent/ObjectRepositories/BenefitAsia2_EE/EE_SimpliflexSG_LoginLogout.xml
2019.01.14 12:29:07   info : xpath object successfully mapped!!
2019.01.14 12:29:07   info : xpath object contains property value !!
2019.01.14 12:29:07   info : Property name - xpath
2019.01.14 12:29:07   info : Property value - //input[contains(@id,"_txtPassword")]
2019.01.14 12:29:07   info : Finding xpath element on webpage..
2019.01.14 12:29:07   info : Searching for element. Try number 0
2019.01.14 12:29:08   info : element disappeared after trying for 1 times
2019.01.14 12:29:09   info : Current WebDriver Win Count is:: 1
2019.01.14 12:29:09   info : Element found!!
2019.01.14 12:29:09   info : ObjectTag input and ObjectType password
2019.01.14 12:29:09   info : Enter data operation
2019.01.14 12:29:09   info : Xml obj_repo path C:\Talent_Automation_Framework_Backup\Project_Talent/ObjectRepositories/BenefitAsia2_EE/EE_SimpliflexSG_LoginLogout.xml
2019.01.14 12:29:09   info : xpath object successfully mapped!!
2019.01.14 12:29:09   info : xpath object contains property value !!
2019.01.14 12:29:09   info : Property name - xpath
2019.01.14 12:29:09   info : Property value - //input[contains(@id,"_txtPassword")]
2019.01.14 12:29:09   info : Finding xpath element on webpage..
2019.01.14 12:29:09   info : Searching for element. Try number 0
2019.01.14 12:29:10   info : element disappeared after trying for 1 times
2019.01.14 12:29:12   info : Current WebDriver Win Count is:: 1
2019.01.14 12:29:12   info : Element found!!
2019.01.14 12:29:12   info : ValueToEnter Password123$
2019.01.14 12:29:12   info : Entered value is Password123$
2019.01.14 12:29:12   info : Attribute entered value Password123$
2019.01.14 12:29:12   info : Checking for object in click
2019.01.14 12:29:12   info : Xml obj_repo path C:\Talent_Automation_Framework_Backup\Project_Talent/ObjectRepositories/BenefitAsia2_EE/EE_SimpliflexSG_LoginLogout.xml
2019.01.14 12:29:12   info : xpath object successfully mapped!!
2019.01.14 12:29:12   info : xpath object contains property value !!
2019.01.14 12:29:12   info : Property name - xpath
2019.01.14 12:29:12   info : Property value - //input[contains(@id,"_cmdLogin")]
2019.01.14 12:29:12   info : Finding xpath element on webpage..
2019.01.14 12:29:12   info : Searching for element. Try number 0
2019.01.14 12:29:13   info : element disappeared after trying for 1 times
2019.01.14 12:29:14   info : Current WebDriver Win Count is:: 1
2019.01.14 12:29:14   info : Element found!!
2019.01.14 12:29:14   info : Xml obj_repo path C:\Talent_Automation_Framework_Backup\Project_Talent/ObjectRepositories/BenefitAsia2_EE/EE_SimpliflexSG_LoginLogout.xml
2019.01.14 12:29:14   info : xpath object successfully mapped!!
2019.01.14 12:29:14   info : xpath object contains property value !!
2019.01.14 12:29:14   info : Property name - xpath
2019.01.14 12:29:14   info : Property value - //input[contains(@id,"_cmdLogin")]
2019.01.14 12:29:14   info : Finding xpath element on webpage..
2019.01.14 12:29:14   info : Searching for element. Try number 0
2019.01.14 12:29:15   info : element disappeared after trying for 1 times
2019.01.14 12:29:16   info : Current WebDriver Win Count is:: 1
2019.01.14 12:29:16   info : Element found!!
2019.01.14 12:29:20   info : clicked on LoginButton
2019.01.14 12:29:21   info : Current WebDriver Win Count is:: 1
2019.01.14 12:29:21   info : restult status : 1
2019.01.14 12:29:21   info : Test ID TC2 : previous test step/row 25 status is Passed and value of next test step/row is :: 26
2019.01.14 12:29:21   info : 

2019.01.14 12:29:21   info : -------------------- Executing Testcase ID TC2 and test step : 26 ---------------------- 
2019.01.14 12:29:22   info : Current WebDriver Win Count is:: 1
2019.01.14 12:29:22   info : Xml obj_repo path C:\Talent_Automation_Framework_Backup\Project_Talent/ObjectRepositories/BenefitAsia2_EE/EE_SimpliflexSG_Home.xml
2019.01.14 12:29:22   info : Title in xml file - SimpliflexSG > Home
2019.01.14 12:29:22   info : Title of the page after - switching window To: SimpliflexSG > Home
2019.01.14 12:29:22   info : Desired window is activated!!
2019.01.14 12:29:35   info : page object present in excel : 1
2019.01.14 12:29:35   info : Under single object handle operation!!
2019.01.14 12:29:35   info : col 6 data :  and col 5 data : CreateNewClaim
2019.01.14 12:29:35   info : Normal click operation !!
2019.01.14 12:29:35   info : Checking for object in click
2019.01.14 12:29:35   info : Xml obj_repo path C:\Talent_Automation_Framework_Backup\Project_Talent/ObjectRepositories/BenefitAsia2_EE/EE_SimpliflexSG_Home.xml
2019.01.14 12:29:35   info : xpath object successfully mapped!!
2019.01.14 12:29:35   info : xpath object contains property value !!
2019.01.14 12:29:35   info : Property name - xpath
2019.01.14 12:29:35   info : Property value - //a[contains(@id,"_BA2DashBoard_SUBMITCLAIM")]
2019.01.14 12:29:35   info : Finding xpath element on webpage..
2019.01.14 12:29:35   info : Searching for element. Try number 0
2019.01.14 12:29:36   info : element disappeared after trying for 1 times
2019.01.14 12:29:37   info : Current WebDriver Win Count is:: 1
2019.01.14 12:29:37   info : Element found!!
2019.01.14 12:29:37   info : Xml obj_repo path C:\Talent_Automation_Framework_Backup\Project_Talent/ObjectRepositories/BenefitAsia2_EE/EE_SimpliflexSG_Home.xml
2019.01.14 12:29:37   info : xpath object successfully mapped!!
2019.01.14 12:29:37   info : xpath object contains property value !!
2019.01.14 12:29:37   info : Property name - xpath
2019.01.14 12:29:37   info : Property value - //a[contains(@id,"_BA2DashBoard_SUBMITCLAIM")]
2019.01.14 12:29:37   info : Finding xpath element on webpage..
2019.01.14 12:29:37   info : Searching for element. Try number 0
2019.01.14 12:29:38   info : element disappeared after trying for 1 times
2019.01.14 12:29:39   info : Current WebDriver Win Count is:: 1
2019.01.14 12:29:39   info : Element found!!
2019.01.14 12:29:42   info : clicked on CreateNewClaim
2019.01.14 12:29:43   info : Current WebDriver Win Count is:: 1
2019.01.14 12:29:43   info : restult status : 1
2019.01.14 12:29:43   info : Test ID TC2 : previous test step/row 26 status is Passed and value of next test step/row is :: 27
2019.01.14 12:29:43   info : 

2019.01.14 12:29:43   info : -------------------- Executing Testcase ID TC2 and test step : 27 ---------------------- 
2019.01.14 12:29:44   info : Current WebDriver Win Count is:: 1
2019.01.14 12:29:44   info : Xml obj_repo path C:\Talent_Automation_Framework_Backup\Project_Talent/ObjectRepositories/BenefitAsia2_EE/EE_SimpliflexSG_Claims.xml
2019.01.14 12:29:44   info : Title in xml file - Create New Claim
2019.01.14 12:29:44   info : Title of the page after - switching window To: Create New Claim
2019.01.14 12:29:44   info : Desired window is activated!!
2019.01.14 12:29:44   info : Total static wait time 3
2019.01.14 12:29:47   info : Xml obj_repo path C:\Talent_Automation_Framework_Backup\Project_Talent/ObjectRepositories/BenefitAsia2_EE/EE_SimpliflexSG_Claims.xml
2019.01.14 12:29:47   info : xpath object successfully mapped!!
2019.01.14 12:29:47   info : xpath object contains property value !!
2019.01.14 12:29:47   info : Property name - xpath
2019.01.14 12:29:47   info : Property value - //*[contains(@id,"_ClaimsSubmit_ClaimSubmitControlV2_lstClaimantName")]
2019.01.14 12:29:47   info : Finding xpath element on webpage..
2019.01.14 12:29:47   info : Searching for element. Try number 0
2019.01.14 12:29:47   info : element disappeared after trying for 1 times
2019.01.14 12:29:48   info : Current WebDriver Win Count is:: 1
2019.01.14 12:29:48   info : Element found!!
2019.01.14 12:29:48   info : ObjectTag select and ObjectType null
2019.01.14 12:29:48   info : select combobox operation 
2019.01.14 12:29:48   info : Xml obj_repo path C:\Talent_Automation_Framework_Backup\Project_Talent/ObjectRepositories/BenefitAsia2_EE/EE_SimpliflexSG_Claims.xml
2019.01.14 12:29:48   info : xpath object successfully mapped!!
2019.01.14 12:29:48   info : xpath object contains property value !!
2019.01.14 12:29:48   info : Property name - xpath
2019.01.14 12:29:48   info : Property value - //*[contains(@id,"_ClaimsSubmit_ClaimSubmitControlV2_lstClaimantName")]
2019.01.14 12:29:48   info : Finding xpath element on webpage..
2019.01.14 12:29:48   info : Searching for element. Try number 0
2019.01.14 12:29:48   info : element disappeared after trying for 1 times
2019.01.14 12:29:49   info : Current WebDriver Win Count is:: 1
2019.01.14 12:29:49   info : Element found!!
2019.01.14 12:29:49   info : Xml obj_repo path C:\Talent_Automation_Framework_Backup\Project_Talent/ObjectRepositories/BenefitAsia2_EE/EE_SimpliflexSG_Claims.xml
2019.01.14 12:29:49   info : xpath object successfully mapped!!
2019.01.14 12:29:49   info : xpath object contains property value !!
2019.01.14 12:29:49   info : Property name - xpath
2019.01.14 12:29:49   info : Property value - //*[contains(@id,"_ClaimsSubmit_ClaimSubmitControlV2_lstClaimantName")]
2019.01.14 12:29:49   info : Finding xpath element on webpage..
2019.01.14 12:29:49   info : Element found!!
2019.01.14 12:29:49   info : Simpli_10jan_001 Value is already selected in dropdown!!
2019.01.14 12:29:50   info : Current WebDriver Win Count is:: 1
2019.01.14 12:29:50   info : restult status : 1
2019.01.14 12:29:51   info : Test ID TC2 : previous test step/row 27 status is Passed and value of next test step/row is :: 28
2019.01.14 12:29:51   info : 

2019.01.14 12:29:51   info : -------------------- Executing Testcase ID TC2 and test step : 28 ---------------------- 
2019.01.14 12:29:52   info : Current WebDriver Win Count is:: 1
2019.01.14 12:29:52   info : Total static wait time 3
2019.01.14 12:29:55   info : Xml obj_repo path C:\Talent_Automation_Framework_Backup\Project_Talent/ObjectRepositories/BenefitAsia2_EE/EE_SimpliflexSG_Claims.xml
2019.01.14 12:29:55   info : xpath object successfully mapped!!
2019.01.14 12:29:55   info : xpath object contains property value !!
2019.01.14 12:29:55   info : Property name - xpath
2019.01.14 12:29:55   info : Property value - //*[contains(@id,"_ClaimsSubmit_ClaimSubmitControlV2_lstClaimItemName")]
2019.01.14 12:29:55   info : Finding xpath element on webpage..
2019.01.14 12:29:55   info : Searching for element. Try number 0
2019.01.14 12:29:55   info : element disappeared after trying for 1 times
2019.01.14 12:29:56   info : Current WebDriver Win Count is:: 1
2019.01.14 12:29:56   info : Element found!!
2019.01.14 12:29:56   info : ObjectTag select and ObjectType null
2019.01.14 12:29:56   info : select combobox operation 
2019.01.14 12:29:56   info : Xml obj_repo path C:\Talent_Automation_Framework_Backup\Project_Talent/ObjectRepositories/BenefitAsia2_EE/EE_SimpliflexSG_Claims.xml
2019.01.14 12:29:56   info : xpath object successfully mapped!!
2019.01.14 12:29:56   info : xpath object contains property value !!
2019.01.14 12:29:56   info : Property name - xpath
2019.01.14 12:29:56   info : Property value - //*[contains(@id,"_ClaimsSubmit_ClaimSubmitControlV2_lstClaimItemName")]
2019.01.14 12:29:56   info : Finding xpath element on webpage..
2019.01.14 12:29:56   info : Searching for element. Try number 0
2019.01.14 12:29:56   info : element disappeared after trying for 1 times
2019.01.14 12:29:57   info : Current WebDriver Win Count is:: 1
2019.01.14 12:29:57   info : Element found!!
2019.01.14 12:29:57   info : Xml obj_repo path C:\Talent_Automation_Framework_Backup\Project_Talent/ObjectRepositories/BenefitAsia2_EE/EE_SimpliflexSG_Claims.xml
2019.01.14 12:29:57   info : xpath object successfully mapped!!
2019.01.14 12:29:57   info : xpath object contains property value !!
2019.01.14 12:29:57   info : Property name - xpath
2019.01.14 12:29:57   info : Property value - //*[contains(@id,"_ClaimsSubmit_ClaimSubmitControlV2_lstClaimItemName")]
2019.01.14 12:29:57   info : Finding xpath element on webpage..
2019.01.14 12:29:57   info : Element found!!
2019.01.14 12:29:58   info :    Child daycare expenses value selected!!
2019.01.14 12:30:00   info : Alert is not present
2019.01.14 12:30:00   info : Total static wait time 3
2019.01.14 12:30:03   info : Xml obj_repo path C:\Talent_Automation_Framework_Backup\Project_Talent/ObjectRepositories/BenefitAsia2_EE/EE_SimpliflexSG_Claims.xml
2019.01.14 12:30:03   info : xpath object successfully mapped!!
2019.01.14 12:30:03   info : xpath object contains property value !!
2019.01.14 12:30:03   info : Property name - xpath
2019.01.14 12:30:03   info : Property value - //*[contains(@id,"_ClaimsSubmit_ClaimSubmitControlV2_txtProviderName")]
2019.01.14 12:30:03   info : Finding xpath element on webpage..
2019.01.14 12:30:03   info : Searching for element. Try number 0
2019.01.14 12:30:03   info : element disappeared after trying for 1 times
2019.01.14 12:30:04   info : Current WebDriver Win Count is:: 1
2019.01.14 12:30:04   info : Element found!!
2019.01.14 12:30:04   info : ObjectTag input and ObjectType text
2019.01.14 12:30:04   info : Enter data operation
2019.01.14 12:30:04   info : Xml obj_repo path C:\Talent_Automation_Framework_Backup\Project_Talent/ObjectRepositories/BenefitAsia2_EE/EE_SimpliflexSG_Claims.xml
2019.01.14 12:30:04   info : xpath object successfully mapped!!
2019.01.14 12:30:04   info : xpath object contains property value !!
2019.01.14 12:30:04   info : Property name - xpath
2019.01.14 12:30:04   info : Property value - //*[contains(@id,"_ClaimsSubmit_ClaimSubmitControlV2_txtProviderName")]
2019.01.14 12:30:04   info : Finding xpath element on webpage..
2019.01.14 12:30:04   info : Searching for element. Try number 0
2019.01.14 12:30:04   info : element disappeared after trying for 1 times
2019.01.14 12:30:05   info : Current WebDriver Win Count is:: 1
2019.01.14 12:30:05   info : Element found!!
2019.01.14 12:30:05   info : Xml obj_repo path C:\Talent_Automation_Framework_Backup\Project_Talent/ObjectRepositories/BenefitAsia2_EE/EE_SimpliflexSG_Claims.xml
2019.01.14 12:30:05   info : xpath object successfully mapped!!
2019.01.14 12:30:05   info : xpath object contains property value !!
2019.01.14 12:30:05   info : Property name - xpath
2019.01.14 12:30:05   info : Property value - //*[contains(@id,"_ClaimsSubmit_ClaimSubmitControlV2_txtProviderName")]
2019.01.14 12:30:05   info : Finding xpath element on webpage..
2019.01.14 12:30:05   info : Searching for element. Try number 0
2019.01.14 12:30:05   info : element disappeared after trying for 1 times
2019.01.14 12:30:06   info : Current WebDriver Win Count is:: 1
2019.01.14 12:30:06   info : Element found!!
2019.01.14 12:30:06   info : ValueToEnter Provider38
2019.01.14 12:30:07   info : Entered value is Provider38
2019.01.14 12:30:07   info : Attribute entered value Provider38
2019.01.14 12:30:07   info : Total static wait time 3
2019.01.14 12:30:10   info : Xml obj_repo path C:\Talent_Automation_Framework_Backup\Project_Talent/ObjectRepositories/BenefitAsia2_EE/EE_SimpliflexSG_Claims.xml
2019.01.14 12:30:10   info : xpath object successfully mapped!!
2019.01.14 12:30:10   info : xpath object contains property value !!
2019.01.14 12:30:10   info : Property name - xpath
2019.01.14 12:30:10   info : Property value - //input[contains(@id,"_ClaimsSubmit_ClaimSubmitControlV2_txtReceiptDate")]
2019.01.14 12:30:10   info : Finding xpath element on webpage..
2019.01.14 12:30:10   info : Searching for element. Try number 0
2019.01.14 12:30:10   info : element disappeared after trying for 1 times
2019.01.14 12:30:11   info : Current WebDriver Win Count is:: 1
2019.01.14 12:30:11   info : Element found!!
2019.01.14 12:30:11   info : ObjectTag input and ObjectType text
2019.01.14 12:30:11   info : Enter data operation
2019.01.14 12:30:11   info : Xml obj_repo path C:\Talent_Automation_Framework_Backup\Project_Talent/ObjectRepositories/BenefitAsia2_EE/EE_SimpliflexSG_Claims.xml
2019.01.14 12:30:11   info : xpath object successfully mapped!!
2019.01.14 12:30:11   info : xpath object contains property value !!
2019.01.14 12:30:11   info : Property name - xpath
2019.01.14 12:30:11   info : Property value - //input[contains(@id,"_ClaimsSubmit_ClaimSubmitControlV2_txtReceiptDate")]
2019.01.14 12:30:11   info : Finding xpath element on webpage..
2019.01.14 12:30:11   info : Searching for element. Try number 0
2019.01.14 12:30:11   info : element disappeared after trying for 1 times
2019.01.14 12:30:12   info : Current WebDriver Win Count is:: 1
2019.01.14 12:30:12   info : Element found!!
2019.01.14 12:30:12   info : Xml obj_repo path C:\Talent_Automation_Framework_Backup\Project_Talent/ObjectRepositories/BenefitAsia2_EE/EE_SimpliflexSG_Claims.xml
2019.01.14 12:30:12   info : xpath object successfully mapped!!
2019.01.14 12:30:12   info : xpath object contains property value !!
2019.01.14 12:30:12   info : Property name - xpath
2019.01.14 12:30:12   info : Property value - //input[contains(@id,"_ClaimsSubmit_ClaimSubmitControlV2_txtReceiptDate")]
2019.01.14 12:30:12   info : Finding xpath element on webpage..
2019.01.14 12:30:12   info : Searching for element. Try number 0
2019.01.14 12:30:12   info : element disappeared after trying for 1 times
2019.01.14 12:30:13   info : Current WebDriver Win Count is:: 1
2019.01.14 12:30:13   info : Element found!!
2019.01.14 12:30:13   info : ValueToEnter 14/Jan/2019
2019.01.14 12:30:13   info : Entered value is 14/Jan/2019
2019.01.14 12:30:13   info : Attribute entered value 14/Jan/2019
2019.01.14 12:30:13   info : Total static wait time 3
2019.01.14 12:30:16   info : Xml obj_repo path C:\Talent_Automation_Framework_Backup\Project_Talent/ObjectRepositories/BenefitAsia2_EE/EE_SimpliflexSG_Claims.xml
2019.01.14 12:30:16   info : xpath object successfully mapped!!
2019.01.14 12:30:16   info : xpath object contains property value !!
2019.01.14 12:30:16   info : Property name - xpath
2019.01.14 12:30:16   info : Property value - //input[contains(@id,"_ClaimsSubmit_ClaimSubmitControlV2_txtReceiptNo")]
2019.01.14 12:30:16   info : Finding xpath element on webpage..
2019.01.14 12:30:16   info : Searching for element. Try number 0
2019.01.14 12:30:16   info : element disappeared after trying for 1 times
2019.01.14 12:30:17   info : Current WebDriver Win Count is:: 1
2019.01.14 12:30:17   info : Element found!!
2019.01.14 12:30:17   info : ObjectTag input and ObjectType text
2019.01.14 12:30:17   info : Enter data operation
2019.01.14 12:30:17   info : Xml obj_repo path C:\Talent_Automation_Framework_Backup\Project_Talent/ObjectRepositories/BenefitAsia2_EE/EE_SimpliflexSG_Claims.xml
2019.01.14 12:30:17   info : xpath object successfully mapped!!
2019.01.14 12:30:17   info : xpath object contains property value !!
2019.01.14 12:30:17   info : Property name - xpath
2019.01.14 12:30:17   info : Property value - //input[contains(@id,"_ClaimsSubmit_ClaimSubmitControlV2_txtReceiptNo")]
2019.01.14 12:30:17   info : Finding xpath element on webpage..
2019.01.14 12:30:17   info : Searching for element. Try number 0
2019.01.14 12:30:17   info : element disappeared after trying for 1 times
2019.01.14 12:30:18   info : Current WebDriver Win Count is:: 1
2019.01.14 12:30:18   info : Element found!!
2019.01.14 12:30:18   info : Xml obj_repo path C:\Talent_Automation_Framework_Backup\Project_Talent/ObjectRepositories/BenefitAsia2_EE/EE_SimpliflexSG_Claims.xml
2019.01.14 12:30:18   info : xpath object successfully mapped!!
2019.01.14 12:30:18   info : xpath object contains property value !!
2019.01.14 12:30:18   info : Property name - xpath
2019.01.14 12:30:18   info : Property value - //input[contains(@id,"_ClaimsSubmit_ClaimSubmitControlV2_txtReceiptNo")]
2019.01.14 12:30:18   info : Finding xpath element on webpage..
2019.01.14 12:30:18   info : Searching for element. Try number 0
2019.01.14 12:30:18   info : element disappeared after trying for 1 times
2019.01.14 12:30:19   info : Current WebDriver Win Count is:: 1
2019.01.14 12:30:19   info : Element found!!
2019.01.14 12:30:19   info : ValueToEnter Receipt26
2019.01.14 12:30:19   info : Entered value is Receipt26
2019.01.14 12:30:19   info : Attribute entered value Receipt26
2019.01.14 12:30:19   info : Total static wait time 3
2019.01.14 12:30:22   info : Xml obj_repo path C:\Talent_Automation_Framework_Backup\Project_Talent/ObjectRepositories/BenefitAsia2_EE/EE_SimpliflexSG_Claims.xml
2019.01.14 12:30:22   info : xpath object successfully mapped!!
2019.01.14 12:30:22   info : xpath object contains property value !!
2019.01.14 12:30:22   info : Property name - xpath
2019.01.14 12:30:22   info : Property value - //input[contains(@id,"_ClaimsSubmit_ClaimSubmitControlV2_txtReceiptAmount")]
2019.01.14 12:30:22   info : Finding xpath element on webpage..
2019.01.14 12:30:22   info : Searching for element. Try number 0
2019.01.14 12:30:22   info : element disappeared after trying for 1 times
2019.01.14 12:30:23   info : Current WebDriver Win Count is:: 1
2019.01.14 12:30:23   info : Element found!!
2019.01.14 12:30:23   info : ObjectTag input and ObjectType text
2019.01.14 12:30:23   info : Enter data operation
2019.01.14 12:30:23   info : Xml obj_repo path C:\Talent_Automation_Framework_Backup\Project_Talent/ObjectRepositories/BenefitAsia2_EE/EE_SimpliflexSG_Claims.xml
2019.01.14 12:30:23   info : xpath object successfully mapped!!
2019.01.14 12:30:23   info : xpath object contains property value !!
2019.01.14 12:30:23   info : Property name - xpath
2019.01.14 12:30:23   info : Property value - //input[contains(@id,"_ClaimsSubmit_ClaimSubmitControlV2_txtReceiptAmount")]
2019.01.14 12:30:23   info : Finding xpath element on webpage..
2019.01.14 12:30:23   info : Searching for element. Try number 0
2019.01.14 12:30:23   info : element disappeared after trying for 1 times
2019.01.14 12:30:24   info : Current WebDriver Win Count is:: 1
2019.01.14 12:30:24   info : Element found!!
2019.01.14 12:30:24   info : Xml obj_repo path C:\Talent_Automation_Framework_Backup\Project_Talent/ObjectRepositories/BenefitAsia2_EE/EE_SimpliflexSG_Claims.xml
2019.01.14 12:30:24   info : xpath object successfully mapped!!
2019.01.14 12:30:24   info : xpath object contains property value !!
2019.01.14 12:30:24   info : Property name - xpath
2019.01.14 12:30:24   info : Property value - //input[contains(@id,"_ClaimsSubmit_ClaimSubmitControlV2_txtReceiptAmount")]
2019.01.14 12:30:24   info : Finding xpath element on webpage..
2019.01.14 12:30:24   info : Searching for element. Try number 0
2019.01.14 12:30:24   info : element disappeared after trying for 1 times
2019.01.14 12:30:25   info : Current WebDriver Win Count is:: 1
2019.01.14 12:30:25   info : Element found!!
2019.01.14 12:30:25   info : ValueToEnter 10
2019.01.14 12:30:25   info : Entered value is 10
2019.01.14 12:30:25   info : Attribute entered value 10
2019.01.14 12:30:26   info : Current WebDriver Win Count is:: 1
2019.01.14 12:30:26   info : restult status : 1
2019.01.14 12:30:27   info : Test ID TC2 : previous test step/row 28 status is Passed and value of next test step/row is :: 29
2019.01.14 12:30:27   info : 

2019.01.14 12:30:27   info : -------------------- Executing Testcase ID TC2 and test step : 29 ---------------------- 
2019.01.14 12:30:28   info : Current WebDriver Win Count is:: 1
2019.01.14 12:30:28   info : page object present in excel : 1
2019.01.14 12:30:28   info : Under single object handle operation!!
2019.01.14 12:30:28   info : col 6 data : javascript_click and col 5 data : AttachFile
2019.01.14 12:30:28   info : Click case operation !!
2019.01.14 12:30:28   info : oprnm javascript_click
2019.01.14 12:30:28   info : click javascript_click operation perfomred!!
2019.01.14 12:30:28   info : Xml obj_repo path C:\Talent_Automation_Framework_Backup\Project_Talent/ObjectRepositories/BenefitAsia2_EE/EE_SimpliflexSG_Claims.xml
2019.01.14 12:30:28   info : xpath object successfully mapped!!
2019.01.14 12:30:28   info : xpath object contains property value !!
2019.01.14 12:30:28   info : Property name - xpath
2019.01.14 12:30:28   info : Property value - //*[contains(@id,"_ClaimsSubmit_ClaimSubmitControlV2_AttachFiles_File1")]
2019.01.14 12:30:28   info : Finding xpath element on webpage..
2019.01.14 12:30:28   info : Searching for element. Try number 0
2019.01.14 12:30:28   info : element disappeared after trying for 1 times
2019.01.14 12:30:29   info : Current WebDriver Win Count is:: 1
2019.01.14 12:30:29   info : Element found!!
2019.01.14 12:30:30   info : Current WebDriver Win Count is:: 1
2019.01.14 12:30:30   info : restult status : 1
2019.01.14 12:30:30   info : Test ID TC2 : previous test step/row 29 status is Passed and value of next test step/row is :: 30
2019.01.14 12:30:30   info : 

2019.01.14 12:30:30   info : -------------------- Executing Testcase ID TC2 and test step : 30 ---------------------- 
2019.01.14 12:30:31   info : Current WebDriver Win Count is:: 1
2019.01.14 12:30:43   info : Current WebDriver Win Count is:: 1
2019.01.14 12:30:47   info : restult status : 1
2019.01.14 12:30:47   info : Test ID TC2 : previous test step/row 30 status is Passed and value of next test step/row is :: 31
2019.01.14 12:30:47   info : 

2019.01.14 12:30:47   info : -------------------- Executing Testcase ID TC2 and test step : 31 ---------------------- 
2019.01.14 12:30:48   info : Current WebDriver Win Count is:: 1
2019.01.14 12:30:48   info : page object present in excel : 1
2019.01.14 12:30:48   info : Under single object handle operation!!
2019.01.14 12:30:48   info : col 6 data :  and col 5 data : ReadyToSubmitButton
2019.01.14 12:30:48   info : Normal click operation !!
2019.01.14 12:30:48   info : Checking for object in click
2019.01.14 12:30:48   info : Xml obj_repo path C:\Talent_Automation_Framework_Backup\Project_Talent/ObjectRepositories/BenefitAsia2_EE/EE_SimpliflexSG_Claims.xml
2019.01.14 12:30:48   info : xpath object successfully mapped!!
2019.01.14 12:30:48   info : xpath object contains property value !!
2019.01.14 12:30:48   info : Property name - xpath
2019.01.14 12:30:48   info : Property value - //*[contains(@id,"_ClaimsSubmit_ClaimSubmitControlV2_ready")]
2019.01.14 12:30:48   info : Finding xpath element on webpage..
2019.01.14 12:30:48   info : Searching for element. Try number 0
2019.01.14 12:30:48   info : element disappeared after trying for 1 times
2019.01.14 12:30:49   info : Current WebDriver Win Count is:: 1
2019.01.14 12:30:49   info : Element found!!
2019.01.14 12:30:49   info : Xml obj_repo path C:\Talent_Automation_Framework_Backup\Project_Talent/ObjectRepositories/BenefitAsia2_EE/EE_SimpliflexSG_Claims.xml
2019.01.14 12:30:49   info : xpath object successfully mapped!!
2019.01.14 12:30:49   info : xpath object contains property value !!
2019.01.14 12:30:49   info : Property name - xpath
2019.01.14 12:30:49   info : Property value - //*[contains(@id,"_ClaimsSubmit_ClaimSubmitControlV2_ready")]
2019.01.14 12:30:49   info : Finding xpath element on webpage..
2019.01.14 12:30:49   info : Searching for element. Try number 0
2019.01.14 12:30:49   info : element disappeared after trying for 1 times
2019.01.14 12:30:50   info : Current WebDriver Win Count is:: 1
2019.01.14 12:30:50   info : Element found!!
2019.01.14 12:30:50   info : clicked on ReadyToSubmitButton
2019.01.14 12:30:51   info : Current WebDriver Win Count is:: 1
2019.01.14 12:30:52   info : restult status : 1
2019.01.14 12:30:52   info : Test ID TC2 : previous test step/row 31 status is Passed and value of next test step/row is :: 32
2019.01.14 12:30:52   info : 

2019.01.14 12:30:52   info : -------------------- Executing Testcase ID TC2 and test step : 32 ---------------------- 
2019.01.14 12:30:53   info : Current WebDriver Win Count is:: 1
2019.01.14 12:30:53   info : page object present in excel : 1
2019.01.14 12:30:53   info : Under single object handle operation!!
2019.01.14 12:30:53   info : col 6 data :  and col 5 data : ConfirmClaimButton
2019.01.14 12:30:53   info : Normal click operation !!
2019.01.14 12:30:53   info : Checking for object in click
2019.01.14 12:30:53   info : Xml obj_repo path C:\Talent_Automation_Framework_Backup\Project_Talent/ObjectRepositories/BenefitAsia2_EE/EE_SimpliflexSG_Claims.xml
2019.01.14 12:30:53   info : xpath object successfully mapped!!
2019.01.14 12:30:53   info : xpath object contains property value !!
2019.01.14 12:30:53   info : Property name - xpath
2019.01.14 12:30:53   info : Property value - //input[contains(@id,"ClaimsSubmit_ClaimSubmissionListV2_btnConfirmClaims")]
2019.01.14 12:30:53   info : Finding xpath element on webpage..
2019.01.14 12:30:53   info : Searching for element. Try number 0
2019.01.14 12:30:53   info : element disappeared after trying for 1 times
2019.01.14 12:30:54   info : Current WebDriver Win Count is:: 1
2019.01.14 12:31:00   info : Element found!!
2019.01.14 12:31:00   info : Xml obj_repo path C:\Talent_Automation_Framework_Backup\Project_Talent/ObjectRepositories/BenefitAsia2_EE/EE_SimpliflexSG_Claims.xml
2019.01.14 12:31:00   info : xpath object successfully mapped!!
2019.01.14 12:31:00   info : xpath object contains property value !!
2019.01.14 12:31:00   info : Property name - xpath
2019.01.14 12:31:00   info : Property value - //input[contains(@id,"ClaimsSubmit_ClaimSubmissionListV2_btnConfirmClaims")]
2019.01.14 12:31:00   info : Finding xpath element on webpage..
2019.01.14 12:31:00   info : Searching for element. Try number 0
2019.01.14 12:31:00   info : element disappeared after trying for 1 times
2019.01.14 12:31:01   info : Current WebDriver Win Count is:: 1
2019.01.14 12:31:01   info : Element found!!
2019.01.14 12:31:01   info : clicked on ConfirmClaimButton
2019.01.14 12:31:02   info : Current WebDriver Win Count is:: 1
2019.01.14 12:31:03   info : restult status : 1
2019.01.14 12:31:03   info : Test ID TC2 : previous test step/row 32 status is Passed and value of next test step/row is :: 33
2019.01.14 12:31:03   info : 

2019.01.14 12:31:03   info : -------------------- Executing Testcase ID TC2 and test step : 33 ---------------------- 
2019.01.14 12:31:04   info : Current WebDriver Win Count is:: 1
2019.01.14 12:31:04   info : page object present in excel : 1
2019.01.14 12:31:04   info : Under single object handle operation!!
2019.01.14 12:31:04   info : col 6 data :  and col 5 data : confirmButton_popup
2019.01.14 12:31:04   info : Normal click operation !!
2019.01.14 12:31:04   info : Checking for object in click
2019.01.14 12:31:04   info : Xml obj_repo path C:\Talent_Automation_Framework_Backup\Project_Talent/ObjectRepositories/BenefitAsia2_EE/EE_SimpliflexSG_Claims.xml
2019.01.14 12:31:04   info : xpath object successfully mapped!!
2019.01.14 12:31:04   info : xpath object contains property value !!
2019.01.14 12:31:04   info : Property name - xpath
2019.01.14 12:31:04   info : Property value - //*[@id="confirmButton"]
2019.01.14 12:31:04   info : Finding xpath element on webpage..
2019.01.14 12:31:04   info : Searching for element. Try number 0
2019.01.14 12:31:04   info : element disappeared after trying for 1 times
2019.01.14 12:31:05   info : Current WebDriver Win Count is:: 1
2019.01.14 12:31:05   info : Element found!!
2019.01.14 12:31:05   info : Xml obj_repo path C:\Talent_Automation_Framework_Backup\Project_Talent/ObjectRepositories/BenefitAsia2_EE/EE_SimpliflexSG_Claims.xml
2019.01.14 12:31:05   info : xpath object successfully mapped!!
2019.01.14 12:31:05   info : xpath object contains property value !!
2019.01.14 12:31:05   info : Property name - xpath
2019.01.14 12:31:05   info : Property value - //*[@id="confirmButton"]
2019.01.14 12:31:05   info : Finding xpath element on webpage..
2019.01.14 12:31:05   info : Searching for element. Try number 0
2019.01.14 12:31:05   info : element disappeared after trying for 1 times
2019.01.14 12:31:06   info : Current WebDriver Win Count is:: 1
2019.01.14 12:31:06   info : Element found!!
2019.01.14 12:31:06   info : clicked on confirmButton_popup
2019.01.14 12:31:07   info : Current WebDriver Win Count is:: 1
2019.01.14 12:31:07   info : restult status : 1
2019.01.14 12:31:07   info : Test ID TC2 : previous test step/row 33 status is Passed and value of next test step/row is :: 34
2019.01.14 12:31:07   info : 

2019.01.14 12:31:07   info : -------------------- Executing Testcase ID TC2 and test step : 34 ---------------------- 
2019.01.14 12:31:09   info : Current WebDriver Win Count is:: 1
2019.01.14 12:31:09   info : page object present in excel : 1
2019.01.14 12:31:09   info : Under single object handle operation!!
2019.01.14 12:31:09   info : col 6 data :  and col 5 data : ClaimSearchButton
2019.01.14 12:31:09   info : Normal click operation !!
2019.01.14 12:31:09   info : Checking for object in click
2019.01.14 12:31:09   info : Xml obj_repo path C:\Talent_Automation_Framework_Backup\Project_Talent/ObjectRepositories/BenefitAsia2_EE/EE_SimpliflexSG_Claims.xml
2019.01.14 12:31:09   info : xpath object successfully mapped!!
2019.01.14 12:31:09   info : xpath object contains property value !!
2019.01.14 12:31:09   info : Property name - xpath
2019.01.14 12:31:09   info : Property value - //*[contains(@id,"_ClaimsSearch_btnSearchNew")]
2019.01.14 12:31:09   info : Finding xpath element on webpage..
2019.01.14 12:31:09   info : Searching for element. Try number 0
2019.01.14 12:31:09   info : element disappeared after trying for 1 times
2019.01.14 12:31:10   info : Current WebDriver Win Count is:: 1
2019.01.14 12:31:10   info : Element found!!
2019.01.14 12:31:10   info : Xml obj_repo path C:\Talent_Automation_Framework_Backup\Project_Talent/ObjectRepositories/BenefitAsia2_EE/EE_SimpliflexSG_Claims.xml
2019.01.14 12:31:10   info : xpath object successfully mapped!!
2019.01.14 12:31:10   info : xpath object contains property value !!
2019.01.14 12:31:10   info : Property name - xpath
2019.01.14 12:31:10   info : Property value - //*[contains(@id,"_ClaimsSearch_btnSearchNew")]
2019.01.14 12:31:10   info : Finding xpath element on webpage..
2019.01.14 12:31:10   info : Searching for element. Try number 0
2019.01.14 12:31:10   info : element disappeared after trying for 1 times
2019.01.14 12:31:11   info : Current WebDriver Win Count is:: 1
2019.01.14 12:31:11   info : Element found!!
2019.01.14 12:31:12   info : clicked on ClaimSearchButton
2019.01.14 12:31:13   info : Current WebDriver Win Count is:: 1
2019.01.14 12:31:13   info : restult status : 1
2019.01.14 12:31:13   info : Test ID TC2 : previous test step/row 34 status is Passed and value of next test step/row is :: 35
2019.01.14 12:31:13   info : 

2019.01.14 12:31:13   info : -------------------- Executing Testcase ID TC2 and test step : 35 ---------------------- 
2019.01.14 12:31:14   info : Current WebDriver Win Count is:: 1
2019.01.14 12:31:45   info : Xml obj_repo path C:\Talent_Automation_Framework_Backup\Project_Talent/ObjectRepositories/BenefitAsia2_EE/EE_SimpliflexSG_Claims.xml
2019.01.14 12:31:45   info : xpath object successfully mapped!!
2019.01.14 12:31:45   info : xpath object contains property value !!
2019.01.14 12:31:45   info : Property name - xpath
2019.01.14 12:31:45   info : Property value - //*[contains(@id,"ClaimSubmittedListSummary_v2_page_section")]/table
2019.01.14 12:31:45   info : Finding xpath element on webpage..
2019.01.14 12:31:45   info : Searching for element. Try number 0
2019.01.14 12:31:46   info : element disappeared after trying for 1 times
2019.01.14 12:31:47   info : Current WebDriver Win Count is:: 1
