2019.01.14 12:51:42   info : Selenium version :: 2.48.2
2019.01.14 12:51:42   info : Download fodler path created!!
2019.01.14 12:51:42   info : date_time_down_folder C:\Talent_Automation_Framework_Backup\Project_Talent\Downloads\2019_01_14\time_12_51_42\
2019.01.14 12:51:43   info : Total number of applications :: 4
2019.01.14 12:51:43   info : Application Name - Latest_Simp
2019.01.14 12:51:43   info : TestData_Sheet path:: C:\Talent_Automation_Framework_Backup\Project_Talent/TestCases/Latest_Simp.xlsx
2019.01.14 12:51:43   info : CSV updating and creating dump....
2019.01.14 12:51:44   info : Sheet name: Scenarios
2019.01.14 12:51:44   info : Sheet name: TestCaseScheduler
2019.01.14 12:51:44   info : Sheet name: Test Case
2019.01.14 12:51:44   info : Latest_Simp sheetname found!!
2019.01.14 12:51:44   info : Total row 834
2019.01.14 12:51:44   info : After row validation for blank or null!!
2019.01.14 12:51:44   info : Total final row 833
2019.01.14 12:51:45   info : Total number of test cases to be executed :: 1
2019.01.14 12:51:45   info : PrevTestID - null == null && row 24<= 833
2019.01.14 12:51:45   info : Test ID TC2 : previous test step/row 23 status is Passed and value of next test step/row is :: 24
2019.01.14 12:51:45   info : 

2019.01.14 12:51:45   info : -------------------- Executing Testcase ID TC2 and test step : 24 ---------------------- 
2019.01.14 12:51:45   info : please wait.. browser getting open !!
2019.01.14 12:51:56   info : Opening Application..
2019.01.14 12:52:06   info : Current WebDriver Win Count is:: 1
2019.01.14 12:52:07   info : restult status : 1
2019.01.14 12:52:07   info : Test ID TC2 : previous test step/row 24 status is Passed and value of next test step/row is :: 25
2019.01.14 12:52:07   info : 

2019.01.14 12:52:07   info : -------------------- Executing Testcase ID TC2 and test step : 25 ---------------------- 
2019.01.14 12:52:09   info : Current WebDriver Win Count is:: 1
2019.01.14 12:52:09   info : Xml obj_repo path C:\Talent_Automation_Framework_Backup\Project_Talent/ObjectRepositories/BenefitAsia2_EE/EE_SimpliflexSG_LoginLogout.xml
2019.01.14 12:52:09   info : Title contains null value in xml!!
2019.01.14 12:52:09   info : Window title User Login
2019.01.14 12:52:09   info : Xml obj_repo path C:\Talent_Automation_Framework_Backup\Project_Talent/ObjectRepositories/BenefitAsia2_EE/EE_SimpliflexSG_LoginLogout.xml
2019.01.14 12:52:09   info : xpath object successfully mapped!!
2019.01.14 12:52:09   info : xpath object contains property value !!
2019.01.14 12:52:09   info : Property name - xpath
2019.01.14 12:52:09   info : Property value - //input[contains(@id,"_txtUsername")]
2019.01.14 12:52:09   info : Finding xpath element on webpage..
2019.01.14 12:52:09   info : Searching for element. Try number 0
2019.01.14 12:52:10   info : element disappeared after trying for 1 times
2019.01.14 12:52:11   info : Current WebDriver Win Count is:: 1
2019.01.14 12:52:11   info : Element found!!
2019.01.14 12:52:11   info : Desired window is activated!!
2019.01.14 12:52:11   info : FiledName UserName and FiledValue Simpli_10jan_001
2019.01.14 12:52:11   info : FiledName Password and FiledValue Password123$
2019.01.14 12:52:11   info : Total static wait time 3
2019.01.14 12:52:14   info : Xml obj_repo path C:\Talent_Automation_Framework_Backup\Project_Talent/ObjectRepositories/BenefitAsia2_EE/EE_SimpliflexSG_LoginLogout.xml
2019.01.14 12:52:14   info : xpath object successfully mapped!!
2019.01.14 12:52:14   info : xpath object contains property value !!
2019.01.14 12:52:14   info : Property name - xpath
2019.01.14 12:52:14   info : Property value - //input[contains(@id,"_txtUsername")]
2019.01.14 12:52:14   info : Finding xpath element on webpage..
2019.01.14 12:52:14   info : Searching for element. Try number 0
2019.01.14 12:52:15   info : element disappeared after trying for 1 times
2019.01.14 12:52:16   info : Current WebDriver Win Count is:: 1
2019.01.14 12:52:16   info : Element found!!
2019.01.14 12:52:16   info : ObjectTag input and ObjectType text
2019.01.14 12:52:16   info : Enter data operation
2019.01.14 12:52:17   info : Xml obj_repo path C:\Talent_Automation_Framework_Backup\Project_Talent/ObjectRepositories/BenefitAsia2_EE/EE_SimpliflexSG_LoginLogout.xml
2019.01.14 12:52:17   info : xpath object successfully mapped!!
2019.01.14 12:52:17   info : xpath object contains property value !!
2019.01.14 12:52:17   info : Property name - xpath
2019.01.14 12:52:17   info : Property value - //input[contains(@id,"_txtUsername")]
2019.01.14 12:52:17   info : Finding xpath element on webpage..
2019.01.14 12:52:17   info : Searching for element. Try number 0
2019.01.14 12:52:18   info : element disappeared after trying for 1 times
2019.01.14 12:52:19   info : Current WebDriver Win Count is:: 1
2019.01.14 12:52:19   info : Element found!!
2019.01.14 12:52:19   info : Xml obj_repo path C:\Talent_Automation_Framework_Backup\Project_Talent/ObjectRepositories/BenefitAsia2_EE/EE_SimpliflexSG_LoginLogout.xml
2019.01.14 12:52:19   info : xpath object successfully mapped!!
2019.01.14 12:52:19   info : xpath object contains property value !!
2019.01.14 12:52:19   info : Property name - xpath
2019.01.14 12:52:19   info : Property value - //input[contains(@id,"_txtUsername")]
2019.01.14 12:52:19   info : Finding xpath element on webpage..
2019.01.14 12:52:19   info : Searching for element. Try number 0
2019.01.14 12:52:20   info : element disappeared after trying for 1 times
2019.01.14 12:52:21   info : Current WebDriver Win Count is:: 1
2019.01.14 12:52:21   info : Element found!!
2019.01.14 12:52:21   info : ValueToEnter Simpli_10jan_001
2019.01.14 12:52:21   info : Entered value is Simpli_10jan_001
2019.01.14 12:52:21   info : Attribute entered value Simpli_10jan_001
2019.01.14 12:52:21   info : Total static wait time 3
2019.01.14 12:52:24   info : Xml obj_repo path C:\Talent_Automation_Framework_Backup\Project_Talent/ObjectRepositories/BenefitAsia2_EE/EE_SimpliflexSG_LoginLogout.xml
2019.01.14 12:52:24   info : xpath object successfully mapped!!
2019.01.14 12:52:24   info : xpath object contains property value !!
2019.01.14 12:52:24   info : Property name - xpath
2019.01.14 12:52:24   info : Property value - //input[contains(@id,"_txtPassword")]
2019.01.14 12:52:24   info : Finding xpath element on webpage..
2019.01.14 12:52:24   info : Searching for element. Try number 0
2019.01.14 12:52:25   info : element disappeared after trying for 1 times
2019.01.14 12:52:26   info : Current WebDriver Win Count is:: 1
2019.01.14 12:52:26   info : Element found!!
2019.01.14 12:52:26   info : ObjectTag input and ObjectType password
2019.01.14 12:52:26   info : Enter data operation
2019.01.14 12:52:26   info : Xml obj_repo path C:\Talent_Automation_Framework_Backup\Project_Talent/ObjectRepositories/BenefitAsia2_EE/EE_SimpliflexSG_LoginLogout.xml
2019.01.14 12:52:26   info : xpath object successfully mapped!!
2019.01.14 12:52:26   info : xpath object contains property value !!
2019.01.14 12:52:26   info : Property name - xpath
2019.01.14 12:52:26   info : Property value - //input[contains(@id,"_txtPassword")]
2019.01.14 12:52:26   info : Finding xpath element on webpage..
2019.01.14 12:52:26   info : Searching for element. Try number 0
2019.01.14 12:52:27   info : element disappeared after trying for 1 times
2019.01.14 12:52:28   info : Current WebDriver Win Count is:: 1
2019.01.14 12:52:28   info : Element found!!
2019.01.14 12:52:28   info : ValueToEnter Password123$
2019.01.14 12:52:28   info : Entered value is Password123$
2019.01.14 12:52:28   info : Attribute entered value Password123$
2019.01.14 12:52:28   info : Checking for object in click
2019.01.14 12:52:28   info : Xml obj_repo path C:\Talent_Automation_Framework_Backup\Project_Talent/ObjectRepositories/BenefitAsia2_EE/EE_SimpliflexSG_LoginLogout.xml
2019.01.14 12:52:28   info : xpath object successfully mapped!!
2019.01.14 12:52:28   info : xpath object contains property value !!
2019.01.14 12:52:28   info : Property name - xpath
2019.01.14 12:52:28   info : Property value - //input[contains(@id,"_cmdLogin")]
2019.01.14 12:52:28   info : Finding xpath element on webpage..
2019.01.14 12:52:28   info : Searching for element. Try number 0
2019.01.14 12:52:29   info : element disappeared after trying for 1 times
2019.01.14 12:52:30   info : Current WebDriver Win Count is:: 1
2019.01.14 12:52:30   info : Element found!!
2019.01.14 12:52:30   info : Xml obj_repo path C:\Talent_Automation_Framework_Backup\Project_Talent/ObjectRepositories/BenefitAsia2_EE/EE_SimpliflexSG_LoginLogout.xml
2019.01.14 12:52:30   info : xpath object successfully mapped!!
2019.01.14 12:52:30   info : xpath object contains property value !!
2019.01.14 12:52:30   info : Property name - xpath
2019.01.14 12:52:30   info : Property value - //input[contains(@id,"_cmdLogin")]
2019.01.14 12:52:30   info : Finding xpath element on webpage..
2019.01.14 12:52:30   info : Searching for element. Try number 0
2019.01.14 12:52:31   info : element disappeared after trying for 1 times
2019.01.14 12:52:32   info : Current WebDriver Win Count is:: 1
2019.01.14 12:52:32   info : Element found!!
2019.01.14 12:52:37   info : clicked on LoginButton
2019.01.14 12:52:38   info : Current WebDriver Win Count is:: 1
2019.01.14 12:52:38   info : restult status : 1
2019.01.14 12:52:38   info : Test ID TC2 : previous test step/row 25 status is Passed and value of next test step/row is :: 26
2019.01.14 12:52:38   info : 

2019.01.14 12:52:38   info : -------------------- Executing Testcase ID TC2 and test step : 26 ---------------------- 
2019.01.14 12:52:39   info : Current WebDriver Win Count is:: 1
2019.01.14 12:52:39   info : Xml obj_repo path C:\Talent_Automation_Framework_Backup\Project_Talent/ObjectRepositories/BenefitAsia2_EE/EE_SimpliflexSG_Home.xml
2019.01.14 12:52:39   info : Title in xml file - SimpliflexSG > Home
2019.01.14 12:52:39   info : Title of the page after - switching window To: SimpliflexSG > Home
2019.01.14 12:52:39   info : Desired window is activated!!
2019.01.14 12:52:39   info : page object present in excel : 1
2019.01.14 12:52:39   info : Under single object handle operation!!
2019.01.14 12:52:39   info : col 6 data :  and col 5 data : CreateNewClaim
2019.01.14 12:52:39   info : Normal click operation !!
2019.01.14 12:52:39   info : Checking for object in click
2019.01.14 12:52:39   info : Xml obj_repo path C:\Talent_Automation_Framework_Backup\Project_Talent/ObjectRepositories/BenefitAsia2_EE/EE_SimpliflexSG_Home.xml
2019.01.14 12:52:39   info : xpath object successfully mapped!!
2019.01.14 12:52:39   info : xpath object contains property value !!
2019.01.14 12:52:39   info : Property name - xpath
2019.01.14 12:52:39   info : Property value - //a[contains(@id,"_BA2DashBoard_SUBMITCLAIM")]
2019.01.14 12:52:39   info : Finding xpath element on webpage..
2019.01.14 12:52:39   info : Searching for element. Try number 0
2019.01.14 12:52:40   info : element disappeared after trying for 1 times
2019.01.14 12:52:41   info : Current WebDriver Win Count is:: 1
2019.01.14 12:52:41   info : Element found!!
2019.01.14 12:52:41   info : Xml obj_repo path C:\Talent_Automation_Framework_Backup\Project_Talent/ObjectRepositories/BenefitAsia2_EE/EE_SimpliflexSG_Home.xml
2019.01.14 12:52:41   info : xpath object successfully mapped!!
2019.01.14 12:52:41   info : xpath object contains property value !!
2019.01.14 12:52:41   info : Property name - xpath
2019.01.14 12:52:41   info : Property value - //a[contains(@id,"_BA2DashBoard_SUBMITCLAIM")]
2019.01.14 12:52:41   info : Finding xpath element on webpage..
2019.01.14 12:52:41   info : Searching for element. Try number 0
2019.01.14 12:52:42   info : element disappeared after trying for 1 times
2019.01.14 12:52:43   info : Current WebDriver Win Count is:: 1
2019.01.14 12:52:44   info : Element found!!
2019.01.14 12:52:46   info : clicked on CreateNewClaim
2019.01.14 12:52:47   info : Current WebDriver Win Count is:: 1
2019.01.14 12:52:48   info : restult status : 1
2019.01.14 12:52:48   info : Test ID TC2 : previous test step/row 26 status is Passed and value of next test step/row is :: 27
2019.01.14 12:52:48   info : 

2019.01.14 12:52:48   info : -------------------- Executing Testcase ID TC2 and test step : 27 ---------------------- 
2019.01.14 12:52:49   info : Current WebDriver Win Count is:: 1
2019.01.14 12:52:49   info : Xml obj_repo path C:\Talent_Automation_Framework_Backup\Project_Talent/ObjectRepositories/BenefitAsia2_EE/EE_SimpliflexSG_Claims.xml
2019.01.14 12:52:49   info : Title in xml file - Create New Claim
2019.01.14 12:52:49   info : Title of the page after - switching window To: Create New Claim
2019.01.14 12:52:49   info : Desired window is activated!!
2019.01.14 12:52:49   info : Total static wait time 3
2019.01.14 12:52:52   info : Xml obj_repo path C:\Talent_Automation_Framework_Backup\Project_Talent/ObjectRepositories/BenefitAsia2_EE/EE_SimpliflexSG_Claims.xml
2019.01.14 12:52:52   info : xpath object successfully mapped!!
2019.01.14 12:52:52   info : xpath object contains property value !!
2019.01.14 12:52:52   info : Property name - xpath
2019.01.14 12:52:52   info : Property value - //*[contains(@id,"_ClaimsSubmit_ClaimSubmitControlV2_lstClaimantName")]
2019.01.14 12:52:52   info : Finding xpath element on webpage..
2019.01.14 12:52:52   info : Searching for element. Try number 0
2019.01.14 12:52:52   info : element disappeared after trying for 1 times
2019.01.14 12:52:53   info : Current WebDriver Win Count is:: 1
2019.01.14 12:52:53   info : Element found!!
2019.01.14 12:52:53   info : ObjectTag select and ObjectType null
2019.01.14 12:52:53   info : select combobox operation 
2019.01.14 12:52:53   info : Xml obj_repo path C:\Talent_Automation_Framework_Backup\Project_Talent/ObjectRepositories/BenefitAsia2_EE/EE_SimpliflexSG_Claims.xml
2019.01.14 12:52:53   info : xpath object successfully mapped!!
2019.01.14 12:52:53   info : xpath object contains property value !!
2019.01.14 12:52:53   info : Property name - xpath
2019.01.14 12:52:53   info : Property value - //*[contains(@id,"_ClaimsSubmit_ClaimSubmitControlV2_lstClaimantName")]
2019.01.14 12:52:53   info : Finding xpath element on webpage..
2019.01.14 12:52:53   info : Searching for element. Try number 0
2019.01.14 12:52:53   info : element disappeared after trying for 1 times
2019.01.14 12:52:54   info : Current WebDriver Win Count is:: 1
2019.01.14 12:52:54   info : Element found!!
2019.01.14 12:52:54   info : Xml obj_repo path C:\Talent_Automation_Framework_Backup\Project_Talent/ObjectRepositories/BenefitAsia2_EE/EE_SimpliflexSG_Claims.xml
2019.01.14 12:52:54   info : xpath object successfully mapped!!
2019.01.14 12:52:54   info : xpath object contains property value !!
2019.01.14 12:52:54   info : Property name - xpath
2019.01.14 12:52:54   info : Property value - //*[contains(@id,"_ClaimsSubmit_ClaimSubmitControlV2_lstClaimantName")]
2019.01.14 12:52:54   info : Finding xpath element on webpage..
2019.01.14 12:52:54   info : Element found!!
2019.01.14 12:52:54   info : Simpli_10jan_001 Value is already selected in dropdown!!
2019.01.14 12:52:55   info : Current WebDriver Win Count is:: 1
2019.01.14 12:52:55   info : restult status : 1
2019.01.14 12:52:55   info : Test ID TC2 : previous test step/row 27 status is Passed and value of next test step/row is :: 28
2019.01.14 12:52:55   info : 

2019.01.14 12:52:55   info : -------------------- Executing Testcase ID TC2 and test step : 28 ---------------------- 
2019.01.14 12:52:57   info : Current WebDriver Win Count is:: 1
2019.01.14 12:52:57   info : Total static wait time 3
2019.01.14 12:53:00   info : Xml obj_repo path C:\Talent_Automation_Framework_Backup\Project_Talent/ObjectRepositories/BenefitAsia2_EE/EE_SimpliflexSG_Claims.xml
2019.01.14 12:53:00   info : xpath object successfully mapped!!
2019.01.14 12:53:00   info : xpath object contains property value !!
2019.01.14 12:53:00   info : Property name - xpath
2019.01.14 12:53:00   info : Property value - //*[contains(@id,"_ClaimsSubmit_ClaimSubmitControlV2_lstClaimItemName")]
2019.01.14 12:53:00   info : Finding xpath element on webpage..
2019.01.14 12:53:00   info : Searching for element. Try number 0
2019.01.14 12:53:00   info : element disappeared after trying for 1 times
2019.01.14 12:53:01   info : Current WebDriver Win Count is:: 1
2019.01.14 12:53:01   info : Element found!!
2019.01.14 12:53:01   info : ObjectTag select and ObjectType null
2019.01.14 12:53:01   info : select combobox operation 
2019.01.14 12:53:01   info : Xml obj_repo path C:\Talent_Automation_Framework_Backup\Project_Talent/ObjectRepositories/BenefitAsia2_EE/EE_SimpliflexSG_Claims.xml
2019.01.14 12:53:01   info : xpath object successfully mapped!!
2019.01.14 12:53:01   info : xpath object contains property value !!
2019.01.14 12:53:01   info : Property name - xpath
2019.01.14 12:53:01   info : Property value - //*[contains(@id,"_ClaimsSubmit_ClaimSubmitControlV2_lstClaimItemName")]
2019.01.14 12:53:01   info : Finding xpath element on webpage..
2019.01.14 12:53:01   info : Searching for element. Try number 0
2019.01.14 12:53:01   info : element disappeared after trying for 1 times
2019.01.14 12:53:02   info : Current WebDriver Win Count is:: 1
2019.01.14 12:53:02   info : Element found!!
2019.01.14 12:53:02   info : Xml obj_repo path C:\Talent_Automation_Framework_Backup\Project_Talent/ObjectRepositories/BenefitAsia2_EE/EE_SimpliflexSG_Claims.xml
2019.01.14 12:53:02   info : xpath object successfully mapped!!
2019.01.14 12:53:02   info : xpath object contains property value !!
2019.01.14 12:53:02   info : Property name - xpath
2019.01.14 12:53:02   info : Property value - //*[contains(@id,"_ClaimsSubmit_ClaimSubmitControlV2_lstClaimItemName")]
2019.01.14 12:53:02   info : Finding xpath element on webpage..
2019.01.14 12:53:02   info : Element found!!
2019.01.14 12:53:03   info :    Child daycare expenses value selected!!
2019.01.14 12:53:05   info : Alert is not present
2019.01.14 12:53:05   info : Total static wait time 3
2019.01.14 12:53:08   info : Xml obj_repo path C:\Talent_Automation_Framework_Backup\Project_Talent/ObjectRepositories/BenefitAsia2_EE/EE_SimpliflexSG_Claims.xml
2019.01.14 12:53:08   info : xpath object successfully mapped!!
2019.01.14 12:53:08   info : xpath object contains property value !!
2019.01.14 12:53:08   info : Property name - xpath
2019.01.14 12:53:08   info : Property value - //*[contains(@id,"_ClaimsSubmit_ClaimSubmitControlV2_txtProviderName")]
2019.01.14 12:53:08   info : Finding xpath element on webpage..
2019.01.14 12:53:08   info : Searching for element. Try number 0
2019.01.14 12:53:08   info : element disappeared after trying for 1 times
2019.01.14 12:53:09   info : Current WebDriver Win Count is:: 1
2019.01.14 12:53:09   info : Element found!!
2019.01.14 12:53:09   info : ObjectTag input and ObjectType text
2019.01.14 12:53:09   info : Enter data operation
2019.01.14 12:53:09   info : Xml obj_repo path C:\Talent_Automation_Framework_Backup\Project_Talent/ObjectRepositories/BenefitAsia2_EE/EE_SimpliflexSG_Claims.xml
2019.01.14 12:53:09   info : xpath object successfully mapped!!
2019.01.14 12:53:09   info : xpath object contains property value !!
2019.01.14 12:53:09   info : Property name - xpath
2019.01.14 12:53:09   info : Property value - //*[contains(@id,"_ClaimsSubmit_ClaimSubmitControlV2_txtProviderName")]
2019.01.14 12:53:09   info : Finding xpath element on webpage..
2019.01.14 12:53:09   info : Searching for element. Try number 0
2019.01.14 12:53:09   info : element disappeared after trying for 1 times
2019.01.14 12:53:10   info : Current WebDriver Win Count is:: 1
2019.01.14 12:53:10   info : Element found!!
2019.01.14 12:53:10   info : Xml obj_repo path C:\Talent_Automation_Framework_Backup\Project_Talent/ObjectRepositories/BenefitAsia2_EE/EE_SimpliflexSG_Claims.xml
2019.01.14 12:53:10   info : xpath object successfully mapped!!
2019.01.14 12:53:10   info : xpath object contains property value !!
2019.01.14 12:53:10   info : Property name - xpath
2019.01.14 12:53:10   info : Property value - //*[contains(@id,"_ClaimsSubmit_ClaimSubmitControlV2_txtProviderName")]
2019.01.14 12:53:10   info : Finding xpath element on webpage..
2019.01.14 12:53:10   info : Searching for element. Try number 0
2019.01.14 12:53:10   info : element disappeared after trying for 1 times
2019.01.14 12:53:11   info : Current WebDriver Win Count is:: 1
2019.01.14 12:53:11   info : Element found!!
2019.01.14 12:53:11   info : ValueToEnter Provider67
2019.01.14 12:53:11   info : Entered value is Provider67
2019.01.14 12:53:11   info : Attribute entered value Provider67
2019.01.14 12:53:11   info : Total static wait time 3
2019.01.14 12:53:14   info : Xml obj_repo path C:\Talent_Automation_Framework_Backup\Project_Talent/ObjectRepositories/BenefitAsia2_EE/EE_SimpliflexSG_Claims.xml
2019.01.14 12:53:14   info : xpath object successfully mapped!!
2019.01.14 12:53:14   info : xpath object contains property value !!
2019.01.14 12:53:14   info : Property name - xpath
2019.01.14 12:53:14   info : Property value - //input[contains(@id,"_ClaimsSubmit_ClaimSubmitControlV2_txtReceiptDate")]
2019.01.14 12:53:14   info : Finding xpath element on webpage..
2019.01.14 12:53:14   info : Searching for element. Try number 0
2019.01.14 12:53:14   info : element disappeared after trying for 1 times
2019.01.14 12:53:15   info : Current WebDriver Win Count is:: 1
2019.01.14 12:53:15   info : Element found!!
2019.01.14 12:53:15   info : ObjectTag input and ObjectType text
2019.01.14 12:53:15   info : Enter data operation
2019.01.14 12:53:15   info : Xml obj_repo path C:\Talent_Automation_Framework_Backup\Project_Talent/ObjectRepositories/BenefitAsia2_EE/EE_SimpliflexSG_Claims.xml
2019.01.14 12:53:15   info : xpath object successfully mapped!!
2019.01.14 12:53:15   info : xpath object contains property value !!
2019.01.14 12:53:15   info : Property name - xpath
2019.01.14 12:53:15   info : Property value - //input[contains(@id,"_ClaimsSubmit_ClaimSubmitControlV2_txtReceiptDate")]
2019.01.14 12:53:15   info : Finding xpath element on webpage..
2019.01.14 12:53:15   info : Searching for element. Try number 0
2019.01.14 12:53:15   info : element disappeared after trying for 1 times
2019.01.14 12:53:16   info : Current WebDriver Win Count is:: 1
2019.01.14 12:53:17   info : Element found!!
2019.01.14 12:53:17   info : Xml obj_repo path C:\Talent_Automation_Framework_Backup\Project_Talent/ObjectRepositories/BenefitAsia2_EE/EE_SimpliflexSG_Claims.xml
2019.01.14 12:53:17   info : xpath object successfully mapped!!
2019.01.14 12:53:17   info : xpath object contains property value !!
2019.01.14 12:53:17   info : Property name - xpath
2019.01.14 12:53:17   info : Property value - //input[contains(@id,"_ClaimsSubmit_ClaimSubmitControlV2_txtReceiptDate")]
2019.01.14 12:53:17   info : Finding xpath element on webpage..
2019.01.14 12:53:17   info : Searching for element. Try number 0
2019.01.14 12:53:17   info : element disappeared after trying for 1 times
2019.01.14 12:53:18   info : Current WebDriver Win Count is:: 1
2019.01.14 12:53:18   info : Element found!!
2019.01.14 12:53:18   info : ValueToEnter 14/Jan/2019
2019.01.14 12:53:18   info : Entered value is 14/Jan/2019
2019.01.14 12:53:18   info : Attribute entered value 14/Jan/2019
2019.01.14 12:53:18   info : Total static wait time 3
2019.01.14 12:53:21   info : Xml obj_repo path C:\Talent_Automation_Framework_Backup\Project_Talent/ObjectRepositories/BenefitAsia2_EE/EE_SimpliflexSG_Claims.xml
2019.01.14 12:53:21   info : xpath object successfully mapped!!
2019.01.14 12:53:21   info : xpath object contains property value !!
2019.01.14 12:53:21   info : Property name - xpath
2019.01.14 12:53:21   info : Property value - //input[contains(@id,"_ClaimsSubmit_ClaimSubmitControlV2_txtReceiptNo")]
2019.01.14 12:53:21   info : Finding xpath element on webpage..
2019.01.14 12:53:21   info : Searching for element. Try number 0
2019.01.14 12:53:21   info : element disappeared after trying for 1 times
2019.01.14 12:53:22   info : Current WebDriver Win Count is:: 1
2019.01.14 12:53:22   info : Element found!!
2019.01.14 12:53:22   info : ObjectTag input and ObjectType text
2019.01.14 12:53:22   info : Enter data operation
2019.01.14 12:53:22   info : Xml obj_repo path C:\Talent_Automation_Framework_Backup\Project_Talent/ObjectRepositories/BenefitAsia2_EE/EE_SimpliflexSG_Claims.xml
2019.01.14 12:53:22   info : xpath object successfully mapped!!
2019.01.14 12:53:22   info : xpath object contains property value !!
2019.01.14 12:53:22   info : Property name - xpath
2019.01.14 12:53:22   info : Property value - //input[contains(@id,"_ClaimsSubmit_ClaimSubmitControlV2_txtReceiptNo")]
2019.01.14 12:53:22   info : Finding xpath element on webpage..
2019.01.14 12:53:22   info : Searching for element. Try number 0
2019.01.14 12:53:22   info : element disappeared after trying for 1 times
2019.01.14 12:53:23   info : Current WebDriver Win Count is:: 1
2019.01.14 12:53:23   info : Element found!!
2019.01.14 12:53:23   info : Xml obj_repo path C:\Talent_Automation_Framework_Backup\Project_Talent/ObjectRepositories/BenefitAsia2_EE/EE_SimpliflexSG_Claims.xml
2019.01.14 12:53:23   info : xpath object successfully mapped!!
2019.01.14 12:53:23   info : xpath object contains property value !!
2019.01.14 12:53:23   info : Property name - xpath
2019.01.14 12:53:23   info : Property value - //input[contains(@id,"_ClaimsSubmit_ClaimSubmitControlV2_txtReceiptNo")]
2019.01.14 12:53:23   info : Finding xpath element on webpage..
2019.01.14 12:53:23   info : Searching for element. Try number 0
2019.01.14 12:53:23   info : element disappeared after trying for 1 times
2019.01.14 12:53:24   info : Current WebDriver Win Count is:: 1
2019.01.14 12:53:24   info : Element found!!
2019.01.14 12:53:24   info : ValueToEnter Receipt29
2019.01.14 12:53:24   info : Entered value is Receipt29
2019.01.14 12:53:24   info : Attribute entered value Receipt29
2019.01.14 12:53:24   info : Total static wait time 3
2019.01.14 12:53:27   info : Xml obj_repo path C:\Talent_Automation_Framework_Backup\Project_Talent/ObjectRepositories/BenefitAsia2_EE/EE_SimpliflexSG_Claims.xml
2019.01.14 12:53:27   info : xpath object successfully mapped!!
2019.01.14 12:53:27   info : xpath object contains property value !!
2019.01.14 12:53:27   info : Property name - xpath
2019.01.14 12:53:27   info : Property value - //input[contains(@id,"_ClaimsSubmit_ClaimSubmitControlV2_txtReceiptAmount")]
2019.01.14 12:53:27   info : Finding xpath element on webpage..
2019.01.14 12:53:27   info : Searching for element. Try number 0
2019.01.14 12:53:27   info : element disappeared after trying for 1 times
2019.01.14 12:53:28   info : Current WebDriver Win Count is:: 1
2019.01.14 12:53:28   info : Element found!!
2019.01.14 12:53:28   info : ObjectTag input and ObjectType text
2019.01.14 12:53:28   info : Enter data operation
2019.01.14 12:53:28   info : Xml obj_repo path C:\Talent_Automation_Framework_Backup\Project_Talent/ObjectRepositories/BenefitAsia2_EE/EE_SimpliflexSG_Claims.xml
2019.01.14 12:53:28   info : xpath object successfully mapped!!
2019.01.14 12:53:28   info : xpath object contains property value !!
2019.01.14 12:53:28   info : Property name - xpath
2019.01.14 12:53:28   info : Property value - //input[contains(@id,"_ClaimsSubmit_ClaimSubmitControlV2_txtReceiptAmount")]
2019.01.14 12:53:28   info : Finding xpath element on webpage..
2019.01.14 12:53:28   info : Searching for element. Try number 0
2019.01.14 12:53:28   info : element disappeared after trying for 1 times
2019.01.14 12:53:29   info : Current WebDriver Win Count is:: 1
2019.01.14 12:53:29   info : Element found!!
2019.01.14 12:53:29   info : Xml obj_repo path C:\Talent_Automation_Framework_Backup\Project_Talent/ObjectRepositories/BenefitAsia2_EE/EE_SimpliflexSG_Claims.xml
2019.01.14 12:53:29   info : xpath object successfully mapped!!
2019.01.14 12:53:29   info : xpath object contains property value !!
2019.01.14 12:53:29   info : Property name - xpath
2019.01.14 12:53:29   info : Property value - //input[contains(@id,"_ClaimsSubmit_ClaimSubmitControlV2_txtReceiptAmount")]
2019.01.14 12:53:29   info : Finding xpath element on webpage..
2019.01.14 12:53:29   info : Searching for element. Try number 0
2019.01.14 12:53:29   info : element disappeared after trying for 1 times
2019.01.14 12:53:30   info : Current WebDriver Win Count is:: 1
2019.01.14 12:53:30   info : Element found!!
2019.01.14 12:53:30   info : ValueToEnter 10
2019.01.14 12:53:30   info : Entered value is 10
2019.01.14 12:53:30   info : Attribute entered value 10
2019.01.14 12:53:31   info : Current WebDriver Win Count is:: 1
2019.01.14 12:53:31   info : restult status : 1
2019.01.14 12:53:31   info : Test ID TC2 : previous test step/row 28 status is Passed and value of next test step/row is :: 29
2019.01.14 12:53:31   info : 

2019.01.14 12:53:31   info : -------------------- Executing Testcase ID TC2 and test step : 29 ---------------------- 
2019.01.14 12:53:33   info : Current WebDriver Win Count is:: 1
2019.01.14 12:53:33   info : page object present in excel : 1
2019.01.14 12:53:33   info : Under single object handle operation!!
2019.01.14 12:53:33   info : col 6 data : javascript_click and col 5 data : AttachFile
2019.01.14 12:53:33   info : Click case operation !!
2019.01.14 12:53:33   info : oprnm javascript_click
2019.01.14 12:53:33   info : click javascript_click operation perfomred!!
2019.01.14 12:53:33   info : Xml obj_repo path C:\Talent_Automation_Framework_Backup\Project_Talent/ObjectRepositories/BenefitAsia2_EE/EE_SimpliflexSG_Claims.xml
2019.01.14 12:53:33   info : xpath object successfully mapped!!
2019.01.14 12:53:33   info : xpath object contains property value !!
2019.01.14 12:53:33   info : Property name - xpath
2019.01.14 12:53:33   info : Property value - //*[contains(@id,"_ClaimsSubmit_ClaimSubmitControlV2_AttachFiles_File1")]
2019.01.14 12:53:33   info : Finding xpath element on webpage..
2019.01.14 12:53:33   info : Searching for element. Try number 0
2019.01.14 12:53:33   info : element disappeared after trying for 1 times
2019.01.14 12:53:34   info : Current WebDriver Win Count is:: 1
2019.01.14 12:53:34   info : Element found!!
2019.01.14 12:53:35   info : Current WebDriver Win Count is:: 1
2019.01.14 12:53:35   info : restult status : 1
2019.01.14 12:53:35   info : Test ID TC2 : previous test step/row 29 status is Passed and value of next test step/row is :: 30
2019.01.14 12:53:35   info : 

2019.01.14 12:53:35   info : -------------------- Executing Testcase ID TC2 and test step : 30 ---------------------- 
2019.01.14 12:53:36   info : Current WebDriver Win Count is:: 1
2019.01.14 12:53:47   info : Current WebDriver Win Count is:: 1
2019.01.14 12:54:00   info : restult status : 1
2019.01.14 12:54:00   info : Test ID TC2 : previous test step/row 30 status is Passed and value of next test step/row is :: 31
2019.01.14 12:54:00   info : 

2019.01.14 12:54:00   info : -------------------- Executing Testcase ID TC2 and test step : 31 ---------------------- 
2019.01.14 12:54:01   info : Current WebDriver Win Count is:: 1
2019.01.14 12:54:01   info : page object present in excel : 1
2019.01.14 12:54:01   info : Under single object handle operation!!
2019.01.14 12:54:01   info : col 6 data :  and col 5 data : ReadyToSubmitButton
2019.01.14 12:54:01   info : Normal click operation !!
2019.01.14 12:54:01   info : Checking for object in click
2019.01.14 12:54:01   info : Xml obj_repo path C:\Talent_Automation_Framework_Backup\Project_Talent/ObjectRepositories/BenefitAsia2_EE/EE_SimpliflexSG_Claims.xml
2019.01.14 12:54:01   info : xpath object successfully mapped!!
2019.01.14 12:54:01   info : xpath object contains property value !!
2019.01.14 12:54:01   info : Property name - xpath
2019.01.14 12:54:01   info : Property value - //*[contains(@id,"_ClaimsSubmit_ClaimSubmitControlV2_ready")]
2019.01.14 12:54:01   info : Finding xpath element on webpage..
2019.01.14 12:54:01   info : Searching for element. Try number 0
2019.01.14 12:54:01   info : element disappeared after trying for 1 times
2019.01.14 12:54:02   info : Current WebDriver Win Count is:: 1
2019.01.14 12:54:02   info : Element found!!
2019.01.14 12:54:02   info : Xml obj_repo path C:\Talent_Automation_Framework_Backup\Project_Talent/ObjectRepositories/BenefitAsia2_EE/EE_SimpliflexSG_Claims.xml
2019.01.14 12:54:02   info : xpath object successfully mapped!!
2019.01.14 12:54:02   info : xpath object contains property value !!
2019.01.14 12:54:02   info : Property name - xpath
2019.01.14 12:54:02   info : Property value - //*[contains(@id,"_ClaimsSubmit_ClaimSubmitControlV2_ready")]
2019.01.14 12:54:02   info : Finding xpath element on webpage..
2019.01.14 12:54:02   info : Searching for element. Try number 0
2019.01.14 12:54:02   info : element disappeared after trying for 1 times
2019.01.14 12:54:03   info : Current WebDriver Win Count is:: 1
2019.01.14 12:54:03   info : Element found!!
2019.01.14 12:54:03   info : clicked on ReadyToSubmitButton
2019.01.14 12:54:04   info : Current WebDriver Win Count is:: 1
2019.01.14 12:54:04   info : restult status : 1
2019.01.14 12:54:04   info : Test ID TC2 : previous test step/row 31 status is Passed and value of next test step/row is :: 32
2019.01.14 12:54:04   info : 

2019.01.14 12:54:04   info : -------------------- Executing Testcase ID TC2 and test step : 32 ---------------------- 
2019.01.14 12:54:06   info : Current WebDriver Win Count is:: 1
2019.01.14 12:54:06   info : page object present in excel : 1
2019.01.14 12:54:06   info : Under single object handle operation!!
2019.01.14 12:54:06   info : col 6 data :  and col 5 data : ConfirmClaimButton
2019.01.14 12:54:06   info : Normal click operation !!
2019.01.14 12:54:06   info : Checking for object in click
2019.01.14 12:54:06   info : Xml obj_repo path C:\Talent_Automation_Framework_Backup\Project_Talent/ObjectRepositories/BenefitAsia2_EE/EE_SimpliflexSG_Claims.xml
2019.01.14 12:54:06   info : xpath object successfully mapped!!
2019.01.14 12:54:06   info : xpath object contains property value !!
2019.01.14 12:54:06   info : Property name - xpath
2019.01.14 12:54:06   info : Property value - //input[contains(@id,"ClaimsSubmit_ClaimSubmissionListV2_btnConfirmClaims")]
2019.01.14 12:54:06   info : Finding xpath element on webpage..
2019.01.14 12:54:06   info : Searching for element. Try number 0
2019.01.14 12:54:06   info : element disappeared after trying for 1 times
2019.01.14 12:54:07   info : Current WebDriver Win Count is:: 1
2019.01.14 12:54:18   info : Element found!!
2019.01.14 12:54:18   info : Xml obj_repo path C:\Talent_Automation_Framework_Backup\Project_Talent/ObjectRepositories/BenefitAsia2_EE/EE_SimpliflexSG_Claims.xml
2019.01.14 12:54:18   info : xpath object successfully mapped!!
2019.01.14 12:54:18   info : xpath object contains property value !!
2019.01.14 12:54:18   info : Property name - xpath
2019.01.14 12:54:18   info : Property value - //input[contains(@id,"ClaimsSubmit_ClaimSubmissionListV2_btnConfirmClaims")]
2019.01.14 12:54:18   info : Finding xpath element on webpage..
2019.01.14 12:54:18   info : Searching for element. Try number 0
2019.01.14 12:54:18   info : element disappeared after trying for 1 times
2019.01.14 12:54:19   info : Current WebDriver Win Count is:: 1
2019.01.14 12:54:19   info : Element found!!
2019.01.14 12:54:19   info : clicked on ConfirmClaimButton
2019.01.14 12:54:20   info : Current WebDriver Win Count is:: 1
2019.01.14 12:54:20   info : restult status : 1
2019.01.14 12:54:21   info : Test ID TC2 : previous test step/row 32 status is Passed and value of next test step/row is :: 33
2019.01.14 12:54:21   info : 

2019.01.14 12:54:21   info : -------------------- Executing Testcase ID TC2 and test step : 33 ---------------------- 
2019.01.14 12:54:22   info : Current WebDriver Win Count is:: 1
2019.01.14 12:54:22   info : page object present in excel : 1
2019.01.14 12:54:22   info : Under single object handle operation!!
2019.01.14 12:54:22   info : col 6 data :  and col 5 data : confirmButton_popup
2019.01.14 12:54:22   info : Normal click operation !!
2019.01.14 12:54:22   info : Checking for object in click
2019.01.14 12:54:22   info : Xml obj_repo path C:\Talent_Automation_Framework_Backup\Project_Talent/ObjectRepositories/BenefitAsia2_EE/EE_SimpliflexSG_Claims.xml
2019.01.14 12:54:22   info : xpath object successfully mapped!!
2019.01.14 12:54:22   info : xpath object contains property value !!
2019.01.14 12:54:22   info : Property name - xpath
2019.01.14 12:54:22   info : Property value - //*[@id="confirmButton"]
2019.01.14 12:54:22   info : Finding xpath element on webpage..
2019.01.14 12:54:22   info : Searching for element. Try number 0
2019.01.14 12:54:22   info : element disappeared after trying for 1 times
2019.01.14 12:54:23   info : Current WebDriver Win Count is:: 1
2019.01.14 12:54:23   info : Element found!!
2019.01.14 12:54:23   info : Xml obj_repo path C:\Talent_Automation_Framework_Backup\Project_Talent/ObjectRepositories/BenefitAsia2_EE/EE_SimpliflexSG_Claims.xml
2019.01.14 12:54:23   info : xpath object successfully mapped!!
2019.01.14 12:54:23   info : xpath object contains property value !!
2019.01.14 12:54:23   info : Property name - xpath
2019.01.14 12:54:23   info : Property value - //*[@id="confirmButton"]
2019.01.14 12:54:23   info : Finding xpath element on webpage..
2019.01.14 12:54:23   info : Searching for element. Try number 0
2019.01.14 12:54:23   info : element disappeared after trying for 1 times
2019.01.14 12:54:24   info : Current WebDriver Win Count is:: 1
2019.01.14 12:54:24   info : Element found!!
2019.01.14 12:54:24   info : clicked on confirmButton_popup
2019.01.14 12:54:25   info : Current WebDriver Win Count is:: 1
2019.01.14 12:54:25   info : restult status : 1
2019.01.14 12:54:25   info : Test ID TC2 : previous test step/row 33 status is Passed and value of next test step/row is :: 34
2019.01.14 12:54:25   info : 

2019.01.14 12:54:25   info : -------------------- Executing Testcase ID TC2 and test step : 34 ---------------------- 
2019.01.14 12:54:26   info : Current WebDriver Win Count is:: 1
2019.01.14 12:54:26   info : page object present in excel : 1
2019.01.14 12:54:26   info : Under single object handle operation!!
2019.01.14 12:54:26   info : col 6 data :  and col 5 data : ClaimSearchButton
2019.01.14 12:54:26   info : Normal click operation !!
2019.01.14 12:54:26   info : Checking for object in click
2019.01.14 12:54:26   info : Xml obj_repo path C:\Talent_Automation_Framework_Backup\Project_Talent/ObjectRepositories/BenefitAsia2_EE/EE_SimpliflexSG_Claims.xml
2019.01.14 12:54:26   info : xpath object successfully mapped!!
2019.01.14 12:54:26   info : xpath object contains property value !!
2019.01.14 12:54:26   info : Property name - xpath
2019.01.14 12:54:26   info : Property value - //*[contains(@id,"_ClaimsSearch_btnSearchNew")]
2019.01.14 12:54:26   info : Finding xpath element on webpage..
2019.01.14 12:54:26   info : Searching for element. Try number 0
2019.01.14 12:54:29   info : element disappeared after trying for 1 times
2019.01.14 12:54:30   info : Current WebDriver Win Count is:: 1
2019.01.14 12:54:30   info : Element found!!
2019.01.14 12:54:30   info : Xml obj_repo path C:\Talent_Automation_Framework_Backup\Project_Talent/ObjectRepositories/BenefitAsia2_EE/EE_SimpliflexSG_Claims.xml
2019.01.14 12:54:30   info : xpath object successfully mapped!!
2019.01.14 12:54:30   info : xpath object contains property value !!
2019.01.14 12:54:30   info : Property name - xpath
2019.01.14 12:54:30   info : Property value - //*[contains(@id,"_ClaimsSearch_btnSearchNew")]
2019.01.14 12:54:30   info : Finding xpath element on webpage..
2019.01.14 12:54:30   info : Searching for element. Try number 0
2019.01.14 12:54:30   info : element disappeared after trying for 1 times
2019.01.14 12:54:31   info : Current WebDriver Win Count is:: 1
2019.01.14 12:54:31   info : Element found!!
2019.01.14 12:54:31   info : clicked on ClaimSearchButton
2019.01.14 12:54:32   info : Current WebDriver Win Count is:: 1
2019.01.14 12:54:32   info : restult status : 1
2019.01.14 12:54:32   info : Test ID TC2 : previous test step/row 34 status is Passed and value of next test step/row is :: 35
2019.01.14 12:54:32   info : 

2019.01.14 12:54:32   info : -------------------- Executing Testcase ID TC2 and test step : 35 ---------------------- 
2019.01.14 12:54:33   info : Current WebDriver Win Count is:: 1
