2019.05.03 03:09:43   info : Selenium version :: 2.48.2
2019.05.03 03:09:43   info : Download fodler path created!!
2019.05.03 03:09:43   info : date_time_down_folder C:\Talent_Automation_Framework_Backup\Project_Talent\Downloads\2019_05_03\time_15_09_43\
2019.05.03 03:09:44   info : Total number of applications :: 4
2019.05.03 03:09:44   info : Application Name - DSOSG_Claims_N
2019.05.03 03:09:44   info : TestData_Sheet path:: C:\Talent_Automation_Framework_Backup\Project_Talent/TestCases/DSOSG_Claims_N.xlsx
2019.05.03 03:09:44   info : CSV updating and creating dump....
2019.05.03 03:09:45   info : Sheet name: TestCaseScheduler
2019.05.03 03:09:45   info : Sheet name: Test Case
2019.05.03 03:09:45   info : DSOSG_Claims_N sheetname found!!
2019.05.03 03:09:45   info : Total row 3665
2019.05.03 03:09:46   info : After row validation for blank or null!!
2019.05.03 03:09:46   info : Total final row 3664
2019.05.03 03:09:47   error : java.lang.NullPointerException
2019.05.03 03:09:47   info : Total number of test cases to be executed :: 44
2019.05.03 03:09:47   info : PrevTestID - null == null && row 1<= 3664
2019.05.03 03:09:47   info : Test ID TC1 : previous test step/row 0 status is Passed and value of next test step/row is :: 1
2019.05.03 03:09:47   info : 

2019.05.03 03:09:47   info : -------------------- Executing Testcase ID TC1 and test step : 1 ---------------------- 
2019.05.03 03:09:48   info : please wait.. browser getting open !!
2019.05.03 03:10:00   info : Opening Application..
2019.05.03 03:10:08   info : Current WebDriver Win Count is:: 1
2019.05.03 03:10:08   info : restult status : 1
2019.05.03 03:10:09   info : Test ID TC1 : previous test step/row 1 status is Passed and value of next test step/row is :: 2
2019.05.03 03:10:09   info : 

2019.05.03 03:10:09   info : -------------------- Executing Testcase ID TC1 and test step : 2 ---------------------- 
2019.05.03 03:10:10   info : Current WebDriver Win Count is:: 1
2019.05.03 03:10:10   info : Xml obj_repo path C:\Talent_Automation_Framework_Backup\Project_Talent/ObjectRepositories/BenefitAsia2_MercerAdmin/MA_Home.xml
2019.05.03 03:10:10   info : Title in xml file - Home
2019.05.03 03:10:10   warn : Window is not switched, now trying based on element!!
2019.05.03 03:10:10   info : Window title Mercer Account Center
2019.05.03 03:10:10   info : Xml obj_repo path C:\Talent_Automation_Framework_Backup\Project_Talent/ObjectRepositories/BenefitAsia2_MercerAdmin/MA_Home.xml
2019.05.03 03:10:10   info : xpath object successfully mapped!!
2019.05.03 03:10:10   info : xpath object contains property value !!
2019.05.03 03:10:10   info : Property name - xpath
2019.05.03 03:10:10   info : Property value - //input[contains(@id,"ContentPlaceHolder1_TextBox1")]
2019.05.03 03:10:10   info : Finding xpath element on webpage..
2019.05.03 03:10:10   info : Searching for element. Try number 0
2019.05.03 03:10:12   info : element disappeared after trying for 1 times
2019.05.03 03:10:12   info : Element found!!
2019.05.03 03:10:12   info : Desired window is activated!!
2019.05.03 03:10:12   info : Total static wait time 3
2019.05.03 03:10:15   info : Xml obj_repo path C:\Talent_Automation_Framework_Backup\Project_Talent/ObjectRepositories/BenefitAsia2_MercerAdmin/MA_Home.xml
2019.05.03 03:10:15   info : xpath object successfully mapped!!
2019.05.03 03:10:15   info : xpath object contains property value !!
2019.05.03 03:10:15   info : Property name - xpath
2019.05.03 03:10:15   info : Property value - //input[contains(@id,"ContentPlaceHolder1_TextBox1")]
2019.05.03 03:10:15   info : Finding xpath element on webpage..
2019.05.03 03:10:15   info : Searching for element. Try number 0
2019.05.03 03:10:16   info : element disappeared after trying for 1 times
2019.05.03 03:10:16   info : Element found!!
2019.05.03 03:10:16   info : ObjectTag input and ObjectType text
2019.05.03 03:10:16   info : Enter data operation
2019.05.03 03:10:17   info : Xml obj_repo path C:\Talent_Automation_Framework_Backup\Project_Talent/ObjectRepositories/BenefitAsia2_MercerAdmin/MA_Home.xml
2019.05.03 03:10:17   info : xpath object successfully mapped!!
2019.05.03 03:10:17   info : xpath object contains property value !!
2019.05.03 03:10:17   info : Property name - xpath
2019.05.03 03:10:17   info : Property value - //input[contains(@id,"ContentPlaceHolder1_TextBox1")]
2019.05.03 03:10:17   info : Finding xpath element on webpage..
2019.05.03 03:10:17   info : Searching for element. Try number 0
2019.05.03 03:10:18   info : element disappeared after trying for 1 times
2019.05.03 03:10:18   info : Element found!!
2019.05.03 03:10:18   info : Xml obj_repo path C:\Talent_Automation_Framework_Backup\Project_Talent/ObjectRepositories/BenefitAsia2_MercerAdmin/MA_Home.xml
2019.05.03 03:10:18   info : xpath object successfully mapped!!
2019.05.03 03:10:18   info : xpath object contains property value !!
2019.05.03 03:10:18   info : Property name - xpath
2019.05.03 03:10:18   info : Property value - //input[contains(@id,"ContentPlaceHolder1_TextBox1")]
2019.05.03 03:10:18   info : Finding xpath element on webpage..
2019.05.03 03:10:18   info : Searching for element. Try number 0
2019.05.03 03:10:19   info : element disappeared after trying for 1 times
2019.05.03 03:10:19   info : Element found!!
2019.05.03 03:10:19   info : ValueToEnter ashish.choudhary@mercer.com
2019.05.03 03:10:19   info : Entered value is ashish.choudhary@mercer.com
2019.05.03 03:10:19   info : Attribute entered value ashish.choudhary@mercer.com
2019.05.03 03:10:20   info : Current WebDriver Win Count is:: 1
2019.05.03 03:10:20   info : restult status : 1
2019.05.03 03:10:20   info : Test ID TC1 : previous test step/row 2 status is Passed and value of next test step/row is :: 3
2019.05.03 03:10:20   info : 

2019.05.03 03:10:20   info : -------------------- Executing Testcase ID TC1 and test step : 3 ---------------------- 
2019.05.03 03:10:22   info : Current WebDriver Win Count is:: 1
2019.05.03 03:10:22   info : page object present in excel : 1
2019.05.03 03:10:22   info : Under single object handle operation!!
2019.05.03 03:10:22   info : col 6 data :  and col 5 data : SSO_Next_Button
2019.05.03 03:10:22   info : Normal click operation !!
2019.05.03 03:10:22   info : Checking for object in click
2019.05.03 03:10:22   info : Xml obj_repo path C:\Talent_Automation_Framework_Backup\Project_Talent/ObjectRepositories/BenefitAsia2_MercerAdmin/MA_Home.xml
2019.05.03 03:10:22   info : xpath object successfully mapped!!
2019.05.03 03:10:22   info : xpath object contains property value !!
2019.05.03 03:10:22   info : Property name - xpath
2019.05.03 03:10:22   info : Property value - //input[contains(@id,"ContentPlaceHolder1_PassiveSignInButton")]
2019.05.03 03:10:22   info : Finding xpath element on webpage..
2019.05.03 03:10:22   info : Searching for element. Try number 0
2019.05.03 03:10:23   info : element disappeared after trying for 1 times
2019.05.03 03:10:23   info : Element found!!
2019.05.03 03:10:23   info : Xml obj_repo path C:\Talent_Automation_Framework_Backup\Project_Talent/ObjectRepositories/BenefitAsia2_MercerAdmin/MA_Home.xml
2019.05.03 03:10:23   info : xpath object successfully mapped!!
2019.05.03 03:10:23   info : xpath object contains property value !!
2019.05.03 03:10:23   info : Property name - xpath
2019.05.03 03:10:23   info : Property value - //input[contains(@id,"ContentPlaceHolder1_PassiveSignInButton")]
2019.05.03 03:10:23   info : Finding xpath element on webpage..
2019.05.03 03:10:23   info : Searching for element. Try number 0
2019.05.03 03:10:24   info : element disappeared after trying for 1 times
2019.05.03 03:10:24   info : Element found!!
2019.05.03 03:10:30   info : clicked on SSO_Next_Button
2019.05.03 03:10:31   info : Current WebDriver Win Count is:: 1
2019.05.03 03:10:37   info : restult status : 1
2019.05.03 03:10:37   info : Test ID TC1 : previous test step/row 3 status is Passed and value of next test step/row is :: 4
2019.05.03 03:10:37   info : 

2019.05.03 03:10:37   info : -------------------- Executing Testcase ID TC1 and test step : 4 ---------------------- 
2019.05.03 03:10:39   info : Current WebDriver Win Count is:: 1
2019.05.03 03:10:39   info : not doing anything!!
2019.05.03 03:10:39   info : Navigating to another url..
2019.05.03 03:10:43   info : Current WebDriver Win Count is:: 1
2019.05.03 03:10:43   info : restult status : 1
2019.05.03 03:10:43   info : Test ID TC1 : previous test step/row 4 status is Passed and value of next test step/row is :: 5
2019.05.03 03:10:43   info : 

2019.05.03 03:10:43   info : -------------------- Executing Testcase ID TC1 and test step : 5 ---------------------- 
2019.05.03 03:10:44   info : Current WebDriver Win Count is:: 1
2019.05.03 03:10:44   info : Xml obj_repo path C:\Talent_Automation_Framework_Backup\Project_Talent/ObjectRepositories/BenefitAsia2_MercerAdmin/MA_UploadEmployeeData.xml
2019.05.03 03:10:44   info : xpath object successfully mapped!!
2019.05.03 03:10:44   info : xpath object contains property value !!
2019.05.03 03:10:44   info : Property name - xpath
2019.05.03 03:10:44   info : Property value - //input[contains(@id,"_fupdDataFile")]
2019.05.03 03:10:44   info : Finding xpath element on webpage..
2019.05.03 03:10:44   info : Searching for element. Try number 0
2019.05.03 03:10:45   info : element disappeared after trying for 1 times
2019.05.03 03:10:45   info : Element found!!
2019.05.03 03:10:46   info : Current WebDriver Win Count is:: 1
2019.05.03 03:10:47   info : restult status : 1
2019.05.03 03:10:47   info : Test ID TC1 : previous test step/row 5 status is Passed and value of next test step/row is :: 6
2019.05.03 03:10:47   info : 

2019.05.03 03:10:47   info : -------------------- Executing Testcase ID TC1 and test step : 6 ---------------------- 
2019.05.03 03:10:48   info : Current WebDriver Win Count is:: 1
2019.05.03 03:10:48   info : page object present in excel : 1
2019.05.03 03:10:48   info : Under single object handle operation!!
2019.05.03 03:10:48   info : col 6 data : alert_accept and col 5 data : Start_Upload
2019.05.03 03:10:48   info : Click case operation !!
2019.05.03 03:10:48   info : oprnm alert_accept
2019.05.03 03:10:48   info : Xml obj_repo path C:\Talent_Automation_Framework_Backup\Project_Talent/ObjectRepositories/BenefitAsia2_MercerAdmin/MA_UploadEmployeeData.xml
2019.05.03 03:10:48   info : xpath object successfully mapped!!
2019.05.03 03:10:48   info : xpath object contains property value !!
2019.05.03 03:10:48   info : Property name - xpath
2019.05.03 03:10:48   info : Property value - //input[contains(@id,"_btnStartUpload")]
2019.05.03 03:10:48   info : Finding xpath element on webpage..
2019.05.03 03:10:48   info : Searching for element. Try number 0
2019.05.03 03:10:49   info : element disappeared after trying for 1 times
2019.05.03 03:10:49   info : Element found!!
2019.05.03 03:10:49   info : click alert_accept operation perfomred!!
2019.05.03 03:10:49   info : Total static wait time 2
2019.05.03 03:10:55   info : Alert is not present
2019.05.03 03:10:56   info : Current WebDriver Win Count is:: 1
2019.05.03 03:10:56   info : restult status : 1
2019.05.03 03:10:57   info : Test ID TC1 : previous test step/row 6 status is Passed and value of next test step/row is :: 7
2019.05.03 03:10:57   info : 

2019.05.03 03:10:57   info : -------------------- Executing Testcase ID TC1 and test step : 7 ---------------------- 
2019.05.03 03:10:58   info : Current WebDriver Win Count is:: 1
2019.05.03 03:10:58   info : page object present in excel : 1
2019.05.03 03:10:58   info : Under single object handle operation!!
2019.05.03 03:10:58   info : col 6 data :  and col 5 data : Submit
2019.05.03 03:10:58   info : Normal click operation !!
2019.05.03 03:10:58   info : Checking for object in click
2019.05.03 03:10:58   info : Xml obj_repo path C:\Talent_Automation_Framework_Backup\Project_Talent/ObjectRepositories/BenefitAsia2_MercerAdmin/MA_UploadEmployeeData.xml
2019.05.03 03:10:58   info : xpath object successfully mapped!!
2019.05.03 03:10:58   info : xpath object contains property value !!
2019.05.03 03:10:58   info : Property name - xpath
2019.05.03 03:10:58   info : Property value - //input[contains(@id,"_EmployeeDataNew_btnSubmit")]
2019.05.03 03:10:58   info : Finding xpath element on webpage..
2019.05.03 03:10:58   info : Searching for element. Try number 0
2019.05.03 03:10:59   info : element disappeared after trying for 1 times
