2018.07.27 11:49:57   info : Selenium version :: 2.48.2
2018.07.27 11:49:57   info : Download fodler path created!!
2018.07.27 11:49:57   info : date_time_down_folder C:\Talent_Automation_Framework_Backup\Project_Talent\Downloads\2018_07_27\time_11_49_57\
2018.07.27 11:49:58   info : Total number of applications :: 4
2018.07.27 11:49:58   info : Application Name - UBSHK_Claim_F
2018.07.27 11:49:58   info : TestData_Sheet path:: C:\Talent_Automation_Framework_Backup\Project_Talent/TestCases/UBSHK_Claim_F.xlsx
2018.07.27 11:49:58   info : CSV updating and creating dump....
2018.07.27 11:49:59   info : Sheet name: TestCaseScheduler
2018.07.27 11:49:59   info : Sheet name: Test Case
2018.07.27 11:49:59   info : UBSHK_Claim_F sheetname found!!
2018.07.27 11:49:59   info : Total row 4627
2018.07.27 11:49:59   info : After row validation for blank or null!!
2018.07.27 11:49:59   info : Total final row 4626
2018.07.27 11:50:01   error : java.lang.NullPointerException
2018.07.27 11:50:01   info : Total number of test cases to be executed :: 1
2018.07.27 11:50:01   info : PrevTestID - null == null && row 3464<= 4626
2018.07.27 11:50:01   info : Test ID TC45 : previous test step/row 3463 status is Passed and value of next test step/row is :: 3464
2018.07.27 11:50:01   info : 

2018.07.27 11:50:01   info : -------------------- Executing Testcase ID TC45 and test step : 3464 ---------------------- 
2018.07.27 11:50:02   info : please wait.. browser getting open !!
2018.07.27 11:50:15   info : Opening Application..
2018.07.27 11:50:21   info : Current WebDriver Win Count is:: 1
2018.07.27 11:50:22   info : restult status : 1
2018.07.27 11:50:23   info : Test ID TC45 : previous test step/row 3464 status is Passed and value of next test step/row is :: 3465
2018.07.27 11:50:23   info : 

2018.07.27 11:50:23   info : -------------------- Executing Testcase ID TC45 and test step : 3465 ---------------------- 
2018.07.27 11:50:24   info : Current WebDriver Win Count is:: 1
2018.07.27 11:50:24   info : Xml obj_repo path C:\Talent_Automation_Framework_Backup\Project_Talent/ObjectRepositories/BenefitAsia2_EE/EE_UBSHK_LoginLogout.xml
2018.07.27 11:50:24   info : Title contains null value in xml!!
2018.07.27 11:50:24   info : Window title User Login
2018.07.27 11:50:24   info : Xml obj_repo path C:\Talent_Automation_Framework_Backup\Project_Talent/ObjectRepositories/BenefitAsia2_EE/EE_UBSHK_LoginLogout.xml
2018.07.27 11:50:24   info : xpath object successfully mapped!!
2018.07.27 11:50:24   info : xpath object contains property value !!
2018.07.27 11:50:24   info : Property name - xpath
2018.07.27 11:50:24   info : Property value - //input[contains(@id,"_txtUsername")]
2018.07.27 11:50:24   info : Finding xpath element on webpage..
2018.07.27 11:50:24   info : Searching for element. Try number 0
2018.07.27 11:50:25   info : element disappeared after trying for 1 times
2018.07.27 11:50:26   info : Current WebDriver Win Count is:: 1
2018.07.27 11:50:26   info : Element found!!
2018.07.27 11:50:26   info : Desired window is activated!!
2018.07.27 11:50:26   info : FiledName UserName and FiledValue ubshk_26july_1642
2018.07.27 11:50:26   info : FiledName Password and FiledValue Password123$
2018.07.27 11:50:26   info : Total static wait time 3
2018.07.27 11:50:29   info : Xml obj_repo path C:\Talent_Automation_Framework_Backup\Project_Talent/ObjectRepositories/BenefitAsia2_EE/EE_UBSHK_LoginLogout.xml
2018.07.27 11:50:29   info : xpath object successfully mapped!!
2018.07.27 11:50:29   info : xpath object contains property value !!
2018.07.27 11:50:29   info : Property name - xpath
2018.07.27 11:50:29   info : Property value - //input[contains(@id,"_txtUsername")]
2018.07.27 11:50:29   info : Finding xpath element on webpage..
2018.07.27 11:50:29   info : Searching for element. Try number 0
2018.07.27 11:50:30   info : element disappeared after trying for 1 times
2018.07.27 11:50:31   info : Current WebDriver Win Count is:: 1
2018.07.27 11:50:31   info : Element found!!
2018.07.27 11:50:31   info : ObjectTag input and ObjectType text
2018.07.27 11:50:31   info : Enter data operation
2018.07.27 11:50:33   info : Xml obj_repo path C:\Talent_Automation_Framework_Backup\Project_Talent/ObjectRepositories/BenefitAsia2_EE/EE_UBSHK_LoginLogout.xml
2018.07.27 11:50:33   info : xpath object successfully mapped!!
2018.07.27 11:50:33   info : xpath object contains property value !!
2018.07.27 11:50:33   info : Property name - xpath
2018.07.27 11:50:33   info : Property value - //input[contains(@id,"_txtUsername")]
2018.07.27 11:50:33   info : Finding xpath element on webpage..
2018.07.27 11:50:33   info : Searching for element. Try number 0
2018.07.27 11:50:34   info : element disappeared after trying for 1 times
2018.07.27 11:50:35   info : Current WebDriver Win Count is:: 1
2018.07.27 11:50:35   info : Element found!!
2018.07.27 11:50:35   info : Xml obj_repo path C:\Talent_Automation_Framework_Backup\Project_Talent/ObjectRepositories/BenefitAsia2_EE/EE_UBSHK_LoginLogout.xml
2018.07.27 11:50:35   info : xpath object successfully mapped!!
2018.07.27 11:50:35   info : xpath object contains property value !!
2018.07.27 11:50:35   info : Property name - xpath
2018.07.27 11:50:35   info : Property value - //input[contains(@id,"_txtUsername")]
2018.07.27 11:50:35   info : Finding xpath element on webpage..
2018.07.27 11:50:35   info : Searching for element. Try number 0
2018.07.27 11:50:36   info : element disappeared after trying for 1 times
2018.07.27 11:50:37   info : Current WebDriver Win Count is:: 1
2018.07.27 11:50:37   info : Element found!!
2018.07.27 11:50:37   info : ValueToEnter ubshk_26july_1642
2018.07.27 11:50:37   info : Entered value is ubshk_26july_1642
2018.07.27 11:50:37   info : Attribute entered value ubshk_26july_1642
2018.07.27 11:50:37   info : Total static wait time 3
2018.07.27 11:50:40   info : Xml obj_repo path C:\Talent_Automation_Framework_Backup\Project_Talent/ObjectRepositories/BenefitAsia2_EE/EE_UBSHK_LoginLogout.xml
2018.07.27 11:50:40   info : xpath object successfully mapped!!
2018.07.27 11:50:40   info : xpath object contains property value !!
2018.07.27 11:50:40   info : Property name - xpath
2018.07.27 11:50:40   info : Property value - //input[contains(@id,"_txtPassword")]
2018.07.27 11:50:40   info : Finding xpath element on webpage..
2018.07.27 11:50:40   info : Searching for element. Try number 0
2018.07.27 11:50:41   info : element disappeared after trying for 1 times
2018.07.27 11:50:42   info : Current WebDriver Win Count is:: 1
2018.07.27 11:50:42   info : Element found!!
2018.07.27 11:50:42   info : ObjectTag input and ObjectType password
2018.07.27 11:50:42   info : Enter data operation
2018.07.27 11:50:42   info : Xml obj_repo path C:\Talent_Automation_Framework_Backup\Project_Talent/ObjectRepositories/BenefitAsia2_EE/EE_UBSHK_LoginLogout.xml
2018.07.27 11:50:42   info : xpath object successfully mapped!!
2018.07.27 11:50:42   info : xpath object contains property value !!
2018.07.27 11:50:42   info : Property name - xpath
2018.07.27 11:50:42   info : Property value - //input[contains(@id,"_txtPassword")]
2018.07.27 11:50:42   info : Finding xpath element on webpage..
2018.07.27 11:50:42   info : Searching for element. Try number 0
2018.07.27 11:50:43   info : element disappeared after trying for 1 times
2018.07.27 11:50:44   info : Current WebDriver Win Count is:: 1
2018.07.27 11:50:44   info : Element found!!
2018.07.27 11:50:44   info : ValueToEnter Password123$
2018.07.27 11:50:44   info : Entered value is Password123$
2018.07.27 11:50:44   info : Attribute entered value Password123$
2018.07.27 11:50:44   info : Checking for object in click
2018.07.27 11:50:44   info : Xml obj_repo path C:\Talent_Automation_Framework_Backup\Project_Talent/ObjectRepositories/BenefitAsia2_EE/EE_UBSHK_LoginLogout.xml
2018.07.27 11:50:44   info : xpath object successfully mapped!!
2018.07.27 11:50:44   info : xpath object contains property value !!
2018.07.27 11:50:44   info : Property name - xpath
2018.07.27 11:50:44   info : Property value - //input[contains(@id,"_cmdLogin")]
2018.07.27 11:50:44   info : Finding xpath element on webpage..
2018.07.27 11:50:44   info : Searching for element. Try number 0
2018.07.27 11:50:45   info : element disappeared after trying for 1 times
2018.07.27 11:50:46   info : Current WebDriver Win Count is:: 1
2018.07.27 11:50:46   info : Element found!!
2018.07.27 11:50:46   info : Xml obj_repo path C:\Talent_Automation_Framework_Backup\Project_Talent/ObjectRepositories/BenefitAsia2_EE/EE_UBSHK_LoginLogout.xml
2018.07.27 11:50:46   info : xpath object successfully mapped!!
2018.07.27 11:50:46   info : xpath object contains property value !!
2018.07.27 11:50:46   info : Property name - xpath
2018.07.27 11:50:46   info : Property value - //input[contains(@id,"_cmdLogin")]
2018.07.27 11:50:46   info : Finding xpath element on webpage..
2018.07.27 11:50:46   info : Searching for element. Try number 0
2018.07.27 11:50:47   info : element disappeared after trying for 1 times
2018.07.27 11:50:48   info : Current WebDriver Win Count is:: 1
2018.07.27 11:50:48   info : Element found!!
2018.07.27 11:51:00   info : clicked on LoginButton
2018.07.27 11:51:01   info : Current WebDriver Win Count is:: 1
2018.07.27 11:51:01   info : restult status : 1
2018.07.27 11:51:01   info : Test ID TC45 : previous test step/row 3465 status is Passed and value of next test step/row is :: 3466
2018.07.27 11:51:01   info : 

2018.07.27 11:51:01   info : -------------------- Executing Testcase ID TC45 and test step : 3466 ---------------------- 
2018.07.27 11:51:03   info : Current WebDriver Win Count is:: 1
2018.07.27 11:51:03   info : Xml obj_repo path C:\Talent_Automation_Framework_Backup\Project_Talent/ObjectRepositories/BenefitAsia2_EE/EE_UBSHK_Home.xml
2018.07.27 11:51:03   info : Title in xml file - Home
2018.07.27 11:51:03   warn : Window is not switched, now trying based on element!!
2018.07.27 11:51:03   info : Window title UBSHK > Home
2018.07.27 11:51:03   info : Xml obj_repo path C:\Talent_Automation_Framework_Backup\Project_Talent/ObjectRepositories/BenefitAsia2_EE/EE_UBSHK_Home.xml
2018.07.27 11:51:03   info : xpath object successfully mapped!!
2018.07.27 11:51:03   info : xpath object contains property value !!
2018.07.27 11:51:03   info : Property name - xpath
2018.07.27 11:51:03   info : Property value - //a[contains(@id,"_BA2DashBoard_SUBMITCLAIM")]
2018.07.27 11:51:03   info : Finding xpath element on webpage..
2018.07.27 11:51:03   info : Searching for element. Try number 0
2018.07.27 11:51:04   info : element disappeared after trying for 1 times
2018.07.27 11:51:05   info : Current WebDriver Win Count is:: 1
2018.07.27 11:51:05   info : Element found!!
2018.07.27 11:51:05   info : Desired window is activated!!
2018.07.27 11:51:05   info : page object present in excel : 1
2018.07.27 11:51:05   info : Under single object handle operation!!
2018.07.27 11:51:05   info : col 6 data :  and col 5 data : CreateNewClaim
2018.07.27 11:51:05   info : Normal click operation !!
2018.07.27 11:51:05   info : Checking for object in click
2018.07.27 11:51:05   info : Xml obj_repo path C:\Talent_Automation_Framework_Backup\Project_Talent/ObjectRepositories/BenefitAsia2_EE/EE_UBSHK_Home.xml
2018.07.27 11:51:05   info : xpath object successfully mapped!!
2018.07.27 11:51:05   info : xpath object contains property value !!
2018.07.27 11:51:05   info : Property name - xpath
2018.07.27 11:51:05   info : Property value - //a[contains(@id,"_BA2DashBoard_SUBMITCLAIM")]
2018.07.27 11:51:05   info : Finding xpath element on webpage..
2018.07.27 11:51:05   info : Searching for element. Try number 0
2018.07.27 11:51:06   info : element disappeared after trying for 1 times
2018.07.27 11:51:07   info : Current WebDriver Win Count is:: 1
2018.07.27 11:51:07   info : Element found!!
2018.07.27 11:51:07   info : Xml obj_repo path C:\Talent_Automation_Framework_Backup\Project_Talent/ObjectRepositories/BenefitAsia2_EE/EE_UBSHK_Home.xml
2018.07.27 11:51:07   info : xpath object successfully mapped!!
2018.07.27 11:51:07   info : xpath object contains property value !!
2018.07.27 11:51:07   info : Property name - xpath
2018.07.27 11:51:07   info : Property value - //a[contains(@id,"_BA2DashBoard_SUBMITCLAIM")]
2018.07.27 11:51:07   info : Finding xpath element on webpage..
2018.07.27 11:51:07   info : Searching for element. Try number 0
2018.07.27 11:51:08   info : element disappeared after trying for 1 times
2018.07.27 11:51:09   info : Current WebDriver Win Count is:: 1
2018.07.27 11:51:09   info : Element found!!
2018.07.27 11:51:20   info : clicked on CreateNewClaim
2018.07.27 11:51:21   info : Current WebDriver Win Count is:: 1
2018.07.27 11:51:21   info : restult status : 1
2018.07.27 11:51:21   info : Test ID TC45 : previous test step/row 3466 status is Passed and value of next test step/row is :: 3467
2018.07.27 11:51:21   info : 

2018.07.27 11:51:21   info : -------------------- Executing Testcase ID TC45 and test step : 3467 ---------------------- 
2018.07.27 11:51:23   info : Current WebDriver Win Count is:: 1
2018.07.27 11:51:23   info : Xml obj_repo path C:\Talent_Automation_Framework_Backup\Project_Talent/ObjectRepositories/BenefitAsia2_EE/EE_UBSHK_Claims.xml
2018.07.27 11:51:23   info : Title in xml file - Create New Claim
2018.07.27 11:51:23   info : Title of the page after - switching window To: Create New Claim
2018.07.27 11:51:23   info : Desired window is activated!!
2018.07.27 11:51:23   info : Total static wait time 3
2018.07.27 11:51:26   info : Xml obj_repo path C:\Talent_Automation_Framework_Backup\Project_Talent/ObjectRepositories/BenefitAsia2_EE/EE_UBSHK_Claims.xml
2018.07.27 11:51:26   info : xpath object successfully mapped!!
2018.07.27 11:51:26   info : xpath object contains property value !!
2018.07.27 11:51:26   info : Property name - xpath
2018.07.27 11:51:26   info : Property value - //*[contains(@id,"_ClaimsSubmit_ClaimSubmitControlV2_lstClaimItemName")]
2018.07.27 11:51:26   info : Finding xpath element on webpage..
2018.07.27 11:51:26   info : Searching for element. Try number 0
2018.07.27 11:51:26   info : element disappeared after trying for 1 times
2018.07.27 11:51:27   info : Current WebDriver Win Count is:: 1
2018.07.27 11:51:27   info : Element found!!
2018.07.27 11:51:27   info : ObjectTag select and ObjectType null
2018.07.27 11:51:27   info : select combobox operation 
2018.07.27 11:51:27   info : Xml obj_repo path C:\Talent_Automation_Framework_Backup\Project_Talent/ObjectRepositories/BenefitAsia2_EE/EE_UBSHK_Claims.xml
2018.07.27 11:51:27   info : xpath object successfully mapped!!
2018.07.27 11:51:27   info : xpath object contains property value !!
2018.07.27 11:51:27   info : Property name - xpath
2018.07.27 11:51:27   info : Property value - //*[contains(@id,"_ClaimsSubmit_ClaimSubmitControlV2_lstClaimItemName")]
2018.07.27 11:51:27   info : Finding xpath element on webpage..
2018.07.27 11:51:27   info : Searching for element. Try number 0
2018.07.27 11:51:27   info : element disappeared after trying for 1 times
2018.07.27 11:51:28   info : Current WebDriver Win Count is:: 1
2018.07.27 11:51:28   info : Element found!!
2018.07.27 11:51:28   info : Xml obj_repo path C:\Talent_Automation_Framework_Backup\Project_Talent/ObjectRepositories/BenefitAsia2_EE/EE_UBSHK_Claims.xml
2018.07.27 11:51:28   info : xpath object successfully mapped!!
2018.07.27 11:51:28   info : xpath object contains property value !!
2018.07.27 11:51:28   info : Property name - xpath
2018.07.27 11:51:28   info : Property value - //*[contains(@id,"_ClaimsSubmit_ClaimSubmitControlV2_lstClaimItemName")]
2018.07.27 11:51:28   info : Finding xpath element on webpage..
2018.07.27 11:51:28   info : Element found!!
2018.07.27 11:51:29   info :    Health screening expenses value selected!!
2018.07.27 11:51:31   info : Alert is not present
2018.07.27 11:51:31   info : Total static wait time 3
2018.07.27 11:51:34   info : Xml obj_repo path C:\Talent_Automation_Framework_Backup\Project_Talent/ObjectRepositories/BenefitAsia2_EE/EE_UBSHK_Claims.xml
2018.07.27 11:51:34   info : xpath object successfully mapped!!
2018.07.27 11:51:34   info : xpath object contains property value !!
2018.07.27 11:51:34   info : Property name - xpath
2018.07.27 11:51:34   info : Property value - //*[contains(@id,"_ClaimsSubmit_ClaimSubmitControlV2_txtProviderName")]
2018.07.27 11:51:34   info : Finding xpath element on webpage..
2018.07.27 11:51:34   info : Searching for element. Try number 0
2018.07.27 11:51:35   info : element disappeared after trying for 1 times
2018.07.27 11:51:36   info : Current WebDriver Win Count is:: 1
2018.07.27 11:51:36   info : Element found!!
2018.07.27 11:51:36   info : ObjectTag input and ObjectType text
2018.07.27 11:51:36   info : Enter data operation
2018.07.27 11:51:36   info : Xml obj_repo path C:\Talent_Automation_Framework_Backup\Project_Talent/ObjectRepositories/BenefitAsia2_EE/EE_UBSHK_Claims.xml
2018.07.27 11:51:36   info : xpath object successfully mapped!!
2018.07.27 11:51:36   info : xpath object contains property value !!
2018.07.27 11:51:36   info : Property name - xpath
2018.07.27 11:51:36   info : Property value - //*[contains(@id,"_ClaimsSubmit_ClaimSubmitControlV2_txtProviderName")]
2018.07.27 11:51:36   info : Finding xpath element on webpage..
2018.07.27 11:51:36   info : Searching for element. Try number 0
2018.07.27 11:51:36   info : element disappeared after trying for 1 times
2018.07.27 11:51:37   info : Current WebDriver Win Count is:: 1
2018.07.27 11:51:37   info : Element found!!
2018.07.27 11:51:37   info : Xml obj_repo path C:\Talent_Automation_Framework_Backup\Project_Talent/ObjectRepositories/BenefitAsia2_EE/EE_UBSHK_Claims.xml
2018.07.27 11:51:37   info : xpath object successfully mapped!!
2018.07.27 11:51:37   info : xpath object contains property value !!
2018.07.27 11:51:37   info : Property name - xpath
2018.07.27 11:51:37   info : Property value - //*[contains(@id,"_ClaimsSubmit_ClaimSubmitControlV2_txtProviderName")]
2018.07.27 11:51:37   info : Finding xpath element on webpage..
2018.07.27 11:51:37   info : Searching for element. Try number 0
2018.07.27 11:51:37   info : element disappeared after trying for 1 times
2018.07.27 11:51:38   info : Current WebDriver Win Count is:: 1
2018.07.27 11:51:38   info : Element found!!
2018.07.27 11:51:38   info : ValueToEnter Provider48
2018.07.27 11:51:38   info : Entered value is Provider48
2018.07.27 11:51:38   info : Attribute entered value Provider48
2018.07.27 11:51:38   info : Total static wait time 3
2018.07.27 11:51:41   info : Xml obj_repo path C:\Talent_Automation_Framework_Backup\Project_Talent/ObjectRepositories/BenefitAsia2_EE/EE_UBSHK_Claims.xml
2018.07.27 11:51:41   info : xpath object successfully mapped!!
2018.07.27 11:51:41   info : xpath object contains property value !!
2018.07.27 11:51:41   info : Property name - xpath
2018.07.27 11:51:41   info : Property value - //input[contains(@id,"_ClaimsSubmit_ClaimSubmitControlV2_txtReceiptDate")]
2018.07.27 11:51:41   info : Finding xpath element on webpage..
2018.07.27 11:51:41   info : Searching for element. Try number 0
2018.07.27 11:51:41   info : element disappeared after trying for 1 times
2018.07.27 11:51:42   info : Current WebDriver Win Count is:: 1
2018.07.27 11:51:42   info : Element found!!
2018.07.27 11:51:42   info : ObjectTag input and ObjectType text
2018.07.27 11:51:42   info : Enter data operation
2018.07.27 11:51:42   info : Xml obj_repo path C:\Talent_Automation_Framework_Backup\Project_Talent/ObjectRepositories/BenefitAsia2_EE/EE_UBSHK_Claims.xml
2018.07.27 11:51:42   info : xpath object successfully mapped!!
2018.07.27 11:51:42   info : xpath object contains property value !!
2018.07.27 11:51:42   info : Property name - xpath
2018.07.27 11:51:42   info : Property value - //input[contains(@id,"_ClaimsSubmit_ClaimSubmitControlV2_txtReceiptDate")]
2018.07.27 11:51:42   info : Finding xpath element on webpage..
2018.07.27 11:51:42   info : Searching for element. Try number 0
2018.07.27 11:51:42   info : element disappeared after trying for 1 times
2018.07.27 11:51:43   info : Current WebDriver Win Count is:: 1
2018.07.27 11:51:43   info : Element found!!
2018.07.27 11:51:43   info : Xml obj_repo path C:\Talent_Automation_Framework_Backup\Project_Talent/ObjectRepositories/BenefitAsia2_EE/EE_UBSHK_Claims.xml
2018.07.27 11:51:43   info : xpath object successfully mapped!!
2018.07.27 11:51:43   info : xpath object contains property value !!
2018.07.27 11:51:43   info : Property name - xpath
2018.07.27 11:51:43   info : Property value - //input[contains(@id,"_ClaimsSubmit_ClaimSubmitControlV2_txtReceiptDate")]
2018.07.27 11:51:43   info : Finding xpath element on webpage..
2018.07.27 11:51:43   info : Searching for element. Try number 0
2018.07.27 11:51:43   info : element disappeared after trying for 1 times
2018.07.27 11:51:44   info : Current WebDriver Win Count is:: 1
2018.07.27 11:51:44   info : Element found!!
2018.07.27 11:51:44   info : ValueToEnter 26/Jul/2018
2018.07.27 11:51:44   info : Entered value is 26/Jul/2018
2018.07.27 11:51:44   info : Attribute entered value 26/Jul/2018
2018.07.27 11:51:44   info : Total static wait time 3
2018.07.27 11:51:47   info : Xml obj_repo path C:\Talent_Automation_Framework_Backup\Project_Talent/ObjectRepositories/BenefitAsia2_EE/EE_UBSHK_Claims.xml
2018.07.27 11:51:47   info : xpath object successfully mapped!!
2018.07.27 11:51:47   info : xpath object contains property value !!
2018.07.27 11:51:47   info : Property name - xpath
2018.07.27 11:51:47   info : Property value - //input[contains(@id,"_ClaimsSubmit_ClaimSubmitControlV2_txtReceiptNo")]
2018.07.27 11:51:47   info : Finding xpath element on webpage..
2018.07.27 11:51:47   info : Searching for element. Try number 0
2018.07.27 11:51:47   info : element disappeared after trying for 1 times
2018.07.27 11:51:48   info : Current WebDriver Win Count is:: 1
2018.07.27 11:51:48   info : Element found!!
2018.07.27 11:51:48   info : ObjectTag input and ObjectType text
2018.07.27 11:51:48   info : Enter data operation
2018.07.27 11:51:48   info : Xml obj_repo path C:\Talent_Automation_Framework_Backup\Project_Talent/ObjectRepositories/BenefitAsia2_EE/EE_UBSHK_Claims.xml
2018.07.27 11:51:48   info : xpath object successfully mapped!!
2018.07.27 11:51:48   info : xpath object contains property value !!
2018.07.27 11:51:48   info : Property name - xpath
2018.07.27 11:51:48   info : Property value - //input[contains(@id,"_ClaimsSubmit_ClaimSubmitControlV2_txtReceiptNo")]
2018.07.27 11:51:48   info : Finding xpath element on webpage..
2018.07.27 11:51:48   info : Searching for element. Try number 0
2018.07.27 11:51:48   info : element disappeared after trying for 1 times
2018.07.27 11:51:49   info : Current WebDriver Win Count is:: 1
2018.07.27 11:51:49   info : Element found!!
2018.07.27 11:51:49   info : Xml obj_repo path C:\Talent_Automation_Framework_Backup\Project_Talent/ObjectRepositories/BenefitAsia2_EE/EE_UBSHK_Claims.xml
2018.07.27 11:51:49   info : xpath object successfully mapped!!
2018.07.27 11:51:49   info : xpath object contains property value !!
2018.07.27 11:51:49   info : Property name - xpath
2018.07.27 11:51:49   info : Property value - //input[contains(@id,"_ClaimsSubmit_ClaimSubmitControlV2_txtReceiptNo")]
2018.07.27 11:51:49   info : Finding xpath element on webpage..
2018.07.27 11:51:49   info : Searching for element. Try number 0
2018.07.27 11:51:49   info : element disappeared after trying for 1 times
2018.07.27 11:51:50   info : Current WebDriver Win Count is:: 1
2018.07.27 11:51:50   info : Element found!!
2018.07.27 11:51:50   info : ValueToEnter Receipt83
2018.07.27 11:51:51   info : Entered value is Receipt83
2018.07.27 11:51:51   info : Attribute entered value Receipt83
2018.07.27 11:51:51   info : Total static wait time 3
2018.07.27 11:51:54   info : Xml obj_repo path C:\Talent_Automation_Framework_Backup\Project_Talent/ObjectRepositories/BenefitAsia2_EE/EE_UBSHK_Claims.xml
2018.07.27 11:51:54   info : xpath object successfully mapped!!
2018.07.27 11:51:54   info : xpath object contains property value !!
2018.07.27 11:51:54   info : Property name - xpath
2018.07.27 11:51:54   info : Property value - //input[contains(@id,"_ClaimsSubmit_ClaimSubmitControlV2_txtReceiptAmount")]
2018.07.27 11:51:54   info : Finding xpath element on webpage..
2018.07.27 11:51:54   info : Searching for element. Try number 0
2018.07.27 11:51:54   info : element disappeared after trying for 1 times
2018.07.27 11:51:55   info : Current WebDriver Win Count is:: 1
2018.07.27 11:51:55   info : Element found!!
2018.07.27 11:51:55   info : ObjectTag input and ObjectType text
2018.07.27 11:51:55   info : Enter data operation
2018.07.27 11:51:55   info : Xml obj_repo path C:\Talent_Automation_Framework_Backup\Project_Talent/ObjectRepositories/BenefitAsia2_EE/EE_UBSHK_Claims.xml
2018.07.27 11:51:55   info : xpath object successfully mapped!!
2018.07.27 11:51:55   info : xpath object contains property value !!
2018.07.27 11:51:55   info : Property name - xpath
2018.07.27 11:51:55   info : Property value - //input[contains(@id,"_ClaimsSubmit_ClaimSubmitControlV2_txtReceiptAmount")]
2018.07.27 11:51:55   info : Finding xpath element on webpage..
2018.07.27 11:51:55   info : Searching for element. Try number 0
2018.07.27 11:51:55   info : element disappeared after trying for 1 times
2018.07.27 11:51:56   info : Current WebDriver Win Count is:: 1
2018.07.27 11:51:56   info : Element found!!
2018.07.27 11:51:56   info : Xml obj_repo path C:\Talent_Automation_Framework_Backup\Project_Talent/ObjectRepositories/BenefitAsia2_EE/EE_UBSHK_Claims.xml
2018.07.27 11:51:56   info : xpath object successfully mapped!!
2018.07.27 11:51:56   info : xpath object contains property value !!
2018.07.27 11:51:56   info : Property name - xpath
2018.07.27 11:51:56   info : Property value - //input[contains(@id,"_ClaimsSubmit_ClaimSubmitControlV2_txtReceiptAmount")]
2018.07.27 11:51:56   info : Finding xpath element on webpage..
2018.07.27 11:51:56   info : Searching for element. Try number 0
2018.07.27 11:51:56   info : element disappeared after trying for 1 times
2018.07.27 11:51:57   info : Current WebDriver Win Count is:: 1
2018.07.27 11:51:57   info : Element found!!
2018.07.27 11:51:57   info : ValueToEnter 400
2018.07.27 11:51:57   info : Entered value is 400
2018.07.27 11:51:57   info : Attribute entered value 400
2018.07.27 11:51:58   info : Current WebDriver Win Count is:: 1
2018.07.27 11:51:58   info : restult status : 1
2018.07.27 11:51:58   info : Test ID TC45 : previous test step/row 3467 status is Passed and value of next test step/row is :: 3468
2018.07.27 11:51:58   info : 

2018.07.27 11:51:58   info : -------------------- Executing Testcase ID TC45 and test step : 3468 ---------------------- 
2018.07.27 11:52:00   info : Current WebDriver Win Count is:: 1
2018.07.27 11:52:00   info : Xml obj_repo path C:\Talent_Automation_Framework_Backup\Project_Talent/ObjectRepositories/BenefitAsia2_EE/EE_UBSHK_Home.xml
2018.07.27 11:52:00   info : Title in xml file - Home
2018.07.27 11:52:00   warn : Window is not switched, now trying based on element!!
2018.07.27 11:52:00   info : Window title Create New Claim
2018.07.27 11:52:00   info : Xml obj_repo path C:\Talent_Automation_Framework_Backup\Project_Talent/ObjectRepositories/BenefitAsia2_EE/EE_UBSHK_Home.xml
2018.07.27 11:52:00   info : xpath object successfully mapped!!
2018.07.27 11:52:00   info : xpath object contains property value !!
2018.07.27 11:52:00   info : Property name - xpath
2018.07.27 11:52:00   info : Property value - //*[contains(@id,"_ClaimsSubmit_ClaimSubmitControlV2_AttachFiles_File1")]
2018.07.27 11:52:00   info : Finding xpath element on webpage..
2018.07.27 11:52:00   info : Searching for element. Try number 0
2018.07.27 11:52:00   info : element disappeared after trying for 1 times
2018.07.27 11:52:01   info : Current WebDriver Win Count is:: 1
2018.07.27 11:52:01   info : Element found!!
2018.07.27 11:52:01   info : Desired window is activated!!
2018.07.27 11:52:01   info : Xml obj_repo path C:\Talent_Automation_Framework_Backup\Project_Talent/ObjectRepositories/BenefitAsia2_EE/EE_UBSHK_Home.xml
2018.07.27 11:52:01   info : xpath object successfully mapped!!
2018.07.27 11:52:01   info : xpath object contains property value !!
2018.07.27 11:52:01   info : Property name - xpath
2018.07.27 11:52:01   info : Property value - //*[contains(@id,"_ClaimsSubmit_ClaimSubmitControlV2_AttachFiles_File1")]
2018.07.27 11:52:01   info : Finding xpath element on webpage..
2018.07.27 11:52:01   info : Searching for element. Try number 0
2018.07.27 11:52:01   info : element disappeared after trying for 1 times
2018.07.27 11:52:02   info : Current WebDriver Win Count is:: 1
2018.07.27 11:52:02   info : Element found!!
2018.07.27 11:52:03   info : Current WebDriver Win Count is:: 1
2018.07.27 11:52:04   info : restult status : 1
2018.07.27 11:52:04   info : Test ID TC45 : previous test step/row 3468 status is Passed and value of next test step/row is :: 3469
2018.07.27 11:52:04   info : 

2018.07.27 11:52:04   info : -------------------- Executing Testcase ID TC45 and test step : 3469 ---------------------- 
2018.07.27 11:52:06   info : Current WebDriver Win Count is:: 1
2018.07.27 11:52:06   info : Xml obj_repo path C:\Talent_Automation_Framework_Backup\Project_Talent/ObjectRepositories/BenefitAsia2_EE/EE_UBSHK_Claims.xml
2018.07.27 11:52:06   info : Title in xml file - Create New Claim
2018.07.27 11:52:06   info : Title of the page after - switching window To: Create New Claim
2018.07.27 11:52:06   info : Desired window is activated!!
2018.07.27 11:52:06   info : page object present in excel : 1
2018.07.27 11:52:06   info : Under single object handle operation!!
2018.07.27 11:52:06   info : col 6 data :  and col 5 data : ReadyToSubmitButton
2018.07.27 11:52:06   info : Normal click operation !!
2018.07.27 11:52:06   info : Checking for object in click
2018.07.27 11:52:06   info : Xml obj_repo path C:\Talent_Automation_Framework_Backup\Project_Talent/ObjectRepositories/BenefitAsia2_EE/EE_UBSHK_Claims.xml
2018.07.27 11:52:06   info : xpath object successfully mapped!!
2018.07.27 11:52:06   info : xpath object contains property value !!
2018.07.27 11:52:06   info : Property name - xpath
2018.07.27 11:52:06   info : Property value - //*[contains(@id,"_ClaimsSubmit_ClaimSubmitControlV2_ready")]
2018.07.27 11:52:06   info : Finding xpath element on webpage..
2018.07.27 11:52:06   info : Searching for element. Try number 0
2018.07.27 11:56:48   info : element disappeared after trying for 1 times
2018.07.27 11:56:49   info : Current WebDriver Win Count is:: 1
