2018.07.27 12:28:40   info : Selenium version :: 2.48.2
2018.07.27 12:28:40   info : Download fodler path created!!
2018.07.27 12:28:40   info : date_time_down_folder C:\Talent_Automation_Framework_Backup\Project_Talent\Downloads\2018_07_27\time_12_28_40\
2018.07.27 12:28:41   info : Total number of applications :: 4
2018.07.27 12:28:41   info : Application Name - UBSHK_Claim_F
2018.07.27 12:28:41   info : TestData_Sheet path:: C:\Talent_Automation_Framework_Backup\Project_Talent/TestCases/UBSHK_Claim_F.xlsx
2018.07.27 12:28:41   info : CSV updating and creating dump....
2018.07.27 12:28:42   info : Sheet name: TestCaseScheduler
2018.07.27 12:28:42   info : Sheet name: Test Case
2018.07.27 12:28:42   info : UBSHK_Claim_F sheetname found!!
2018.07.27 12:28:42   info : Total row 4628
2018.07.27 12:28:42   info : After row validation for blank or null!!
2018.07.27 12:28:42   info : Total final row 4627
2018.07.27 12:28:44   error : java.lang.NullPointerException
2018.07.27 12:28:44   info : Total number of test cases to be executed :: 1
2018.07.27 12:28:44   info : PrevTestID - null == null && row 3464<= 4627
2018.07.27 12:28:44   info : Test ID TC45 : previous test step/row 3463 status is Passed and value of next test step/row is :: 3464
2018.07.27 12:28:44   info : 

2018.07.27 12:28:44   info : -------------------- Executing Testcase ID TC45 and test step : 3464 ---------------------- 
2018.07.27 12:28:45   info : please wait.. browser getting open !!
2018.07.27 12:28:57   info : Opening Application..
2018.07.27 12:29:03   info : Current WebDriver Win Count is:: 1
2018.07.27 12:29:03   info : restult status : 1
2018.07.27 12:29:04   info : Test ID TC45 : previous test step/row 3464 status is Passed and value of next test step/row is :: 3465
2018.07.27 12:29:04   info : 

2018.07.27 12:29:04   info : -------------------- Executing Testcase ID TC45 and test step : 3465 ---------------------- 
2018.07.27 12:29:05   info : Current WebDriver Win Count is:: 1
2018.07.27 12:29:05   info : Xml obj_repo path C:\Talent_Automation_Framework_Backup\Project_Talent/ObjectRepositories/BenefitAsia2_EE/EE_UBSHK_LoginLogout.xml
2018.07.27 12:29:05   info : Title contains null value in xml!!
2018.07.27 12:29:05   info : Window title User Login
2018.07.27 12:29:05   info : Xml obj_repo path C:\Talent_Automation_Framework_Backup\Project_Talent/ObjectRepositories/BenefitAsia2_EE/EE_UBSHK_LoginLogout.xml
2018.07.27 12:29:05   info : xpath object successfully mapped!!
2018.07.27 12:29:05   info : xpath object contains property value !!
2018.07.27 12:29:05   info : Property name - xpath
2018.07.27 12:29:05   info : Property value - //input[contains(@id,"_txtUsername")]
2018.07.27 12:29:05   info : Finding xpath element on webpage..
2018.07.27 12:29:05   info : Searching for element. Try number 0
2018.07.27 12:29:06   info : element disappeared after trying for 1 times
2018.07.27 12:29:07   info : Current WebDriver Win Count is:: 1
2018.07.27 12:29:08   info : Element found!!
2018.07.27 12:29:08   info : Desired window is activated!!
2018.07.27 12:29:08   info : FiledName UserName and FiledValue ubshk_26july_1642
2018.07.27 12:29:08   info : FiledName Password and FiledValue Password123$
2018.07.27 12:29:08   info : Total static wait time 3
2018.07.27 12:29:11   info : Xml obj_repo path C:\Talent_Automation_Framework_Backup\Project_Talent/ObjectRepositories/BenefitAsia2_EE/EE_UBSHK_LoginLogout.xml
2018.07.27 12:29:11   info : xpath object successfully mapped!!
2018.07.27 12:29:11   info : xpath object contains property value !!
2018.07.27 12:29:11   info : Property name - xpath
2018.07.27 12:29:11   info : Property value - //input[contains(@id,"_txtUsername")]
2018.07.27 12:29:11   info : Finding xpath element on webpage..
2018.07.27 12:29:11   info : Searching for element. Try number 0
2018.07.27 12:29:12   info : element disappeared after trying for 1 times
2018.07.27 12:29:13   info : Current WebDriver Win Count is:: 1
2018.07.27 12:29:13   info : Element found!!
2018.07.27 12:29:13   info : ObjectTag input and ObjectType text
2018.07.27 12:29:13   info : Enter data operation
2018.07.27 12:29:14   info : Xml obj_repo path C:\Talent_Automation_Framework_Backup\Project_Talent/ObjectRepositories/BenefitAsia2_EE/EE_UBSHK_LoginLogout.xml
2018.07.27 12:29:14   info : xpath object successfully mapped!!
2018.07.27 12:29:14   info : xpath object contains property value !!
2018.07.27 12:29:14   info : Property name - xpath
2018.07.27 12:29:14   info : Property value - //input[contains(@id,"_txtUsername")]
2018.07.27 12:29:14   info : Finding xpath element on webpage..
2018.07.27 12:29:14   info : Searching for element. Try number 0
2018.07.27 12:29:15   info : element disappeared after trying for 1 times
2018.07.27 12:29:16   info : Current WebDriver Win Count is:: 1
2018.07.27 12:29:16   info : Element found!!
2018.07.27 12:29:16   info : Xml obj_repo path C:\Talent_Automation_Framework_Backup\Project_Talent/ObjectRepositories/BenefitAsia2_EE/EE_UBSHK_LoginLogout.xml
2018.07.27 12:29:16   info : xpath object successfully mapped!!
2018.07.27 12:29:16   info : xpath object contains property value !!
2018.07.27 12:29:16   info : Property name - xpath
2018.07.27 12:29:16   info : Property value - //input[contains(@id,"_txtUsername")]
2018.07.27 12:29:16   info : Finding xpath element on webpage..
2018.07.27 12:29:16   info : Searching for element. Try number 0
2018.07.27 12:29:17   info : element disappeared after trying for 1 times
2018.07.27 12:29:18   info : Current WebDriver Win Count is:: 1
2018.07.27 12:29:18   info : Element found!!
2018.07.27 12:29:18   info : ValueToEnter ubshk_26july_1642
2018.07.27 12:29:18   info : Entered value is ubshk_26july_1642
2018.07.27 12:29:18   info : Attribute entered value ubshk_26july_1642
2018.07.27 12:29:18   info : Total static wait time 3
2018.07.27 12:29:21   info : Xml obj_repo path C:\Talent_Automation_Framework_Backup\Project_Talent/ObjectRepositories/BenefitAsia2_EE/EE_UBSHK_LoginLogout.xml
2018.07.27 12:29:21   info : xpath object successfully mapped!!
2018.07.27 12:29:21   info : xpath object contains property value !!
2018.07.27 12:29:21   info : Property name - xpath
2018.07.27 12:29:21   info : Property value - //input[contains(@id,"_txtPassword")]
2018.07.27 12:29:21   info : Finding xpath element on webpage..
2018.07.27 12:29:21   info : Searching for element. Try number 0
2018.07.27 12:29:22   info : element disappeared after trying for 1 times
2018.07.27 12:29:23   info : Current WebDriver Win Count is:: 1
2018.07.27 12:29:23   info : Element found!!
2018.07.27 12:29:23   info : ObjectTag input and ObjectType password
2018.07.27 12:29:23   info : Enter data operation
2018.07.27 12:29:23   info : Xml obj_repo path C:\Talent_Automation_Framework_Backup\Project_Talent/ObjectRepositories/BenefitAsia2_EE/EE_UBSHK_LoginLogout.xml
2018.07.27 12:29:23   info : xpath object successfully mapped!!
2018.07.27 12:29:23   info : xpath object contains property value !!
2018.07.27 12:29:23   info : Property name - xpath
2018.07.27 12:29:23   info : Property value - //input[contains(@id,"_txtPassword")]
2018.07.27 12:29:23   info : Finding xpath element on webpage..
2018.07.27 12:29:23   info : Searching for element. Try number 0
2018.07.27 12:29:24   info : element disappeared after trying for 1 times
2018.07.27 12:29:25   info : Current WebDriver Win Count is:: 1
2018.07.27 12:29:25   info : Element found!!
2018.07.27 12:29:25   info : ValueToEnter Password123$
2018.07.27 12:29:25   info : Entered value is Password123$
2018.07.27 12:29:25   info : Attribute entered value Password123$
2018.07.27 12:29:25   info : Checking for object in click
2018.07.27 12:29:25   info : Xml obj_repo path C:\Talent_Automation_Framework_Backup\Project_Talent/ObjectRepositories/BenefitAsia2_EE/EE_UBSHK_LoginLogout.xml
2018.07.27 12:29:25   info : xpath object successfully mapped!!
2018.07.27 12:29:25   info : xpath object contains property value !!
2018.07.27 12:29:25   info : Property name - xpath
2018.07.27 12:29:25   info : Property value - //input[contains(@id,"_cmdLogin")]
2018.07.27 12:29:25   info : Finding xpath element on webpage..
2018.07.27 12:29:25   info : Searching for element. Try number 0
2018.07.27 12:29:26   info : element disappeared after trying for 1 times
2018.07.27 12:29:27   info : Current WebDriver Win Count is:: 1
2018.07.27 12:29:27   info : Element found!!
2018.07.27 12:29:27   info : Xml obj_repo path C:\Talent_Automation_Framework_Backup\Project_Talent/ObjectRepositories/BenefitAsia2_EE/EE_UBSHK_LoginLogout.xml
2018.07.27 12:29:27   info : xpath object successfully mapped!!
2018.07.27 12:29:27   info : xpath object contains property value !!
2018.07.27 12:29:27   info : Property name - xpath
2018.07.27 12:29:27   info : Property value - //input[contains(@id,"_cmdLogin")]
2018.07.27 12:29:27   info : Finding xpath element on webpage..
2018.07.27 12:29:27   info : Searching for element. Try number 0
2018.07.27 12:29:28   info : element disappeared after trying for 1 times
2018.07.27 12:29:29   info : Current WebDriver Win Count is:: 1
2018.07.27 12:29:29   info : Element found!!
2018.07.27 12:29:35   info : clicked on LoginButton
2018.07.27 12:29:36   info : Current WebDriver Win Count is:: 1
2018.07.27 12:29:36   info : restult status : 1
2018.07.27 12:29:36   info : Test ID TC45 : previous test step/row 3465 status is Passed and value of next test step/row is :: 3466
2018.07.27 12:29:36   info : 

2018.07.27 12:29:36   info : -------------------- Executing Testcase ID TC45 and test step : 3466 ---------------------- 
2018.07.27 12:29:38   info : Current WebDriver Win Count is:: 1
2018.07.27 12:29:38   info : Xml obj_repo path C:\Talent_Automation_Framework_Backup\Project_Talent/ObjectRepositories/BenefitAsia2_EE/EE_UBSHK_Home.xml
2018.07.27 12:29:38   info : Title in xml file - Home
2018.07.27 12:29:38   warn : Window is not switched, now trying based on element!!
2018.07.27 12:29:38   info : Window title UBSHK > Home
2018.07.27 12:29:38   info : Xml obj_repo path C:\Talent_Automation_Framework_Backup\Project_Talent/ObjectRepositories/BenefitAsia2_EE/EE_UBSHK_Home.xml
2018.07.27 12:29:38   info : xpath object successfully mapped!!
2018.07.27 12:29:38   info : xpath object contains property value !!
2018.07.27 12:29:38   info : Property name - xpath
2018.07.27 12:29:38   info : Property value - //a[contains(@id,"_BA2DashBoard_SUBMITCLAIM")]
2018.07.27 12:29:38   info : Finding xpath element on webpage..
2018.07.27 12:29:38   info : Searching for element. Try number 0
2018.07.27 12:29:39   info : element disappeared after trying for 1 times
2018.07.27 12:29:40   info : Current WebDriver Win Count is:: 1
2018.07.27 12:29:40   info : Element found!!
2018.07.27 12:29:40   info : Desired window is activated!!
2018.07.27 12:29:40   info : page object present in excel : 1
2018.07.27 12:29:40   info : Under single object handle operation!!
2018.07.27 12:29:40   info : col 6 data :  and col 5 data : CreateNewClaim
2018.07.27 12:29:40   info : Normal click operation !!
2018.07.27 12:29:40   info : Checking for object in click
2018.07.27 12:29:40   info : Xml obj_repo path C:\Talent_Automation_Framework_Backup\Project_Talent/ObjectRepositories/BenefitAsia2_EE/EE_UBSHK_Home.xml
2018.07.27 12:29:40   info : xpath object successfully mapped!!
2018.07.27 12:29:40   info : xpath object contains property value !!
2018.07.27 12:29:40   info : Property name - xpath
2018.07.27 12:29:40   info : Property value - //a[contains(@id,"_BA2DashBoard_SUBMITCLAIM")]
2018.07.27 12:29:40   info : Finding xpath element on webpage..
2018.07.27 12:29:40   info : Searching for element. Try number 0
2018.07.27 12:29:41   info : element disappeared after trying for 1 times
2018.07.27 12:29:42   info : Current WebDriver Win Count is:: 1
2018.07.27 12:29:42   info : Element found!!
2018.07.27 12:29:42   info : Xml obj_repo path C:\Talent_Automation_Framework_Backup\Project_Talent/ObjectRepositories/BenefitAsia2_EE/EE_UBSHK_Home.xml
2018.07.27 12:29:42   info : xpath object successfully mapped!!
2018.07.27 12:29:42   info : xpath object contains property value !!
2018.07.27 12:29:42   info : Property name - xpath
2018.07.27 12:29:42   info : Property value - //a[contains(@id,"_BA2DashBoard_SUBMITCLAIM")]
2018.07.27 12:29:42   info : Finding xpath element on webpage..
2018.07.27 12:29:42   info : Searching for element. Try number 0
2018.07.27 12:29:43   info : element disappeared after trying for 1 times
2018.07.27 12:29:45   info : Current WebDriver Win Count is:: 1
2018.07.27 12:29:45   info : Element found!!
2018.07.27 12:29:48   info : clicked on CreateNewClaim
2018.07.27 12:29:49   info : Current WebDriver Win Count is:: 1
2018.07.27 12:29:49   info : restult status : 1
2018.07.27 12:29:49   info : Test ID TC45 : previous test step/row 3466 status is Passed and value of next test step/row is :: 3467
2018.07.27 12:29:49   info : 

2018.07.27 12:29:49   info : -------------------- Executing Testcase ID TC45 and test step : 3467 ---------------------- 
2018.07.27 12:29:50   info : Current WebDriver Win Count is:: 1
2018.07.27 12:29:50   info : Xml obj_repo path C:\Talent_Automation_Framework_Backup\Project_Talent/ObjectRepositories/BenefitAsia2_EE/EE_UBSHK_Claims.xml
2018.07.27 12:29:50   info : Title in xml file - Create New Claim
2018.07.27 12:29:50   info : Title of the page after - switching window To: Create New Claim
2018.07.27 12:29:50   info : Desired window is activated!!
2018.07.27 12:29:50   info : Total static wait time 3
2018.07.27 12:29:53   info : Xml obj_repo path C:\Talent_Automation_Framework_Backup\Project_Talent/ObjectRepositories/BenefitAsia2_EE/EE_UBSHK_Claims.xml
2018.07.27 12:29:53   info : xpath object successfully mapped!!
2018.07.27 12:29:53   info : xpath object contains property value !!
2018.07.27 12:29:53   info : Property name - xpath
2018.07.27 12:29:53   info : Property value - //*[contains(@id,"_ClaimsSubmit_ClaimSubmitControlV2_lstClaimItemName")]
2018.07.27 12:29:53   info : Finding xpath element on webpage..
2018.07.27 12:29:53   info : Searching for element. Try number 0
2018.07.27 12:29:53   info : element disappeared after trying for 1 times
2018.07.27 12:29:54   info : Current WebDriver Win Count is:: 1
2018.07.27 12:29:55   info : Element found!!
2018.07.27 12:29:55   info : ObjectTag select and ObjectType null
2018.07.27 12:29:55   info : select combobox operation 
2018.07.27 12:29:55   info : Xml obj_repo path C:\Talent_Automation_Framework_Backup\Project_Talent/ObjectRepositories/BenefitAsia2_EE/EE_UBSHK_Claims.xml
2018.07.27 12:29:55   info : xpath object successfully mapped!!
2018.07.27 12:29:55   info : xpath object contains property value !!
2018.07.27 12:29:55   info : Property name - xpath
2018.07.27 12:29:55   info : Property value - //*[contains(@id,"_ClaimsSubmit_ClaimSubmitControlV2_lstClaimItemName")]
2018.07.27 12:29:55   info : Finding xpath element on webpage..
2018.07.27 12:29:55   info : Searching for element. Try number 0
2018.07.27 12:29:55   info : element disappeared after trying for 1 times
2018.07.27 12:29:56   info : Current WebDriver Win Count is:: 1
2018.07.27 12:29:56   info : Element found!!
2018.07.27 12:29:56   info : Xml obj_repo path C:\Talent_Automation_Framework_Backup\Project_Talent/ObjectRepositories/BenefitAsia2_EE/EE_UBSHK_Claims.xml
2018.07.27 12:29:56   info : xpath object successfully mapped!!
2018.07.27 12:29:56   info : xpath object contains property value !!
2018.07.27 12:29:56   info : Property name - xpath
2018.07.27 12:29:56   info : Property value - //*[contains(@id,"_ClaimsSubmit_ClaimSubmitControlV2_lstClaimItemName")]
2018.07.27 12:29:56   info : Finding xpath element on webpage..
2018.07.27 12:29:56   info : Element found!!
2018.07.27 12:29:57   info :    Health screening expenses value selected!!
2018.07.27 12:29:59   info : Alert is not present
2018.07.27 12:29:59   info : Total static wait time 3
2018.07.27 12:30:02   info : Xml obj_repo path C:\Talent_Automation_Framework_Backup\Project_Talent/ObjectRepositories/BenefitAsia2_EE/EE_UBSHK_Claims.xml
2018.07.27 12:30:02   info : xpath object successfully mapped!!
2018.07.27 12:30:02   info : xpath object contains property value !!
2018.07.27 12:30:02   info : Property name - xpath
2018.07.27 12:30:02   info : Property value - //*[contains(@id,"_ClaimsSubmit_ClaimSubmitControlV2_txtProviderName")]
2018.07.27 12:30:02   info : Finding xpath element on webpage..
2018.07.27 12:30:02   info : Searching for element. Try number 0
2018.07.27 12:30:02   info : element disappeared after trying for 1 times
2018.07.27 12:30:03   info : Current WebDriver Win Count is:: 1
2018.07.27 12:30:03   info : Element found!!
2018.07.27 12:30:03   info : ObjectTag input and ObjectType text
2018.07.27 12:30:03   info : Enter data operation
2018.07.27 12:30:03   info : Xml obj_repo path C:\Talent_Automation_Framework_Backup\Project_Talent/ObjectRepositories/BenefitAsia2_EE/EE_UBSHK_Claims.xml
2018.07.27 12:30:03   info : xpath object successfully mapped!!
2018.07.27 12:30:03   info : xpath object contains property value !!
2018.07.27 12:30:03   info : Property name - xpath
2018.07.27 12:30:03   info : Property value - //*[contains(@id,"_ClaimsSubmit_ClaimSubmitControlV2_txtProviderName")]
2018.07.27 12:30:03   info : Finding xpath element on webpage..
2018.07.27 12:30:03   info : Searching for element. Try number 0
2018.07.27 12:30:03   info : element disappeared after trying for 1 times
2018.07.27 12:30:04   info : Current WebDriver Win Count is:: 1
2018.07.27 12:30:04   info : Element found!!
2018.07.27 12:30:04   info : Xml obj_repo path C:\Talent_Automation_Framework_Backup\Project_Talent/ObjectRepositories/BenefitAsia2_EE/EE_UBSHK_Claims.xml
2018.07.27 12:30:04   info : xpath object successfully mapped!!
2018.07.27 12:30:04   info : xpath object contains property value !!
2018.07.27 12:30:04   info : Property name - xpath
2018.07.27 12:30:04   info : Property value - //*[contains(@id,"_ClaimsSubmit_ClaimSubmitControlV2_txtProviderName")]
2018.07.27 12:30:04   info : Finding xpath element on webpage..
2018.07.27 12:30:04   info : Searching for element. Try number 0
2018.07.27 12:30:04   info : element disappeared after trying for 1 times
2018.07.27 12:30:05   info : Current WebDriver Win Count is:: 1
2018.07.27 12:30:05   info : Element found!!
2018.07.27 12:30:05   info : ValueToEnter Provider75
2018.07.27 12:30:05   info : Entered value is Provider75
2018.07.27 12:30:05   info : Attribute entered value Provider75
2018.07.27 12:30:05   info : Total static wait time 3
2018.07.27 12:30:08   info : Xml obj_repo path C:\Talent_Automation_Framework_Backup\Project_Talent/ObjectRepositories/BenefitAsia2_EE/EE_UBSHK_Claims.xml
2018.07.27 12:30:08   info : xpath object successfully mapped!!
2018.07.27 12:30:08   info : xpath object contains property value !!
2018.07.27 12:30:08   info : Property name - xpath
2018.07.27 12:30:08   info : Property value - //input[contains(@id,"_ClaimsSubmit_ClaimSubmitControlV2_txtReceiptDate")]
2018.07.27 12:30:08   info : Finding xpath element on webpage..
2018.07.27 12:30:08   info : Searching for element. Try number 0
2018.07.27 12:30:08   info : element disappeared after trying for 1 times
2018.07.27 12:30:09   info : Current WebDriver Win Count is:: 1
2018.07.27 12:30:10   info : Element found!!
2018.07.27 12:30:10   info : ObjectTag input and ObjectType text
2018.07.27 12:30:10   info : Enter data operation
2018.07.27 12:30:10   info : Xml obj_repo path C:\Talent_Automation_Framework_Backup\Project_Talent/ObjectRepositories/BenefitAsia2_EE/EE_UBSHK_Claims.xml
2018.07.27 12:30:10   info : xpath object successfully mapped!!
2018.07.27 12:30:10   info : xpath object contains property value !!
2018.07.27 12:30:10   info : Property name - xpath
2018.07.27 12:30:10   info : Property value - //input[contains(@id,"_ClaimsSubmit_ClaimSubmitControlV2_txtReceiptDate")]
2018.07.27 12:30:10   info : Finding xpath element on webpage..
2018.07.27 12:30:10   info : Searching for element. Try number 0
2018.07.27 12:30:10   info : element disappeared after trying for 1 times
2018.07.27 12:30:11   info : Current WebDriver Win Count is:: 1
2018.07.27 12:30:11   info : Element found!!
2018.07.27 12:30:11   info : Xml obj_repo path C:\Talent_Automation_Framework_Backup\Project_Talent/ObjectRepositories/BenefitAsia2_EE/EE_UBSHK_Claims.xml
2018.07.27 12:30:11   info : xpath object successfully mapped!!
2018.07.27 12:30:11   info : xpath object contains property value !!
2018.07.27 12:30:11   info : Property name - xpath
2018.07.27 12:30:11   info : Property value - //input[contains(@id,"_ClaimsSubmit_ClaimSubmitControlV2_txtReceiptDate")]
2018.07.27 12:30:11   info : Finding xpath element on webpage..
2018.07.27 12:30:11   info : Searching for element. Try number 0
2018.07.27 12:30:11   info : element disappeared after trying for 1 times
2018.07.27 12:30:12   info : Current WebDriver Win Count is:: 1
2018.07.27 12:30:12   info : Element found!!
2018.07.27 12:30:12   info : ValueToEnter 26/Jul/2018
2018.07.27 12:30:12   info : Entered value is 26/Jul/2018
2018.07.27 12:30:12   info : Attribute entered value 26/Jul/2018
2018.07.27 12:30:12   info : Total static wait time 3
2018.07.27 12:30:15   info : Xml obj_repo path C:\Talent_Automation_Framework_Backup\Project_Talent/ObjectRepositories/BenefitAsia2_EE/EE_UBSHK_Claims.xml
2018.07.27 12:30:15   info : xpath object successfully mapped!!
2018.07.27 12:30:15   info : xpath object contains property value !!
2018.07.27 12:30:15   info : Property name - xpath
2018.07.27 12:30:15   info : Property value - //input[contains(@id,"_ClaimsSubmit_ClaimSubmitControlV2_txtReceiptNo")]
2018.07.27 12:30:15   info : Finding xpath element on webpage..
2018.07.27 12:30:15   info : Searching for element. Try number 0
2018.07.27 12:30:15   info : element disappeared after trying for 1 times
2018.07.27 12:30:16   info : Current WebDriver Win Count is:: 1
2018.07.27 12:30:16   info : Element found!!
2018.07.27 12:30:16   info : ObjectTag input and ObjectType text
2018.07.27 12:30:16   info : Enter data operation
2018.07.27 12:30:16   info : Xml obj_repo path C:\Talent_Automation_Framework_Backup\Project_Talent/ObjectRepositories/BenefitAsia2_EE/EE_UBSHK_Claims.xml
2018.07.27 12:30:16   info : xpath object successfully mapped!!
2018.07.27 12:30:16   info : xpath object contains property value !!
2018.07.27 12:30:16   info : Property name - xpath
2018.07.27 12:30:16   info : Property value - //input[contains(@id,"_ClaimsSubmit_ClaimSubmitControlV2_txtReceiptNo")]
2018.07.27 12:30:16   info : Finding xpath element on webpage..
2018.07.27 12:30:16   info : Searching for element. Try number 0
2018.07.27 12:30:16   info : element disappeared after trying for 1 times
2018.07.27 12:30:17   info : Current WebDriver Win Count is:: 1
2018.07.27 12:30:17   info : Element found!!
2018.07.27 12:30:17   info : Xml obj_repo path C:\Talent_Automation_Framework_Backup\Project_Talent/ObjectRepositories/BenefitAsia2_EE/EE_UBSHK_Claims.xml
2018.07.27 12:30:17   info : xpath object successfully mapped!!
2018.07.27 12:30:17   info : xpath object contains property value !!
2018.07.27 12:30:17   info : Property name - xpath
2018.07.27 12:30:17   info : Property value - //input[contains(@id,"_ClaimsSubmit_ClaimSubmitControlV2_txtReceiptNo")]
2018.07.27 12:30:17   info : Finding xpath element on webpage..
2018.07.27 12:30:17   info : Searching for element. Try number 0
2018.07.27 12:30:17   info : element disappeared after trying for 1 times
2018.07.27 12:30:18   info : Current WebDriver Win Count is:: 1
2018.07.27 12:30:18   info : Element found!!
2018.07.27 12:30:18   info : ValueToEnter Receipt61
2018.07.27 12:30:18   info : Entered value is Receipt61
2018.07.27 12:30:18   info : Attribute entered value Receipt61
2018.07.27 12:30:18   info : Total static wait time 3
2018.07.27 12:30:21   info : Xml obj_repo path C:\Talent_Automation_Framework_Backup\Project_Talent/ObjectRepositories/BenefitAsia2_EE/EE_UBSHK_Claims.xml
2018.07.27 12:30:21   info : xpath object successfully mapped!!
2018.07.27 12:30:21   info : xpath object contains property value !!
2018.07.27 12:30:21   info : Property name - xpath
2018.07.27 12:30:21   info : Property value - //input[contains(@id,"_ClaimsSubmit_ClaimSubmitControlV2_txtReceiptAmount")]
2018.07.27 12:30:21   info : Finding xpath element on webpage..
2018.07.27 12:30:21   info : Searching for element. Try number 0
2018.07.27 12:30:21   info : element disappeared after trying for 1 times
2018.07.27 12:30:22   info : Current WebDriver Win Count is:: 1
2018.07.27 12:30:22   info : Element found!!
2018.07.27 12:30:22   info : ObjectTag input and ObjectType text
2018.07.27 12:30:22   info : Enter data operation
2018.07.27 12:30:22   info : Xml obj_repo path C:\Talent_Automation_Framework_Backup\Project_Talent/ObjectRepositories/BenefitAsia2_EE/EE_UBSHK_Claims.xml
2018.07.27 12:30:22   info : xpath object successfully mapped!!
2018.07.27 12:30:22   info : xpath object contains property value !!
2018.07.27 12:30:22   info : Property name - xpath
2018.07.27 12:30:22   info : Property value - //input[contains(@id,"_ClaimsSubmit_ClaimSubmitControlV2_txtReceiptAmount")]
2018.07.27 12:30:22   info : Finding xpath element on webpage..
2018.07.27 12:30:22   info : Searching for element. Try number 0
2018.07.27 12:30:22   info : element disappeared after trying for 1 times
2018.07.27 12:30:23   info : Current WebDriver Win Count is:: 1
2018.07.27 12:30:23   info : Element found!!
2018.07.27 12:30:23   info : Xml obj_repo path C:\Talent_Automation_Framework_Backup\Project_Talent/ObjectRepositories/BenefitAsia2_EE/EE_UBSHK_Claims.xml
2018.07.27 12:30:23   info : xpath object successfully mapped!!
2018.07.27 12:30:23   info : xpath object contains property value !!
2018.07.27 12:30:23   info : Property name - xpath
2018.07.27 12:30:23   info : Property value - //input[contains(@id,"_ClaimsSubmit_ClaimSubmitControlV2_txtReceiptAmount")]
2018.07.27 12:30:23   info : Finding xpath element on webpage..
2018.07.27 12:30:23   info : Searching for element. Try number 0
2018.07.27 12:30:23   info : element disappeared after trying for 1 times
2018.07.27 12:30:24   info : Current WebDriver Win Count is:: 1
2018.07.27 12:30:24   info : Element found!!
2018.07.27 12:30:24   info : ValueToEnter 400
2018.07.27 12:30:24   info : Entered value is 400
2018.07.27 12:30:24   info : Attribute entered value 400
2018.07.27 12:30:25   info : Current WebDriver Win Count is:: 1
2018.07.27 12:30:26   info : restult status : 1
2018.07.27 12:30:26   info : Test ID TC45 : previous test step/row 3467 status is Passed and value of next test step/row is :: 3468
2018.07.27 12:30:26   info : 

2018.07.27 12:30:26   info : -------------------- Executing Testcase ID TC45 and test step : 3468 ---------------------- 
2018.07.27 12:30:27   info : Current WebDriver Win Count is:: 1
2018.07.27 12:30:27   info : Xml obj_repo path C:\Talent_Automation_Framework_Backup\Project_Talent/ObjectRepositories/BenefitAsia2_EE/EE_SimpliflexSG_Claims.xml
2018.07.27 12:30:27   info : Title in xml file - Create New Claim
2018.07.27 12:30:27   info : Title of the page after - switching window To: Create New Claim
2018.07.27 12:30:27   info : Desired window is activated!!
2018.07.27 12:30:27   info : page object present in excel : 1
2018.07.27 12:30:27   info : Under single object handle operation!!
2018.07.27 12:30:27   info : col 6 data : javascript_click and col 5 data : AttachFile
2018.07.27 12:30:27   info : Click case operation !!
2018.07.27 12:30:27   info : oprnm javascript_click
2018.07.27 12:30:27   info : click javascript_click operation perfomred!!
2018.07.27 12:30:27   info : Xml obj_repo path C:\Talent_Automation_Framework_Backup\Project_Talent/ObjectRepositories/BenefitAsia2_EE/EE_SimpliflexSG_Claims.xml
2018.07.27 12:30:27   info : xpath object successfully mapped!!
2018.07.27 12:30:27   info : xpath object contains property value !!
2018.07.27 12:30:27   info : Property name - xpath
2018.07.27 12:30:27   info : Property value - //*[contains(@id,"_ClaimsSubmit_ClaimSubmitControlV2_AttachFiles_File1")]
2018.07.27 12:30:27   info : Finding xpath element on webpage..
2018.07.27 12:30:27   info : Searching for element. Try number 0
2018.07.27 12:30:27   info : element disappeared after trying for 1 times
2018.07.27 12:30:28   info : Current WebDriver Win Count is:: 1
2018.07.27 12:30:28   info : Element found!!
2018.07.27 12:30:30   info : Current WebDriver Win Count is:: 1
2018.07.27 12:30:30   info : restult status : 1
2018.07.27 12:30:30   info : Test ID TC45 : previous test step/row 3468 status is Passed and value of next test step/row is :: 3469
2018.07.27 12:30:30   info : 

2018.07.27 12:30:30   info : -------------------- Executing Testcase ID TC45 and test step : 3469 ---------------------- 
2018.07.27 12:30:31   info : Current WebDriver Win Count is:: 1
2018.07.27 12:30:42   info : Current WebDriver Win Count is:: 1
2018.07.27 12:30:43   info : restult status : 1
2018.07.27 12:30:43   info : Test ID TC45 : previous test step/row 3469 status is Passed and value of next test step/row is :: 3470
2018.07.27 12:30:43   info : 

2018.07.27 12:30:43   info : -------------------- Executing Testcase ID TC45 and test step : 3470 ---------------------- 
2018.07.27 12:30:44   info : Current WebDriver Win Count is:: 1
2018.07.27 12:30:44   info : Xml obj_repo path C:\Talent_Automation_Framework_Backup\Project_Talent/ObjectRepositories/BenefitAsia2_EE/EE_UBSHK_Claims.xml
2018.07.27 12:30:44   info : Title in xml file - Create New Claim
2018.07.27 12:30:44   info : Title of the page after - switching window To: Create New Claim
2018.07.27 12:30:44   info : Desired window is activated!!
2018.07.27 12:30:44   info : page object present in excel : 1
2018.07.27 12:30:44   info : Under single object handle operation!!
2018.07.27 12:30:44   info : col 6 data :  and col 5 data : ReadyToSubmitButton
2018.07.27 12:30:44   info : Normal click operation !!
2018.07.27 12:30:44   info : Checking for object in click
2018.07.27 12:30:44   info : Xml obj_repo path C:\Talent_Automation_Framework_Backup\Project_Talent/ObjectRepositories/BenefitAsia2_EE/EE_UBSHK_Claims.xml
2018.07.27 12:30:44   info : xpath object successfully mapped!!
2018.07.27 12:30:44   info : xpath object contains property value !!
2018.07.27 12:30:44   info : Property name - xpath
2018.07.27 12:30:44   info : Property value - //*[contains(@id,"_ClaimsSubmit_ClaimSubmitControlV2_ready")]
2018.07.27 12:30:44   info : Finding xpath element on webpage..
2018.07.27 12:30:44   info : Searching for element. Try number 0
2018.07.27 12:30:44   info : element disappeared after trying for 1 times
2018.07.27 12:30:45   info : Current WebDriver Win Count is:: 1
2018.07.27 12:30:45   info : Element found!!
2018.07.27 12:30:45   info : Xml obj_repo path C:\Talent_Automation_Framework_Backup\Project_Talent/ObjectRepositories/BenefitAsia2_EE/EE_UBSHK_Claims.xml
2018.07.27 12:30:45   info : xpath object successfully mapped!!
2018.07.27 12:30:45   info : xpath object contains property value !!
2018.07.27 12:30:45   info : Property name - xpath
2018.07.27 12:30:45   info : Property value - //*[contains(@id,"_ClaimsSubmit_ClaimSubmitControlV2_ready")]
2018.07.27 12:30:45   info : Finding xpath element on webpage..
2018.07.27 12:30:45   info : Searching for element. Try number 0
2018.07.27 12:30:45   info : element disappeared after trying for 1 times
2018.07.27 12:30:46   info : Current WebDriver Win Count is:: 1
2018.07.27 12:30:46   info : Element found!!
2018.07.27 12:30:47   info : clicked on ReadyToSubmitButton
2018.07.27 12:30:48   info : Current WebDriver Win Count is:: 1
2018.07.27 12:30:48   info : restult status : 1
2018.07.27 12:30:48   info : Test ID TC45 : previous test step/row 3470 status is Passed and value of next test step/row is :: 3471
2018.07.27 12:30:48   info : 

2018.07.27 12:30:48   info : -------------------- Executing Testcase ID TC45 and test step : 3471 ---------------------- 
2018.07.27 12:30:50   info : Current WebDriver Win Count is:: 1
2018.07.27 12:30:50   info : Total static wait time 3
2018.07.27 12:30:53   info : Xml obj_repo path C:\Talent_Automation_Framework_Backup\Project_Talent/ObjectRepositories/BenefitAsia2_EE/EE_UBSHK_Claims.xml
2018.07.27 12:30:53   info : xpath object successfully mapped!!
2018.07.27 12:30:53   info : xpath object contains property value !!
2018.07.27 12:30:53   info : Property name - xpath
2018.07.27 12:30:53   info : Property value - //*[contains(@id,"_ClaimsSubmit_ClaimSubmitControlV2_lstClaimItemName")]
2018.07.27 12:30:53   info : Finding xpath element on webpage..
2018.07.27 12:30:53   info : Searching for element. Try number 0
2018.07.27 12:30:53   info : element disappeared after trying for 1 times
2018.07.27 12:30:54   info : Current WebDriver Win Count is:: 1
2018.07.27 12:30:54   info : Element found!!
2018.07.27 12:30:54   info : ObjectTag select and ObjectType null
2018.07.27 12:30:54   info : select combobox operation 
2018.07.27 12:30:54   info : Xml obj_repo path C:\Talent_Automation_Framework_Backup\Project_Talent/ObjectRepositories/BenefitAsia2_EE/EE_UBSHK_Claims.xml
2018.07.27 12:30:54   info : xpath object successfully mapped!!
2018.07.27 12:30:54   info : xpath object contains property value !!
2018.07.27 12:30:54   info : Property name - xpath
2018.07.27 12:30:54   info : Property value - //*[contains(@id,"_ClaimsSubmit_ClaimSubmitControlV2_lstClaimItemName")]
2018.07.27 12:30:54   info : Finding xpath element on webpage..
2018.07.27 12:30:54   info : Searching for element. Try number 0
2018.07.27 12:30:54   info : element disappeared after trying for 1 times
2018.07.27 12:30:55   info : Current WebDriver Win Count is:: 1
2018.07.27 12:30:55   info : Element found!!
2018.07.27 12:30:55   info : Xml obj_repo path C:\Talent_Automation_Framework_Backup\Project_Talent/ObjectRepositories/BenefitAsia2_EE/EE_UBSHK_Claims.xml
2018.07.27 12:30:55   info : xpath object successfully mapped!!
2018.07.27 12:30:55   info : xpath object contains property value !!
2018.07.27 12:30:55   info : Property name - xpath
2018.07.27 12:30:55   info : Property value - //*[contains(@id,"_ClaimsSubmit_ClaimSubmitControlV2_lstClaimItemName")]
2018.07.27 12:30:55   info : Finding xpath element on webpage..
2018.07.27 12:30:55   info : Element found!!
2018.07.27 12:30:55   info :    Health screening expenses Value is already selected in dropdown!!
2018.07.27 12:30:55   info : Total static wait time 3
2018.07.27 12:30:58   info : Xml obj_repo path C:\Talent_Automation_Framework_Backup\Project_Talent/ObjectRepositories/BenefitAsia2_EE/EE_UBSHK_Claims.xml
2018.07.27 12:30:58   info : xpath object successfully mapped!!
2018.07.27 12:30:58   info : xpath object contains property value !!
2018.07.27 12:30:58   info : Property name - xpath
2018.07.27 12:30:58   info : Property value - //*[contains(@id,"_ClaimsSubmit_ClaimSubmitControlV2_txtProviderName")]
2018.07.27 12:30:58   info : Finding xpath element on webpage..
2018.07.27 12:30:58   info : Searching for element. Try number 0
2018.07.27 12:30:58   info : element disappeared after trying for 1 times
2018.07.27 12:30:59   info : Current WebDriver Win Count is:: 1
