2019.01.17 12:12:09   info : Selenium version :: 2.48.2
2019.01.17 12:12:09   info : Download fodler path created!!
2019.01.17 12:12:09   info : date_time_down_folder C:\Talent_Automation_Framework_Backup\Project_Talent\Downloads\2019_01_17\time_12_12_09\
2019.01.17 12:12:09   info : Total number of applications :: 4
2019.01.17 12:12:09   info : Application Name - Latest_Simp
2019.01.17 12:12:09   info : TestData_Sheet path:: C:\Talent_Automation_Framework_Backup\Project_Talent/TestCases/Latest_Simp.xlsx
2019.01.17 12:12:09   info : CSV updating and creating dump....
2019.01.17 12:12:10   info : Sheet name: Scenarios
2019.01.17 12:12:10   info : Sheet name: TestCaseScheduler
2019.01.17 12:12:10   info : Sheet name: Test Case
2019.01.17 12:12:10   info : Latest_Simp sheetname found!!
2019.01.17 12:12:10   info : Total row 779
2019.01.17 12:12:10   info : After row validation for blank or null!!
2019.01.17 12:12:10   info : Total final row 778
2019.01.17 12:12:11   info : Total number of test cases to be executed :: 1
2019.01.17 12:12:11   info : PrevTestID - null == null && row 106<= 778
2019.01.17 12:12:11   info : Test ID TC3 : previous test step/row 105 status is Passed and value of next test step/row is :: 106
2019.01.17 12:12:11   info : 

2019.01.17 12:12:11   info : -------------------- Executing Testcase ID TC3 and test step : 106 ---------------------- 
2019.01.17 12:12:11   info : please wait.. browser getting open !!
2019.01.17 12:12:23   info : Opening Application..
2019.01.17 12:12:27   info : Current WebDriver Win Count is:: 1
2019.01.17 12:12:28   info : restult status : 1
2019.01.17 12:12:28   info : Test ID TC3 : previous test step/row 106 status is Passed and value of next test step/row is :: 107
2019.01.17 12:12:28   info : 

2019.01.17 12:12:28   info : -------------------- Executing Testcase ID TC3 and test step : 107 ---------------------- 
2019.01.17 12:12:30   info : Current WebDriver Win Count is:: 1
2019.01.17 12:12:30   info : Xml obj_repo path C:\Talent_Automation_Framework_Backup\Project_Talent/ObjectRepositories/BenefitAsia2_MercerAdmin/MA_Home.xml
2019.01.17 12:12:30   info : Title in xml file - Home
2019.01.17 12:12:30   warn : Window is not switched, now trying based on element!!
2019.01.17 12:12:30   info : Window title Mercer Account Center
2019.01.17 12:12:30   info : Xml obj_repo path C:\Talent_Automation_Framework_Backup\Project_Talent/ObjectRepositories/BenefitAsia2_MercerAdmin/MA_Home.xml
2019.01.17 12:12:30   info : xpath object successfully mapped!!
2019.01.17 12:12:30   info : xpath object contains property value !!
2019.01.17 12:12:30   info : Property name - xpath
2019.01.17 12:12:30   info : Property value - //input[contains(@id,"ContentPlaceHolder1_TextBox1")]
2019.01.17 12:12:30   info : Finding xpath element on webpage..
2019.01.17 12:12:30   info : Searching for element. Try number 0
2019.01.17 12:12:31   info : element disappeared after trying for 1 times
2019.01.17 12:12:32   info : Current WebDriver Win Count is:: 1
2019.01.17 12:12:32   info : Element found!!
2019.01.17 12:12:32   info : Desired window is activated!!
2019.01.17 12:12:32   info : Total static wait time 3
2019.01.17 12:12:35   info : Xml obj_repo path C:\Talent_Automation_Framework_Backup\Project_Talent/ObjectRepositories/BenefitAsia2_MercerAdmin/MA_Home.xml
2019.01.17 12:12:35   info : xpath object successfully mapped!!
2019.01.17 12:12:35   info : xpath object contains property value !!
2019.01.17 12:12:35   info : Property name - xpath
2019.01.17 12:12:35   info : Property value - //input[contains(@id,"ContentPlaceHolder1_TextBox1")]
2019.01.17 12:12:35   info : Finding xpath element on webpage..
2019.01.17 12:12:35   info : Searching for element. Try number 0
2019.01.17 12:12:36   info : element disappeared after trying for 1 times
2019.01.17 12:12:37   info : Current WebDriver Win Count is:: 1
2019.01.17 12:12:37   info : Element found!!
2019.01.17 12:12:37   info : ObjectTag input and ObjectType text
2019.01.17 12:12:37   info : Enter data operation
2019.01.17 12:12:38   info : Xml obj_repo path C:\Talent_Automation_Framework_Backup\Project_Talent/ObjectRepositories/BenefitAsia2_MercerAdmin/MA_Home.xml
2019.01.17 12:12:38   info : xpath object successfully mapped!!
2019.01.17 12:12:38   info : xpath object contains property value !!
2019.01.17 12:12:38   info : Property name - xpath
2019.01.17 12:12:38   info : Property value - //input[contains(@id,"ContentPlaceHolder1_TextBox1")]
2019.01.17 12:12:38   info : Finding xpath element on webpage..
2019.01.17 12:12:38   info : Searching for element. Try number 0
2019.01.17 12:12:39   info : element disappeared after trying for 1 times
2019.01.17 12:12:40   info : Current WebDriver Win Count is:: 1
2019.01.17 12:12:40   info : Element found!!
2019.01.17 12:12:40   info : Xml obj_repo path C:\Talent_Automation_Framework_Backup\Project_Talent/ObjectRepositories/BenefitAsia2_MercerAdmin/MA_Home.xml
2019.01.17 12:12:40   info : xpath object successfully mapped!!
2019.01.17 12:12:40   info : xpath object contains property value !!
2019.01.17 12:12:40   info : Property name - xpath
2019.01.17 12:12:40   info : Property value - //input[contains(@id,"ContentPlaceHolder1_TextBox1")]
2019.01.17 12:12:40   info : Finding xpath element on webpage..
2019.01.17 12:12:40   info : Searching for element. Try number 0
2019.01.17 12:12:41   info : element disappeared after trying for 1 times
2019.01.17 12:12:42   info : Current WebDriver Win Count is:: 1
2019.01.17 12:12:42   info : Element found!!
2019.01.17 12:12:42   info : ValueToEnter ashish.choudhary@mercer.com
2019.01.17 12:12:42   info : Entered value is ashish.choudhary@mercer.com
2019.01.17 12:12:42   info : Attribute entered value ashish.choudhary@mercer.com
2019.01.17 12:12:43   info : Current WebDriver Win Count is:: 1
2019.01.17 12:12:44   info : restult status : 1
2019.01.17 12:12:44   info : Test ID TC3 : previous test step/row 107 status is Passed and value of next test step/row is :: 108
2019.01.17 12:12:44   info : 

2019.01.17 12:12:44   info : -------------------- Executing Testcase ID TC3 and test step : 108 ---------------------- 
2019.01.17 12:12:45   info : Current WebDriver Win Count is:: 1
2019.01.17 12:12:45   info : page object present in excel : 1
2019.01.17 12:12:45   info : Under single object handle operation!!
2019.01.17 12:12:45   info : col 6 data :  and col 5 data : SSO_Next_Button
2019.01.17 12:12:45   info : Normal click operation !!
2019.01.17 12:12:45   info : Checking for object in click
2019.01.17 12:12:45   info : Xml obj_repo path C:\Talent_Automation_Framework_Backup\Project_Talent/ObjectRepositories/BenefitAsia2_MercerAdmin/MA_Home.xml
2019.01.17 12:12:45   info : xpath object successfully mapped!!
2019.01.17 12:12:45   info : xpath object contains property value !!
2019.01.17 12:12:45   info : Property name - xpath
2019.01.17 12:12:45   info : Property value - //input[contains(@id,"ContentPlaceHolder1_PassiveSignInButton")]
2019.01.17 12:12:45   info : Finding xpath element on webpage..
2019.01.17 12:12:45   info : Searching for element. Try number 0
2019.01.17 12:12:46   info : element disappeared after trying for 1 times
2019.01.17 12:12:47   info : Current WebDriver Win Count is:: 1
2019.01.17 12:12:47   info : Element found!!
2019.01.17 12:12:47   info : Xml obj_repo path C:\Talent_Automation_Framework_Backup\Project_Talent/ObjectRepositories/BenefitAsia2_MercerAdmin/MA_Home.xml
2019.01.17 12:12:47   info : xpath object successfully mapped!!
2019.01.17 12:12:47   info : xpath object contains property value !!
2019.01.17 12:12:47   info : Property name - xpath
2019.01.17 12:12:47   info : Property value - //input[contains(@id,"ContentPlaceHolder1_PassiveSignInButton")]
2019.01.17 12:12:47   info : Finding xpath element on webpage..
2019.01.17 12:12:47   info : Searching for element. Try number 0
2019.01.17 12:12:48   info : element disappeared after trying for 1 times
2019.01.17 12:12:49   info : Current WebDriver Win Count is:: 1
2019.01.17 12:12:49   info : Element found!!
2019.01.17 12:12:55   info : clicked on SSO_Next_Button
2019.01.17 12:12:56   info : Current WebDriver Win Count is:: 1
2019.01.17 12:13:01   info : restult status : 1
2019.01.17 12:13:01   info : Test ID TC3 : previous test step/row 108 status is Passed and value of next test step/row is :: 109
2019.01.17 12:13:01   info : 

2019.01.17 12:13:01   info : -------------------- Executing Testcase ID TC3 and test step : 109 ---------------------- 
2019.01.17 12:13:02   info : Current WebDriver Win Count is:: 1
2019.01.17 12:13:02   info : not doing anything!!
2019.01.17 12:13:02   info : Navigating to another url..
2019.01.17 12:13:07   info : Current WebDriver Win Count is:: 1
2019.01.17 12:13:08   info : restult status : 1
2019.01.17 12:13:08   info : Test ID TC3 : previous test step/row 109 status is Passed and value of next test step/row is :: 110
2019.01.17 12:13:08   info : 

2019.01.17 12:13:08   info : -------------------- Executing Testcase ID TC3 and test step : 110 ---------------------- 
2019.01.17 12:13:09   info : Current WebDriver Win Count is:: 1
2019.01.17 12:13:09   info : Xml obj_repo path C:\Talent_Automation_Framework_Backup\Project_Talent/ObjectRepositories/BenefitAsia2_MercerAdmin/MA_AddNewHire.xml
2019.01.17 12:13:09   info : Title contains null value in xml!!
2019.01.17 12:13:09   info : Window title New Hire
2019.01.17 12:13:09   info : Xml obj_repo path C:\Talent_Automation_Framework_Backup\Project_Talent/ObjectRepositories/BenefitAsia2_MercerAdmin/MA_AddNewHire.xml
2019.01.17 12:13:09   info : xpath object successfully mapped!!
2019.01.17 12:13:09   info : xpath object contains property value !!
2019.01.17 12:13:09   info : Property name - xpath
2019.01.17 12:13:09   info : Property value - //*[contains(@id,"_EditEmployee_txtNationalIdNo")]
2019.01.17 12:13:09   info : Finding xpath element on webpage..
2019.01.17 12:13:09   info : Searching for element. Try number 0
