2019.01.17 02:28:19   info : Selenium version :: 2.48.2
2019.01.17 02:28:19   info : Download fodler path created!!
2019.01.17 02:28:19   info : date_time_down_folder C:\Talent_Automation_Framework_Backup\Project_Talent\Downloads\2019_01_17\time_14_28_19\
2019.01.17 02:28:19   info : Total number of applications :: 4
2019.01.17 02:28:19   info : Application Name - Latest_Simp
2019.01.17 02:28:19   info : TestData_Sheet path:: C:\Talent_Automation_Framework_Backup\Project_Talent/TestCases/Latest_Simp.xlsx
2019.01.17 02:28:19   info : CSV updating and creating dump....
2019.01.17 02:28:20   info : Sheet name: Scenarios
2019.01.17 02:28:20   info : Sheet name: TestCaseScheduler
2019.01.17 02:28:20   info : Sheet name: Test Case
2019.01.17 02:28:20   info : Latest_Simp sheetname found!!
2019.01.17 02:28:20   info : Total row 782
2019.01.17 02:28:21   info : After row validation for blank or null!!
2019.01.17 02:28:21   info : Total final row 781
2019.01.17 02:28:21   info : Total number of test cases to be executed :: 1
2019.01.17 02:28:21   info : PrevTestID - null == null && row 106<= 781
2019.01.17 02:28:21   info : Test ID TC3 : previous test step/row 105 status is Passed and value of next test step/row is :: 106
2019.01.17 02:28:21   info : 

2019.01.17 02:28:21   info : -------------------- Executing Testcase ID TC3 and test step : 106 ---------------------- 
2019.01.17 02:28:22   info : please wait.. browser getting open !!
2019.01.17 02:28:33   info : Opening Application..
2019.01.17 02:28:37   info : Current WebDriver Win Count is:: 1
2019.01.17 02:28:38   info : restult status : 1
2019.01.17 02:28:38   info : Test ID TC3 : previous test step/row 106 status is Passed and value of next test step/row is :: 107
2019.01.17 02:28:38   info : 

2019.01.17 02:28:38   info : -------------------- Executing Testcase ID TC3 and test step : 107 ---------------------- 
2019.01.17 02:28:40   info : Current WebDriver Win Count is:: 1
2019.01.17 02:28:40   info : Xml obj_repo path C:\Talent_Automation_Framework_Backup\Project_Talent/ObjectRepositories/BenefitAsia2_MercerAdmin/MA_Home.xml
2019.01.17 02:28:40   info : Title in xml file - Home
2019.01.17 02:28:40   warn : Window is not switched, now trying based on element!!
2019.01.17 02:28:40   info : Window title Mercer Account Center
2019.01.17 02:28:40   info : Xml obj_repo path C:\Talent_Automation_Framework_Backup\Project_Talent/ObjectRepositories/BenefitAsia2_MercerAdmin/MA_Home.xml
2019.01.17 02:28:40   info : xpath object successfully mapped!!
2019.01.17 02:28:40   info : xpath object contains property value !!
2019.01.17 02:28:40   info : Property name - xpath
2019.01.17 02:28:40   info : Property value - //input[contains(@id,"ContentPlaceHolder1_TextBox1")]
2019.01.17 02:28:40   info : Finding xpath element on webpage..
2019.01.17 02:28:40   info : Searching for element. Try number 0
2019.01.17 02:28:41   info : element disappeared after trying for 1 times
2019.01.17 02:28:42   info : Current WebDriver Win Count is:: 1
2019.01.17 02:28:42   info : Element found!!
2019.01.17 02:28:42   info : Desired window is activated!!
2019.01.17 02:28:42   info : Total static wait time 3
2019.01.17 02:28:45   info : Xml obj_repo path C:\Talent_Automation_Framework_Backup\Project_Talent/ObjectRepositories/BenefitAsia2_MercerAdmin/MA_Home.xml
2019.01.17 02:28:45   info : xpath object successfully mapped!!
2019.01.17 02:28:45   info : xpath object contains property value !!
2019.01.17 02:28:45   info : Property name - xpath
2019.01.17 02:28:45   info : Property value - //input[contains(@id,"ContentPlaceHolder1_TextBox1")]
2019.01.17 02:28:45   info : Finding xpath element on webpage..
2019.01.17 02:28:45   info : Searching for element. Try number 0
2019.01.17 02:28:46   info : element disappeared after trying for 1 times
2019.01.17 02:28:47   info : Current WebDriver Win Count is:: 1
2019.01.17 02:28:47   info : Element found!!
2019.01.17 02:28:47   info : ObjectTag input and ObjectType text
2019.01.17 02:28:47   info : Enter data operation
2019.01.17 02:28:48   info : Xml obj_repo path C:\Talent_Automation_Framework_Backup\Project_Talent/ObjectRepositories/BenefitAsia2_MercerAdmin/MA_Home.xml
2019.01.17 02:28:48   info : xpath object successfully mapped!!
2019.01.17 02:28:48   info : xpath object contains property value !!
2019.01.17 02:28:48   info : Property name - xpath
2019.01.17 02:28:48   info : Property value - //input[contains(@id,"ContentPlaceHolder1_TextBox1")]
2019.01.17 02:28:48   info : Finding xpath element on webpage..
2019.01.17 02:28:48   info : Searching for element. Try number 0
2019.01.17 02:28:49   info : element disappeared after trying for 1 times
2019.01.17 02:28:50   info : Current WebDriver Win Count is:: 1
2019.01.17 02:28:50   info : Element found!!
2019.01.17 02:28:50   info : Xml obj_repo path C:\Talent_Automation_Framework_Backup\Project_Talent/ObjectRepositories/BenefitAsia2_MercerAdmin/MA_Home.xml
2019.01.17 02:28:50   info : xpath object successfully mapped!!
2019.01.17 02:28:50   info : xpath object contains property value !!
2019.01.17 02:28:50   info : Property name - xpath
2019.01.17 02:28:50   info : Property value - //input[contains(@id,"ContentPlaceHolder1_TextBox1")]
2019.01.17 02:28:50   info : Finding xpath element on webpage..
2019.01.17 02:28:50   info : Searching for element. Try number 0
2019.01.17 02:28:51   info : element disappeared after trying for 1 times
2019.01.17 02:28:52   info : Current WebDriver Win Count is:: 1
2019.01.17 02:28:52   info : Element found!!
2019.01.17 02:28:52   info : ValueToEnter ashish.choudhary@mercer.com
2019.01.17 02:28:52   info : Entered value is ashish.choudhary@mercer.com
2019.01.17 02:28:52   info : Attribute entered value ashish.choudhary@mercer.com
2019.01.17 02:28:53   info : Current WebDriver Win Count is:: 1
2019.01.17 02:28:54   info : restult status : 1
2019.01.17 02:28:54   info : Test ID TC3 : previous test step/row 107 status is Passed and value of next test step/row is :: 108
2019.01.17 02:28:54   info : 

2019.01.17 02:28:54   info : -------------------- Executing Testcase ID TC3 and test step : 108 ---------------------- 
2019.01.17 02:28:55   info : Current WebDriver Win Count is:: 1
2019.01.17 02:28:55   info : page object present in excel : 1
2019.01.17 02:28:55   info : Under single object handle operation!!
2019.01.17 02:28:55   info : col 6 data :  and col 5 data : SSO_Next_Button
2019.01.17 02:28:55   info : Normal click operation !!
2019.01.17 02:28:55   info : Checking for object in click
2019.01.17 02:28:55   info : Xml obj_repo path C:\Talent_Automation_Framework_Backup\Project_Talent/ObjectRepositories/BenefitAsia2_MercerAdmin/MA_Home.xml
2019.01.17 02:28:55   info : xpath object successfully mapped!!
2019.01.17 02:28:55   info : xpath object contains property value !!
2019.01.17 02:28:55   info : Property name - xpath
2019.01.17 02:28:55   info : Property value - //input[contains(@id,"ContentPlaceHolder1_PassiveSignInButton")]
2019.01.17 02:28:55   info : Finding xpath element on webpage..
2019.01.17 02:28:55   info : Searching for element. Try number 0
2019.01.17 02:28:56   info : element disappeared after trying for 1 times
2019.01.17 02:28:57   info : Current WebDriver Win Count is:: 1
2019.01.17 02:28:57   info : Element found!!
2019.01.17 02:28:57   info : Xml obj_repo path C:\Talent_Automation_Framework_Backup\Project_Talent/ObjectRepositories/BenefitAsia2_MercerAdmin/MA_Home.xml
2019.01.17 02:28:57   info : xpath object successfully mapped!!
2019.01.17 02:28:57   info : xpath object contains property value !!
2019.01.17 02:28:57   info : Property name - xpath
2019.01.17 02:28:57   info : Property value - //input[contains(@id,"ContentPlaceHolder1_PassiveSignInButton")]
2019.01.17 02:28:57   info : Finding xpath element on webpage..
2019.01.17 02:28:57   info : Searching for element. Try number 0
2019.01.17 02:28:58   info : element disappeared after trying for 1 times
2019.01.17 02:28:59   info : Current WebDriver Win Count is:: 1
2019.01.17 02:28:59   info : Element found!!
2019.01.17 02:29:05   info : clicked on SSO_Next_Button
2019.01.17 02:29:06   info : Current WebDriver Win Count is:: 1
2019.01.17 02:29:14   info : restult status : 1
2019.01.17 02:29:14   info : Test ID TC3 : previous test step/row 108 status is Passed and value of next test step/row is :: 109
2019.01.17 02:29:14   info : 

2019.01.17 02:29:14   info : -------------------- Executing Testcase ID TC3 and test step : 109 ---------------------- 
2019.01.17 02:29:15   info : Current WebDriver Win Count is:: 1
2019.01.17 02:29:15   info : not doing anything!!
2019.01.17 02:29:15   info : Navigating to another url..
2019.01.17 02:29:20   info : Current WebDriver Win Count is:: 1
2019.01.17 02:29:20   info : restult status : 1
2019.01.17 02:29:20   info : Test ID TC3 : previous test step/row 109 status is Passed and value of next test step/row is :: 110
2019.01.17 02:29:20   info : 

2019.01.17 02:29:20   info : -------------------- Executing Testcase ID TC3 and test step : 110 ---------------------- 
2019.01.17 02:29:22   info : Current WebDriver Win Count is:: 1
2019.01.17 02:29:22   info : Xml obj_repo path C:\Talent_Automation_Framework_Backup\Project_Talent/ObjectRepositories/BenefitAsia2_MercerAdmin/MA_AddNewHire.xml
2019.01.17 02:29:22   info : Title contains null value in xml!!
2019.01.17 02:29:22   info : Window title New Hire
2019.01.17 02:29:22   info : Xml obj_repo path C:\Talent_Automation_Framework_Backup\Project_Talent/ObjectRepositories/BenefitAsia2_MercerAdmin/MA_AddNewHire.xml
2019.01.17 02:29:22   info : xpath object successfully mapped!!
2019.01.17 02:29:22   info : xpath object contains property value !!
2019.01.17 02:29:22   info : Property name - xpath
2019.01.17 02:29:22   info : Property value - //*[contains(@id,"_EditEmployee_txtNationalIdNo")]
2019.01.17 02:29:22   info : Finding xpath element on webpage..
2019.01.17 02:29:22   info : Searching for element. Try number 0
2019.01.17 02:29:23   info : element disappeared after trying for 1 times
2019.01.17 02:29:24   info : Current WebDriver Win Count is:: 1
2019.01.17 02:29:24   info : Element found!!
2019.01.17 02:29:24   info : Desired window is activated!!
2019.01.17 02:29:24   info : Total static wait time 3
2019.01.17 02:29:27   info : Xml obj_repo path C:\Talent_Automation_Framework_Backup\Project_Talent/ObjectRepositories/BenefitAsia2_MercerAdmin/MA_AddNewHire.xml
2019.01.17 02:29:27   info : xpath object successfully mapped!!
2019.01.17 02:29:27   info : xpath object contains property value !!
2019.01.17 02:29:27   info : Property name - xpath
2019.01.17 02:29:27   info : Property value - //*[contains(@id,"_EditEmployee_txtNationalIdNo")]
2019.01.17 02:29:27   info : Finding xpath element on webpage..
2019.01.17 02:29:27   info : Searching for element. Try number 0
2019.01.17 02:29:28   info : element disappeared after trying for 1 times
2019.01.17 02:29:29   info : Current WebDriver Win Count is:: 1
2019.01.17 02:29:29   info : Element found!!
2019.01.17 02:29:29   info : ObjectTag input and ObjectType text
2019.01.17 02:29:29   info : Enter data operation
2019.01.17 02:29:30   info : Xml obj_repo path C:\Talent_Automation_Framework_Backup\Project_Talent/ObjectRepositories/BenefitAsia2_MercerAdmin/MA_AddNewHire.xml
2019.01.17 02:29:30   info : xpath object successfully mapped!!
2019.01.17 02:29:30   info : xpath object contains property value !!
2019.01.17 02:29:30   info : Property name - xpath
2019.01.17 02:29:30   info : Property value - //*[contains(@id,"_EditEmployee_txtNationalIdNo")]
2019.01.17 02:29:30   info : Finding xpath element on webpage..
2019.01.17 02:29:30   info : Searching for element. Try number 0
