2019.01.17 12:43:04   info : Selenium version :: 2.48.2
2019.01.17 12:43:04   info : Download fodler path created!!
2019.01.17 12:43:04   info : date_time_down_folder C:\Talent_Automation_Framework_Backup\Project_Talent\Downloads\2019_01_17\time_12_43_04\
2019.01.17 12:43:04   info : Total number of applications :: 4
2019.01.17 12:43:04   info : Application Name - Latest_Simp
2019.01.17 12:43:04   info : TestData_Sheet path:: C:\Talent_Automation_Framework_Backup\Project_Talent/TestCases/Latest_Simp.xlsx
2019.01.17 12:43:04   info : CSV updating and creating dump....
2019.01.17 12:43:05   info : Sheet name: Scenarios
2019.01.17 12:43:05   info : Sheet name: TestCaseScheduler
2019.01.17 12:43:05   info : Sheet name: Test Case
2019.01.17 12:43:05   info : Latest_Simp sheetname found!!
2019.01.17 12:43:05   info : Total row 781
2019.01.17 12:43:05   info : After row validation for blank or null!!
2019.01.17 12:43:05   info : Total final row 780
2019.01.17 12:43:06   info : Total number of test cases to be executed :: 1
2019.01.17 12:43:06   info : PrevTestID - null == null && row 106<= 780
2019.01.17 12:43:06   info : Test ID TC3 : previous test step/row 105 status is Passed and value of next test step/row is :: 106
2019.01.17 12:43:06   info : 

2019.01.17 12:43:06   info : -------------------- Executing Testcase ID TC3 and test step : 106 ---------------------- 
2019.01.17 12:43:07   info : please wait.. browser getting open !!
2019.01.17 12:43:18   info : Opening Application..
2019.01.17 12:43:44   info : Current WebDriver Win Count is:: 1
2019.01.17 12:43:45   info : restult status : 1
2019.01.17 12:43:45   info : Test ID TC3 : previous test step/row 106 status is Passed and value of next test step/row is :: 107
2019.01.17 12:43:45   info : 

2019.01.17 12:43:45   info : -------------------- Executing Testcase ID TC3 and test step : 107 ---------------------- 
2019.01.17 12:43:46   info : Current WebDriver Win Count is:: 1
2019.01.17 12:43:46   info : Xml obj_repo path C:\Talent_Automation_Framework_Backup\Project_Talent/ObjectRepositories/BenefitAsia2_MercerAdmin/MA_Home.xml
2019.01.17 12:43:46   info : Title in xml file - Home
2019.01.17 12:43:46   warn : Window is not switched, now trying based on element!!
2019.01.17 12:43:46   info : Window title Mercer Account Center
2019.01.17 12:43:46   info : Xml obj_repo path C:\Talent_Automation_Framework_Backup\Project_Talent/ObjectRepositories/BenefitAsia2_MercerAdmin/MA_Home.xml
2019.01.17 12:43:46   info : xpath object successfully mapped!!
2019.01.17 12:43:46   info : xpath object contains property value !!
2019.01.17 12:43:46   info : Property name - xpath
2019.01.17 12:43:46   info : Property value - //input[contains(@id,"ContentPlaceHolder1_TextBox1")]
2019.01.17 12:43:46   info : Finding xpath element on webpage..
2019.01.17 12:43:46   info : Searching for element. Try number 0
2019.01.17 12:43:47   info : element disappeared after trying for 1 times
2019.01.17 12:43:48   info : Current WebDriver Win Count is:: 1
2019.01.17 12:43:48   info : Element found!!
2019.01.17 12:43:48   info : Desired window is activated!!
2019.01.17 12:43:49   info : Total static wait time 3
2019.01.17 12:43:52   info : Xml obj_repo path C:\Talent_Automation_Framework_Backup\Project_Talent/ObjectRepositories/BenefitAsia2_MercerAdmin/MA_Home.xml
2019.01.17 12:43:52   info : xpath object successfully mapped!!
2019.01.17 12:43:52   info : xpath object contains property value !!
2019.01.17 12:43:52   info : Property name - xpath
2019.01.17 12:43:52   info : Property value - //input[contains(@id,"ContentPlaceHolder1_TextBox1")]
2019.01.17 12:43:52   info : Finding xpath element on webpage..
2019.01.17 12:43:52   info : Searching for element. Try number 0
2019.01.17 12:43:53   info : element disappeared after trying for 1 times
2019.01.17 12:43:54   info : Current WebDriver Win Count is:: 1
2019.01.17 12:43:54   info : Element found!!
2019.01.17 12:43:54   info : ObjectTag input and ObjectType text
2019.01.17 12:43:54   info : Enter data operation
2019.01.17 12:43:55   info : Xml obj_repo path C:\Talent_Automation_Framework_Backup\Project_Talent/ObjectRepositories/BenefitAsia2_MercerAdmin/MA_Home.xml
2019.01.17 12:43:55   info : xpath object successfully mapped!!
2019.01.17 12:43:55   info : xpath object contains property value !!
2019.01.17 12:43:55   info : Property name - xpath
2019.01.17 12:43:55   info : Property value - //input[contains(@id,"ContentPlaceHolder1_TextBox1")]
2019.01.17 12:43:55   info : Finding xpath element on webpage..
2019.01.17 12:43:55   info : Searching for element. Try number 0
2019.01.17 12:43:56   info : element disappeared after trying for 1 times
2019.01.17 12:43:57   info : Current WebDriver Win Count is:: 1
2019.01.17 12:43:57   info : Element found!!
2019.01.17 12:43:57   info : Xml obj_repo path C:\Talent_Automation_Framework_Backup\Project_Talent/ObjectRepositories/BenefitAsia2_MercerAdmin/MA_Home.xml
2019.01.17 12:43:57   info : xpath object successfully mapped!!
2019.01.17 12:43:57   info : xpath object contains property value !!
2019.01.17 12:43:57   info : Property name - xpath
2019.01.17 12:43:57   info : Property value - //input[contains(@id,"ContentPlaceHolder1_TextBox1")]
2019.01.17 12:43:57   info : Finding xpath element on webpage..
2019.01.17 12:43:57   info : Searching for element. Try number 0
2019.01.17 12:43:58   info : element disappeared after trying for 1 times
2019.01.17 12:43:59   info : Current WebDriver Win Count is:: 1
2019.01.17 12:43:59   info : Element found!!
2019.01.17 12:43:59   info : ValueToEnter ashish.choudhary@mercer.com
2019.01.17 12:43:59   info : Entered value is ashish.choudhary@mercer.com
2019.01.17 12:43:59   info : Attribute entered value ashish.choudhary@mercer.com
2019.01.17 12:44:00   info : Current WebDriver Win Count is:: 1
2019.01.17 12:44:00   info : restult status : 1
2019.01.17 12:44:00   info : Test ID TC3 : previous test step/row 107 status is Passed and value of next test step/row is :: 108
2019.01.17 12:44:00   info : 

2019.01.17 12:44:00   info : -------------------- Executing Testcase ID TC3 and test step : 108 ---------------------- 
2019.01.17 12:44:02   info : Current WebDriver Win Count is:: 1
2019.01.17 12:44:02   info : page object present in excel : 1
2019.01.17 12:44:02   info : Under single object handle operation!!
2019.01.17 12:44:02   info : col 6 data :  and col 5 data : SSO_Next_Button
2019.01.17 12:44:02   info : Normal click operation !!
2019.01.17 12:44:02   info : Checking for object in click
2019.01.17 12:44:02   info : Xml obj_repo path C:\Talent_Automation_Framework_Backup\Project_Talent/ObjectRepositories/BenefitAsia2_MercerAdmin/MA_Home.xml
2019.01.17 12:44:02   info : xpath object successfully mapped!!
2019.01.17 12:44:02   info : xpath object contains property value !!
2019.01.17 12:44:02   info : Property name - xpath
2019.01.17 12:44:02   info : Property value - //input[contains(@id,"ContentPlaceHolder1_PassiveSignInButton")]
2019.01.17 12:44:02   info : Finding xpath element on webpage..
2019.01.17 12:44:02   info : Searching for element. Try number 0
2019.01.17 12:44:03   info : element disappeared after trying for 1 times
2019.01.17 12:44:04   info : Current WebDriver Win Count is:: 1
2019.01.17 12:44:04   info : Element found!!
2019.01.17 12:44:04   info : Xml obj_repo path C:\Talent_Automation_Framework_Backup\Project_Talent/ObjectRepositories/BenefitAsia2_MercerAdmin/MA_Home.xml
2019.01.17 12:44:04   info : xpath object successfully mapped!!
2019.01.17 12:44:04   info : xpath object contains property value !!
2019.01.17 12:44:04   info : Property name - xpath
2019.01.17 12:44:04   info : Property value - //input[contains(@id,"ContentPlaceHolder1_PassiveSignInButton")]
2019.01.17 12:44:04   info : Finding xpath element on webpage..
2019.01.17 12:44:04   info : Searching for element. Try number 0
2019.01.17 12:44:05   info : element disappeared after trying for 1 times
2019.01.17 12:44:06   info : Current WebDriver Win Count is:: 1
2019.01.17 12:44:06   info : Element found!!
2019.01.17 12:44:14   info : clicked on SSO_Next_Button
2019.01.17 12:44:15   info : Current WebDriver Win Count is:: 1
2019.01.17 12:44:20   info : restult status : 1
2019.01.17 12:44:20   info : Test ID TC3 : previous test step/row 108 status is Passed and value of next test step/row is :: 109
2019.01.17 12:44:20   info : 

2019.01.17 12:44:20   info : -------------------- Executing Testcase ID TC3 and test step : 109 ---------------------- 
2019.01.17 12:44:21   info : Current WebDriver Win Count is:: 1
2019.01.17 12:44:21   info : not doing anything!!
2019.01.17 12:44:21   info : Navigating to another url..
2019.01.17 12:44:50   info : Current WebDriver Win Count is:: 1
2019.01.17 12:44:51   info : restult status : 1
2019.01.17 12:44:51   info : Test ID TC3 : previous test step/row 109 status is Passed and value of next test step/row is :: 110
2019.01.17 12:44:51   info : 

2019.01.17 12:44:51   info : -------------------- Executing Testcase ID TC3 and test step : 110 ---------------------- 
2019.01.17 12:44:52   info : Current WebDriver Win Count is:: 1
2019.01.17 12:44:52   info : Xml obj_repo path C:\Talent_Automation_Framework_Backup\Project_Talent/ObjectRepositories/BenefitAsia2_MercerAdmin/MA_AddNewHire.xml
2019.01.17 12:44:52   info : Title contains null value in xml!!
2019.01.17 12:44:52   info : Window title New Hire
2019.01.17 12:44:52   info : Xml obj_repo path C:\Talent_Automation_Framework_Backup\Project_Talent/ObjectRepositories/BenefitAsia2_MercerAdmin/MA_AddNewHire.xml
2019.01.17 12:44:52   info : xpath object successfully mapped!!
2019.01.17 12:44:52   info : xpath object contains property value !!
2019.01.17 12:44:52   info : Property name - xpath
2019.01.17 12:44:52   info : Property value - //*[contains(@id,"_EditEmployee_txtNationalIdNo")]
2019.01.17 12:44:52   info : Finding xpath element on webpage..
2019.01.17 12:44:52   info : Searching for element. Try number 0
2019.01.17 12:44:53   info : element disappeared after trying for 1 times
2019.01.17 12:44:54   info : Current WebDriver Win Count is:: 1
2019.01.17 12:44:54   info : Element found!!
2019.01.17 12:44:54   info : Desired window is activated!!
2019.01.17 12:44:54   info : Total static wait time 3
2019.01.17 12:44:57   info : Xml obj_repo path C:\Talent_Automation_Framework_Backup\Project_Talent/ObjectRepositories/BenefitAsia2_MercerAdmin/MA_AddNewHire.xml
2019.01.17 12:44:57   info : xpath object successfully mapped!!
2019.01.17 12:44:57   info : xpath object contains property value !!
2019.01.17 12:44:57   info : Property name - xpath
2019.01.17 12:44:57   info : Property value - //*[contains(@id,"_EditEmployee_txtNationalIdNo")]
2019.01.17 12:44:57   info : Finding xpath element on webpage..
2019.01.17 12:44:57   info : Searching for element. Try number 0
2019.01.17 12:44:58   info : element disappeared after trying for 1 times
2019.01.17 12:44:59   info : Current WebDriver Win Count is:: 1
2019.01.17 12:44:59   info : Element found!!
2019.01.17 12:44:59   info : ObjectTag input and ObjectType text
2019.01.17 12:44:59   info : Enter data operation
2019.01.17 12:45:00   info : Xml obj_repo path C:\Talent_Automation_Framework_Backup\Project_Talent/ObjectRepositories/BenefitAsia2_MercerAdmin/MA_AddNewHire.xml
2019.01.17 12:45:00   info : xpath object successfully mapped!!
2019.01.17 12:45:00   info : xpath object contains property value !!
2019.01.17 12:45:00   info : Property name - xpath
2019.01.17 12:45:00   info : Property value - //*[contains(@id,"_EditEmployee_txtNationalIdNo")]
2019.01.17 12:45:00   info : Finding xpath element on webpage..
2019.01.17 12:45:00   info : Searching for element. Try number 0
2019.01.17 12:45:01   info : element disappeared after trying for 1 times
2019.01.17 12:45:02   info : Current WebDriver Win Count is:: 1
2019.01.17 12:45:02   info : Element found!!
2019.01.17 12:45:02   info : Xml obj_repo path C:\Talent_Automation_Framework_Backup\Project_Talent/ObjectRepositories/BenefitAsia2_MercerAdmin/MA_AddNewHire.xml
2019.01.17 12:45:02   info : xpath object successfully mapped!!
2019.01.17 12:45:02   info : xpath object contains property value !!
2019.01.17 12:45:02   info : Property name - xpath
2019.01.17 12:45:02   info : Property value - //*[contains(@id,"_EditEmployee_txtNationalIdNo")]
2019.01.17 12:45:02   info : Finding xpath element on webpage..
2019.01.17 12:45:02   info : Searching for element. Try number 0
2019.01.17 12:45:03   info : element disappeared after trying for 1 times
2019.01.17 12:45:04   info : Current WebDriver Win Count is:: 1
2019.01.17 12:45:04   info : Element found!!
2019.01.17 12:45:04   info : ValueToEnter Simpli_10jan_002
2019.01.17 12:45:04   info : Entered value is Simpli_10jan_002
2019.01.17 12:45:04   info : Attribute entered value Simpli_10jan_002
2019.01.17 12:45:04   info : Total static wait time 3
2019.01.17 12:45:07   info : Xml obj_repo path C:\Talent_Automation_Framework_Backup\Project_Talent/ObjectRepositories/BenefitAsia2_MercerAdmin/MA_AddNewHire.xml
2019.01.17 12:45:07   info : xpath object successfully mapped!!
2019.01.17 12:45:07   info : xpath object contains property value !!
2019.01.17 12:45:07   info : Property name - xpath
2019.01.17 12:45:07   info : Property value - //*[contains(@id,"_EditEmployee_txtUserName")]
2019.01.17 12:45:07   info : Finding xpath element on webpage..
2019.01.17 12:45:07   info : Searching for element. Try number 0
2019.01.17 12:45:08   info : element disappeared after trying for 1 times
2019.01.17 12:45:09   info : Current WebDriver Win Count is:: 1
2019.01.17 12:45:09   info : Element found!!
2019.01.17 12:45:09   info : ObjectTag input and ObjectType text
2019.01.17 12:45:09   info : Enter data operation
2019.01.17 12:45:11   info : Xml obj_repo path C:\Talent_Automation_Framework_Backup\Project_Talent/ObjectRepositories/BenefitAsia2_MercerAdmin/MA_AddNewHire.xml
2019.01.17 12:45:11   info : xpath object successfully mapped!!
2019.01.17 12:45:11   info : xpath object contains property value !!
2019.01.17 12:45:11   info : Property name - xpath
2019.01.17 12:45:11   info : Property value - //*[contains(@id,"_EditEmployee_txtUserName")]
2019.01.17 12:45:11   info : Finding xpath element on webpage..
2019.01.17 12:45:11   info : Searching for element. Try number 0
2019.01.17 12:45:12   info : element disappeared after trying for 1 times
2019.01.17 12:45:13   info : Current WebDriver Win Count is:: 1
2019.01.17 12:45:13   info : Element found!!
2019.01.17 12:45:13   info : Xml obj_repo path C:\Talent_Automation_Framework_Backup\Project_Talent/ObjectRepositories/BenefitAsia2_MercerAdmin/MA_AddNewHire.xml
2019.01.17 12:45:13   info : xpath object successfully mapped!!
2019.01.17 12:45:13   info : xpath object contains property value !!
2019.01.17 12:45:13   info : Property name - xpath
2019.01.17 12:45:13   info : Property value - //*[contains(@id,"_EditEmployee_txtUserName")]
2019.01.17 12:45:13   info : Finding xpath element on webpage..
2019.01.17 12:45:13   info : Searching for element. Try number 0
2019.01.17 12:45:14   info : element disappeared after trying for 1 times
2019.01.17 12:45:15   info : Current WebDriver Win Count is:: 1
2019.01.17 12:45:15   info : Element found!!
2019.01.17 12:45:15   info : ValueToEnter Simpli_10jan_002
2019.01.17 12:45:15   info : Entered value is Simpli_10jan_002
2019.01.17 12:45:15   info : Attribute entered value Simpli_10jan_002
2019.01.17 12:45:15   info : Total static wait time 3
2019.01.17 12:45:18   info : Xml obj_repo path C:\Talent_Automation_Framework_Backup\Project_Talent/ObjectRepositories/BenefitAsia2_MercerAdmin/MA_AddNewHire.xml
2019.01.17 12:45:18   info : xpath object successfully mapped!!
2019.01.17 12:45:18   info : xpath object contains property value !!
2019.01.17 12:45:18   info : Property name - xpath
2019.01.17 12:45:18   info : Property value - //*[contains(@id,"_EditEmployee_txtFullName")]
2019.01.17 12:45:18   info : Finding xpath element on webpage..
2019.01.17 12:45:18   info : Searching for element. Try number 0
2019.01.17 12:45:19   info : element disappeared after trying for 1 times
2019.01.17 12:45:20   info : Current WebDriver Win Count is:: 1
2019.01.17 12:45:20   info : Element found!!
2019.01.17 12:45:20   info : ObjectTag input and ObjectType text
2019.01.17 12:45:20   info : Enter data operation
2019.01.17 12:45:21   info : Xml obj_repo path C:\Talent_Automation_Framework_Backup\Project_Talent/ObjectRepositories/BenefitAsia2_MercerAdmin/MA_AddNewHire.xml
2019.01.17 12:45:21   info : xpath object successfully mapped!!
2019.01.17 12:45:21   info : xpath object contains property value !!
2019.01.17 12:45:21   info : Property name - xpath
2019.01.17 12:45:21   info : Property value - //*[contains(@id,"_EditEmployee_txtFullName")]
2019.01.17 12:45:21   info : Finding xpath element on webpage..
2019.01.17 12:45:21   info : Searching for element. Try number 0
2019.01.17 12:45:22   info : element disappeared after trying for 1 times
2019.01.17 12:45:23   info : Current WebDriver Win Count is:: 1
2019.01.17 12:45:23   info : Element found!!
2019.01.17 12:45:23   info : Xml obj_repo path C:\Talent_Automation_Framework_Backup\Project_Talent/ObjectRepositories/BenefitAsia2_MercerAdmin/MA_AddNewHire.xml
2019.01.17 12:45:23   info : xpath object successfully mapped!!
2019.01.17 12:45:23   info : xpath object contains property value !!
2019.01.17 12:45:23   info : Property name - xpath
2019.01.17 12:45:23   info : Property value - //*[contains(@id,"_EditEmployee_txtFullName")]
2019.01.17 12:45:23   info : Finding xpath element on webpage..
2019.01.17 12:45:23   info : Searching for element. Try number 0
2019.01.17 12:45:24   info : element disappeared after trying for 1 times
2019.01.17 12:45:25   info : Current WebDriver Win Count is:: 1
2019.01.17 12:45:25   info : Element found!!
2019.01.17 12:45:25   info : ValueToEnter Simpli_10jan_002
2019.01.17 12:45:25   info : Entered value is Simpli_10jan_002
2019.01.17 12:45:25   info : Attribute entered value Simpli_10jan_002
2019.01.17 12:45:25   info : Total static wait time 3
2019.01.17 12:45:28   info : Xml obj_repo path C:\Talent_Automation_Framework_Backup\Project_Talent/ObjectRepositories/BenefitAsia2_MercerAdmin/MA_AddNewHire.xml
2019.01.17 12:45:28   info : xpath object successfully mapped!!
2019.01.17 12:45:28   info : xpath object contains property value !!
2019.01.17 12:45:28   info : Property name - xpath
2019.01.17 12:45:28   info : Property value - //*[contains(@id,"_EditEmployee_txtBirthDate")]
2019.01.17 12:45:28   info : Finding xpath element on webpage..
2019.01.17 12:45:28   info : Searching for element. Try number 0
2019.01.17 12:45:29   info : element disappeared after trying for 1 times
2019.01.17 12:45:30   info : Current WebDriver Win Count is:: 1
2019.01.17 12:45:30   info : Element found!!
2019.01.17 12:45:30   info : ObjectTag input and ObjectType text
2019.01.17 12:45:30   info : Enter data operation
2019.01.17 12:45:31   info : Xml obj_repo path C:\Talent_Automation_Framework_Backup\Project_Talent/ObjectRepositories/BenefitAsia2_MercerAdmin/MA_AddNewHire.xml
2019.01.17 12:45:31   info : xpath object successfully mapped!!
2019.01.17 12:45:31   info : xpath object contains property value !!
2019.01.17 12:45:31   info : Property name - xpath
2019.01.17 12:45:31   info : Property value - //*[contains(@id,"_EditEmployee_txtBirthDate")]
2019.01.17 12:45:31   info : Finding xpath element on webpage..
2019.01.17 12:45:31   info : Searching for element. Try number 0
2019.01.17 12:45:32   info : element disappeared after trying for 1 times
2019.01.17 12:45:33   info : Current WebDriver Win Count is:: 1
2019.01.17 12:45:33   info : Element found!!
2019.01.17 12:45:33   info : Xml obj_repo path C:\Talent_Automation_Framework_Backup\Project_Talent/ObjectRepositories/BenefitAsia2_MercerAdmin/MA_AddNewHire.xml
2019.01.17 12:45:33   info : xpath object successfully mapped!!
2019.01.17 12:45:33   info : xpath object contains property value !!
2019.01.17 12:45:33   info : Property name - xpath
2019.01.17 12:45:33   info : Property value - //*[contains(@id,"_EditEmployee_txtBirthDate")]
2019.01.17 12:45:33   info : Finding xpath element on webpage..
2019.01.17 12:45:33   info : Searching for element. Try number 0
2019.01.17 12:45:34   info : element disappeared after trying for 1 times
2019.01.17 12:45:35   info : Current WebDriver Win Count is:: 1
2019.01.17 12:45:35   info : Element found!!
2019.01.17 12:45:35   info : ValueToEnter 1-Jan-04
2019.01.17 12:45:36   info : Entered value is 1-Jan-04
2019.01.17 12:45:36   info : Attribute entered value 1-Jan-04
2019.01.17 12:45:36   info : Total static wait time 3
2019.01.17 12:45:39   info : Xml obj_repo path C:\Talent_Automation_Framework_Backup\Project_Talent/ObjectRepositories/BenefitAsia2_MercerAdmin/MA_AddNewHire.xml
2019.01.17 12:45:39   info : xpath object successfully mapped!!
2019.01.17 12:45:39   info : xpath object contains property value !!
2019.01.17 12:45:39   info : Property name - xpath
2019.01.17 12:45:39   info : Property value - //*[contains(@id,"_EditEmployee_txtHREmployeeID")]
2019.01.17 12:45:39   info : Finding xpath element on webpage..
2019.01.17 12:45:39   info : Searching for element. Try number 0
2019.01.17 12:45:40   info : element disappeared after trying for 1 times
2019.01.17 12:45:41   info : Current WebDriver Win Count is:: 1
2019.01.17 12:45:41   info : Element found!!
2019.01.17 12:45:41   info : ObjectTag input and ObjectType text
2019.01.17 12:45:41   info : Enter data operation
2019.01.17 12:45:42   info : Xml obj_repo path C:\Talent_Automation_Framework_Backup\Project_Talent/ObjectRepositories/BenefitAsia2_MercerAdmin/MA_AddNewHire.xml
2019.01.17 12:45:42   info : xpath object successfully mapped!!
2019.01.17 12:45:42   info : xpath object contains property value !!
2019.01.17 12:45:42   info : Property name - xpath
2019.01.17 12:45:42   info : Property value - //*[contains(@id,"_EditEmployee_txtHREmployeeID")]
2019.01.17 12:45:42   info : Finding xpath element on webpage..
2019.01.17 12:45:42   info : Searching for element. Try number 0
2019.01.17 12:45:43   info : element disappeared after trying for 1 times
2019.01.17 12:45:44   info : Current WebDriver Win Count is:: 1
2019.01.17 12:45:44   info : Element found!!
2019.01.17 12:45:44   info : Xml obj_repo path C:\Talent_Automation_Framework_Backup\Project_Talent/ObjectRepositories/BenefitAsia2_MercerAdmin/MA_AddNewHire.xml
2019.01.17 12:45:44   info : xpath object successfully mapped!!
2019.01.17 12:45:44   info : xpath object contains property value !!
2019.01.17 12:45:44   info : Property name - xpath
2019.01.17 12:45:44   info : Property value - //*[contains(@id,"_EditEmployee_txtHREmployeeID")]
2019.01.17 12:45:44   info : Finding xpath element on webpage..
2019.01.17 12:45:44   info : Searching for element. Try number 0
2019.01.17 12:45:45   info : element disappeared after trying for 1 times
2019.01.17 12:45:46   info : Current WebDriver Win Count is:: 1
2019.01.17 12:45:46   info : Element found!!
2019.01.17 12:45:46   info : ValueToEnter Simpli_10jan_002
2019.01.17 12:45:46   info : Entered value is Simpli_10jan_002
2019.01.17 12:45:46   info : Attribute entered value Simpli_10jan_002
2019.01.17 12:45:46   info : Total static wait time 3
2019.01.17 12:45:49   info : Xml obj_repo path C:\Talent_Automation_Framework_Backup\Project_Talent/ObjectRepositories/BenefitAsia2_MercerAdmin/MA_AddNewHire.xml
2019.01.17 12:45:49   info : xpath object successfully mapped!!
2019.01.17 12:45:49   info : xpath object contains property value !!
2019.01.17 12:45:49   info : Property name - xpath
2019.01.17 12:45:49   info : Property value - //*[contains(@id,"_EditEmployee_txtJoinDate")]
2019.01.17 12:45:49   info : Finding xpath element on webpage..
2019.01.17 12:45:49   info : Searching for element. Try number 0
2019.01.17 12:45:50   info : element disappeared after trying for 1 times
2019.01.17 12:45:51   info : Current WebDriver Win Count is:: 1
2019.01.17 12:45:51   info : Element found!!
2019.01.17 12:45:51   info : ObjectTag input and ObjectType text
2019.01.17 12:45:51   info : Enter data operation
2019.01.17 12:45:52   info : Xml obj_repo path C:\Talent_Automation_Framework_Backup\Project_Talent/ObjectRepositories/BenefitAsia2_MercerAdmin/MA_AddNewHire.xml
2019.01.17 12:45:52   info : xpath object successfully mapped!!
2019.01.17 12:45:52   info : xpath object contains property value !!
2019.01.17 12:45:52   info : Property name - xpath
2019.01.17 12:45:52   info : Property value - //*[contains(@id,"_EditEmployee_txtJoinDate")]
2019.01.17 12:45:52   info : Finding xpath element on webpage..
2019.01.17 12:45:52   info : Searching for element. Try number 0
2019.01.17 12:45:53   info : element disappeared after trying for 1 times
2019.01.17 12:45:54   info : Current WebDriver Win Count is:: 1
2019.01.17 12:45:54   info : Element found!!
2019.01.17 12:45:54   info : Xml obj_repo path C:\Talent_Automation_Framework_Backup\Project_Talent/ObjectRepositories/BenefitAsia2_MercerAdmin/MA_AddNewHire.xml
2019.01.17 12:45:54   info : xpath object successfully mapped!!
2019.01.17 12:45:54   info : xpath object contains property value !!
2019.01.17 12:45:54   info : Property name - xpath
2019.01.17 12:45:54   info : Property value - //*[contains(@id,"_EditEmployee_txtJoinDate")]
2019.01.17 12:45:54   info : Finding xpath element on webpage..
2019.01.17 12:45:54   info : Searching for element. Try number 0
2019.01.17 12:45:55   info : element disappeared after trying for 1 times
2019.01.17 12:45:56   info : Current WebDriver Win Count is:: 1
2019.01.17 12:45:56   info : Element found!!
2019.01.17 12:45:56   info : ValueToEnter 1/1/18
2019.01.17 12:45:56   info : Entered value is 1/1/18
2019.01.17 12:45:56   info : Attribute entered value 1/1/18
2019.01.17 12:45:56   info : Total static wait time 3
2019.01.17 12:45:59   info : Xml obj_repo path C:\Talent_Automation_Framework_Backup\Project_Talent/ObjectRepositories/BenefitAsia2_MercerAdmin/MA_AddNewHire.xml
2019.01.17 12:45:59   info : xpath object successfully mapped!!
2019.01.17 12:45:59   info : xpath object contains property value !!
2019.01.17 12:45:59   info : Property name - xpath
2019.01.17 12:45:59   info : Property value - //*[contains(@id,"_EditEmployee_txtOfficeEmail")]
2019.01.17 12:45:59   info : Finding xpath element on webpage..
2019.01.17 12:45:59   info : Searching for element. Try number 0
2019.01.17 12:46:00   info : element disappeared after trying for 1 times
2019.01.17 12:46:01   info : Current WebDriver Win Count is:: 1
2019.01.17 12:46:01   info : Element found!!
2019.01.17 12:46:01   info : ObjectTag input and ObjectType text
2019.01.17 12:46:01   info : Enter data operation
2019.01.17 12:46:02   info : Xml obj_repo path C:\Talent_Automation_Framework_Backup\Project_Talent/ObjectRepositories/BenefitAsia2_MercerAdmin/MA_AddNewHire.xml
2019.01.17 12:46:02   info : xpath object successfully mapped!!
2019.01.17 12:46:02   info : xpath object contains property value !!
2019.01.17 12:46:02   info : Property name - xpath
2019.01.17 12:46:02   info : Property value - //*[contains(@id,"_EditEmployee_txtOfficeEmail")]
2019.01.17 12:46:02   info : Finding xpath element on webpage..
2019.01.17 12:46:02   info : Searching for element. Try number 0
2019.01.17 12:46:03   info : element disappeared after trying for 1 times
2019.01.17 12:46:04   info : Current WebDriver Win Count is:: 1
2019.01.17 12:46:05   info : Element found!!
2019.01.17 12:46:05   info : Xml obj_repo path C:\Talent_Automation_Framework_Backup\Project_Talent/ObjectRepositories/BenefitAsia2_MercerAdmin/MA_AddNewHire.xml
2019.01.17 12:46:05   info : xpath object successfully mapped!!
2019.01.17 12:46:05   info : xpath object contains property value !!
2019.01.17 12:46:05   info : Property name - xpath
2019.01.17 12:46:05   info : Property value - //*[contains(@id,"_EditEmployee_txtOfficeEmail")]
2019.01.17 12:46:05   info : Finding xpath element on webpage..
2019.01.17 12:46:05   info : Searching for element. Try number 0
2019.01.17 12:46:06   info : element disappeared after trying for 1 times
2019.01.17 12:46:07   info : Current WebDriver Win Count is:: 1
2019.01.17 12:46:07   info : Element found!!
2019.01.17 12:46:07   info : ValueToEnter deepak.rana2@mercer.com
2019.01.17 12:46:07   info : Entered value is deepak.rana2@mercer.com
2019.01.17 12:46:07   info : Attribute entered value deepak.rana2@mercer.com
2019.01.17 12:46:07   info : Total static wait time 3
2019.01.17 12:46:10   info : Xml obj_repo path C:\Talent_Automation_Framework_Backup\Project_Talent/ObjectRepositories/BenefitAsia2_MercerAdmin/MA_AddNewHire.xml
2019.01.17 12:46:10   info : xpath object successfully mapped!!
2019.01.17 12:46:10   info : xpath object contains property value !!
2019.01.17 12:46:10   info : Property name - xpath
2019.01.17 12:46:10   info : Property value - //*[contains(@id,"_EditEmployee_txtDateInFlex")]
2019.01.17 12:46:10   info : Finding xpath element on webpage..
2019.01.17 12:46:10   info : Searching for element. Try number 0
2019.01.17 12:46:11   info : element disappeared after trying for 1 times
2019.01.17 12:46:12   info : Current WebDriver Win Count is:: 1
2019.01.17 12:46:12   info : Element found!!
2019.01.17 12:46:12   info : ObjectTag input and ObjectType text
2019.01.17 12:46:12   info : Enter data operation
2019.01.17 12:46:13   info : Xml obj_repo path C:\Talent_Automation_Framework_Backup\Project_Talent/ObjectRepositories/BenefitAsia2_MercerAdmin/MA_AddNewHire.xml
2019.01.17 12:46:13   info : xpath object successfully mapped!!
2019.01.17 12:46:13   info : xpath object contains property value !!
2019.01.17 12:46:13   info : Property name - xpath
2019.01.17 12:46:13   info : Property value - //*[contains(@id,"_EditEmployee_txtDateInFlex")]
2019.01.17 12:46:13   info : Finding xpath element on webpage..
2019.01.17 12:46:13   info : Searching for element. Try number 0
2019.01.17 12:46:14   info : element disappeared after trying for 1 times
2019.01.17 12:46:15   info : Current WebDriver Win Count is:: 1
2019.01.17 12:46:15   info : Element found!!
2019.01.17 12:46:15   info : Xml obj_repo path C:\Talent_Automation_Framework_Backup\Project_Talent/ObjectRepositories/BenefitAsia2_MercerAdmin/MA_AddNewHire.xml
2019.01.17 12:46:15   info : xpath object successfully mapped!!
2019.01.17 12:46:15   info : xpath object contains property value !!
2019.01.17 12:46:15   info : Property name - xpath
2019.01.17 12:46:15   info : Property value - //*[contains(@id,"_EditEmployee_txtDateInFlex")]
2019.01.17 12:46:15   info : Finding xpath element on webpage..
2019.01.17 12:46:15   info : Searching for element. Try number 0
2019.01.17 12:46:16   info : element disappeared after trying for 1 times
2019.01.17 12:46:17   info : Current WebDriver Win Count is:: 1
2019.01.17 12:46:17   info : Element found!!
2019.01.17 12:46:17   info : ValueToEnter 1/1/18
2019.01.17 12:46:17   info : Entered value is 1/1/18
2019.01.17 12:46:17   info : Attribute entered value 1/1/18
2019.01.17 12:46:17   info : Total static wait time 3
2019.01.17 12:46:20   info : Xml obj_repo path C:\Talent_Automation_Framework_Backup\Project_Talent/ObjectRepositories/BenefitAsia2_MercerAdmin/MA_AddNewHire.xml
2019.01.17 12:46:20   info : xpath object successfully mapped!!
2019.01.17 12:46:20   info : xpath object contains property value !!
2019.01.17 12:46:20   info : Property name - xpath
2019.01.17 12:46:20   info : Property value - //*[contains(@id,"_EditEmployee_chkBoxIsInFlex")]
2019.01.17 12:46:20   info : Finding xpath element on webpage..
2019.01.17 12:46:20   info : Searching for element. Try number 0
2019.01.17 12:46:21   info : element disappeared after trying for 1 times
2019.01.17 12:46:22   info : Current WebDriver Win Count is:: 1
2019.01.17 12:46:22   info : Element found!!
2019.01.17 12:46:22   info : ObjectTag input and ObjectType checkbox
2019.01.17 12:46:22   info : select checkbox operation 
2019.01.17 12:46:22   info : Xml obj_repo path C:\Talent_Automation_Framework_Backup\Project_Talent/ObjectRepositories/BenefitAsia2_MercerAdmin/MA_AddNewHire.xml
2019.01.17 12:46:22   info : xpath object successfully mapped!!
2019.01.17 12:46:22   info : xpath object contains property value !!
2019.01.17 12:46:22   info : Property name - xpath
2019.01.17 12:46:22   info : Property value - //*[contains(@id,"_EditEmployee_chkBoxIsInFlex")]
2019.01.17 12:46:22   info : Finding xpath element on webpage..
2019.01.17 12:46:22   info : Searching for element. Try number 0
2019.01.17 12:46:23   info : element disappeared after trying for 1 times
2019.01.17 12:46:24   info : Current WebDriver Win Count is:: 1
2019.01.17 12:46:24   info : Element found!!
2019.01.17 12:46:24   info : Total static wait time 3
2019.01.17 12:46:27   info : Xml obj_repo path C:\Talent_Automation_Framework_Backup\Project_Talent/ObjectRepositories/BenefitAsia2_MercerAdmin/MA_AddNewHire.xml
2019.01.17 12:46:27   info : Defined excel object tag is not found in xml!!
2019.01.17 12:46:27   info : size of the element return by xmlreading is 0
2019.01.17 12:46:27   warn : exceptionHandler called!!
2019.01.17 12:46:28   info : Current WebDriver Win Count is:: 1
2019.01.17 12:46:29   error : java.lang.NullPointerException
2019.01.17 12:46:29   info : Test ID TC3 : previous test step/row 110 status is Failed and value of next test step/row is :: 111
2019.01.17 12:46:29   info : Test ID TC3 : previous test step/row 111 status is Failed and value of next test step/row is :: 112
2019.01.17 12:46:29   info : Test ID TC3 : previous test step/row 112 status is Failed and value of next test step/row is :: 113
2019.01.17 12:46:29   info : Test ID TC3 : previous test step/row 113 status is Failed and value of next test step/row is :: 114
2019.01.17 12:46:29   info : Test ID TC3 : previous test step/row 114 status is Failed and value of next test step/row is :: 115
2019.01.17 12:46:29   info : Test ID TC3 : previous test step/row 115 status is Failed and value of next test step/row is :: 116
2019.01.17 12:46:29   info : Test ID TC3 : previous test step/row 116 status is Failed and value of next test step/row is :: 117
2019.01.17 12:46:29   info : Test ID TC3 : previous test step/row 117 status is Failed and value of next test step/row is :: 118
2019.01.17 12:46:29   info : Test ID TC3 : previous test step/row 118 status is Failed and value of next test step/row is :: 119
2019.01.17 12:46:29   info : Test ID TC3 : previous test step/row 119 status is Failed and value of next test step/row is :: 120
2019.01.17 12:46:29   info : Test ID TC3 : previous test step/row 120 status is Failed and value of next test step/row is :: 121
2019.01.17 12:46:29   info : Test ID TC3 : previous test step/row 121 status is Failed and value of next test step/row is :: 122
2019.01.17 12:46:29   info : Test ID TC3 : previous test step/row 122 status is Failed and value of next test step/row is :: 123
2019.01.17 12:46:29   info : Test ID TC3 : previous test step/row 123 status is Failed and value of next test step/row is :: 124
2019.01.17 12:46:29   info : Test ID TC3 : previous test step/row 124 status is Failed and value of next test step/row is :: 125
2019.01.17 12:46:29   info : Test ID TC3 : previous test step/row 125 status is Failed and value of next test step/row is :: 126
2019.01.17 12:46:29   info : Test ID TC3 : previous test step/row 126 status is Failed and value of next test step/row is :: 127
2019.01.17 12:46:29   info : Test ID TC3 : previous test step/row 127 status is Failed and value of next test step/row is :: 128
2019.01.17 12:46:29   info : Test ID TC3 : previous test step/row 128 status is Failed and value of next test step/row is :: 129
2019.01.17 12:46:29   info : Test ID TC3 : previous test step/row 129 status is Failed and value of next test step/row is :: 130
2019.01.17 12:46:29   info : Test ID TC3 : previous test step/row 130 status is Failed and value of next test step/row is :: 131
2019.01.17 12:46:29   info : Test ID TC3 : previous test step/row 131 status is Failed and value of next test step/row is :: 132
2019.01.17 12:46:29   info : Test ID TC3 : previous test step/row 132 status is Failed and value of next test step/row is :: 133
2019.01.17 12:46:29   info : Test ID TC3 : previous test step/row 133 status is Failed and value of next test step/row is :: 134
2019.01.17 12:46:29   info : Test ID TC3 : previous test step/row 134 status is Failed and value of next test step/row is :: 135
2019.01.17 12:46:29   info : Test ID TC3 : previous test step/row 135 status is Failed and value of next test step/row is :: 136
2019.01.17 12:46:29   info : Test ID TC3 : previous test step/row 136 status is Failed and value of next test step/row is :: 137
2019.01.17 12:46:29   info : Test ID TC3 : previous test step/row 137 status is Failed and value of next test step/row is :: 138
2019.01.17 12:46:29   info : Test ID TC3 : previous test step/row 138 status is Failed and value of next test step/row is :: 139
2019.01.17 12:46:29   info : Test ID TC3 : previous test step/row 139 status is Failed and value of next test step/row is :: 140
2019.01.17 12:46:29   info : Test ID TC3 : previous test step/row 140 status is Failed and value of next test step/row is :: 141
2019.01.17 12:46:29   info : Test ID TC3 : previous test step/row 141 status is Failed and value of next test step/row is :: 142
2019.01.17 12:46:29   info : Test ID TC3 : previous test step/row 142 status is Failed and value of next test step/row is :: 143
2019.01.17 12:46:29   info : Test ID TC3 : previous test step/row 143 status is Failed and value of next test step/row is :: 144
2019.01.17 12:46:29   info : Test ID TC3 : previous test step/row 144 status is Failed and value of next test step/row is :: 145
2019.01.17 12:46:29   info : Test ID TC3 : previous test step/row 145 status is Failed and value of next test step/row is :: 146
2019.01.17 12:46:29   info : Test ID TC3 : previous test step/row 146 status is Failed and value of next test step/row is :: 147
2019.01.17 12:46:29   info : Test ID TC3 : previous test step/row 147 status is Failed and value of next test step/row is :: 148
2019.01.17 12:46:29   info : Test ID TC3 : previous test step/row 148 status is Failed and value of next test step/row is :: 149
2019.01.17 12:46:29   info : Test ID TC3 : previous test step/row 149 status is Failed and value of next test step/row is :: 150
2019.01.17 12:46:29   info : Test ID TC3 : previous test step/row 150 status is Failed and value of next test step/row is :: 151
2019.01.17 12:46:29   info : Test ID TC3 : previous test step/row 151 status is Failed and value of next test step/row is :: 152
2019.01.17 12:46:29   info : Test ID TC3 : previous test step/row 152 status is Failed and value of next test step/row is :: 153
2019.01.17 12:46:29   info : Test ID TC3 : previous test step/row 153 status is Failed and value of next test step/row is :: 154
2019.01.17 12:46:29   info : Test ID TC3 : previous test step/row 154 status is Failed and value of next test step/row is :: 155
2019.01.17 12:46:29   info : Test ID TC3 : previous test step/row 155 status is Failed and value of next test step/row is :: 156
2019.01.17 12:46:29   info : Test ID TC3 : previous test step/row 156 status is Failed and value of next test step/row is :: 157
2019.01.17 12:46:29   info : Test ID TC3 : previous test step/row 157 status is Failed and value of next test step/row is :: 158
2019.01.17 12:46:29   info : Test ID TC3 : previous test step/row 158 status is Failed and value of next test step/row is :: 159
2019.01.17 12:46:29   info : Test ID TC3 : previous test step/row 159 status is Failed and value of next test step/row is :: 160
2019.01.17 12:46:29   info : Test ID TC3 : previous test step/row 160 status is Failed and value of next test step/row is :: 161
2019.01.17 12:46:29   info : Test ID TC3 : previous test step/row 161 status is Failed and value of next test step/row is :: 162
2019.01.17 12:46:29   info : Test ID TC3 : previous test step/row 162 status is Failed and value of next test step/row is :: 163
2019.01.17 12:46:29   info : Test ID TC3 : previous test step/row 163 status is Failed and value of next test step/row is :: 164
2019.01.17 12:46:29   info : Test ID TC3 : previous test step/row 164 status is Failed and value of next test step/row is :: 165
2019.01.17 12:46:29   info : Test ID TC3 : previous test step/row 165 status is Failed and value of next test step/row is :: 166
2019.01.17 12:46:29   info : Test ID TC3 : previous test step/row 166 status is Failed and value of next test step/row is :: 167
2019.01.17 12:46:29   info : Test ID TC3 : previous test step/row 167 status is Failed and value of next test step/row is :: 168
2019.01.17 12:46:29   info : Test ID TC3 : previous test step/row 168 status is Failed and value of next test step/row is :: 169
2019.01.17 12:46:29   info : Test ID TC3 : previous test step/row 169 status is Failed and value of next test step/row is :: 170
2019.01.17 12:46:29   info : Test ID TC3 : previous test step/row 170 status is Failed and value of next test step/row is :: 171
2019.01.17 12:46:29   info : Test ID TC3 : previous test step/row 171 status is Failed and value of next test step/row is :: 172
2019.01.17 12:46:29   info : Test ID TC3 : previous test step/row 172 status is Failed and value of next test step/row is :: 173
2019.01.17 12:46:29   info : Test ID TC3 : previous test step/row 173 status is Failed and value of next test step/row is :: 174
2019.01.17 12:46:29   info : Test ID TC3 : previous test step/row 174 status is Failed and value of next test step/row is :: 175
2019.01.17 12:46:29   info : Test ID TC3 : previous test step/row 175 status is Failed and value of next test step/row is :: 176
2019.01.17 12:46:29   info : Test ID TC3 : previous test step/row 176 status is Failed and value of next test step/row is :: 177
2019.01.17 12:46:29   info : Test ID TC3 : previous test step/row 177 status is Failed and value of next test step/row is :: 178
2019.01.17 12:46:29   info : Test ID TC3 : previous test step/row 178 status is Failed and value of next test step/row is :: 179
2019.01.17 12:46:29   info : Test ID TC3 : previous test step/row 179 status is Failed and value of next test step/row is :: 180
2019.01.17 12:46:29   info : Test ID TC3 : previous test step/row 180 status is Failed and value of next test step/row is :: 181
2019.01.17 12:46:29   info : Test ID TC3 : previous test step/row 181 status is Failed and value of next test step/row is :: 182
2019.01.17 12:46:29   info : Test ID TC3 : previous test step/row 182 status is Failed and value of next test step/row is :: 183
2019.01.17 12:46:29   info : Test ID TC3 : previous test step/row 183 status is Failed and value of next test step/row is :: 184
2019.01.17 12:46:29   info : Test ID TC3 : previous test step/row 184 status is Failed and value of next test step/row is :: 185
2019.01.17 12:46:29   info : Test ID TC3 : previous test step/row 185 status is Failed and value of next test step/row is :: 186
2019.01.17 12:46:29   info : Test ID TC3 : previous test step/row 186 status is Failed and value of next test step/row is :: 187
2019.01.17 12:46:29   info : Test ID TC3 : previous test step/row 187 status is Failed and value of next test step/row is :: 188
2019.01.17 12:46:29   info : Test ID TC3 : previous test step/row 188 status is Failed and value of next test step/row is :: 189
2019.01.17 12:46:29   info : Test ID TC3 : previous test step/row 189 status is Failed and value of next test step/row is :: 190
2019.01.17 12:46:29   info : Test ID TC3 : previous test step/row 190 status is Failed and value of next test step/row is :: 191
2019.01.17 12:46:29   info : Test ID TC3 : previous test step/row 191 status is Failed and value of next test step/row is :: 192
2019.01.17 12:46:29   info : Test ID TC3 : previous test step/row 192 status is Failed and value of next test step/row is :: 193
2019.01.17 12:46:29   info : Test ID TC3 : previous test step/row 193 status is Failed and value of next test step/row is :: 194
2019.01.17 12:46:29   info : Test ID TC3 : previous test step/row 194 status is Failed and value of next test step/row is :: 195
2019.01.17 12:46:29   info : Test ID TC3 : previous test step/row 195 status is Failed and value of next test step/row is :: 196
2019.01.17 12:46:29   info : Test ID TC3 : previous test step/row 196 status is Failed and value of next test step/row is :: 197
2019.01.17 12:46:29   info : Test ID TC3 : previous test step/row 197 status is Failed and value of next test step/row is :: 198
2019.01.17 12:46:29   info : Test ID TC3 : previous test step/row 198 status is Failed and value of next test step/row is :: 199
2019.01.17 12:46:29   info : Test ID TC3 : previous test step/row 199 status is Failed and value of next test step/row is :: 200
2019.01.17 12:46:29   info : Test ID TC3 : previous test step/row 200 status is Failed and value of next test step/row is :: 201
2019.01.17 12:46:29   info : Test ID TC3 : previous test step/row 201 status is Failed and value of next test step/row is :: 202
2019.01.17 12:46:29   info : Test ID TC3 : previous test step/row 202 status is Failed and value of next test step/row is :: 203
2019.01.17 12:46:29   info : Test ID TC3 : previous test step/row 203 status is Failed and value of next test step/row is :: 204
2019.01.17 12:46:29   info : Test ID TC3 : previous test step/row 204 status is Failed and value of next test step/row is :: 205
2019.01.17 12:46:29   info : Test ID TC3 : previous test step/row 205 status is Failed and value of next test step/row is :: 206
2019.01.17 12:46:29   info : Test ID TC3 : previous test step/row 206 status is Failed and value of next test step/row is :: 207
2019.01.17 12:46:29   info : Test ID TC3 : previous test step/row 207 status is Failed and value of next test step/row is :: 208
2019.01.17 12:46:29   info : Test ID TC3 : previous test step/row 208 status is Failed and value of next test step/row is :: 209
2019.01.17 12:46:29   info : Test ID TC3 : previous test step/row 209 status is Failed and value of next test step/row is :: 210
2019.01.17 12:46:29   info : Test ID TC3 : previous test step/row 210 status is Failed and value of next test step/row is :: 211
2019.01.17 12:46:29   info : Test ID TC3 : previous test step/row 211 status is Failed and value of next test step/row is :: 212
2019.01.17 12:46:29   info : Test ID TC3 : previous test step/row 212 status is Failed and value of next test step/row is :: 213
2019.01.17 12:46:29   info : Test ID TC3 : previous test step/row 213 status is Failed and value of next test step/row is :: 214
2019.01.17 12:46:29   info : Test ID TC3 : previous test step/row 214 status is Failed and value of next test step/row is :: 215
2019.01.17 12:46:29   info : Test ID TC3 : previous test step/row 215 status is Failed and value of next test step/row is :: 216
2019.01.17 12:46:29   info : Test ID TC3 : previous test step/row 216 status is Failed and value of next test step/row is :: 217
2019.01.17 12:46:29   info : Test ID TC3 : previous test step/row 217 status is Failed and value of next test step/row is :: 218
2019.01.17 12:46:29   info : Test ID TC3 : previous test step/row 218 status is Failed and value of next test step/row is :: 219
2019.01.17 12:46:29   info : Test ID TC3 : previous test step/row 219 status is Failed and value of next test step/row is :: 220
2019.01.17 12:46:29   info : Test ID TC3 : previous test step/row 220 status is Failed and value of next test step/row is :: 221
2019.01.17 12:46:29   info : Test ID TC3 : previous test step/row 221 status is Failed and value of next test step/row is :: 222
2019.01.17 12:46:29   info : Test ID TC3 : previous test step/row 222 status is Failed and value of next test step/row is :: 223
2019.01.17 12:46:29   info : Test ID TC3 : previous test step/row 223 status is Failed and value of next test step/row is :: 224
2019.01.17 12:46:29   info : Test ID TC3 : previous test step/row 224 status is Failed and value of next test step/row is :: 225
2019.01.17 12:46:29   info : Test ID TC3 : previous test step/row 225 status is Failed and value of next test step/row is :: 226
2019.01.17 12:46:29   info : Test ID TC3 : previous test step/row 226 status is Failed and value of next test step/row is :: 227
2019.01.17 12:46:29   info : Test ID TC3 : previous test step/row 227 status is Failed and value of next test step/row is :: 228
2019.01.17 12:46:29   info : Test ID TC3 : previous test step/row 228 status is Failed and value of next test step/row is :: 229
2019.01.17 12:46:29   info : Test ID TC3 : previous test step/row 229 status is Failed and value of next test step/row is :: 230
2019.01.17 12:46:29   info : Test ID TC3 : previous test step/row 230 status is Failed and value of next test step/row is :: 231
2019.01.17 12:46:29   info : Test ID TC3 : previous test step/row 231 status is Failed and value of next test step/row is :: 232
2019.01.17 12:46:29   info : Test ID TC3 : previous test step/row 232 status is Failed and value of next test step/row is :: 233
2019.01.17 12:46:29   info : Test ID TC3 : previous test step/row 233 status is Failed and value of next test step/row is :: 234
2019.01.17 12:46:29   info : Test ID TC3 : previous test step/row 234 status is Failed and value of next test step/row is :: 235
2019.01.17 12:46:29   info : Test ID TC3 : previous test step/row 235 status is Failed and value of next test step/row is :: 236
2019.01.17 12:46:29   info : Test ID TC3 : previous test step/row 236 status is Failed and value of next test step/row is :: 237
2019.01.17 12:46:29   info : Test ID TC3 : previous test step/row 237 status is Failed and value of next test step/row is :: 238
2019.01.17 12:46:29   info : Test ID TC3 : previous test step/row 238 status is Failed and value of next test step/row is :: 239
2019.01.17 12:46:29   info : Test ID TC3 : previous test step/row 239 status is Failed and value of next test step/row is :: 240
2019.01.17 12:46:29   info : Test ID TC3 : previous test step/row 240 status is Failed and value of next test step/row is :: 241
2019.01.17 12:46:29   info : Test ID TC3 : previous test step/row 241 status is Failed and value of next test step/row is :: 242
2019.01.17 12:46:29   info : Test ID TC3 : previous test step/row 242 status is Failed and value of next test step/row is :: 243
2019.01.17 12:46:29   info : Test ID TC3 : previous test step/row 243 status is Failed and value of next test step/row is :: 244
2019.01.17 12:46:29   info : Test ID TC3 : previous test step/row 244 status is Failed and value of next test step/row is :: 245
2019.01.17 12:46:29   info : Test ID TC3 : previous test step/row 245 status is Failed and value of next test step/row is :: 246
2019.01.17 12:46:29   info : Test ID TC3 : previous test step/row 246 status is Failed and value of next test step/row is :: 247
2019.01.17 12:46:29   info : Test ID TC3 : previous test step/row 247 status is Failed and value of next test step/row is :: 248
2019.01.17 12:46:29   info : Test ID TC3 : previous test step/row 248 status is Failed and value of next test step/row is :: 249
2019.01.17 12:46:29   info : Test ID TC3 : previous test step/row 249 status is Failed and value of next test step/row is :: 250
2019.01.17 12:46:29   info : Test ID TC3 : previous test step/row 250 status is Failed and value of next test step/row is :: 251
2019.01.17 12:46:29   info : Test ID TC3 : previous test step/row 251 status is Failed and value of next test step/row is :: 252
2019.01.17 12:46:29   info : Test ID TC3 : previous test step/row 252 status is Failed and value of next test step/row is :: 253
2019.01.17 12:46:29   info : Test ID TC3 : previous test step/row 253 status is Failed and value of next test step/row is :: 254
2019.01.17 12:46:29   info : Test ID TC3 : previous test step/row 254 status is Failed and value of next test step/row is :: 255
2019.01.17 12:46:29   info : Test ID TC3 : previous test step/row 255 status is Failed and value of next test step/row is :: 256
2019.01.17 12:46:29   info : Test ID TC3 : previous test step/row 256 status is Failed and value of next test step/row is :: 257
2019.01.17 12:46:29   info : Test ID TC3 : previous test step/row 257 status is Failed and value of next test step/row is :: 258
2019.01.17 12:46:29   info : Test ID TC3 : previous test step/row 258 status is Failed and value of next test step/row is :: 259
2019.01.17 12:46:29   info : Test ID TC3 : previous test step/row 259 status is Failed and value of next test step/row is :: 260
2019.01.17 12:46:29   info : Test ID TC3 : previous test step/row 260 status is Failed and value of next test step/row is :: 261
2019.01.17 12:46:29   info : Test ID TC3 : previous test step/row 261 status is Failed and value of next test step/row is :: 262
2019.01.17 12:46:29   info : Test ID TC3 : previous test step/row 262 status is Failed and value of next test step/row is :: 263
2019.01.17 12:46:29   info : Test ID TC3 : previous test step/row 263 status is Failed and value of next test step/row is :: 264
2019.01.17 12:46:29   info : Test ID TC3 : previous test step/row 264 status is Failed and value of next test step/row is :: 265
2019.01.17 12:46:29   info : Row TC3!=TC4 || (TC4==null)) && (265<=780)
2019.01.17 12:46:29   info : Status :: Failed :: Finalizing result report
2019.01.17 12:46:29   info : closing window...
2019.01.17 12:46:29   info : window size 1
2019.01.17 12:46:30   info : Window is closed!!
