2019.01.17 12:22:56   info : Selenium version :: 2.48.2
2019.01.17 12:22:56   info : Download fodler path created!!
2019.01.17 12:22:56   info : date_time_down_folder C:\Talent_Automation_Framework_Backup\Project_Talent\Downloads\2019_01_17\time_12_22_56\
2019.01.17 12:22:57   info : Total number of applications :: 4
2019.01.17 12:22:57   info : Application Name - Latest_Simp
2019.01.17 12:22:57   info : TestData_Sheet path:: C:\Talent_Automation_Framework_Backup\Project_Talent/TestCases/Latest_Simp.xlsx
2019.01.17 12:22:57   info : CSV updating and creating dump....
2019.01.17 12:22:58   info : Sheet name: Scenarios
2019.01.17 12:22:58   info : Sheet name: TestCaseScheduler
2019.01.17 12:22:58   info : Sheet name: Test Case
2019.01.17 12:22:58   info : Latest_Simp sheetname found!!
2019.01.17 12:22:58   info : Total row 781
2019.01.17 12:22:58   info : After row validation for blank or null!!
2019.01.17 12:22:58   info : Total final row 780
2019.01.17 12:22:59   info : Total number of test cases to be executed :: 1
2019.01.17 12:22:59   info : PrevTestID - null == null && row 106<= 780
2019.01.17 12:22:59   info : Test ID TC3 : previous test step/row 105 status is Passed and value of next test step/row is :: 106
2019.01.17 12:22:59   info : 

2019.01.17 12:22:59   info : -------------------- Executing Testcase ID TC3 and test step : 106 ---------------------- 
2019.01.17 12:22:59   info : please wait.. browser getting open !!
2019.01.17 12:23:10   info : Opening Application..
2019.01.17 12:23:16   info : Current WebDriver Win Count is:: 1
2019.01.17 12:23:17   info : restult status : 1
2019.01.17 12:23:17   info : Test ID TC3 : previous test step/row 106 status is Passed and value of next test step/row is :: 107
2019.01.17 12:23:17   info : 

2019.01.17 12:23:17   info : -------------------- Executing Testcase ID TC3 and test step : 107 ---------------------- 
2019.01.17 12:23:18   info : Current WebDriver Win Count is:: 1
2019.01.17 12:23:18   info : Xml obj_repo path C:\Talent_Automation_Framework_Backup\Project_Talent/ObjectRepositories/BenefitAsia2_MercerAdmin/MA_Home.xml
2019.01.17 12:23:18   info : Title in xml file - Home
2019.01.17 12:23:18   warn : Window is not switched, now trying based on element!!
2019.01.17 12:23:19   info : Window title Mercer Account Center
2019.01.17 12:23:19   info : Xml obj_repo path C:\Talent_Automation_Framework_Backup\Project_Talent/ObjectRepositories/BenefitAsia2_MercerAdmin/MA_Home.xml
2019.01.17 12:23:19   info : xpath object successfully mapped!!
2019.01.17 12:23:19   info : xpath object contains property value !!
2019.01.17 12:23:19   info : Property name - xpath
2019.01.17 12:23:19   info : Property value - //input[contains(@id,"ContentPlaceHolder1_TextBox1")]
2019.01.17 12:23:19   info : Finding xpath element on webpage..
2019.01.17 12:23:19   info : Searching for element. Try number 0
2019.01.17 12:23:20   info : element disappeared after trying for 1 times
2019.01.17 12:23:21   info : Current WebDriver Win Count is:: 1
2019.01.17 12:23:21   info : Element found!!
2019.01.17 12:23:21   info : Desired window is activated!!
2019.01.17 12:23:21   info : Total static wait time 3
2019.01.17 12:23:24   info : Xml obj_repo path C:\Talent_Automation_Framework_Backup\Project_Talent/ObjectRepositories/BenefitAsia2_MercerAdmin/MA_Home.xml
2019.01.17 12:23:24   info : xpath object successfully mapped!!
2019.01.17 12:23:24   info : xpath object contains property value !!
2019.01.17 12:23:24   info : Property name - xpath
2019.01.17 12:23:24   info : Property value - //input[contains(@id,"ContentPlaceHolder1_TextBox1")]
2019.01.17 12:23:24   info : Finding xpath element on webpage..
2019.01.17 12:23:24   info : Searching for element. Try number 0
2019.01.17 12:23:25   info : element disappeared after trying for 1 times
2019.01.17 12:23:26   info : Current WebDriver Win Count is:: 1
2019.01.17 12:23:26   info : Element found!!
2019.01.17 12:23:26   info : ObjectTag input and ObjectType text
2019.01.17 12:23:26   info : Enter data operation
2019.01.17 12:23:27   info : Xml obj_repo path C:\Talent_Automation_Framework_Backup\Project_Talent/ObjectRepositories/BenefitAsia2_MercerAdmin/MA_Home.xml
2019.01.17 12:23:27   info : xpath object successfully mapped!!
2019.01.17 12:23:27   info : xpath object contains property value !!
2019.01.17 12:23:27   info : Property name - xpath
2019.01.17 12:23:27   info : Property value - //input[contains(@id,"ContentPlaceHolder1_TextBox1")]
2019.01.17 12:23:27   info : Finding xpath element on webpage..
2019.01.17 12:23:27   info : Searching for element. Try number 0
2019.01.17 12:23:28   info : element disappeared after trying for 1 times
2019.01.17 12:23:29   info : Current WebDriver Win Count is:: 1
2019.01.17 12:23:29   info : Element found!!
2019.01.17 12:23:29   info : Xml obj_repo path C:\Talent_Automation_Framework_Backup\Project_Talent/ObjectRepositories/BenefitAsia2_MercerAdmin/MA_Home.xml
2019.01.17 12:23:29   info : xpath object successfully mapped!!
2019.01.17 12:23:29   info : xpath object contains property value !!
2019.01.17 12:23:29   info : Property name - xpath
2019.01.17 12:23:29   info : Property value - //input[contains(@id,"ContentPlaceHolder1_TextBox1")]
2019.01.17 12:23:29   info : Finding xpath element on webpage..
2019.01.17 12:23:29   info : Searching for element. Try number 0
2019.01.17 12:23:30   info : element disappeared after trying for 1 times
2019.01.17 12:23:31   info : Current WebDriver Win Count is:: 1
2019.01.17 12:23:31   info : Element found!!
2019.01.17 12:23:31   info : ValueToEnter ashish.choudhary@mercer.com
2019.01.17 12:23:31   info : Entered value is ashish.choudhary@mercer.com
2019.01.17 12:23:31   info : Attribute entered value ashish.choudhary@mercer.com
2019.01.17 12:23:32   info : Current WebDriver Win Count is:: 1
2019.01.17 12:23:32   info : restult status : 1
2019.01.17 12:23:33   info : Test ID TC3 : previous test step/row 107 status is Passed and value of next test step/row is :: 108
2019.01.17 12:23:33   info : 

2019.01.17 12:23:33   info : -------------------- Executing Testcase ID TC3 and test step : 108 ---------------------- 
2019.01.17 12:23:34   info : Current WebDriver Win Count is:: 1
2019.01.17 12:23:34   info : page object present in excel : 1
2019.01.17 12:23:34   info : Under single object handle operation!!
2019.01.17 12:23:34   info : col 6 data :  and col 5 data : SSO_Next_Button
2019.01.17 12:23:34   info : Normal click operation !!
2019.01.17 12:23:34   info : Checking for object in click
2019.01.17 12:23:34   info : Xml obj_repo path C:\Talent_Automation_Framework_Backup\Project_Talent/ObjectRepositories/BenefitAsia2_MercerAdmin/MA_Home.xml
2019.01.17 12:23:34   info : xpath object successfully mapped!!
2019.01.17 12:23:34   info : xpath object contains property value !!
2019.01.17 12:23:34   info : Property name - xpath
2019.01.17 12:23:34   info : Property value - //input[contains(@id,"ContentPlaceHolder1_PassiveSignInButton")]
2019.01.17 12:23:34   info : Finding xpath element on webpage..
2019.01.17 12:23:34   info : Searching for element. Try number 0
2019.01.17 12:23:35   info : element disappeared after trying for 1 times
2019.01.17 12:23:36   info : Current WebDriver Win Count is:: 1
2019.01.17 12:23:36   info : Element found!!
2019.01.17 12:23:36   info : Xml obj_repo path C:\Talent_Automation_Framework_Backup\Project_Talent/ObjectRepositories/BenefitAsia2_MercerAdmin/MA_Home.xml
2019.01.17 12:23:36   info : xpath object successfully mapped!!
2019.01.17 12:23:36   info : xpath object contains property value !!
2019.01.17 12:23:36   info : Property name - xpath
2019.01.17 12:23:36   info : Property value - //input[contains(@id,"ContentPlaceHolder1_PassiveSignInButton")]
2019.01.17 12:23:36   info : Finding xpath element on webpage..
2019.01.17 12:23:36   info : Searching for element. Try number 0
2019.01.17 12:23:37   info : element disappeared after trying for 1 times
2019.01.17 12:23:38   info : Current WebDriver Win Count is:: 1
2019.01.17 12:23:38   info : Element found!!
2019.01.17 12:23:45   info : clicked on SSO_Next_Button
2019.01.17 12:23:46   info : Current WebDriver Win Count is:: 1
2019.01.17 12:23:50   info : restult status : 1
2019.01.17 12:23:50   info : Test ID TC3 : previous test step/row 108 status is Passed and value of next test step/row is :: 109
2019.01.17 12:23:50   info : 

2019.01.17 12:23:50   info : -------------------- Executing Testcase ID TC3 and test step : 109 ---------------------- 
2019.01.17 12:23:51   info : Current WebDriver Win Count is:: 1
2019.01.17 12:23:51   info : not doing anything!!
2019.01.17 12:23:51   info : Navigating to another url..
2019.01.17 12:23:56   info : Current WebDriver Win Count is:: 1
2019.01.17 12:23:56   info : restult status : 1
2019.01.17 12:23:56   info : Test ID TC3 : previous test step/row 109 status is Passed and value of next test step/row is :: 110
2019.01.17 12:23:56   info : 

2019.01.17 12:23:56   info : -------------------- Executing Testcase ID TC3 and test step : 110 ---------------------- 
2019.01.17 12:23:57   info : Current WebDriver Win Count is:: 1
2019.01.17 12:23:57   info : Xml obj_repo path C:\Talent_Automation_Framework_Backup\Project_Talent/ObjectRepositories/BenefitAsia2_MercerAdmin/MA_AddNewHire.xml
2019.01.17 12:23:57   info : Title contains null value in xml!!
2019.01.17 12:23:57   info : Window title New Hire
2019.01.17 12:23:57   info : Xml obj_repo path C:\Talent_Automation_Framework_Backup\Project_Talent/ObjectRepositories/BenefitAsia2_MercerAdmin/MA_AddNewHire.xml
2019.01.17 12:23:57   info : xpath object successfully mapped!!
2019.01.17 12:23:57   info : xpath object contains property value !!
2019.01.17 12:23:57   info : Property name - xpath
2019.01.17 12:23:57   info : Property value - //*[contains(@id,"_EditEmployee_txtNationalIdNo")]
2019.01.17 12:23:57   info : Finding xpath element on webpage..
2019.01.17 12:23:57   info : Searching for element. Try number 0
2019.01.17 12:23:59   info : element disappeared after trying for 1 times
2019.01.17 12:24:00   info : Current WebDriver Win Count is:: 1
2019.01.17 12:24:00   info : Element found!!
2019.01.17 12:24:00   info : Desired window is activated!!
2019.01.17 12:24:00   info : Total static wait time 3
2019.01.17 12:24:03   info : Xml obj_repo path C:\Talent_Automation_Framework_Backup\Project_Talent/ObjectRepositories/BenefitAsia2_MercerAdmin/MA_AddNewHire.xml
2019.01.17 12:24:03   info : xpath object successfully mapped!!
2019.01.17 12:24:03   info : xpath object contains property value !!
2019.01.17 12:24:03   info : Property name - xpath
2019.01.17 12:24:03   info : Property value - //*[contains(@id,"_EditEmployee_txtNationalIdNo")]
2019.01.17 12:24:03   info : Finding xpath element on webpage..
2019.01.17 12:24:03   info : Searching for element. Try number 0
2019.01.17 12:24:04   info : element disappeared after trying for 1 times
2019.01.17 12:24:05   info : Current WebDriver Win Count is:: 1
2019.01.17 12:24:05   info : Element found!!
2019.01.17 12:24:05   info : ObjectTag input and ObjectType text
2019.01.17 12:24:05   info : Enter data operation
2019.01.17 12:24:06   info : Xml obj_repo path C:\Talent_Automation_Framework_Backup\Project_Talent/ObjectRepositories/BenefitAsia2_MercerAdmin/MA_AddNewHire.xml
2019.01.17 12:24:06   info : xpath object successfully mapped!!
2019.01.17 12:24:06   info : xpath object contains property value !!
2019.01.17 12:24:06   info : Property name - xpath
2019.01.17 12:24:06   info : Property value - //*[contains(@id,"_EditEmployee_txtNationalIdNo")]
2019.01.17 12:24:06   info : Finding xpath element on webpage..
2019.01.17 12:24:06   info : Searching for element. Try number 0
2019.01.17 12:24:07   info : element disappeared after trying for 1 times
2019.01.17 12:24:08   info : Current WebDriver Win Count is:: 1
2019.01.17 12:24:08   info : Element found!!
2019.01.17 12:24:08   info : Xml obj_repo path C:\Talent_Automation_Framework_Backup\Project_Talent/ObjectRepositories/BenefitAsia2_MercerAdmin/MA_AddNewHire.xml
2019.01.17 12:24:08   info : xpath object successfully mapped!!
2019.01.17 12:24:08   info : xpath object contains property value !!
2019.01.17 12:24:08   info : Property name - xpath
2019.01.17 12:24:08   info : Property value - //*[contains(@id,"_EditEmployee_txtNationalIdNo")]
2019.01.17 12:24:08   info : Finding xpath element on webpage..
2019.01.17 12:24:08   info : Searching for element. Try number 0
2019.01.17 12:24:09   info : element disappeared after trying for 1 times
2019.01.17 12:24:10   info : Current WebDriver Win Count is:: 1
2019.01.17 12:24:10   info : Element found!!
2019.01.17 12:24:10   info : ValueToEnter Simpli_10jan_002
2019.01.17 12:24:10   info : Entered value is Simpli_10jan_002
2019.01.17 12:24:10   info : Attribute entered value Simpli_10jan_002
2019.01.17 12:24:10   info : Total static wait time 3
2019.01.17 12:24:13   info : Xml obj_repo path C:\Talent_Automation_Framework_Backup\Project_Talent/ObjectRepositories/BenefitAsia2_MercerAdmin/MA_AddNewHire.xml
2019.01.17 12:24:13   info : xpath object successfully mapped!!
2019.01.17 12:24:13   info : xpath object contains property value !!
2019.01.17 12:24:13   info : Property name - xpath
2019.01.17 12:24:13   info : Property value - //*[contains(@id,"_EditEmployee_txtUserName")]
2019.01.17 12:24:13   info : Finding xpath element on webpage..
2019.01.17 12:24:13   info : Searching for element. Try number 0
2019.01.17 12:24:14   info : element disappeared after trying for 1 times
2019.01.17 12:24:15   info : Current WebDriver Win Count is:: 1
2019.01.17 12:24:15   info : Element found!!
2019.01.17 12:24:15   info : ObjectTag input and ObjectType text
2019.01.17 12:24:15   info : Enter data operation
2019.01.17 12:24:16   info : Xml obj_repo path C:\Talent_Automation_Framework_Backup\Project_Talent/ObjectRepositories/BenefitAsia2_MercerAdmin/MA_AddNewHire.xml
2019.01.17 12:24:16   info : xpath object successfully mapped!!
2019.01.17 12:24:16   info : xpath object contains property value !!
2019.01.17 12:24:16   info : Property name - xpath
2019.01.17 12:24:16   info : Property value - //*[contains(@id,"_EditEmployee_txtUserName")]
2019.01.17 12:24:16   info : Finding xpath element on webpage..
2019.01.17 12:24:16   info : Searching for element. Try number 0
2019.01.17 12:24:17   info : element disappeared after trying for 1 times
2019.01.17 12:24:18   info : Current WebDriver Win Count is:: 1
2019.01.17 12:24:18   info : Element found!!
2019.01.17 12:24:18   info : Xml obj_repo path C:\Talent_Automation_Framework_Backup\Project_Talent/ObjectRepositories/BenefitAsia2_MercerAdmin/MA_AddNewHire.xml
2019.01.17 12:24:18   info : xpath object successfully mapped!!
2019.01.17 12:24:18   info : xpath object contains property value !!
2019.01.17 12:24:18   info : Property name - xpath
2019.01.17 12:24:18   info : Property value - //*[contains(@id,"_EditEmployee_txtUserName")]
2019.01.17 12:24:18   info : Finding xpath element on webpage..
2019.01.17 12:24:18   info : Searching for element. Try number 0
2019.01.17 12:24:19   info : element disappeared after trying for 1 times
2019.01.17 12:24:20   info : Current WebDriver Win Count is:: 1
2019.01.17 12:24:20   info : Element found!!
2019.01.17 12:24:20   info : ValueToEnter Simpli_10jan_002
2019.01.17 12:24:20   info : Entered value is Simpli_10jan_002
2019.01.17 12:24:20   info : Attribute entered value Simpli_10jan_002
2019.01.17 12:24:20   info : Total static wait time 3
2019.01.17 12:24:23   info : Xml obj_repo path C:\Talent_Automation_Framework_Backup\Project_Talent/ObjectRepositories/BenefitAsia2_MercerAdmin/MA_AddNewHire.xml
2019.01.17 12:24:23   info : Defined excel object tag is not found in xml!!
2019.01.17 12:24:23   info : size of the element return by xmlreading is 0
2019.01.17 12:24:23   warn : exceptionHandler called!!
2019.01.17 12:24:24   info : Current WebDriver Win Count is:: 1
2019.01.17 12:24:25   error : java.lang.NullPointerException
2019.01.17 12:24:25   info : Test ID TC3 : previous test step/row 110 status is Failed and value of next test step/row is :: 111
2019.01.17 12:24:25   info : Test ID TC3 : previous test step/row 111 status is Failed and value of next test step/row is :: 112
2019.01.17 12:24:25   info : Test ID TC3 : previous test step/row 112 status is Failed and value of next test step/row is :: 113
2019.01.17 12:24:25   info : Test ID TC3 : previous test step/row 113 status is Failed and value of next test step/row is :: 114
2019.01.17 12:24:25   info : Test ID TC3 : previous test step/row 114 status is Failed and value of next test step/row is :: 115
2019.01.17 12:24:25   info : Test ID TC3 : previous test step/row 115 status is Failed and value of next test step/row is :: 116
2019.01.17 12:24:25   info : Test ID TC3 : previous test step/row 116 status is Failed and value of next test step/row is :: 117
2019.01.17 12:24:25   info : Test ID TC3 : previous test step/row 117 status is Failed and value of next test step/row is :: 118
2019.01.17 12:24:25   info : Test ID TC3 : previous test step/row 118 status is Failed and value of next test step/row is :: 119
2019.01.17 12:24:25   info : Test ID TC3 : previous test step/row 119 status is Failed and value of next test step/row is :: 120
2019.01.17 12:24:25   info : Test ID TC3 : previous test step/row 120 status is Failed and value of next test step/row is :: 121
2019.01.17 12:24:25   info : Test ID TC3 : previous test step/row 121 status is Failed and value of next test step/row is :: 122
2019.01.17 12:24:25   info : Test ID TC3 : previous test step/row 122 status is Failed and value of next test step/row is :: 123
2019.01.17 12:24:25   info : Test ID TC3 : previous test step/row 123 status is Failed and value of next test step/row is :: 124
2019.01.17 12:24:25   info : Test ID TC3 : previous test step/row 124 status is Failed and value of next test step/row is :: 125
2019.01.17 12:24:25   info : Test ID TC3 : previous test step/row 125 status is Failed and value of next test step/row is :: 126
2019.01.17 12:24:25   info : Test ID TC3 : previous test step/row 126 status is Failed and value of next test step/row is :: 127
2019.01.17 12:24:25   info : Test ID TC3 : previous test step/row 127 status is Failed and value of next test step/row is :: 128
2019.01.17 12:24:25   info : Test ID TC3 : previous test step/row 128 status is Failed and value of next test step/row is :: 129
2019.01.17 12:24:25   info : Test ID TC3 : previous test step/row 129 status is Failed and value of next test step/row is :: 130
2019.01.17 12:24:25   info : Test ID TC3 : previous test step/row 130 status is Failed and value of next test step/row is :: 131
2019.01.17 12:24:25   info : Test ID TC3 : previous test step/row 131 status is Failed and value of next test step/row is :: 132
2019.01.17 12:24:25   info : Test ID TC3 : previous test step/row 132 status is Failed and value of next test step/row is :: 133
2019.01.17 12:24:25   info : Test ID TC3 : previous test step/row 133 status is Failed and value of next test step/row is :: 134
2019.01.17 12:24:25   info : Test ID TC3 : previous test step/row 134 status is Failed and value of next test step/row is :: 135
2019.01.17 12:24:25   info : Test ID TC3 : previous test step/row 135 status is Failed and value of next test step/row is :: 136
2019.01.17 12:24:25   info : Test ID TC3 : previous test step/row 136 status is Failed and value of next test step/row is :: 137
2019.01.17 12:24:25   info : Test ID TC3 : previous test step/row 137 status is Failed and value of next test step/row is :: 138
2019.01.17 12:24:25   info : Test ID TC3 : previous test step/row 138 status is Failed and value of next test step/row is :: 139
2019.01.17 12:24:25   info : Test ID TC3 : previous test step/row 139 status is Failed and value of next test step/row is :: 140
2019.01.17 12:24:25   info : Test ID TC3 : previous test step/row 140 status is Failed and value of next test step/row is :: 141
2019.01.17 12:24:25   info : Test ID TC3 : previous test step/row 141 status is Failed and value of next test step/row is :: 142
2019.01.17 12:24:25   info : Test ID TC3 : previous test step/row 142 status is Failed and value of next test step/row is :: 143
2019.01.17 12:24:25   info : Test ID TC3 : previous test step/row 143 status is Failed and value of next test step/row is :: 144
2019.01.17 12:24:25   info : Test ID TC3 : previous test step/row 144 status is Failed and value of next test step/row is :: 145
2019.01.17 12:24:25   info : Test ID TC3 : previous test step/row 145 status is Failed and value of next test step/row is :: 146
2019.01.17 12:24:25   info : Test ID TC3 : previous test step/row 146 status is Failed and value of next test step/row is :: 147
2019.01.17 12:24:25   info : Test ID TC3 : previous test step/row 147 status is Failed and value of next test step/row is :: 148
2019.01.17 12:24:25   info : Test ID TC3 : previous test step/row 148 status is Failed and value of next test step/row is :: 149
2019.01.17 12:24:25   info : Test ID TC3 : previous test step/row 149 status is Failed and value of next test step/row is :: 150
2019.01.17 12:24:25   info : Test ID TC3 : previous test step/row 150 status is Failed and value of next test step/row is :: 151
2019.01.17 12:24:25   info : Test ID TC3 : previous test step/row 151 status is Failed and value of next test step/row is :: 152
2019.01.17 12:24:25   info : Test ID TC3 : previous test step/row 152 status is Failed and value of next test step/row is :: 153
2019.01.17 12:24:25   info : Test ID TC3 : previous test step/row 153 status is Failed and value of next test step/row is :: 154
2019.01.17 12:24:25   info : Test ID TC3 : previous test step/row 154 status is Failed and value of next test step/row is :: 155
2019.01.17 12:24:25   info : Test ID TC3 : previous test step/row 155 status is Failed and value of next test step/row is :: 156
2019.01.17 12:24:25   info : Test ID TC3 : previous test step/row 156 status is Failed and value of next test step/row is :: 157
2019.01.17 12:24:25   info : Test ID TC3 : previous test step/row 157 status is Failed and value of next test step/row is :: 158
2019.01.17 12:24:25   info : Test ID TC3 : previous test step/row 158 status is Failed and value of next test step/row is :: 159
2019.01.17 12:24:25   info : Test ID TC3 : previous test step/row 159 status is Failed and value of next test step/row is :: 160
2019.01.17 12:24:25   info : Test ID TC3 : previous test step/row 160 status is Failed and value of next test step/row is :: 161
2019.01.17 12:24:25   info : Test ID TC3 : previous test step/row 161 status is Failed and value of next test step/row is :: 162
2019.01.17 12:24:25   info : Test ID TC3 : previous test step/row 162 status is Failed and value of next test step/row is :: 163
2019.01.17 12:24:25   info : Test ID TC3 : previous test step/row 163 status is Failed and value of next test step/row is :: 164
2019.01.17 12:24:25   info : Test ID TC3 : previous test step/row 164 status is Failed and value of next test step/row is :: 165
2019.01.17 12:24:25   info : Test ID TC3 : previous test step/row 165 status is Failed and value of next test step/row is :: 166
2019.01.17 12:24:25   info : Test ID TC3 : previous test step/row 166 status is Failed and value of next test step/row is :: 167
2019.01.17 12:24:25   info : Test ID TC3 : previous test step/row 167 status is Failed and value of next test step/row is :: 168
2019.01.17 12:24:25   info : Test ID TC3 : previous test step/row 168 status is Failed and value of next test step/row is :: 169
2019.01.17 12:24:25   info : Test ID TC3 : previous test step/row 169 status is Failed and value of next test step/row is :: 170
2019.01.17 12:24:25   info : Test ID TC3 : previous test step/row 170 status is Failed and value of next test step/row is :: 171
2019.01.17 12:24:25   info : Test ID TC3 : previous test step/row 171 status is Failed and value of next test step/row is :: 172
2019.01.17 12:24:25   info : Test ID TC3 : previous test step/row 172 status is Failed and value of next test step/row is :: 173
2019.01.17 12:24:25   info : Test ID TC3 : previous test step/row 173 status is Failed and value of next test step/row is :: 174
2019.01.17 12:24:25   info : Test ID TC3 : previous test step/row 174 status is Failed and value of next test step/row is :: 175
2019.01.17 12:24:25   info : Test ID TC3 : previous test step/row 175 status is Failed and value of next test step/row is :: 176
2019.01.17 12:24:25   info : Test ID TC3 : previous test step/row 176 status is Failed and value of next test step/row is :: 177
2019.01.17 12:24:25   info : Test ID TC3 : previous test step/row 177 status is Failed and value of next test step/row is :: 178
2019.01.17 12:24:25   info : Test ID TC3 : previous test step/row 178 status is Failed and value of next test step/row is :: 179
2019.01.17 12:24:25   info : Test ID TC3 : previous test step/row 179 status is Failed and value of next test step/row is :: 180
2019.01.17 12:24:25   info : Test ID TC3 : previous test step/row 180 status is Failed and value of next test step/row is :: 181
2019.01.17 12:24:25   info : Test ID TC3 : previous test step/row 181 status is Failed and value of next test step/row is :: 182
2019.01.17 12:24:25   info : Test ID TC3 : previous test step/row 182 status is Failed and value of next test step/row is :: 183
2019.01.17 12:24:25   info : Test ID TC3 : previous test step/row 183 status is Failed and value of next test step/row is :: 184
2019.01.17 12:24:25   info : Test ID TC3 : previous test step/row 184 status is Failed and value of next test step/row is :: 185
2019.01.17 12:24:25   info : Test ID TC3 : previous test step/row 185 status is Failed and value of next test step/row is :: 186
2019.01.17 12:24:25   info : Test ID TC3 : previous test step/row 186 status is Failed and value of next test step/row is :: 187
2019.01.17 12:24:25   info : Test ID TC3 : previous test step/row 187 status is Failed and value of next test step/row is :: 188
2019.01.17 12:24:25   info : Test ID TC3 : previous test step/row 188 status is Failed and value of next test step/row is :: 189
2019.01.17 12:24:25   info : Test ID TC3 : previous test step/row 189 status is Failed and value of next test step/row is :: 190
2019.01.17 12:24:25   info : Test ID TC3 : previous test step/row 190 status is Failed and value of next test step/row is :: 191
2019.01.17 12:24:25   info : Test ID TC3 : previous test step/row 191 status is Failed and value of next test step/row is :: 192
2019.01.17 12:24:25   info : Test ID TC3 : previous test step/row 192 status is Failed and value of next test step/row is :: 193
2019.01.17 12:24:25   info : Test ID TC3 : previous test step/row 193 status is Failed and value of next test step/row is :: 194
2019.01.17 12:24:25   info : Test ID TC3 : previous test step/row 194 status is Failed and value of next test step/row is :: 195
2019.01.17 12:24:25   info : Test ID TC3 : previous test step/row 195 status is Failed and value of next test step/row is :: 196
2019.01.17 12:24:25   info : Test ID TC3 : previous test step/row 196 status is Failed and value of next test step/row is :: 197
2019.01.17 12:24:25   info : Test ID TC3 : previous test step/row 197 status is Failed and value of next test step/row is :: 198
2019.01.17 12:24:25   info : Test ID TC3 : previous test step/row 198 status is Failed and value of next test step/row is :: 199
2019.01.17 12:24:25   info : Test ID TC3 : previous test step/row 199 status is Failed and value of next test step/row is :: 200
2019.01.17 12:24:25   info : Test ID TC3 : previous test step/row 200 status is Failed and value of next test step/row is :: 201
2019.01.17 12:24:25   info : Test ID TC3 : previous test step/row 201 status is Failed and value of next test step/row is :: 202
2019.01.17 12:24:25   info : Test ID TC3 : previous test step/row 202 status is Failed and value of next test step/row is :: 203
2019.01.17 12:24:25   info : Test ID TC3 : previous test step/row 203 status is Failed and value of next test step/row is :: 204
2019.01.17 12:24:25   info : Test ID TC3 : previous test step/row 204 status is Failed and value of next test step/row is :: 205
2019.01.17 12:24:25   info : Test ID TC3 : previous test step/row 205 status is Failed and value of next test step/row is :: 206
2019.01.17 12:24:25   info : Test ID TC3 : previous test step/row 206 status is Failed and value of next test step/row is :: 207
2019.01.17 12:24:25   info : Test ID TC3 : previous test step/row 207 status is Failed and value of next test step/row is :: 208
2019.01.17 12:24:25   info : Test ID TC3 : previous test step/row 208 status is Failed and value of next test step/row is :: 209
2019.01.17 12:24:25   info : Test ID TC3 : previous test step/row 209 status is Failed and value of next test step/row is :: 210
2019.01.17 12:24:25   info : Test ID TC3 : previous test step/row 210 status is Failed and value of next test step/row is :: 211
2019.01.17 12:24:25   info : Test ID TC3 : previous test step/row 211 status is Failed and value of next test step/row is :: 212
2019.01.17 12:24:25   info : Test ID TC3 : previous test step/row 212 status is Failed and value of next test step/row is :: 213
2019.01.17 12:24:25   info : Test ID TC3 : previous test step/row 213 status is Failed and value of next test step/row is :: 214
2019.01.17 12:24:25   info : Test ID TC3 : previous test step/row 214 status is Failed and value of next test step/row is :: 215
2019.01.17 12:24:25   info : Test ID TC3 : previous test step/row 215 status is Failed and value of next test step/row is :: 216
2019.01.17 12:24:25   info : Test ID TC3 : previous test step/row 216 status is Failed and value of next test step/row is :: 217
2019.01.17 12:24:25   info : Test ID TC3 : previous test step/row 217 status is Failed and value of next test step/row is :: 218
2019.01.17 12:24:25   info : Test ID TC3 : previous test step/row 218 status is Failed and value of next test step/row is :: 219
2019.01.17 12:24:25   info : Test ID TC3 : previous test step/row 219 status is Failed and value of next test step/row is :: 220
2019.01.17 12:24:25   info : Test ID TC3 : previous test step/row 220 status is Failed and value of next test step/row is :: 221
2019.01.17 12:24:25   info : Test ID TC3 : previous test step/row 221 status is Failed and value of next test step/row is :: 222
2019.01.17 12:24:25   info : Test ID TC3 : previous test step/row 222 status is Failed and value of next test step/row is :: 223
2019.01.17 12:24:25   info : Test ID TC3 : previous test step/row 223 status is Failed and value of next test step/row is :: 224
2019.01.17 12:24:25   info : Test ID TC3 : previous test step/row 224 status is Failed and value of next test step/row is :: 225
2019.01.17 12:24:25   info : Test ID TC3 : previous test step/row 225 status is Failed and value of next test step/row is :: 226
2019.01.17 12:24:25   info : Test ID TC3 : previous test step/row 226 status is Failed and value of next test step/row is :: 227
2019.01.17 12:24:25   info : Test ID TC3 : previous test step/row 227 status is Failed and value of next test step/row is :: 228
2019.01.17 12:24:25   info : Test ID TC3 : previous test step/row 228 status is Failed and value of next test step/row is :: 229
2019.01.17 12:24:25   info : Test ID TC3 : previous test step/row 229 status is Failed and value of next test step/row is :: 230
2019.01.17 12:24:25   info : Test ID TC3 : previous test step/row 230 status is Failed and value of next test step/row is :: 231
2019.01.17 12:24:25   info : Test ID TC3 : previous test step/row 231 status is Failed and value of next test step/row is :: 232
2019.01.17 12:24:25   info : Test ID TC3 : previous test step/row 232 status is Failed and value of next test step/row is :: 233
2019.01.17 12:24:25   info : Test ID TC3 : previous test step/row 233 status is Failed and value of next test step/row is :: 234
2019.01.17 12:24:25   info : Test ID TC3 : previous test step/row 234 status is Failed and value of next test step/row is :: 235
2019.01.17 12:24:25   info : Test ID TC3 : previous test step/row 235 status is Failed and value of next test step/row is :: 236
2019.01.17 12:24:25   info : Test ID TC3 : previous test step/row 236 status is Failed and value of next test step/row is :: 237
2019.01.17 12:24:25   info : Test ID TC3 : previous test step/row 237 status is Failed and value of next test step/row is :: 238
2019.01.17 12:24:25   info : Test ID TC3 : previous test step/row 238 status is Failed and value of next test step/row is :: 239
2019.01.17 12:24:25   info : Test ID TC3 : previous test step/row 239 status is Failed and value of next test step/row is :: 240
2019.01.17 12:24:25   info : Test ID TC3 : previous test step/row 240 status is Failed and value of next test step/row is :: 241
2019.01.17 12:24:25   info : Test ID TC3 : previous test step/row 241 status is Failed and value of next test step/row is :: 242
2019.01.17 12:24:25   info : Test ID TC3 : previous test step/row 242 status is Failed and value of next test step/row is :: 243
2019.01.17 12:24:25   info : Test ID TC3 : previous test step/row 243 status is Failed and value of next test step/row is :: 244
2019.01.17 12:24:25   info : Test ID TC3 : previous test step/row 244 status is Failed and value of next test step/row is :: 245
2019.01.17 12:24:25   info : Test ID TC3 : previous test step/row 245 status is Failed and value of next test step/row is :: 246
2019.01.17 12:24:25   info : Test ID TC3 : previous test step/row 246 status is Failed and value of next test step/row is :: 247
2019.01.17 12:24:25   info : Test ID TC3 : previous test step/row 247 status is Failed and value of next test step/row is :: 248
2019.01.17 12:24:25   info : Test ID TC3 : previous test step/row 248 status is Failed and value of next test step/row is :: 249
2019.01.17 12:24:25   info : Test ID TC3 : previous test step/row 249 status is Failed and value of next test step/row is :: 250
2019.01.17 12:24:25   info : Test ID TC3 : previous test step/row 250 status is Failed and value of next test step/row is :: 251
2019.01.17 12:24:25   info : Test ID TC3 : previous test step/row 251 status is Failed and value of next test step/row is :: 252
2019.01.17 12:24:25   info : Test ID TC3 : previous test step/row 252 status is Failed and value of next test step/row is :: 253
2019.01.17 12:24:25   info : Test ID TC3 : previous test step/row 253 status is Failed and value of next test step/row is :: 254
2019.01.17 12:24:25   info : Test ID TC3 : previous test step/row 254 status is Failed and value of next test step/row is :: 255
2019.01.17 12:24:25   info : Test ID TC3 : previous test step/row 255 status is Failed and value of next test step/row is :: 256
2019.01.17 12:24:25   info : Test ID TC3 : previous test step/row 256 status is Failed and value of next test step/row is :: 257
2019.01.17 12:24:25   info : Test ID TC3 : previous test step/row 257 status is Failed and value of next test step/row is :: 258
2019.01.17 12:24:25   info : Test ID TC3 : previous test step/row 258 status is Failed and value of next test step/row is :: 259
2019.01.17 12:24:25   info : Test ID TC3 : previous test step/row 259 status is Failed and value of next test step/row is :: 260
2019.01.17 12:24:25   info : Test ID TC3 : previous test step/row 260 status is Failed and value of next test step/row is :: 261
2019.01.17 12:24:25   info : Test ID TC3 : previous test step/row 261 status is Failed and value of next test step/row is :: 262
2019.01.17 12:24:25   info : Test ID TC3 : previous test step/row 262 status is Failed and value of next test step/row is :: 263
2019.01.17 12:24:25   info : Test ID TC3 : previous test step/row 263 status is Failed and value of next test step/row is :: 264
2019.01.17 12:24:25   info : Test ID TC3 : previous test step/row 264 status is Failed and value of next test step/row is :: 265
2019.01.17 12:24:25   info : Row TC3!=TC4 || (TC4==null)) && (265<=780)
2019.01.17 12:24:25   info : Status :: Failed :: Finalizing result report
2019.01.17 12:24:25   info : closing window...
2019.01.17 12:24:25   info : window size 1
2019.01.17 12:24:26   info : Window is closed!!
