2019.01.17 03:18:00   info : Selenium version :: 2.48.2
2019.01.17 03:18:00   info : Download fodler path created!!
2019.01.17 03:18:00   info : date_time_down_folder C:\Talent_Automation_Framework_Backup\Project_Talent\Downloads\2019_01_17\time_15_18_00\
2019.01.17 03:18:01   info : Total number of applications :: 4
2019.01.17 03:18:01   info : Application Name - Latest_Simp
2019.01.17 03:18:01   info : TestData_Sheet path:: C:\Talent_Automation_Framework_Backup\Project_Talent/TestCases/Latest_Simp.xlsx
2019.01.17 03:18:01   info : CSV updating and creating dump....
2019.01.17 03:18:02   info : Sheet name: Scenarios
2019.01.17 03:18:02   info : Sheet name: TestCaseScheduler
2019.01.17 03:18:02   info : Sheet name: Test Case
2019.01.17 03:18:02   info : Latest_Simp sheetname found!!
2019.01.17 03:18:02   info : Total row 782
2019.01.17 03:18:02   info : After row validation for blank or null!!
2019.01.17 03:18:02   info : Total final row 781
2019.01.17 03:18:03   info : Total number of test cases to be executed :: 1
2019.01.17 03:18:03   info : PrevTestID - null == null && row 106<= 781
2019.01.17 03:18:03   info : Test ID TC3 : previous test step/row 105 status is Passed and value of next test step/row is :: 106
2019.01.17 03:18:03   info : 

2019.01.17 03:18:03   info : -------------------- Executing Testcase ID TC3 and test step : 106 ---------------------- 
2019.01.17 03:18:03   info : please wait.. browser getting open !!
2019.01.17 03:18:14   info : Opening Application..
2019.01.17 03:18:21   info : Current WebDriver Win Count is:: 1
2019.01.17 03:18:22   info : restult status : 1
2019.01.17 03:18:22   info : Test ID TC3 : previous test step/row 106 status is Passed and value of next test step/row is :: 107
2019.01.17 03:18:22   info : 

2019.01.17 03:18:22   info : -------------------- Executing Testcase ID TC3 and test step : 107 ---------------------- 
2019.01.17 03:18:23   info : Current WebDriver Win Count is:: 1
2019.01.17 03:18:23   info : Xml obj_repo path C:\Talent_Automation_Framework_Backup\Project_Talent/ObjectRepositories/BenefitAsia2_MercerAdmin/MA_Home.xml
2019.01.17 03:18:23   info : Title in xml file - Home
2019.01.17 03:18:23   warn : Window is not switched, now trying based on element!!
2019.01.17 03:18:23   info : Window title Mercer Account Center
2019.01.17 03:18:23   info : Xml obj_repo path C:\Talent_Automation_Framework_Backup\Project_Talent/ObjectRepositories/BenefitAsia2_MercerAdmin/MA_Home.xml
2019.01.17 03:18:23   info : xpath object successfully mapped!!
2019.01.17 03:18:23   info : xpath object contains property value !!
2019.01.17 03:18:23   info : Property name - xpath
2019.01.17 03:18:23   info : Property value - //input[contains(@id,"ContentPlaceHolder1_TextBox1")]
2019.01.17 03:18:23   info : Finding xpath element on webpage..
2019.01.17 03:18:23   info : Searching for element. Try number 0
2019.01.17 03:18:24   info : element disappeared after trying for 1 times
2019.01.17 03:18:25   info : Current WebDriver Win Count is:: 1
2019.01.17 03:18:25   info : Element found!!
2019.01.17 03:18:25   info : Desired window is activated!!
2019.01.17 03:18:25   info : Total static wait time 3
2019.01.17 03:18:28   info : Xml obj_repo path C:\Talent_Automation_Framework_Backup\Project_Talent/ObjectRepositories/BenefitAsia2_MercerAdmin/MA_Home.xml
2019.01.17 03:18:29   info : xpath object successfully mapped!!
2019.01.17 03:18:29   info : xpath object contains property value !!
2019.01.17 03:18:29   info : Property name - xpath
2019.01.17 03:18:29   info : Property value - //input[contains(@id,"ContentPlaceHolder1_TextBox1")]
2019.01.17 03:18:29   info : Finding xpath element on webpage..
2019.01.17 03:18:29   info : Searching for element. Try number 0
2019.01.17 03:18:30   info : element disappeared after trying for 1 times
2019.01.17 03:18:31   info : Current WebDriver Win Count is:: 1
2019.01.17 03:18:31   info : Element found!!
2019.01.17 03:18:31   info : ObjectTag input and ObjectType text
2019.01.17 03:18:31   info : Enter data operation
2019.01.17 03:18:32   info : Xml obj_repo path C:\Talent_Automation_Framework_Backup\Project_Talent/ObjectRepositories/BenefitAsia2_MercerAdmin/MA_Home.xml
2019.01.17 03:18:32   info : xpath object successfully mapped!!
2019.01.17 03:18:32   info : xpath object contains property value !!
2019.01.17 03:18:32   info : Property name - xpath
2019.01.17 03:18:32   info : Property value - //input[contains(@id,"ContentPlaceHolder1_TextBox1")]
2019.01.17 03:18:32   info : Finding xpath element on webpage..
2019.01.17 03:18:32   info : Searching for element. Try number 0
2019.01.17 03:18:33   info : element disappeared after trying for 1 times
2019.01.17 03:18:34   info : Current WebDriver Win Count is:: 1
2019.01.17 03:18:34   info : Element found!!
2019.01.17 03:18:34   info : Xml obj_repo path C:\Talent_Automation_Framework_Backup\Project_Talent/ObjectRepositories/BenefitAsia2_MercerAdmin/MA_Home.xml
2019.01.17 03:18:34   info : xpath object successfully mapped!!
2019.01.17 03:18:34   info : xpath object contains property value !!
2019.01.17 03:18:34   info : Property name - xpath
2019.01.17 03:18:34   info : Property value - //input[contains(@id,"ContentPlaceHolder1_TextBox1")]
2019.01.17 03:18:34   info : Finding xpath element on webpage..
2019.01.17 03:18:34   info : Searching for element. Try number 0
2019.01.17 03:18:35   info : element disappeared after trying for 1 times
2019.01.17 03:18:36   info : Current WebDriver Win Count is:: 1
2019.01.17 03:18:36   info : Element found!!
2019.01.17 03:18:36   info : ValueToEnter ashish.choudhary@mercer.com
2019.01.17 03:18:36   info : Entered value is ashish.choudhary@mercer.com
2019.01.17 03:18:36   info : Attribute entered value ashish.choudhary@mercer.com
2019.01.17 03:18:37   info : Current WebDriver Win Count is:: 1
2019.01.17 03:18:37   info : restult status : 1
2019.01.17 03:18:37   info : Test ID TC3 : previous test step/row 107 status is Passed and value of next test step/row is :: 108
2019.01.17 03:18:37   info : 

2019.01.17 03:18:37   info : -------------------- Executing Testcase ID TC3 and test step : 108 ---------------------- 
2019.01.17 03:18:39   info : Current WebDriver Win Count is:: 1
2019.01.17 03:18:39   info : page object present in excel : 1
2019.01.17 03:18:39   info : Under single object handle operation!!
2019.01.17 03:18:39   info : col 6 data :  and col 5 data : SSO_Next_Button
2019.01.17 03:18:39   info : Normal click operation !!
2019.01.17 03:18:39   info : Checking for object in click
2019.01.17 03:18:39   info : Xml obj_repo path C:\Talent_Automation_Framework_Backup\Project_Talent/ObjectRepositories/BenefitAsia2_MercerAdmin/MA_Home.xml
2019.01.17 03:18:39   info : xpath object successfully mapped!!
2019.01.17 03:18:39   info : xpath object contains property value !!
2019.01.17 03:18:39   info : Property name - xpath
2019.01.17 03:18:39   info : Property value - //input[contains(@id,"ContentPlaceHolder1_PassiveSignInButton")]
2019.01.17 03:18:39   info : Finding xpath element on webpage..
2019.01.17 03:18:39   info : Searching for element. Try number 0
2019.01.17 03:18:40   info : element disappeared after trying for 1 times
2019.01.17 03:18:41   info : Current WebDriver Win Count is:: 1
2019.01.17 03:18:41   info : Element found!!
2019.01.17 03:18:41   info : Xml obj_repo path C:\Talent_Automation_Framework_Backup\Project_Talent/ObjectRepositories/BenefitAsia2_MercerAdmin/MA_Home.xml
2019.01.17 03:18:41   info : xpath object successfully mapped!!
2019.01.17 03:18:41   info : xpath object contains property value !!
2019.01.17 03:18:41   info : Property name - xpath
2019.01.17 03:18:41   info : Property value - //input[contains(@id,"ContentPlaceHolder1_PassiveSignInButton")]
2019.01.17 03:18:41   info : Finding xpath element on webpage..
2019.01.17 03:18:41   info : Searching for element. Try number 0
2019.01.17 03:18:42   info : element disappeared after trying for 1 times
2019.01.17 03:18:43   info : Current WebDriver Win Count is:: 1
2019.01.17 03:18:43   info : Element found!!
2019.01.17 03:18:51   info : clicked on SSO_Next_Button
2019.01.17 03:18:52   info : Current WebDriver Win Count is:: 1
2019.01.17 03:18:58   info : restult status : 1
2019.01.17 03:18:58   info : Test ID TC3 : previous test step/row 108 status is Passed and value of next test step/row is :: 109
2019.01.17 03:18:58   info : 

2019.01.17 03:18:58   info : -------------------- Executing Testcase ID TC3 and test step : 109 ---------------------- 
2019.01.17 03:18:59   info : Current WebDriver Win Count is:: 1
2019.01.17 03:18:59   info : not doing anything!!
2019.01.17 03:18:59   info : Navigating to another url..
2019.01.17 03:19:04   info : Current WebDriver Win Count is:: 1
2019.01.17 03:19:05   info : restult status : 1
2019.01.17 03:19:05   info : Test ID TC3 : previous test step/row 109 status is Passed and value of next test step/row is :: 110
2019.01.17 03:19:05   info : 

2019.01.17 03:19:05   info : -------------------- Executing Testcase ID TC3 and test step : 110 ---------------------- 
2019.01.17 03:19:06   info : Current WebDriver Win Count is:: 1
2019.01.17 03:19:06   info : Xml obj_repo path C:\Talent_Automation_Framework_Backup\Project_Talent/ObjectRepositories/BenefitAsia2_MercerAdmin/MA_AddNewHire.xml
2019.01.17 03:19:06   info : Title contains null value in xml!!
2019.01.17 03:19:06   info : Window title New Hire
2019.01.17 03:19:06   info : Xml obj_repo path C:\Talent_Automation_Framework_Backup\Project_Talent/ObjectRepositories/BenefitAsia2_MercerAdmin/MA_AddNewHire.xml
2019.01.17 03:19:06   info : xpath object successfully mapped!!
2019.01.17 03:19:06   info : xpath object contains property value !!
2019.01.17 03:19:06   info : Property name - xpath
2019.01.17 03:19:06   info : Property value - //*[contains(@id,"_EditEmployee_txtNationalIdNo")]
2019.01.17 03:19:06   info : Finding xpath element on webpage..
2019.01.17 03:19:06   info : Searching for element. Try number 0
2019.01.17 03:19:07   info : element disappeared after trying for 1 times
2019.01.17 03:19:08   info : Current WebDriver Win Count is:: 1
2019.01.17 03:19:08   info : Element found!!
2019.01.17 03:19:08   info : Desired window is activated!!
2019.01.17 03:19:08   info : Total static wait time 3
2019.01.17 03:19:11   info : Xml obj_repo path C:\Talent_Automation_Framework_Backup\Project_Talent/ObjectRepositories/BenefitAsia2_MercerAdmin/MA_AddNewHire.xml
2019.01.17 03:19:11   info : xpath object successfully mapped!!
2019.01.17 03:19:11   info : xpath object contains property value !!
2019.01.17 03:19:11   info : Property name - xpath
2019.01.17 03:19:11   info : Property value - //*[contains(@id,"_EditEmployee_txtNationalIdNo")]
2019.01.17 03:19:11   info : Finding xpath element on webpage..
2019.01.17 03:19:11   info : Searching for element. Try number 0
2019.01.17 03:19:12   info : element disappeared after trying for 1 times
2019.01.17 03:19:13   info : Current WebDriver Win Count is:: 1
2019.01.17 03:19:13   info : Element found!!
2019.01.17 03:19:13   info : ObjectTag input and ObjectType text
2019.01.17 03:19:13   info : Enter data operation
2019.01.17 03:19:14   info : Xml obj_repo path C:\Talent_Automation_Framework_Backup\Project_Talent/ObjectRepositories/BenefitAsia2_MercerAdmin/MA_AddNewHire.xml
2019.01.17 03:19:14   info : xpath object successfully mapped!!
2019.01.17 03:19:14   info : xpath object contains property value !!
2019.01.17 03:19:14   info : Property name - xpath
2019.01.17 03:19:14   info : Property value - //*[contains(@id,"_EditEmployee_txtNationalIdNo")]
2019.01.17 03:19:14   info : Finding xpath element on webpage..
2019.01.17 03:19:14   info : Searching for element. Try number 0
2019.01.17 03:19:15   info : element disappeared after trying for 1 times
2019.01.17 03:19:16   info : Current WebDriver Win Count is:: 1
2019.01.17 03:19:16   info : Element found!!
2019.01.17 03:19:16   info : Xml obj_repo path C:\Talent_Automation_Framework_Backup\Project_Talent/ObjectRepositories/BenefitAsia2_MercerAdmin/MA_AddNewHire.xml
2019.01.17 03:19:16   info : xpath object successfully mapped!!
2019.01.17 03:19:16   info : xpath object contains property value !!
2019.01.17 03:19:16   info : Property name - xpath
2019.01.17 03:19:16   info : Property value - //*[contains(@id,"_EditEmployee_txtNationalIdNo")]
2019.01.17 03:19:16   info : Finding xpath element on webpage..
2019.01.17 03:19:16   info : Searching for element. Try number 0
2019.01.17 03:19:17   info : element disappeared after trying for 1 times
2019.01.17 03:19:18   info : Current WebDriver Win Count is:: 1
2019.01.17 03:19:18   info : Element found!!
2019.01.17 03:19:18   info : ValueToEnter Simpli_10jan_002
2019.01.17 03:19:18   info : Entered value is Simpli_10jan_002
2019.01.17 03:19:18   info : Attribute entered value Simpli_10jan_002
2019.01.17 03:19:18   info : Total static wait time 3
2019.01.17 03:19:21   info : Xml obj_repo path C:\Talent_Automation_Framework_Backup\Project_Talent/ObjectRepositories/BenefitAsia2_MercerAdmin/MA_AddNewHire.xml
2019.01.17 03:19:21   info : xpath object successfully mapped!!
2019.01.17 03:19:21   info : xpath object contains property value !!
2019.01.17 03:19:21   info : Property name - xpath
2019.01.17 03:19:21   info : Property value - //*[contains(@id,"_EditEmployee_txtUserName")]
2019.01.17 03:19:21   info : Finding xpath element on webpage..
2019.01.17 03:19:21   info : Searching for element. Try number 0
2019.01.17 03:19:22   info : element disappeared after trying for 1 times
2019.01.17 03:19:23   info : Current WebDriver Win Count is:: 1
2019.01.17 03:19:23   info : Element found!!
2019.01.17 03:19:23   info : ObjectTag input and ObjectType text
2019.01.17 03:19:23   info : Enter data operation
2019.01.17 03:19:25   info : Xml obj_repo path C:\Talent_Automation_Framework_Backup\Project_Talent/ObjectRepositories/BenefitAsia2_MercerAdmin/MA_AddNewHire.xml
2019.01.17 03:19:25   info : xpath object successfully mapped!!
2019.01.17 03:19:25   info : xpath object contains property value !!
2019.01.17 03:19:25   info : Property name - xpath
2019.01.17 03:19:25   info : Property value - //*[contains(@id,"_EditEmployee_txtUserName")]
2019.01.17 03:19:25   info : Finding xpath element on webpage..
2019.01.17 03:19:25   info : Searching for element. Try number 0
2019.01.17 03:19:26   info : element disappeared after trying for 1 times
2019.01.17 03:19:27   info : Current WebDriver Win Count is:: 1
2019.01.17 03:19:27   info : Element found!!
2019.01.17 03:19:27   info : Xml obj_repo path C:\Talent_Automation_Framework_Backup\Project_Talent/ObjectRepositories/BenefitAsia2_MercerAdmin/MA_AddNewHire.xml
2019.01.17 03:19:27   info : xpath object successfully mapped!!
2019.01.17 03:19:27   info : xpath object contains property value !!
2019.01.17 03:19:27   info : Property name - xpath
2019.01.17 03:19:27   info : Property value - //*[contains(@id,"_EditEmployee_txtUserName")]
2019.01.17 03:19:27   info : Finding xpath element on webpage..
2019.01.17 03:19:27   info : Searching for element. Try number 0
2019.01.17 03:19:28   info : element disappeared after trying for 1 times
2019.01.17 03:19:29   info : Current WebDriver Win Count is:: 1
2019.01.17 03:19:29   info : Element found!!
2019.01.17 03:19:29   info : ValueToEnter Simpli_10jan_002
2019.01.17 03:19:29   info : Entered value is Simpli_10jan_002
2019.01.17 03:19:29   info : Attribute entered value Simpli_10jan_002
2019.01.17 03:19:29   info : Total static wait time 3
2019.01.17 03:19:32   info : Xml obj_repo path C:\Talent_Automation_Framework_Backup\Project_Talent/ObjectRepositories/BenefitAsia2_MercerAdmin/MA_AddNewHire.xml
2019.01.17 03:19:32   info : xpath object successfully mapped!!
2019.01.17 03:19:32   info : xpath object contains property value !!
2019.01.17 03:19:32   info : Property name - xpath
2019.01.17 03:19:32   info : Property value - //*[contains(@id,"_EditEmployee_txtFullName")]
2019.01.17 03:19:32   info : Finding xpath element on webpage..
2019.01.17 03:19:32   info : Searching for element. Try number 0
2019.01.17 03:19:33   info : element disappeared after trying for 1 times
2019.01.17 03:19:34   info : Current WebDriver Win Count is:: 1
2019.01.17 03:19:34   info : Element found!!
2019.01.17 03:19:34   info : ObjectTag input and ObjectType text
2019.01.17 03:19:34   info : Enter data operation
2019.01.17 03:19:35   info : Xml obj_repo path C:\Talent_Automation_Framework_Backup\Project_Talent/ObjectRepositories/BenefitAsia2_MercerAdmin/MA_AddNewHire.xml
2019.01.17 03:19:35   info : xpath object successfully mapped!!
2019.01.17 03:19:35   info : xpath object contains property value !!
2019.01.17 03:19:35   info : Property name - xpath
2019.01.17 03:19:35   info : Property value - //*[contains(@id,"_EditEmployee_txtFullName")]
2019.01.17 03:19:35   info : Finding xpath element on webpage..
2019.01.17 03:19:35   info : Searching for element. Try number 0
2019.01.17 03:19:36   info : element disappeared after trying for 1 times
2019.01.17 03:19:37   info : Current WebDriver Win Count is:: 1
2019.01.17 03:19:37   info : Element found!!
2019.01.17 03:19:37   info : Xml obj_repo path C:\Talent_Automation_Framework_Backup\Project_Talent/ObjectRepositories/BenefitAsia2_MercerAdmin/MA_AddNewHire.xml
2019.01.17 03:19:37   info : xpath object successfully mapped!!
2019.01.17 03:19:37   info : xpath object contains property value !!
2019.01.17 03:19:37   info : Property name - xpath
2019.01.17 03:19:37   info : Property value - //*[contains(@id,"_EditEmployee_txtFullName")]
2019.01.17 03:19:37   info : Finding xpath element on webpage..
2019.01.17 03:19:37   info : Searching for element. Try number 0
2019.01.17 03:19:38   info : element disappeared after trying for 1 times
2019.01.17 03:19:39   info : Current WebDriver Win Count is:: 1
2019.01.17 03:19:39   info : Element found!!
2019.01.17 03:19:39   info : ValueToEnter Simpli_10jan_002
2019.01.17 03:19:39   info : Entered value is Simpli_10jan_002
2019.01.17 03:19:39   info : Attribute entered value Simpli_10jan_002
2019.01.17 03:19:39   info : Total static wait time 3
2019.01.17 03:19:42   info : Xml obj_repo path C:\Talent_Automation_Framework_Backup\Project_Talent/ObjectRepositories/BenefitAsia2_MercerAdmin/MA_AddNewHire.xml
2019.01.17 03:19:42   info : xpath object successfully mapped!!
2019.01.17 03:19:42   info : xpath object contains property value !!
2019.01.17 03:19:42   info : Property name - xpath
2019.01.17 03:19:42   info : Property value - //*[contains(@id,"_EditEmployee_txtBirthDate")]
2019.01.17 03:19:42   info : Finding xpath element on webpage..
2019.01.17 03:19:42   info : Searching for element. Try number 0
2019.01.17 03:19:43   info : element disappeared after trying for 1 times
2019.01.17 03:19:44   info : Current WebDriver Win Count is:: 1
2019.01.17 03:19:44   info : Element found!!
2019.01.17 03:19:44   info : ObjectTag input and ObjectType text
2019.01.17 03:19:44   info : Enter data operation
2019.01.17 03:19:45   info : Xml obj_repo path C:\Talent_Automation_Framework_Backup\Project_Talent/ObjectRepositories/BenefitAsia2_MercerAdmin/MA_AddNewHire.xml
2019.01.17 03:19:45   info : xpath object successfully mapped!!
2019.01.17 03:19:45   info : xpath object contains property value !!
2019.01.17 03:19:45   info : Property name - xpath
2019.01.17 03:19:45   info : Property value - //*[contains(@id,"_EditEmployee_txtBirthDate")]
2019.01.17 03:19:45   info : Finding xpath element on webpage..
2019.01.17 03:19:45   info : Searching for element. Try number 0
2019.01.17 03:19:46   info : element disappeared after trying for 1 times
2019.01.17 03:19:47   info : Current WebDriver Win Count is:: 1
2019.01.17 03:19:47   info : Element found!!
2019.01.17 03:19:47   info : Xml obj_repo path C:\Talent_Automation_Framework_Backup\Project_Talent/ObjectRepositories/BenefitAsia2_MercerAdmin/MA_AddNewHire.xml
2019.01.17 03:19:47   info : xpath object successfully mapped!!
2019.01.17 03:19:47   info : xpath object contains property value !!
2019.01.17 03:19:47   info : Property name - xpath
2019.01.17 03:19:47   info : Property value - //*[contains(@id,"_EditEmployee_txtBirthDate")]
2019.01.17 03:19:47   info : Finding xpath element on webpage..
2019.01.17 03:19:47   info : Searching for element. Try number 0
2019.01.17 03:19:48   info : element disappeared after trying for 1 times
2019.01.17 03:19:49   info : Current WebDriver Win Count is:: 1
2019.01.17 03:19:49   info : Element found!!
2019.01.17 03:19:49   info : ValueToEnter 01/Jan/2004
2019.01.17 03:19:50   info : Entered value is 01/Jan/2004
2019.01.17 03:19:50   info : Attribute entered value 01/Jan/2004
2019.01.17 03:19:50   info : Total static wait time 3
2019.01.17 03:19:53   info : Xml obj_repo path C:\Talent_Automation_Framework_Backup\Project_Talent/ObjectRepositories/BenefitAsia2_MercerAdmin/MA_AddNewHire.xml
2019.01.17 03:19:53   info : xpath object successfully mapped!!
2019.01.17 03:19:53   info : xpath object contains property value !!
2019.01.17 03:19:53   info : Property name - xpath
2019.01.17 03:19:53   info : Property value - //*[contains(@id,"_EditEmployee_txtHREmployeeID")]
2019.01.17 03:19:53   info : Finding xpath element on webpage..
2019.01.17 03:19:53   info : Searching for element. Try number 0
2019.01.17 03:19:54   info : element disappeared after trying for 1 times
2019.01.17 03:19:55   info : Current WebDriver Win Count is:: 1
2019.01.17 03:19:55   info : Element found!!
2019.01.17 03:19:55   info : ObjectTag input and ObjectType text
2019.01.17 03:19:55   info : Enter data operation
2019.01.17 03:19:56   info : Xml obj_repo path C:\Talent_Automation_Framework_Backup\Project_Talent/ObjectRepositories/BenefitAsia2_MercerAdmin/MA_AddNewHire.xml
2019.01.17 03:19:56   info : xpath object successfully mapped!!
2019.01.17 03:19:56   info : xpath object contains property value !!
2019.01.17 03:19:56   info : Property name - xpath
2019.01.17 03:19:56   info : Property value - //*[contains(@id,"_EditEmployee_txtHREmployeeID")]
2019.01.17 03:19:56   info : Finding xpath element on webpage..
2019.01.17 03:19:56   info : Searching for element. Try number 0
2019.01.17 03:19:57   info : element disappeared after trying for 1 times
2019.01.17 03:19:58   info : Current WebDriver Win Count is:: 1
2019.01.17 03:19:58   info : Element found!!
2019.01.17 03:19:58   info : Xml obj_repo path C:\Talent_Automation_Framework_Backup\Project_Talent/ObjectRepositories/BenefitAsia2_MercerAdmin/MA_AddNewHire.xml
2019.01.17 03:19:58   info : xpath object successfully mapped!!
2019.01.17 03:19:58   info : xpath object contains property value !!
2019.01.17 03:19:58   info : Property name - xpath
2019.01.17 03:19:58   info : Property value - //*[contains(@id,"_EditEmployee_txtHREmployeeID")]
2019.01.17 03:19:58   info : Finding xpath element on webpage..
2019.01.17 03:19:58   info : Searching for element. Try number 0
2019.01.17 03:19:59   info : element disappeared after trying for 1 times
2019.01.17 03:20:00   info : Current WebDriver Win Count is:: 1
2019.01.17 03:20:00   info : Element found!!
2019.01.17 03:20:00   info : ValueToEnter Simpli_10jan_002
2019.01.17 03:20:00   info : Entered value is Simpli_10jan_002
2019.01.17 03:20:00   info : Attribute entered value Simpli_10jan_002
2019.01.17 03:20:00   info : Total static wait time 3
2019.01.17 03:20:03   info : Xml obj_repo path C:\Talent_Automation_Framework_Backup\Project_Talent/ObjectRepositories/BenefitAsia2_MercerAdmin/MA_AddNewHire.xml
2019.01.17 03:20:03   info : xpath object successfully mapped!!
2019.01.17 03:20:03   info : xpath object contains property value !!
2019.01.17 03:20:03   info : Property name - xpath
2019.01.17 03:20:03   info : Property value - //*[contains(@id,"_EditEmployee_txtJoinDate")]
2019.01.17 03:20:03   info : Finding xpath element on webpage..
2019.01.17 03:20:03   info : Searching for element. Try number 0
2019.01.17 03:20:04   info : element disappeared after trying for 1 times
2019.01.17 03:20:05   info : Current WebDriver Win Count is:: 1
2019.01.17 03:20:05   info : Element found!!
2019.01.17 03:20:05   info : ObjectTag input and ObjectType text
2019.01.17 03:20:05   info : Enter data operation
2019.01.17 03:20:06   info : Xml obj_repo path C:\Talent_Automation_Framework_Backup\Project_Talent/ObjectRepositories/BenefitAsia2_MercerAdmin/MA_AddNewHire.xml
2019.01.17 03:20:06   info : xpath object successfully mapped!!
2019.01.17 03:20:06   info : xpath object contains property value !!
2019.01.17 03:20:06   info : Property name - xpath
2019.01.17 03:20:06   info : Property value - //*[contains(@id,"_EditEmployee_txtJoinDate")]
2019.01.17 03:20:06   info : Finding xpath element on webpage..
2019.01.17 03:20:06   info : Searching for element. Try number 0
2019.01.17 03:20:07   info : element disappeared after trying for 1 times
2019.01.17 03:20:08   info : Current WebDriver Win Count is:: 1
2019.01.17 03:20:08   info : Element found!!
2019.01.17 03:20:08   info : Xml obj_repo path C:\Talent_Automation_Framework_Backup\Project_Talent/ObjectRepositories/BenefitAsia2_MercerAdmin/MA_AddNewHire.xml
2019.01.17 03:20:08   info : xpath object successfully mapped!!
2019.01.17 03:20:08   info : xpath object contains property value !!
2019.01.17 03:20:08   info : Property name - xpath
2019.01.17 03:20:08   info : Property value - //*[contains(@id,"_EditEmployee_txtJoinDate")]
2019.01.17 03:20:08   info : Finding xpath element on webpage..
2019.01.17 03:20:08   info : Searching for element. Try number 0
2019.01.17 03:20:09   info : element disappeared after trying for 1 times
2019.01.17 03:20:10   info : Current WebDriver Win Count is:: 1
2019.01.17 03:20:10   info : Element found!!
2019.01.17 03:20:10   info : ValueToEnter 01/Jan/2019
2019.01.17 03:20:10   info : Entered value is 01/Jan/2019
2019.01.17 03:20:10   info : Attribute entered value 01/Jan/2019
2019.01.17 03:20:10   info : Total static wait time 3
2019.01.17 03:20:13   info : Xml obj_repo path C:\Talent_Automation_Framework_Backup\Project_Talent/ObjectRepositories/BenefitAsia2_MercerAdmin/MA_AddNewHire.xml
2019.01.17 03:20:13   info : xpath object successfully mapped!!
2019.01.17 03:20:13   info : xpath object contains property value !!
2019.01.17 03:20:13   info : Property name - xpath
2019.01.17 03:20:13   info : Property value - //*[contains(@id,"_EditEmployee_txtOfficeEmail")]
2019.01.17 03:20:13   info : Finding xpath element on webpage..
2019.01.17 03:20:13   info : Searching for element. Try number 0
2019.01.17 03:20:14   info : element disappeared after trying for 1 times
2019.01.17 03:20:15   info : Current WebDriver Win Count is:: 1
2019.01.17 03:20:15   info : Element found!!
2019.01.17 03:20:15   info : ObjectTag input and ObjectType text
2019.01.17 03:20:15   info : Enter data operation
2019.01.17 03:20:16   info : Xml obj_repo path C:\Talent_Automation_Framework_Backup\Project_Talent/ObjectRepositories/BenefitAsia2_MercerAdmin/MA_AddNewHire.xml
2019.01.17 03:20:16   info : xpath object successfully mapped!!
2019.01.17 03:20:16   info : xpath object contains property value !!
2019.01.17 03:20:16   info : Property name - xpath
2019.01.17 03:20:16   info : Property value - //*[contains(@id,"_EditEmployee_txtOfficeEmail")]
2019.01.17 03:20:16   info : Finding xpath element on webpage..
2019.01.17 03:20:16   info : Searching for element. Try number 0
2019.01.17 03:20:17   info : element disappeared after trying for 1 times
2019.01.17 03:20:18   info : Current WebDriver Win Count is:: 1
2019.01.17 03:20:19   info : Element found!!
2019.01.17 03:20:19   info : Xml obj_repo path C:\Talent_Automation_Framework_Backup\Project_Talent/ObjectRepositories/BenefitAsia2_MercerAdmin/MA_AddNewHire.xml
2019.01.17 03:20:19   info : xpath object successfully mapped!!
2019.01.17 03:20:19   info : xpath object contains property value !!
2019.01.17 03:20:19   info : Property name - xpath
2019.01.17 03:20:19   info : Property value - //*[contains(@id,"_EditEmployee_txtOfficeEmail")]
2019.01.17 03:20:19   info : Finding xpath element on webpage..
2019.01.17 03:20:19   info : Searching for element. Try number 0
2019.01.17 03:20:20   info : element disappeared after trying for 1 times
2019.01.17 03:20:21   info : Current WebDriver Win Count is:: 1
2019.01.17 03:20:21   info : Element found!!
2019.01.17 03:20:21   info : ValueToEnter deepak.rana2@mercer.com
2019.01.17 03:20:21   info : Entered value is deepak.rana2@mercer.com
2019.01.17 03:20:21   info : Attribute entered value deepak.rana2@mercer.com
2019.01.17 03:20:21   info : Total static wait time 3
2019.01.17 03:20:24   info : Xml obj_repo path C:\Talent_Automation_Framework_Backup\Project_Talent/ObjectRepositories/BenefitAsia2_MercerAdmin/MA_AddNewHire.xml
2019.01.17 03:20:24   info : xpath object successfully mapped!!
2019.01.17 03:20:24   info : xpath object contains property value !!
2019.01.17 03:20:24   info : Property name - xpath
2019.01.17 03:20:24   info : Property value - //*[contains(@id,"_EditEmployee_txtDateInFlex")]
2019.01.17 03:20:24   info : Finding xpath element on webpage..
2019.01.17 03:20:24   info : Searching for element. Try number 0
2019.01.17 03:20:25   info : element disappeared after trying for 1 times
2019.01.17 03:20:26   info : Current WebDriver Win Count is:: 1
2019.01.17 03:20:26   info : Element found!!
2019.01.17 03:20:26   info : ObjectTag input and ObjectType text
2019.01.17 03:20:26   info : Enter data operation
2019.01.17 03:20:27   info : Xml obj_repo path C:\Talent_Automation_Framework_Backup\Project_Talent/ObjectRepositories/BenefitAsia2_MercerAdmin/MA_AddNewHire.xml
2019.01.17 03:20:27   info : xpath object successfully mapped!!
2019.01.17 03:20:27   info : xpath object contains property value !!
2019.01.17 03:20:27   info : Property name - xpath
2019.01.17 03:20:27   info : Property value - //*[contains(@id,"_EditEmployee_txtDateInFlex")]
2019.01.17 03:20:27   info : Finding xpath element on webpage..
2019.01.17 03:20:27   info : Searching for element. Try number 0
2019.01.17 03:20:28   info : element disappeared after trying for 1 times
2019.01.17 03:20:29   info : Current WebDriver Win Count is:: 1
2019.01.17 03:20:29   info : Element found!!
2019.01.17 03:20:29   info : Xml obj_repo path C:\Talent_Automation_Framework_Backup\Project_Talent/ObjectRepositories/BenefitAsia2_MercerAdmin/MA_AddNewHire.xml
2019.01.17 03:20:29   info : xpath object successfully mapped!!
2019.01.17 03:20:29   info : xpath object contains property value !!
2019.01.17 03:20:29   info : Property name - xpath
2019.01.17 03:20:29   info : Property value - //*[contains(@id,"_EditEmployee_txtDateInFlex")]
2019.01.17 03:20:29   info : Finding xpath element on webpage..
2019.01.17 03:20:29   info : Searching for element. Try number 0
2019.01.17 03:20:30   info : element disappeared after trying for 1 times
2019.01.17 03:20:31   info : Current WebDriver Win Count is:: 1
2019.01.17 03:20:31   info : Element found!!
2019.01.17 03:20:31   info : ValueToEnter 1/1/18
2019.01.17 03:20:31   info : Entered value is 1/1/18
2019.01.17 03:20:31   info : Attribute entered value 1/1/18
2019.01.17 03:20:31   info : Total static wait time 3
2019.01.17 03:20:34   info : Xml obj_repo path C:\Talent_Automation_Framework_Backup\Project_Talent/ObjectRepositories/BenefitAsia2_MercerAdmin/MA_AddNewHire.xml
2019.01.17 03:20:34   info : xpath object successfully mapped!!
2019.01.17 03:20:34   info : xpath object contains property value !!
2019.01.17 03:20:34   info : Property name - xpath
2019.01.17 03:20:34   info : Property value - //*[contains(@id,"_EditEmployee_txtEffectiveDate")]
2019.01.17 03:20:34   info : Finding xpath element on webpage..
2019.01.17 03:20:34   info : Searching for element. Try number 0
2019.01.17 03:20:35   info : element disappeared after trying for 1 times
2019.01.17 03:20:36   info : Current WebDriver Win Count is:: 1
2019.01.17 03:20:36   info : Element found!!
2019.01.17 03:20:36   info : ObjectTag input and ObjectType text
2019.01.17 03:20:36   info : Enter data operation
2019.01.17 03:20:37   info : Xml obj_repo path C:\Talent_Automation_Framework_Backup\Project_Talent/ObjectRepositories/BenefitAsia2_MercerAdmin/MA_AddNewHire.xml
2019.01.17 03:20:37   info : xpath object successfully mapped!!
2019.01.17 03:20:37   info : xpath object contains property value !!
2019.01.17 03:20:37   info : Property name - xpath
2019.01.17 03:20:37   info : Property value - //*[contains(@id,"_EditEmployee_txtEffectiveDate")]
2019.01.17 03:20:37   info : Finding xpath element on webpage..
2019.01.17 03:20:37   info : Searching for element. Try number 0
2019.01.17 03:20:38   info : element disappeared after trying for 1 times
2019.01.17 03:20:39   info : Current WebDriver Win Count is:: 1
2019.01.17 03:20:39   info : Element found!!
2019.01.17 03:20:39   info : Xml obj_repo path C:\Talent_Automation_Framework_Backup\Project_Talent/ObjectRepositories/BenefitAsia2_MercerAdmin/MA_AddNewHire.xml
2019.01.17 03:20:39   info : xpath object successfully mapped!!
2019.01.17 03:20:39   info : xpath object contains property value !!
2019.01.17 03:20:39   info : Property name - xpath
2019.01.17 03:20:39   info : Property value - //*[contains(@id,"_EditEmployee_txtEffectiveDate")]
2019.01.17 03:20:39   info : Finding xpath element on webpage..
2019.01.17 03:20:39   info : Searching for element. Try number 0
2019.01.17 03:20:40   info : element disappeared after trying for 1 times
2019.01.17 03:20:41   info : Current WebDriver Win Count is:: 1
2019.01.17 03:20:41   info : Element found!!
2019.01.17 03:20:41   info : ValueToEnter 01/Jan/2019
2019.01.17 03:20:41   info : Entered value is 01/Jan/2019
2019.01.17 03:20:41   info : Attribute entered value 01/Jan/2019
2019.01.17 03:20:42   info : Current WebDriver Win Count is:: 1
2019.01.17 03:20:43   info : restult status : 1
2019.01.17 03:20:43   info : Test ID TC3 : previous test step/row 110 status is Passed and value of next test step/row is :: 111
2019.01.17 03:20:43   info : 

2019.01.17 03:20:43   info : -------------------- Executing Testcase ID TC3 and test step : 111 ---------------------- 
2019.01.17 03:20:44   info : Current WebDriver Win Count is:: 1
2019.01.17 03:20:44   info : Test ID TC3 : previous test step/row 111 status is Passed and value of next test step/row is :: 112
2019.01.17 03:20:44   info : 

2019.01.17 03:20:44   info : -------------------- Executing Testcase ID TC3 and test step : 112 ---------------------- 
2019.01.17 03:20:45   info : Current WebDriver Win Count is:: 1
2019.01.17 03:20:45   info : Test ID TC3 : previous test step/row 112 status is Passed and value of next test step/row is :: 113
2019.01.17 03:20:45   info : 

2019.01.17 03:20:45   info : -------------------- Executing Testcase ID TC3 and test step : 113 ---------------------- 
2019.01.17 03:20:46   info : Current WebDriver Win Count is:: 1
2019.01.17 03:20:46   info : page object present in excel : 1
2019.01.17 03:20:46   info : Under single object handle operation!!
2019.01.17 03:20:46   info : col 6 data :  and col 5 data : IsInFlex
2019.01.17 03:20:46   info : Normal click operation !!
2019.01.17 03:20:46   info : Checking for object in click
2019.01.17 03:20:46   info : Xml obj_repo path C:\Talent_Automation_Framework_Backup\Project_Talent/ObjectRepositories/BenefitAsia2_MercerAdmin/MA_AddNewHire.xml
2019.01.17 03:20:46   info : xpath object successfully mapped!!
2019.01.17 03:20:46   info : xpath object contains property value !!
2019.01.17 03:20:46   info : Property name - xpath
2019.01.17 03:20:46   info : Property value - //*[contains(@id,"_EditEmployee_chkBoxIsInFlex")]
2019.01.17 03:20:46   info : Finding xpath element on webpage..
2019.01.17 03:20:46   info : Searching for element. Try number 0
2019.01.17 03:20:47   info : element disappeared after trying for 1 times
2019.01.17 03:20:48   info : Current WebDriver Win Count is:: 1
2019.01.17 03:20:48   info : Element found!!
2019.01.17 03:20:48   info : Xml obj_repo path C:\Talent_Automation_Framework_Backup\Project_Talent/ObjectRepositories/BenefitAsia2_MercerAdmin/MA_AddNewHire.xml
2019.01.17 03:20:48   info : xpath object successfully mapped!!
2019.01.17 03:20:48   info : xpath object contains property value !!
2019.01.17 03:20:48   info : Property name - xpath
2019.01.17 03:20:48   info : Property value - //*[contains(@id,"_EditEmployee_chkBoxIsInFlex")]
2019.01.17 03:20:48   info : Finding xpath element on webpage..
2019.01.17 03:20:48   info : Searching for element. Try number 0
2019.01.17 03:20:49   info : element disappeared after trying for 1 times
2019.01.17 03:20:50   info : Current WebDriver Win Count is:: 1
2019.01.17 03:20:50   info : Element found!!
2019.01.17 03:20:51   info : clicked on IsInFlex
2019.01.17 03:20:52   info : Current WebDriver Win Count is:: 1
2019.01.17 03:20:52   info : restult status : 1
2019.01.17 03:20:52   info : Test ID TC3 : previous test step/row 113 status is Passed and value of next test step/row is :: 114
2019.01.17 03:20:52   info : 

2019.01.17 03:20:52   info : -------------------- Executing Testcase ID TC3 and test step : 114 ---------------------- 
2019.01.17 03:20:53   info : Current WebDriver Win Count is:: 1
2019.01.17 03:20:53   info : page object present in excel : 1
2019.01.17 03:20:53   info : Under single object handle operation!!
2019.01.17 03:20:53   info : col 6 data :  and col 5 data : AdditionalFlexOption
2019.01.17 03:20:53   info : Normal click operation !!
2019.01.17 03:20:53   info : Checking for object in click
2019.01.17 03:20:53   info : Xml obj_repo path C:\Talent_Automation_Framework_Backup\Project_Talent/ObjectRepositories/BenefitAsia2_MercerAdmin/MA_AddNewHire.xml
2019.01.17 03:20:53   info : xpath object successfully mapped!!
2019.01.17 03:20:53   info : xpath object contains property value !!
2019.01.17 03:20:53   info : Property name - xpath
2019.01.17 03:20:53   info : Property value - //*[contains(@id,"_EditEmployee_chkBoxMiscBit1")]
2019.01.17 03:20:53   info : Finding xpath element on webpage..
2019.01.17 03:20:53   info : Searching for element. Try number 0
2019.01.17 03:20:54   info : element disappeared after trying for 1 times
2019.01.17 03:20:55   info : Current WebDriver Win Count is:: 1
2019.01.17 03:20:55   info : Element found!!
2019.01.17 03:20:55   info : Xml obj_repo path C:\Talent_Automation_Framework_Backup\Project_Talent/ObjectRepositories/BenefitAsia2_MercerAdmin/MA_AddNewHire.xml
2019.01.17 03:20:55   info : xpath object successfully mapped!!
2019.01.17 03:20:55   info : xpath object contains property value !!
2019.01.17 03:20:55   info : Property name - xpath
2019.01.17 03:20:55   info : Property value - //*[contains(@id,"_EditEmployee_chkBoxMiscBit1")]
2019.01.17 03:20:55   info : Finding xpath element on webpage..
2019.01.17 03:20:55   info : Searching for element. Try number 0
2019.01.17 03:20:56   info : element disappeared after trying for 1 times
2019.01.17 03:20:57   info : Current WebDriver Win Count is:: 1
2019.01.17 03:20:57   info : Element found!!
2019.01.17 03:20:57   info : clicked on AdditionalFlexOption
2019.01.17 03:20:58   info : Current WebDriver Win Count is:: 1
2019.01.17 03:20:58   info : restult status : 1
2019.01.17 03:20:58   info : Test ID TC3 : previous test step/row 114 status is Passed and value of next test step/row is :: 115
2019.01.17 03:20:58   info : 

2019.01.17 03:20:58   info : -------------------- Executing Testcase ID TC3 and test step : 115 ---------------------- 
2019.01.17 03:21:00   info : Current WebDriver Win Count is:: 1
2019.01.17 03:21:00   info : page object present in excel : 1
2019.01.17 03:21:00   info : Under single object handle operation!!
2019.01.17 03:21:00   info : col 6 data : javascript_click and col 5 data : Add_Button
2019.01.17 03:21:00   info : Click case operation !!
2019.01.17 03:21:00   info : oprnm javascript_click
2019.01.17 03:21:00   info : click javascript_click operation perfomred!!
2019.01.17 03:21:00   info : Xml obj_repo path C:\Talent_Automation_Framework_Backup\Project_Talent/ObjectRepositories/BenefitAsia2_MercerAdmin/MA_AddNewHire.xml
2019.01.17 03:21:00   info : xpath object successfully mapped!!
2019.01.17 03:21:00   info : xpath object contains property value !!
2019.01.17 03:21:00   info : Property name - xpath
2019.01.17 03:21:00   info : Property value - //*[contains(@id,"_EditEmployee_btnAdd")]
2019.01.17 03:21:00   info : Finding xpath element on webpage..
2019.01.17 03:21:00   info : Searching for element. Try number 0
2019.01.17 03:21:01   info : element disappeared after trying for 1 times
2019.01.17 03:21:02   info : Current WebDriver Win Count is:: 1
2019.01.17 03:21:02   info : Element found!!
2019.01.17 03:21:03   info : Current WebDriver Win Count is:: 1
2019.01.17 03:21:03   info : restult status : 1
2019.01.17 03:21:03   info : Test ID TC3 : previous test step/row 115 status is Passed and value of next test step/row is :: 116
2019.01.17 03:21:03   info : 

2019.01.17 03:21:03   info : -------------------- Executing Testcase ID TC3 and test step : 116 ---------------------- 
2019.01.17 03:21:04   info : Current WebDriver Win Count is:: 1
2019.01.17 03:21:04   info : page object present in excel : 1
2019.01.17 03:21:04   info : Under single object handle operation!!
2019.01.17 03:21:04   info : col 6 data :  and col 5 data : EmpIDText
2019.01.17 03:21:04   info : Normal click operation !!
2019.01.17 03:21:04   info : Checking for object in click
2019.01.17 03:21:04   info : Xml obj_repo path C:\Talent_Automation_Framework_Backup\Project_Talent/ObjectRepositories/BenefitAsia2_MercerAdmin/MA_AddNewHire.xml
2019.01.17 03:21:04   info : xpath object successfully mapped!!
2019.01.17 03:21:04   info : xpath object contains property value !!
2019.01.17 03:21:04   info : Property name - xpath
2019.01.17 03:21:04   info : Property value - //*[contains(@id,"_EditEmployee_lblNationalIdNo")]
2019.01.17 03:21:04   info : Finding xpath element on webpage..
2019.01.17 03:21:04   info : Searching for element. Try number 0
2019.01.17 03:21:05   info : element disappeared after trying for 1 times
2019.01.17 03:21:06   info : Current WebDriver Win Count is:: 1
2019.01.17 03:21:06   info : Element found!!
2019.01.17 03:21:06   info : Xml obj_repo path C:\Talent_Automation_Framework_Backup\Project_Talent/ObjectRepositories/BenefitAsia2_MercerAdmin/MA_AddNewHire.xml
2019.01.17 03:21:06   info : xpath object successfully mapped!!
2019.01.17 03:21:06   info : xpath object contains property value !!
2019.01.17 03:21:06   info : Property name - xpath
2019.01.17 03:21:06   info : Property value - //*[contains(@id,"_EditEmployee_lblNationalIdNo")]
2019.01.17 03:21:06   info : Finding xpath element on webpage..
2019.01.17 03:21:06   info : Searching for element. Try number 0
2019.01.17 03:21:07   info : element disappeared after trying for 1 times
2019.01.17 03:21:08   info : Current WebDriver Win Count is:: 1
2019.01.17 03:21:08   info : Element found!!
2019.01.17 03:21:08   info : clicked on EmpIDText
2019.01.17 03:21:09   info : Current WebDriver Win Count is:: 1
2019.01.17 03:21:09   info : restult status : 1
2019.01.17 03:21:10   info : Test ID TC3 : previous test step/row 116 status is Passed and value of next test step/row is :: 117
2019.01.17 03:21:10   info : 

2019.01.17 03:21:10   info : -------------------- Executing Testcase ID TC3 and test step : 117 ---------------------- 
2019.01.17 03:21:11   info : Current WebDriver Win Count is:: 1
2019.01.17 03:21:11   info : Xml obj_repo path C:\Talent_Automation_Framework_Backup\Project_Talent/ObjectRepositories/BenefitAsia2_MercerAdmin/MA_AddNewHire.xml
2019.01.17 03:21:11   info : Defined excel object tag is not found in xml!!
2019.01.17 03:21:11   info : size of the element return by xmlreading is 0
2019.01.17 03:21:11   warn : exceptionHandler called!!
2019.01.17 03:21:12   info : Current WebDriver Win Count is:: 1
2019.01.17 03:21:12   error : java.lang.NullPointerException
2019.01.17 03:21:12   info : Test ID TC3 : previous test step/row 117 status is Failed and value of next test step/row is :: 118
2019.01.17 03:21:12   info : Test ID TC3 : previous test step/row 118 status is Failed and value of next test step/row is :: 119
2019.01.17 03:21:12   info : Test ID TC3 : previous test step/row 119 status is Failed and value of next test step/row is :: 120
2019.01.17 03:21:12   info : Test ID TC3 : previous test step/row 120 status is Failed and value of next test step/row is :: 121
2019.01.17 03:21:12   info : Test ID TC3 : previous test step/row 121 status is Failed and value of next test step/row is :: 122
2019.01.17 03:21:12   info : Test ID TC3 : previous test step/row 122 status is Failed and value of next test step/row is :: 123
2019.01.17 03:21:12   info : Test ID TC3 : previous test step/row 123 status is Failed and value of next test step/row is :: 124
2019.01.17 03:21:12   info : Test ID TC3 : previous test step/row 124 status is Failed and value of next test step/row is :: 125
2019.01.17 03:21:12   info : Test ID TC3 : previous test step/row 125 status is Failed and value of next test step/row is :: 126
2019.01.17 03:21:12   info : Test ID TC3 : previous test step/row 126 status is Failed and value of next test step/row is :: 127
2019.01.17 03:21:12   info : Test ID TC3 : previous test step/row 127 status is Failed and value of next test step/row is :: 128
2019.01.17 03:21:12   info : Test ID TC3 : previous test step/row 128 status is Failed and value of next test step/row is :: 129
2019.01.17 03:21:12   info : Test ID TC3 : previous test step/row 129 status is Failed and value of next test step/row is :: 130
2019.01.17 03:21:12   info : Test ID TC3 : previous test step/row 130 status is Failed and value of next test step/row is :: 131
2019.01.17 03:21:12   info : Test ID TC3 : previous test step/row 131 status is Failed and value of next test step/row is :: 132
2019.01.17 03:21:12   info : Test ID TC3 : previous test step/row 132 status is Failed and value of next test step/row is :: 133
2019.01.17 03:21:12   info : Test ID TC3 : previous test step/row 133 status is Failed and value of next test step/row is :: 134
2019.01.17 03:21:12   info : Test ID TC3 : previous test step/row 134 status is Failed and value of next test step/row is :: 135
2019.01.17 03:21:12   info : Test ID TC3 : previous test step/row 135 status is Failed and value of next test step/row is :: 136
2019.01.17 03:21:12   info : Test ID TC3 : previous test step/row 136 status is Failed and value of next test step/row is :: 137
2019.01.17 03:21:12   info : Test ID TC3 : previous test step/row 137 status is Failed and value of next test step/row is :: 138
2019.01.17 03:21:12   info : Test ID TC3 : previous test step/row 138 status is Failed and value of next test step/row is :: 139
2019.01.17 03:21:12   info : Test ID TC3 : previous test step/row 139 status is Failed and value of next test step/row is :: 140
2019.01.17 03:21:12   info : Test ID TC3 : previous test step/row 140 status is Failed and value of next test step/row is :: 141
2019.01.17 03:21:12   info : Test ID TC3 : previous test step/row 141 status is Failed and value of next test step/row is :: 142
2019.01.17 03:21:12   info : Test ID TC3 : previous test step/row 142 status is Failed and value of next test step/row is :: 143
2019.01.17 03:21:12   info : Test ID TC3 : previous test step/row 143 status is Failed and value of next test step/row is :: 144
2019.01.17 03:21:12   info : Test ID TC3 : previous test step/row 144 status is Failed and value of next test step/row is :: 145
2019.01.17 03:21:12   info : Test ID TC3 : previous test step/row 145 status is Failed and value of next test step/row is :: 146
2019.01.17 03:21:12   info : Test ID TC3 : previous test step/row 146 status is Failed and value of next test step/row is :: 147
2019.01.17 03:21:12   info : Test ID TC3 : previous test step/row 147 status is Failed and value of next test step/row is :: 148
2019.01.17 03:21:12   info : Test ID TC3 : previous test step/row 148 status is Failed and value of next test step/row is :: 149
2019.01.17 03:21:12   info : Test ID TC3 : previous test step/row 149 status is Failed and value of next test step/row is :: 150
2019.01.17 03:21:12   info : Test ID TC3 : previous test step/row 150 status is Failed and value of next test step/row is :: 151
2019.01.17 03:21:12   info : Test ID TC3 : previous test step/row 151 status is Failed and value of next test step/row is :: 152
2019.01.17 03:21:12   info : Test ID TC3 : previous test step/row 152 status is Failed and value of next test step/row is :: 153
2019.01.17 03:21:12   info : Test ID TC3 : previous test step/row 153 status is Failed and value of next test step/row is :: 154
2019.01.17 03:21:12   info : Test ID TC3 : previous test step/row 154 status is Failed and value of next test step/row is :: 155
2019.01.17 03:21:12   info : Test ID TC3 : previous test step/row 155 status is Failed and value of next test step/row is :: 156
2019.01.17 03:21:12   info : Test ID TC3 : previous test step/row 156 status is Failed and value of next test step/row is :: 157
2019.01.17 03:21:12   info : Test ID TC3 : previous test step/row 157 status is Failed and value of next test step/row is :: 158
2019.01.17 03:21:12   info : Test ID TC3 : previous test step/row 158 status is Failed and value of next test step/row is :: 159
2019.01.17 03:21:12   info : Test ID TC3 : previous test step/row 159 status is Failed and value of next test step/row is :: 160
2019.01.17 03:21:12   info : Test ID TC3 : previous test step/row 160 status is Failed and value of next test step/row is :: 161
2019.01.17 03:21:12   info : Test ID TC3 : previous test step/row 161 status is Failed and value of next test step/row is :: 162
2019.01.17 03:21:12   info : Test ID TC3 : previous test step/row 162 status is Failed and value of next test step/row is :: 163
2019.01.17 03:21:12   info : Test ID TC3 : previous test step/row 163 status is Failed and value of next test step/row is :: 164
2019.01.17 03:21:12   info : Test ID TC3 : previous test step/row 164 status is Failed and value of next test step/row is :: 165
2019.01.17 03:21:12   info : Test ID TC3 : previous test step/row 165 status is Failed and value of next test step/row is :: 166
2019.01.17 03:21:12   info : Test ID TC3 : previous test step/row 166 status is Failed and value of next test step/row is :: 167
2019.01.17 03:21:12   info : Test ID TC3 : previous test step/row 167 status is Failed and value of next test step/row is :: 168
2019.01.17 03:21:12   info : Test ID TC3 : previous test step/row 168 status is Failed and value of next test step/row is :: 169
2019.01.17 03:21:12   info : Test ID TC3 : previous test step/row 169 status is Failed and value of next test step/row is :: 170
2019.01.17 03:21:12   info : Test ID TC3 : previous test step/row 170 status is Failed and value of next test step/row is :: 171
2019.01.17 03:21:12   info : Test ID TC3 : previous test step/row 171 status is Failed and value of next test step/row is :: 172
2019.01.17 03:21:12   info : Test ID TC3 : previous test step/row 172 status is Failed and value of next test step/row is :: 173
2019.01.17 03:21:12   info : Test ID TC3 : previous test step/row 173 status is Failed and value of next test step/row is :: 174
2019.01.17 03:21:12   info : Test ID TC3 : previous test step/row 174 status is Failed and value of next test step/row is :: 175
2019.01.17 03:21:12   info : Test ID TC3 : previous test step/row 175 status is Failed and value of next test step/row is :: 176
2019.01.17 03:21:12   info : Test ID TC3 : previous test step/row 176 status is Failed and value of next test step/row is :: 177
2019.01.17 03:21:12   info : Test ID TC3 : previous test step/row 177 status is Failed and value of next test step/row is :: 178
2019.01.17 03:21:12   info : Test ID TC3 : previous test step/row 178 status is Failed and value of next test step/row is :: 179
2019.01.17 03:21:12   info : Test ID TC3 : previous test step/row 179 status is Failed and value of next test step/row is :: 180
2019.01.17 03:21:12   info : Test ID TC3 : previous test step/row 180 status is Failed and value of next test step/row is :: 181
2019.01.17 03:21:12   info : Test ID TC3 : previous test step/row 181 status is Failed and value of next test step/row is :: 182
2019.01.17 03:21:12   info : Test ID TC3 : previous test step/row 182 status is Failed and value of next test step/row is :: 183
2019.01.17 03:21:12   info : Test ID TC3 : previous test step/row 183 status is Failed and value of next test step/row is :: 184
2019.01.17 03:21:12   info : Test ID TC3 : previous test step/row 184 status is Failed and value of next test step/row is :: 185
2019.01.17 03:21:12   info : Test ID TC3 : previous test step/row 185 status is Failed and value of next test step/row is :: 186
2019.01.17 03:21:12   info : Test ID TC3 : previous test step/row 186 status is Failed and value of next test step/row is :: 187
2019.01.17 03:21:12   info : Test ID TC3 : previous test step/row 187 status is Failed and value of next test step/row is :: 188
2019.01.17 03:21:12   info : Test ID TC3 : previous test step/row 188 status is Failed and value of next test step/row is :: 189
2019.01.17 03:21:12   info : Test ID TC3 : previous test step/row 189 status is Failed and value of next test step/row is :: 190
2019.01.17 03:21:12   info : Test ID TC3 : previous test step/row 190 status is Failed and value of next test step/row is :: 191
2019.01.17 03:21:12   info : Test ID TC3 : previous test step/row 191 status is Failed and value of next test step/row is :: 192
2019.01.17 03:21:12   info : Test ID TC3 : previous test step/row 192 status is Failed and value of next test step/row is :: 193
2019.01.17 03:21:12   info : Test ID TC3 : previous test step/row 193 status is Failed and value of next test step/row is :: 194
2019.01.17 03:21:12   info : Test ID TC3 : previous test step/row 194 status is Failed and value of next test step/row is :: 195
2019.01.17 03:21:12   info : Test ID TC3 : previous test step/row 195 status is Failed and value of next test step/row is :: 196
2019.01.17 03:21:12   info : Test ID TC3 : previous test step/row 196 status is Failed and value of next test step/row is :: 197
2019.01.17 03:21:12   info : Test ID TC3 : previous test step/row 197 status is Failed and value of next test step/row is :: 198
2019.01.17 03:21:12   info : Test ID TC3 : previous test step/row 198 status is Failed and value of next test step/row is :: 199
2019.01.17 03:21:12   info : Test ID TC3 : previous test step/row 199 status is Failed and value of next test step/row is :: 200
2019.01.17 03:21:12   info : Test ID TC3 : previous test step/row 200 status is Failed and value of next test step/row is :: 201
2019.01.17 03:21:12   info : Test ID TC3 : previous test step/row 201 status is Failed and value of next test step/row is :: 202
2019.01.17 03:21:12   info : Test ID TC3 : previous test step/row 202 status is Failed and value of next test step/row is :: 203
2019.01.17 03:21:12   info : Test ID TC3 : previous test step/row 203 status is Failed and value of next test step/row is :: 204
2019.01.17 03:21:12   info : Test ID TC3 : previous test step/row 204 status is Failed and value of next test step/row is :: 205
2019.01.17 03:21:12   info : Test ID TC3 : previous test step/row 205 status is Failed and value of next test step/row is :: 206
2019.01.17 03:21:12   info : Test ID TC3 : previous test step/row 206 status is Failed and value of next test step/row is :: 207
2019.01.17 03:21:12   info : Test ID TC3 : previous test step/row 207 status is Failed and value of next test step/row is :: 208
2019.01.17 03:21:12   info : Test ID TC3 : previous test step/row 208 status is Failed and value of next test step/row is :: 209
2019.01.17 03:21:12   info : Test ID TC3 : previous test step/row 209 status is Failed and value of next test step/row is :: 210
2019.01.17 03:21:12   info : Test ID TC3 : previous test step/row 210 status is Failed and value of next test step/row is :: 211
2019.01.17 03:21:12   info : Test ID TC3 : previous test step/row 211 status is Failed and value of next test step/row is :: 212
2019.01.17 03:21:12   info : Test ID TC3 : previous test step/row 212 status is Failed and value of next test step/row is :: 213
2019.01.17 03:21:12   info : Test ID TC3 : previous test step/row 213 status is Failed and value of next test step/row is :: 214
2019.01.17 03:21:12   info : Test ID TC3 : previous test step/row 214 status is Failed and value of next test step/row is :: 215
2019.01.17 03:21:12   info : Test ID TC3 : previous test step/row 215 status is Failed and value of next test step/row is :: 216
2019.01.17 03:21:12   info : Test ID TC3 : previous test step/row 216 status is Failed and value of next test step/row is :: 217
2019.01.17 03:21:12   info : Test ID TC3 : previous test step/row 217 status is Failed and value of next test step/row is :: 218
2019.01.17 03:21:12   info : Test ID TC3 : previous test step/row 218 status is Failed and value of next test step/row is :: 219
2019.01.17 03:21:12   info : Test ID TC3 : previous test step/row 219 status is Failed and value of next test step/row is :: 220
2019.01.17 03:21:12   info : Test ID TC3 : previous test step/row 220 status is Failed and value of next test step/row is :: 221
2019.01.17 03:21:12   info : Test ID TC3 : previous test step/row 221 status is Failed and value of next test step/row is :: 222
2019.01.17 03:21:12   info : Test ID TC3 : previous test step/row 222 status is Failed and value of next test step/row is :: 223
2019.01.17 03:21:12   info : Test ID TC3 : previous test step/row 223 status is Failed and value of next test step/row is :: 224
2019.01.17 03:21:12   info : Test ID TC3 : previous test step/row 224 status is Failed and value of next test step/row is :: 225
2019.01.17 03:21:12   info : Test ID TC3 : previous test step/row 225 status is Failed and value of next test step/row is :: 226
2019.01.17 03:21:12   info : Test ID TC3 : previous test step/row 226 status is Failed and value of next test step/row is :: 227
2019.01.17 03:21:12   info : Test ID TC3 : previous test step/row 227 status is Failed and value of next test step/row is :: 228
2019.01.17 03:21:12   info : Test ID TC3 : previous test step/row 228 status is Failed and value of next test step/row is :: 229
2019.01.17 03:21:12   info : Test ID TC3 : previous test step/row 229 status is Failed and value of next test step/row is :: 230
2019.01.17 03:21:12   info : Test ID TC3 : previous test step/row 230 status is Failed and value of next test step/row is :: 231
2019.01.17 03:21:12   info : Test ID TC3 : previous test step/row 231 status is Failed and value of next test step/row is :: 232
2019.01.17 03:21:12   info : Test ID TC3 : previous test step/row 232 status is Failed and value of next test step/row is :: 233
2019.01.17 03:21:12   info : Test ID TC3 : previous test step/row 233 status is Failed and value of next test step/row is :: 234
2019.01.17 03:21:12   info : Test ID TC3 : previous test step/row 234 status is Failed and value of next test step/row is :: 235
2019.01.17 03:21:12   info : Test ID TC3 : previous test step/row 235 status is Failed and value of next test step/row is :: 236
2019.01.17 03:21:12   info : Test ID TC3 : previous test step/row 236 status is Failed and value of next test step/row is :: 237
2019.01.17 03:21:12   info : Test ID TC3 : previous test step/row 237 status is Failed and value of next test step/row is :: 238
2019.01.17 03:21:12   info : Test ID TC3 : previous test step/row 238 status is Failed and value of next test step/row is :: 239
2019.01.17 03:21:12   info : Test ID TC3 : previous test step/row 239 status is Failed and value of next test step/row is :: 240
2019.01.17 03:21:12   info : Test ID TC3 : previous test step/row 240 status is Failed and value of next test step/row is :: 241
2019.01.17 03:21:12   info : Test ID TC3 : previous test step/row 241 status is Failed and value of next test step/row is :: 242
2019.01.17 03:21:12   info : Test ID TC3 : previous test step/row 242 status is Failed and value of next test step/row is :: 243
2019.01.17 03:21:12   info : Test ID TC3 : previous test step/row 243 status is Failed and value of next test step/row is :: 244
2019.01.17 03:21:12   info : Test ID TC3 : previous test step/row 244 status is Failed and value of next test step/row is :: 245
2019.01.17 03:21:12   info : Test ID TC3 : previous test step/row 245 status is Failed and value of next test step/row is :: 246
2019.01.17 03:21:12   info : Test ID TC3 : previous test step/row 246 status is Failed and value of next test step/row is :: 247
2019.01.17 03:21:12   info : Test ID TC3 : previous test step/row 247 status is Failed and value of next test step/row is :: 248
2019.01.17 03:21:12   info : Test ID TC3 : previous test step/row 248 status is Failed and value of next test step/row is :: 249
2019.01.17 03:21:12   info : Test ID TC3 : previous test step/row 249 status is Failed and value of next test step/row is :: 250
2019.01.17 03:21:12   info : Test ID TC3 : previous test step/row 250 status is Failed and value of next test step/row is :: 251
2019.01.17 03:21:12   info : Test ID TC3 : previous test step/row 251 status is Failed and value of next test step/row is :: 252
2019.01.17 03:21:12   info : Test ID TC3 : previous test step/row 252 status is Failed and value of next test step/row is :: 253
2019.01.17 03:21:12   info : Test ID TC3 : previous test step/row 253 status is Failed and value of next test step/row is :: 254
2019.01.17 03:21:12   info : Test ID TC3 : previous test step/row 254 status is Failed and value of next test step/row is :: 255
2019.01.17 03:21:12   info : Test ID TC3 : previous test step/row 255 status is Failed and value of next test step/row is :: 256
2019.01.17 03:21:12   info : Test ID TC3 : previous test step/row 256 status is Failed and value of next test step/row is :: 257
2019.01.17 03:21:12   info : Test ID TC3 : previous test step/row 257 status is Failed and value of next test step/row is :: 258
2019.01.17 03:21:12   info : Test ID TC3 : previous test step/row 258 status is Failed and value of next test step/row is :: 259
2019.01.17 03:21:12   info : Test ID TC3 : previous test step/row 259 status is Failed and value of next test step/row is :: 260
2019.01.17 03:21:12   info : Test ID TC3 : previous test step/row 260 status is Failed and value of next test step/row is :: 261
2019.01.17 03:21:12   info : Test ID TC3 : previous test step/row 261 status is Failed and value of next test step/row is :: 262
2019.01.17 03:21:12   info : Test ID TC3 : previous test step/row 262 status is Failed and value of next test step/row is :: 263
2019.01.17 03:21:12   info : Test ID TC3 : previous test step/row 263 status is Failed and value of next test step/row is :: 264
2019.01.17 03:21:12   info : Test ID TC3 : previous test step/row 264 status is Failed and value of next test step/row is :: 265
2019.01.17 03:21:12   info : Test ID TC3 : previous test step/row 265 status is Failed and value of next test step/row is :: 266
2019.01.17 03:21:12   info : Row TC3!=TC4 || (TC4==null)) && (266<=781)
2019.01.17 03:21:12   info : Status :: Failed :: Finalizing result report
2019.01.17 03:21:13   info : closing window...
2019.01.17 03:21:13   info : window size 1
2019.01.17 03:21:13   info : Window is closed!!
