2018.12.06 04:01:51   info : Selenium version :: 2.48.2
2018.12.06 04:01:51   info : Download fodler path created!!
2018.12.06 04:01:51   info : date_time_down_folder C:\Talent_Automation_Framework_Backup\Project_Talent\Downloads\2018_12_06\time_16_01_51\
2018.12.06 04:01:52   info : Total number of applications :: 4
2018.12.06 04:01:52   info : Application Name - UBSHK_Claim_F
2018.12.06 04:01:52   info : TestData_Sheet path:: C:\Talent_Automation_Framework_Backup\Project_Talent/TestCases/UBSHK_Claim_F.xlsx
2018.12.06 04:01:52   info : CSV updating and creating dump....
2018.12.06 04:01:54   info : Sheet name: TestCaseScheduler
2018.12.06 04:01:54   info : Sheet name: Test Case
2018.12.06 04:01:54   info : UBSHK_Claim_F sheetname found!!
2018.12.06 04:01:54   info : Total row 4652
2018.12.06 04:01:54   info : After row validation for blank or null!!
2018.12.06 04:01:54   info : Total final row 4651
2018.12.06 04:01:55   error : java.lang.NullPointerException
2018.12.06 04:01:55   info : Total number of test cases to be executed :: 57
2018.12.06 04:01:55   info : PrevTestID - null == null && row 24<= 4651
2018.12.06 04:01:55   info : Test ID TC2 : previous test step/row 23 status is Passed and value of next test step/row is :: 24
2018.12.06 04:01:55   info : 

2018.12.06 04:01:55   info : -------------------- Executing Testcase ID TC2 and test step : 24 ---------------------- 
2018.12.06 04:01:56   info : please wait.. browser getting open !!
2018.12.06 04:02:08   info : Opening Application..
2018.12.06 04:02:14   info : Current WebDriver Win Count is:: 1
2018.12.06 04:02:14   info : restult status : 1
2018.12.06 04:02:15   info : Test ID TC2 : previous test step/row 24 status is Passed and value of next test step/row is :: 25
2018.12.06 04:02:15   info : 

2018.12.06 04:02:15   info : -------------------- Executing Testcase ID TC2 and test step : 25 ---------------------- 
2018.12.06 04:02:17   info : Current WebDriver Win Count is:: 1
2018.12.06 04:02:17   info : Xml obj_repo path C:\Talent_Automation_Framework_Backup\Project_Talent/ObjectRepositories/BenefitAsia2_MercerAdmin/MA_Home.xml
2018.12.06 04:02:17   info : Title in xml file - Home
2018.12.06 04:02:17   warn : Window is not switched, now trying based on element!!
2018.12.06 04:02:17   info : Window title Mercer Account Center
2018.12.06 04:02:17   info : Xml obj_repo path C:\Talent_Automation_Framework_Backup\Project_Talent/ObjectRepositories/BenefitAsia2_MercerAdmin/MA_Home.xml
2018.12.06 04:02:17   info : xpath object successfully mapped!!
2018.12.06 04:02:17   info : xpath object contains property value !!
2018.12.06 04:02:17   info : Property name - xpath
2018.12.06 04:02:17   info : Property value - //input[contains(@id,"ContentPlaceHolder1_TextBox1")]
2018.12.06 04:02:17   info : Finding xpath element on webpage..
2018.12.06 04:02:17   info : Searching for element. Try number 0
2018.12.06 04:02:18   info : element disappeared after trying for 1 times
2018.12.06 04:02:19   info : Current WebDriver Win Count is:: 1
2018.12.06 04:02:19   info : Element found!!
2018.12.06 04:02:19   info : Desired window is activated!!
2018.12.06 04:02:19   info : Total static wait time 3
2018.12.06 04:02:22   info : Xml obj_repo path C:\Talent_Automation_Framework_Backup\Project_Talent/ObjectRepositories/BenefitAsia2_MercerAdmin/MA_Home.xml
2018.12.06 04:02:22   info : xpath object successfully mapped!!
2018.12.06 04:02:22   info : xpath object contains property value !!
2018.12.06 04:02:22   info : Property name - xpath
2018.12.06 04:02:22   info : Property value - //input[contains(@id,"ContentPlaceHolder1_TextBox1")]
2018.12.06 04:02:22   info : Finding xpath element on webpage..
2018.12.06 04:02:22   info : Searching for element. Try number 0
2018.12.06 04:02:23   info : element disappeared after trying for 1 times
2018.12.06 04:02:24   info : Current WebDriver Win Count is:: 1
2018.12.06 04:02:24   info : Element found!!
2018.12.06 04:02:24   info : ObjectTag input and ObjectType text
2018.12.06 04:02:24   info : Enter data operation
2018.12.06 04:02:25   info : Xml obj_repo path C:\Talent_Automation_Framework_Backup\Project_Talent/ObjectRepositories/BenefitAsia2_MercerAdmin/MA_Home.xml
2018.12.06 04:02:25   info : xpath object successfully mapped!!
2018.12.06 04:02:25   info : xpath object contains property value !!
2018.12.06 04:02:25   info : Property name - xpath
2018.12.06 04:02:25   info : Property value - //input[contains(@id,"ContentPlaceHolder1_TextBox1")]
2018.12.06 04:02:25   info : Finding xpath element on webpage..
2018.12.06 04:02:25   info : Searching for element. Try number 0
2018.12.06 04:02:26   info : element disappeared after trying for 1 times
2018.12.06 04:02:27   info : Current WebDriver Win Count is:: 1
2018.12.06 04:02:27   info : Element found!!
2018.12.06 04:02:27   info : Xml obj_repo path C:\Talent_Automation_Framework_Backup\Project_Talent/ObjectRepositories/BenefitAsia2_MercerAdmin/MA_Home.xml
2018.12.06 04:02:27   info : xpath object successfully mapped!!
2018.12.06 04:02:27   info : xpath object contains property value !!
2018.12.06 04:02:27   info : Property name - xpath
2018.12.06 04:02:27   info : Property value - //input[contains(@id,"ContentPlaceHolder1_TextBox1")]
2018.12.06 04:02:27   info : Finding xpath element on webpage..
2018.12.06 04:02:27   info : Searching for element. Try number 0
2018.12.06 04:02:28   info : element disappeared after trying for 1 times
2018.12.06 04:02:29   info : Current WebDriver Win Count is:: 1
2018.12.06 04:02:29   info : Element found!!
2018.12.06 04:02:29   info : ValueToEnter ashish.choudhary@mercer.com
2018.12.06 04:02:29   info : Entered value is ashish.choudhary@mercer.com
2018.12.06 04:02:29   info : Attribute entered value ashish.choudhary@mercer.com
2018.12.06 04:02:30   info : Current WebDriver Win Count is:: 1
2018.12.06 04:02:31   info : restult status : 1
2018.12.06 04:02:31   info : Test ID TC2 : previous test step/row 25 status is Passed and value of next test step/row is :: 26
2018.12.06 04:02:31   info : 

2018.12.06 04:02:31   info : -------------------- Executing Testcase ID TC2 and test step : 26 ---------------------- 
2018.12.06 04:02:32   info : Current WebDriver Win Count is:: 1
2018.12.06 04:02:32   info : page object present in excel : 1
2018.12.06 04:02:32   info : Under single object handle operation!!
2018.12.06 04:02:32   info : col 6 data :  and col 5 data : SSO_Next_Button
2018.12.06 04:02:32   info : Normal click operation !!
2018.12.06 04:02:32   info : Checking for object in click
2018.12.06 04:02:32   info : Xml obj_repo path C:\Talent_Automation_Framework_Backup\Project_Talent/ObjectRepositories/BenefitAsia2_MercerAdmin/MA_Home.xml
2018.12.06 04:02:32   info : xpath object successfully mapped!!
2018.12.06 04:02:32   info : xpath object contains property value !!
2018.12.06 04:02:32   info : Property name - xpath
2018.12.06 04:02:32   info : Property value - //input[contains(@id,"ContentPlaceHolder1_PassiveSignInButton")]
2018.12.06 04:02:32   info : Finding xpath element on webpage..
2018.12.06 04:02:32   info : Searching for element. Try number 0
2018.12.06 04:02:33   info : element disappeared after trying for 1 times
2018.12.06 04:02:34   info : Current WebDriver Win Count is:: 1
2018.12.06 04:02:34   info : Element found!!
2018.12.06 04:02:34   info : Xml obj_repo path C:\Talent_Automation_Framework_Backup\Project_Talent/ObjectRepositories/BenefitAsia2_MercerAdmin/MA_Home.xml
2018.12.06 04:02:34   info : xpath object successfully mapped!!
2018.12.06 04:02:34   info : xpath object contains property value !!
2018.12.06 04:02:34   info : Property name - xpath
2018.12.06 04:02:34   info : Property value - //input[contains(@id,"ContentPlaceHolder1_PassiveSignInButton")]
2018.12.06 04:02:34   info : Finding xpath element on webpage..
2018.12.06 04:02:34   info : Searching for element. Try number 0
2018.12.06 04:02:35   info : element disappeared after trying for 1 times
2018.12.06 04:02:36   info : Current WebDriver Win Count is:: 1
2018.12.06 04:02:36   info : Element found!!
2018.12.06 04:02:41   info : clicked on SSO_Next_Button
2018.12.06 04:02:42   info : Current WebDriver Win Count is:: 1
2018.12.06 04:02:48   info : restult status : 1
2018.12.06 04:02:48   info : Test ID TC2 : previous test step/row 26 status is Passed and value of next test step/row is :: 27
2018.12.06 04:02:48   info : 

2018.12.06 04:02:48   info : -------------------- Executing Testcase ID TC2 and test step : 27 ---------------------- 
2018.12.06 04:02:49   info : Current WebDriver Win Count is:: 1
2018.12.06 04:02:49   info : not doing anything!!
2018.12.06 04:02:49   info : Navigating to another url..
2018.12.06 04:02:58   info : Current WebDriver Win Count is:: 1
2018.12.06 04:02:58   info : restult status : 1
2018.12.06 04:02:58   info : Test ID TC2 : previous test step/row 27 status is Passed and value of next test step/row is :: 28
2018.12.06 04:02:58   info : 

2018.12.06 04:02:58   info : -------------------- Executing Testcase ID TC2 and test step : 28 ---------------------- 
2018.12.06 04:03:00   info : Current WebDriver Win Count is:: 1
2018.12.06 04:03:00   info : Xml obj_repo path C:\Talent_Automation_Framework_Backup\Project_Talent/ObjectRepositories/BenefitAsia2_MercerAdmin/MA_Enrollment.xml
2018.12.06 04:03:00   info : Title in xml file - ViewEnrollmentStatus
2018.12.06 04:03:00   warn : Window is not switched, now trying based on element!!
2018.12.06 04:03:00   info : Window title View Enrollment Status
2018.12.06 04:03:00   info : Xml obj_repo path C:\Talent_Automation_Framework_Backup\Project_Talent/ObjectRepositories/BenefitAsia2_MercerAdmin/MA_Enrollment.xml
2018.12.06 04:03:00   info : xpath object successfully mapped!!
2018.12.06 04:03:00   info : xpath object contains property value !!
2018.12.06 04:03:00   info : Property name - xpath
2018.12.06 04:03:00   info : Property value - //input[contains(@id,"_txtSearch")]
2018.12.06 04:03:00   info : Finding xpath element on webpage..
2018.12.06 04:03:00   info : Searching for element. Try number 0
2018.12.06 04:03:01   info : element disappeared after trying for 1 times
2018.12.06 04:03:02   info : Current WebDriver Win Count is:: 1
2018.12.06 04:03:02   info : Element found!!
2018.12.06 04:03:02   info : Desired window is activated!!
2018.12.06 04:03:02   info : Total static wait time 3
2018.12.06 04:03:05   info : Xml obj_repo path C:\Talent_Automation_Framework_Backup\Project_Talent/ObjectRepositories/BenefitAsia2_MercerAdmin/MA_Enrollment.xml
2018.12.06 04:03:05   info : xpath object successfully mapped!!
2018.12.06 04:03:05   info : xpath object contains property value !!
2018.12.06 04:03:05   info : Property name - xpath
2018.12.06 04:03:05   info : Property value - //input[contains(@id,"_txtSearch")]
2018.12.06 04:03:05   info : Finding xpath element on webpage..
2018.12.06 04:03:05   info : Searching for element. Try number 0
2018.12.06 04:03:06   info : element disappeared after trying for 1 times
2018.12.06 04:03:07   info : Current WebDriver Win Count is:: 1
2018.12.06 04:03:07   info : Element found!!
2018.12.06 04:03:07   info : ObjectTag input and ObjectType text
2018.12.06 04:03:07   info : Enter data operation
2018.12.06 04:03:08   info : Xml obj_repo path C:\Talent_Automation_Framework_Backup\Project_Talent/ObjectRepositories/BenefitAsia2_MercerAdmin/MA_Enrollment.xml
2018.12.06 04:03:08   info : xpath object successfully mapped!!
2018.12.06 04:03:08   info : xpath object contains property value !!
2018.12.06 04:03:08   info : Property name - xpath
2018.12.06 04:03:08   info : Property value - //input[contains(@id,"_txtSearch")]
2018.12.06 04:03:08   info : Finding xpath element on webpage..
2018.12.06 04:03:08   info : Searching for element. Try number 0
2018.12.06 04:03:09   info : element disappeared after trying for 1 times
2018.12.06 04:03:10   info : Current WebDriver Win Count is:: 1
2018.12.06 04:03:10   info : Element found!!
2018.12.06 04:03:10   info : Xml obj_repo path C:\Talent_Automation_Framework_Backup\Project_Talent/ObjectRepositories/BenefitAsia2_MercerAdmin/MA_Enrollment.xml
2018.12.06 04:03:10   info : xpath object successfully mapped!!
2018.12.06 04:03:10   info : xpath object contains property value !!
2018.12.06 04:03:10   info : Property name - xpath
2018.12.06 04:03:10   info : Property value - //input[contains(@id,"_txtSearch")]
2018.12.06 04:03:10   info : Finding xpath element on webpage..
2018.12.06 04:03:10   info : Searching for element. Try number 0
2018.12.06 04:03:12   info : element disappeared after trying for 1 times
2018.12.06 04:03:13   info : Current WebDriver Win Count is:: 1
2018.12.06 04:03:13   info : Element found!!
2018.12.06 04:03:13   info : ValueToEnter ubshk_7dec_1642
2018.12.06 04:03:13   info : Entered value is ubshk_7dec_1642
2018.12.06 04:03:13   info : Attribute entered value ubshk_7dec_1642
2018.12.06 04:03:13   info : Total static wait time 3
2018.12.06 04:03:16   info : Xml obj_repo path C:\Talent_Automation_Framework_Backup\Project_Talent/ObjectRepositories/BenefitAsia2_MercerAdmin/MA_Enrollment.xml
2018.12.06 04:03:16   info : xpath object successfully mapped!!
2018.12.06 04:03:16   info : xpath object contains property value !!
2018.12.06 04:03:16   info : Property name - xpath
2018.12.06 04:03:16   info : Property value - //input[contains(@id,"_rdbsearch_3")]
2018.12.06 04:03:16   info : Finding xpath element on webpage..
2018.12.06 04:03:16   info : Searching for element. Try number 0
2018.12.06 04:03:17   info : element disappeared after trying for 1 times
2018.12.06 04:03:18   info : Current WebDriver Win Count is:: 1
2018.12.06 04:03:18   info : Element found!!
2018.12.06 04:03:18   info : ObjectTag input and ObjectType radio
2018.12.06 04:03:18   info : Radio operation 
2018.12.06 04:03:18   info : Xml obj_repo path C:\Talent_Automation_Framework_Backup\Project_Talent/ObjectRepositories/BenefitAsia2_MercerAdmin/MA_Enrollment.xml
2018.12.06 04:03:18   info : xpath object successfully mapped!!
2018.12.06 04:03:18   info : xpath object contains property value !!
2018.12.06 04:03:18   info : Property name - xpath
2018.12.06 04:03:18   info : Property value - //input[contains(@id,"_rdbsearch_3")]
2018.12.06 04:03:18   info : Finding xpath element on webpage..
2018.12.06 04:03:18   info : Searching for element. Try number 0
2018.12.06 04:03:19   info : element disappeared after trying for 1 times
2018.12.06 04:03:20   info : Current WebDriver Win Count is:: 1
2018.12.06 04:03:20   info : Element found!!
2018.12.06 04:03:21   info : Current WebDriver Win Count is:: 1
2018.12.06 04:03:21   info : restult status : 1
2018.12.06 04:03:21   info : Test ID TC2 : previous test step/row 28 status is Passed and value of next test step/row is :: 29
2018.12.06 04:03:21   info : 

2018.12.06 04:03:21   info : -------------------- Executing Testcase ID TC2 and test step : 29 ---------------------- 
2018.12.06 04:03:23   info : Current WebDriver Win Count is:: 1
2018.12.06 04:03:23   info : page object present in excel : 1
2018.12.06 04:03:23   info : Under single object handle operation!!
2018.12.06 04:03:23   info : col 6 data :  and col 5 data : Search_Button
2018.12.06 04:03:23   info : Normal click operation !!
2018.12.06 04:03:23   info : Checking for object in click
2018.12.06 04:03:23   info : Xml obj_repo path C:\Talent_Automation_Framework_Backup\Project_Talent/ObjectRepositories/BenefitAsia2_MercerAdmin/MA_Enrollment.xml
2018.12.06 04:03:23   info : xpath object successfully mapped!!
2018.12.06 04:03:23   info : xpath object contains property value !!
2018.12.06 04:03:23   info : Property name - xpath
2018.12.06 04:03:23   info : Property value - //input[contains(@id,"_btnSearch")]
2018.12.06 04:03:23   info : Finding xpath element on webpage..
2018.12.06 04:03:23   info : Searching for element. Try number 0
2018.12.06 04:03:24   info : element disappeared after trying for 1 times
2018.12.06 04:03:25   info : Current WebDriver Win Count is:: 1
2018.12.06 04:03:25   info : Element found!!
2018.12.06 04:03:25   info : Xml obj_repo path C:\Talent_Automation_Framework_Backup\Project_Talent/ObjectRepositories/BenefitAsia2_MercerAdmin/MA_Enrollment.xml
2018.12.06 04:03:25   info : xpath object successfully mapped!!
2018.12.06 04:03:25   info : xpath object contains property value !!
2018.12.06 04:03:25   info : Property name - xpath
2018.12.06 04:03:25   info : Property value - //input[contains(@id,"_btnSearch")]
2018.12.06 04:03:25   info : Finding xpath element on webpage..
2018.12.06 04:03:25   info : Searching for element. Try number 0
2018.12.06 04:03:26   info : element disappeared after trying for 1 times
2018.12.06 04:03:27   info : Current WebDriver Win Count is:: 1
2018.12.06 04:03:27   info : Element found!!
2018.12.06 04:03:29   info : clicked on Search_Button
2018.12.06 04:03:30   info : Current WebDriver Win Count is:: 1
2018.12.06 04:03:31   info : restult status : 1
2018.12.06 04:03:31   info : Test ID TC2 : previous test step/row 29 status is Passed and value of next test step/row is :: 30
2018.12.06 04:03:31   info : 

2018.12.06 04:03:31   info : -------------------- Executing Testcase ID TC2 and test step : 30 ---------------------- 
2018.12.06 04:03:32   info : Current WebDriver Win Count is:: 1
2018.12.06 04:03:32   info : Xml obj_repo path C:\Talent_Automation_Framework_Backup\Project_Talent/ObjectRepositories/BenefitAsia2_MercerAdmin/MA_Enrollment.xml
2018.12.06 04:03:32   info : xpath object successfully mapped!!
2018.12.06 04:03:32   info : xpath object contains property value !!
2018.12.06 04:03:32   info : Property name - xpath
2018.12.06 04:03:32   info : Property value - //*[contains(@id,"_SearchEnrolmentStatus_GrdEmployee")]/tbody/tr[2]/td[count(//*[contains(@id,"_SearchEnrolmentStatus_GrdEmployee")]/tbody/tr[1]/th[contains(translate(., 'ABCDEFGHIJKLMNOPQRSTUVWXYZ', 'abcdefghijklmnopqrstuvwxyz'), 'employee id')]/preceding-sibling::th)+1]
2018.12.06 04:03:32   info : Finding xpath element on webpage..
2018.12.06 04:03:32   info : Searching for element. Try number 0
2018.12.06 04:03:33   info : element disappeared after trying for 1 times
2018.12.06 04:03:34   info : Current WebDriver Win Count is:: 1
2018.12.06 04:03:34   info : Element found!!
2018.12.06 04:03:34   info : ObjectTag td and ObjectType null
2018.12.06 04:03:34   info : Exp_value ubshk_7dec_1642
2018.12.06 04:03:34   info : Searching for element. Try number 0
2018.12.06 04:03:35   info : element disappeared after trying for 1 times
2018.12.06 04:03:35   info : Actual Valueubshk_7dec_1642
2018.12.06 04:03:35   info : Exp : ubshk_7dec_1642 and act : ubshk_7dec_1642 value matched!!
2018.12.06 04:03:36   info : Current WebDriver Win Count is:: 1
2018.12.06 04:03:36   info : restult status : 1
2018.12.06 04:03:37   info : Test ID TC2 : previous test step/row 30 status is Passed and value of next test step/row is :: 31
2018.12.06 04:03:37   info : 

2018.12.06 04:03:37   info : -------------------- Executing Testcase ID TC2 and test step : 31 ---------------------- 
2018.12.06 04:03:38   info : Current WebDriver Win Count is:: 1
2018.12.06 04:03:38   info : page object present in excel : 1
2018.12.06 04:03:38   info : Under single object handle operation!!
2018.12.06 04:03:38   info : col 6 data :  and col 5 data : Edit_Period
2018.12.06 04:03:38   info : Normal click operation !!
2018.12.06 04:03:38   info : Checking for object in click
2018.12.06 04:03:38   info : Xml obj_repo path C:\Talent_Automation_Framework_Backup\Project_Talent/ObjectRepositories/BenefitAsia2_MercerAdmin/MA_Enrollment.xml
2018.12.06 04:03:38   info : xpath object successfully mapped!!
2018.12.06 04:03:38   info : xpath object contains property value !!
2018.12.06 04:03:38   info : Property name - xpath
2018.12.06 04:03:38   info : Property value - //input[contains(@id,"_btnEditPeriod")]
2018.12.06 04:03:38   info : Finding xpath element on webpage..
2018.12.06 04:03:38   info : Searching for element. Try number 0
2018.12.06 04:03:39   info : element disappeared after trying for 1 times
2018.12.06 04:03:40   info : Current WebDriver Win Count is:: 1
2018.12.06 04:03:40   info : Element found!!
2018.12.06 04:03:40   info : Xml obj_repo path C:\Talent_Automation_Framework_Backup\Project_Talent/ObjectRepositories/BenefitAsia2_MercerAdmin/MA_Enrollment.xml
2018.12.06 04:03:40   info : xpath object successfully mapped!!
2018.12.06 04:03:40   info : xpath object contains property value !!
2018.12.06 04:03:40   info : Property name - xpath
2018.12.06 04:03:40   info : Property value - //input[contains(@id,"_btnEditPeriod")]
2018.12.06 04:03:40   info : Finding xpath element on webpage..
2018.12.06 04:03:40   info : Searching for element. Try number 0
2018.12.06 04:03:41   info : element disappeared after trying for 1 times
2018.12.06 04:03:42   info : Current WebDriver Win Count is:: 1
2018.12.06 04:03:42   info : Element found!!
2018.12.06 04:03:44   info : clicked on Edit_Period
2018.12.06 04:03:45   info : Current WebDriver Win Count is:: 1
2018.12.06 04:03:45   info : restult status : 1
2018.12.06 04:03:45   info : Test ID TC2 : previous test step/row 31 status is Passed and value of next test step/row is :: 32
2018.12.06 04:03:45   info : 

2018.12.06 04:03:45   info : -------------------- Executing Testcase ID TC2 and test step : 32 ---------------------- 
2018.12.06 04:03:47   info : Current WebDriver Win Count is:: 1
2018.12.06 04:03:47   info : page object present in excel : 1
2018.12.06 04:03:47   info : Under single object handle operation!!
2018.12.06 04:03:47   info : col 6 data :  and col 5 data : Submit_Button
2018.12.06 04:03:47   info : Normal click operation !!
2018.12.06 04:03:47   info : Checking for object in click
2018.12.06 04:03:47   info : Xml obj_repo path C:\Talent_Automation_Framework_Backup\Project_Talent/ObjectRepositories/BenefitAsia2_MercerAdmin/MA_Enrollment.xml
2018.12.06 04:03:47   info : xpath object successfully mapped!!
2018.12.06 04:03:47   info : xpath object contains property value !!
2018.12.06 04:03:47   info : Property name - xpath
2018.12.06 04:03:47   info : Property value - //input[contains(@id,"_btnSubmit")]
2018.12.06 04:03:47   info : Finding xpath element on webpage..
2018.12.06 04:03:47   info : Searching for element. Try number 0
2018.12.06 04:03:48   info : element disappeared after trying for 1 times
2018.12.06 04:03:49   info : Current WebDriver Win Count is:: 1
2018.12.06 04:03:49   info : Element found!!
2018.12.06 04:03:49   info : Xml obj_repo path C:\Talent_Automation_Framework_Backup\Project_Talent/ObjectRepositories/BenefitAsia2_MercerAdmin/MA_Enrollment.xml
2018.12.06 04:03:49   info : xpath object successfully mapped!!
2018.12.06 04:03:49   info : xpath object contains property value !!
2018.12.06 04:03:49   info : Property name - xpath
2018.12.06 04:03:49   info : Property value - //input[contains(@id,"_btnSubmit")]
2018.12.06 04:03:49   info : Finding xpath element on webpage..
2018.12.06 04:03:49   info : Searching for element. Try number 0
2018.12.06 04:03:50   info : element disappeared after trying for 1 times
2018.12.06 04:03:51   info : Current WebDriver Win Count is:: 1
2018.12.06 04:03:51   info : Element found!!
2018.12.06 04:03:57   info : clicked on Submit_Button
2018.12.06 04:03:58   info : Current WebDriver Win Count is:: 1
2018.12.06 04:03:58   info : restult status : 1
2018.12.06 04:03:58   info : Test ID TC2 : previous test step/row 32 status is Passed and value of next test step/row is :: 33
2018.12.06 04:03:58   info : 

2018.12.06 04:03:58   info : -------------------- Executing Testcase ID TC2 and test step : 33 ---------------------- 
2018.12.06 04:04:00   info : Current WebDriver Win Count is:: 1
2018.12.06 04:04:00   info : Xml obj_repo path C:\Talent_Automation_Framework_Backup\Project_Talent/ObjectRepositories/BenefitAsia2_MercerAdmin/MA_LoginLogout.xml
2018.12.06 04:04:00   info : Title contains null value in xml!!
2018.12.06 04:04:00   info : Window title View Enrollment Status
2018.12.06 04:04:00   info : Xml obj_repo path C:\Talent_Automation_Framework_Backup\Project_Talent/ObjectRepositories/BenefitAsia2_MercerAdmin/MA_LoginLogout.xml
2018.12.06 04:04:00   info : xpath object successfully mapped!!
2018.12.06 04:04:00   info : xpath object contains property value !!
2018.12.06 04:04:00   info : Property name - xpath
2018.12.06 04:04:00   info : Property value - //a[contains(@id,"_cmdLogin")]
2018.12.06 04:04:00   info : Finding xpath element on webpage..
2018.12.06 04:04:00   info : Searching for element. Try number 0
2018.12.06 04:04:01   info : element disappeared after trying for 1 times
2018.12.06 04:04:01   info : Element found!!
2018.12.06 04:04:01   info : Desired window is activated!!
2018.12.06 04:04:01   info : page object present in excel : 1
2018.12.06 04:04:01   info : Under single object handle operation!!
2018.12.06 04:04:01   info : col 6 data :  and col 5 data : Logout
2018.12.06 04:04:01   info : Normal click operation !!
2018.12.06 04:04:01   info : Checking for object in click
2018.12.06 04:04:01   info : Xml obj_repo path C:\Talent_Automation_Framework_Backup\Project_Talent/ObjectRepositories/BenefitAsia2_MercerAdmin/MA_LoginLogout.xml
2018.12.06 04:04:01   info : xpath object successfully mapped!!
2018.12.06 04:04:01   info : xpath object contains property value !!
2018.12.06 04:04:01   info : Property name - xpath
2018.12.06 04:04:01   info : Property value - //a[contains(@id,"_cmdLogin")]
2018.12.06 04:04:01   info : Finding xpath element on webpage..
2018.12.06 04:04:01   info : Searching for element. Try number 0
2018.12.06 04:04:02   info : element disappeared after trying for 1 times
2018.12.06 04:04:02   info : Element found!!
2018.12.06 04:04:02   info : Xml obj_repo path C:\Talent_Automation_Framework_Backup\Project_Talent/ObjectRepositories/BenefitAsia2_MercerAdmin/MA_LoginLogout.xml
2018.12.06 04:04:02   info : xpath object successfully mapped!!
2018.12.06 04:04:02   info : xpath object contains property value !!
2018.12.06 04:04:02   info : Property name - xpath
2018.12.06 04:04:02   info : Property value - //a[contains(@id,"_cmdLogin")]
2018.12.06 04:04:02   info : Finding xpath element on webpage..
2018.12.06 04:04:02   info : Searching for element. Try number 0
2018.12.06 04:04:03   info : element disappeared after trying for 1 times
2018.12.06 04:04:03   info : Element found!!
2018.12.06 04:04:05   info : clicked on Logout
2018.12.06 04:04:06   info : Current WebDriver Win Count is:: 1
2018.12.06 04:04:06   info : restult status : 1
2018.12.06 04:04:06   info : Test ID TC2 : previous test step/row 33 status is Passed and value of next test step/row is :: 34
2018.12.06 04:04:06   info : 

2018.12.06 04:04:06   info : -------------------- Executing Testcase ID TC2 and test step : 34 ---------------------- 
2018.12.06 04:04:08   info : Current WebDriver Win Count is:: 1
2018.12.06 04:04:08   info : not doing anything!!
2018.12.06 04:04:08   info : Navigating to another url..
2018.12.06 04:04:19   info : Current WebDriver Win Count is:: 1
2018.12.06 04:04:20   info : restult status : 1
2018.12.06 04:04:20   info : Test ID TC2 : previous test step/row 34 status is Passed and value of next test step/row is :: 35
2018.12.06 04:04:20   info : 

2018.12.06 04:04:20   info : -------------------- Executing Testcase ID TC2 and test step : 35 ---------------------- 
2018.12.06 04:04:22   info : Current WebDriver Win Count is:: 1
2018.12.06 04:04:22   info : Xml obj_repo path C:\Talent_Automation_Framework_Backup\Project_Talent/ObjectRepositories/BenefitAsia2_EE/EE_UBSHK_LoginLogout.xml
2018.12.06 04:04:22   info : Title contains null value in xml!!
2018.12.06 04:04:22   info : Window title User Login
2018.12.06 04:04:22   info : Xml obj_repo path C:\Talent_Automation_Framework_Backup\Project_Talent/ObjectRepositories/BenefitAsia2_EE/EE_UBSHK_LoginLogout.xml
2018.12.06 04:04:22   info : xpath object successfully mapped!!
2018.12.06 04:04:22   info : xpath object contains property value !!
2018.12.06 04:04:22   info : Property name - xpath
2018.12.06 04:04:22   info : Property value - //input[contains(@id,"_txtUsername")]
2018.12.06 04:04:22   info : Finding xpath element on webpage..
2018.12.06 04:04:22   info : Searching for element. Try number 0
2018.12.06 04:04:23   info : element disappeared after trying for 1 times
2018.12.06 04:04:24   info : Current WebDriver Win Count is:: 1
2018.12.06 04:04:24   info : Element found!!
2018.12.06 04:04:24   info : Desired window is activated!!
2018.12.06 04:04:24   info : FiledName UserName and FiledValue ubshk_7dec_1642
2018.12.06 04:04:24   info : FiledName Password and FiledValue Password123$
2018.12.06 04:04:24   info : Total static wait time 3
2018.12.06 04:04:27   info : Xml obj_repo path C:\Talent_Automation_Framework_Backup\Project_Talent/ObjectRepositories/BenefitAsia2_EE/EE_UBSHK_LoginLogout.xml
2018.12.06 04:04:27   info : xpath object successfully mapped!!
2018.12.06 04:04:27   info : xpath object contains property value !!
2018.12.06 04:04:27   info : Property name - xpath
2018.12.06 04:04:27   info : Property value - //input[contains(@id,"_txtUsername")]
2018.12.06 04:04:27   info : Finding xpath element on webpage..
2018.12.06 04:04:27   info : Searching for element. Try number 0
2018.12.06 04:04:28   info : element disappeared after trying for 1 times
2018.12.06 04:04:29   info : Current WebDriver Win Count is:: 1
2018.12.06 04:04:29   info : Element found!!
2018.12.06 04:04:29   info : ObjectTag input and ObjectType text
2018.12.06 04:04:29   info : Enter data operation
2018.12.06 04:04:30   info : Xml obj_repo path C:\Talent_Automation_Framework_Backup\Project_Talent/ObjectRepositories/BenefitAsia2_EE/EE_UBSHK_LoginLogout.xml
2018.12.06 04:04:30   info : xpath object successfully mapped!!
2018.12.06 04:04:30   info : xpath object contains property value !!
2018.12.06 04:04:30   info : Property name - xpath
2018.12.06 04:04:30   info : Property value - //input[contains(@id,"_txtUsername")]
2018.12.06 04:04:30   info : Finding xpath element on webpage..
2018.12.06 04:04:30   info : Searching for element. Try number 0
2018.12.06 04:04:31   info : element disappeared after trying for 1 times
2018.12.06 04:04:32   info : Current WebDriver Win Count is:: 1
2018.12.06 04:04:32   info : Element found!!
2018.12.06 04:04:32   info : Xml obj_repo path C:\Talent_Automation_Framework_Backup\Project_Talent/ObjectRepositories/BenefitAsia2_EE/EE_UBSHK_LoginLogout.xml
2018.12.06 04:04:32   info : xpath object successfully mapped!!
2018.12.06 04:04:32   info : xpath object contains property value !!
2018.12.06 04:04:32   info : Property name - xpath
2018.12.06 04:04:32   info : Property value - //input[contains(@id,"_txtUsername")]
2018.12.06 04:04:32   info : Finding xpath element on webpage..
2018.12.06 04:04:32   info : Searching for element. Try number 0
2018.12.06 04:04:33   info : element disappeared after trying for 1 times
2018.12.06 04:04:34   info : Current WebDriver Win Count is:: 1
2018.12.06 04:04:34   info : Element found!!
2018.12.06 04:04:34   info : ValueToEnter ubshk_7dec_1642
2018.12.06 04:04:34   info : Entered value is ubshk_7dec_1642
2018.12.06 04:04:34   info : Attribute entered value ubshk_7dec_1642
2018.12.06 04:04:34   info : Total static wait time 3
2018.12.06 04:04:37   info : Xml obj_repo path C:\Talent_Automation_Framework_Backup\Project_Talent/ObjectRepositories/BenefitAsia2_EE/EE_UBSHK_LoginLogout.xml
2018.12.06 04:04:37   info : xpath object successfully mapped!!
2018.12.06 04:04:37   info : xpath object contains property value !!
2018.12.06 04:04:37   info : Property name - xpath
2018.12.06 04:04:37   info : Property value - //input[contains(@id,"_txtPassword")]
2018.12.06 04:04:37   info : Finding xpath element on webpage..
2018.12.06 04:04:37   info : Searching for element. Try number 0
2018.12.06 04:04:38   info : element disappeared after trying for 1 times
2018.12.06 04:04:39   info : Current WebDriver Win Count is:: 1
2018.12.06 04:04:39   info : Element found!!
2018.12.06 04:04:39   info : ObjectTag input and ObjectType password
2018.12.06 04:04:39   info : Enter data operation
2018.12.06 04:04:39   info : Xml obj_repo path C:\Talent_Automation_Framework_Backup\Project_Talent/ObjectRepositories/BenefitAsia2_EE/EE_UBSHK_LoginLogout.xml
2018.12.06 04:04:39   info : xpath object successfully mapped!!
2018.12.06 04:04:39   info : xpath object contains property value !!
2018.12.06 04:04:39   info : Property name - xpath
2018.12.06 04:04:39   info : Property value - //input[contains(@id,"_txtPassword")]
2018.12.06 04:04:39   info : Finding xpath element on webpage..
2018.12.06 04:04:39   info : Searching for element. Try number 0
2018.12.06 04:04:40   info : element disappeared after trying for 1 times
2018.12.06 04:04:41   info : Current WebDriver Win Count is:: 1
2018.12.06 04:04:41   info : Element found!!
2018.12.06 04:04:41   info : ValueToEnter Password123$
2018.12.06 04:04:41   info : Entered value is Password123$
2018.12.06 04:04:41   info : Attribute entered value Password123$
2018.12.06 04:05:03   info : Checking for object in click
2018.12.06 04:05:03   info : Xml obj_repo path C:\Talent_Automation_Framework_Backup\Project_Talent/ObjectRepositories/BenefitAsia2_EE/EE_UBSHK_LoginLogout.xml
2018.12.06 04:05:03   info : xpath object successfully mapped!!
2018.12.06 04:05:03   info : xpath object contains property value !!
2018.12.06 04:05:03   info : Property name - xpath
2018.12.06 04:05:03   info : Property value - //input[contains(@id,"_cmdLogin")]
2018.12.06 04:05:03   info : Finding xpath element on webpage..
2018.12.06 04:05:03   info : Searching for element. Try number 0
2018.12.06 04:05:04   info : element disappeared after trying for 1 times
2018.12.06 04:05:05   info : Current WebDriver Win Count is:: 1
2018.12.06 04:05:05   info : Element found!!
2018.12.06 04:05:05   info : Xml obj_repo path C:\Talent_Automation_Framework_Backup\Project_Talent/ObjectRepositories/BenefitAsia2_EE/EE_UBSHK_LoginLogout.xml
2018.12.06 04:05:05   info : xpath object successfully mapped!!
2018.12.06 04:05:05   info : xpath object contains property value !!
2018.12.06 04:05:05   info : Property name - xpath
2018.12.06 04:05:05   info : Property value - //input[contains(@id,"_cmdLogin")]
2018.12.06 04:05:05   info : Finding xpath element on webpage..
2018.12.06 04:05:05   info : Searching for element. Try number 0
2018.12.06 04:05:06   info : element disappeared after trying for 1 times
2018.12.06 04:05:07   info : Current WebDriver Win Count is:: 1
2018.12.06 04:05:07   info : Element found!!
2018.12.06 04:05:10   info : clicked on LoginButton
