2018.11.12 03:34:39   info : Selenium version :: 2.48.2
2018.11.12 03:34:39   info : Download fodler path created!!
2018.11.12 03:34:39   info : date_time_down_folder C:\Talent_Automation_Framework_Backup\Project_Talent\Downloads\2018_11_12\time_15_34_39\
2018.11.12 03:34:40   info : Total number of applications :: 4
2018.11.12 03:34:40   info : Application Name - Simpli_Enroll
2018.11.12 03:34:40   info : TestData_Sheet path:: C:\Talent_Automation_Framework_Backup\Project_Talent/TestCases/Simpli_Enroll.xlsx
2018.11.12 03:34:40   info : CSV updating and creating dump....
2018.11.12 03:34:41   info : Sheet name: TestCaseScheduler
2018.11.12 03:34:41   info : Sheet name: Test Case
2018.11.12 03:34:41   info : Simpli_Enroll sheetname found!!
2018.11.12 03:34:41   info : Total row 1977
2018.11.12 03:34:41   info : After row validation for blank or null!!
2018.11.12 03:34:41   info : Total final row 1976
2018.11.12 03:34:42   info : Total number of test cases to be executed :: 1
2018.11.12 03:34:42   info : PrevTestID - null == null && row 1<= 1976
2018.11.12 03:34:42   info : Test ID TC1 : previous test step/row 0 status is Passed and value of next test step/row is :: 1
2018.11.12 03:34:42   info : 

2018.11.12 03:34:42   info : -------------------- Executing Testcase ID TC1 and test step : 1 ---------------------- 
2018.11.12 03:34:43   info : please wait.. browser getting open !!
2018.11.12 03:34:56   info : Opening Application..
2018.11.12 03:35:03   info : Current WebDriver Win Count is:: 1
2018.11.12 03:35:03   info : restult status : 1
2018.11.12 03:35:04   info : Test ID TC1 : previous test step/row 1 status is Passed and value of next test step/row is :: 2
2018.11.12 03:35:04   info : 

2018.11.12 03:35:04   info : -------------------- Executing Testcase ID TC1 and test step : 2 ---------------------- 
2018.11.12 03:35:05   info : Current WebDriver Win Count is:: 1
2018.11.12 03:35:05   info : Xml obj_repo path C:\Talent_Automation_Framework_Backup\Project_Talent/ObjectRepositories/BenefitAsia2_MercerAdmin/MA_Home.xml
2018.11.12 03:35:05   info : Title in xml file - Home
2018.11.12 03:35:05   warn : Window is not switched, now trying based on element!!
2018.11.12 03:35:05   info : Window title Mercer Account Center
2018.11.12 03:35:05   info : Xml obj_repo path C:\Talent_Automation_Framework_Backup\Project_Talent/ObjectRepositories/BenefitAsia2_MercerAdmin/MA_Home.xml
2018.11.12 03:35:05   info : xpath object successfully mapped!!
2018.11.12 03:35:05   info : xpath object contains property value !!
2018.11.12 03:35:05   info : Property name - xpath
2018.11.12 03:35:05   info : Property value - //input[contains(@id,"ContentPlaceHolder1_TextBox1")]
2018.11.12 03:35:05   info : Finding xpath element on webpage..
2018.11.12 03:35:05   info : Searching for element. Try number 0
2018.11.12 03:35:06   info : element disappeared after trying for 1 times
2018.11.12 03:35:06   info : Element found!!
2018.11.12 03:35:06   info : Desired window is activated!!
2018.11.12 03:35:06   info : Total static wait time 3
2018.11.12 03:35:09   info : Xml obj_repo path C:\Talent_Automation_Framework_Backup\Project_Talent/ObjectRepositories/BenefitAsia2_MercerAdmin/MA_Home.xml
2018.11.12 03:35:09   info : xpath object successfully mapped!!
2018.11.12 03:35:09   info : xpath object contains property value !!
2018.11.12 03:35:09   info : Property name - xpath
2018.11.12 03:35:09   info : Property value - //input[contains(@id,"ContentPlaceHolder1_TextBox1")]
2018.11.12 03:35:09   info : Finding xpath element on webpage..
2018.11.12 03:35:09   info : Searching for element. Try number 0
2018.11.12 03:35:10   info : element disappeared after trying for 1 times
2018.11.12 03:35:10   info : Element found!!
2018.11.12 03:35:10   info : ObjectTag input and ObjectType text
2018.11.12 03:35:10   info : Enter data operation
2018.11.12 03:35:11   info : Xml obj_repo path C:\Talent_Automation_Framework_Backup\Project_Talent/ObjectRepositories/BenefitAsia2_MercerAdmin/MA_Home.xml
2018.11.12 03:35:11   info : xpath object successfully mapped!!
2018.11.12 03:35:11   info : xpath object contains property value !!
2018.11.12 03:35:11   info : Property name - xpath
2018.11.12 03:35:11   info : Property value - //input[contains(@id,"ContentPlaceHolder1_TextBox1")]
2018.11.12 03:35:11   info : Finding xpath element on webpage..
2018.11.12 03:35:11   info : Searching for element. Try number 0
2018.11.12 03:35:12   info : element disappeared after trying for 1 times
2018.11.12 03:35:12   info : Element found!!
2018.11.12 03:35:12   info : Xml obj_repo path C:\Talent_Automation_Framework_Backup\Project_Talent/ObjectRepositories/BenefitAsia2_MercerAdmin/MA_Home.xml
2018.11.12 03:35:12   info : xpath object successfully mapped!!
2018.11.12 03:35:12   info : xpath object contains property value !!
2018.11.12 03:35:12   info : Property name - xpath
2018.11.12 03:35:12   info : Property value - //input[contains(@id,"ContentPlaceHolder1_TextBox1")]
2018.11.12 03:35:12   info : Finding xpath element on webpage..
2018.11.12 03:35:12   info : Searching for element. Try number 0
2018.11.12 03:35:13   info : element disappeared after trying for 1 times
2018.11.12 03:35:13   info : Element found!!
2018.11.12 03:35:13   info : ValueToEnter ashish.choudhary@mercer.com
2018.11.12 03:35:14   info : Entered value is ashish.choudhary@mercer.com
2018.11.12 03:35:14   info : Attribute entered value ashish.choudhary@mercer.com
2018.11.12 03:35:15   info : Current WebDriver Win Count is:: 1
2018.11.12 03:35:15   info : restult status : 1
2018.11.12 03:35:15   info : Test ID TC1 : previous test step/row 2 status is Passed and value of next test step/row is :: 3
2018.11.12 03:35:15   info : 

2018.11.12 03:35:15   info : -------------------- Executing Testcase ID TC1 and test step : 3 ---------------------- 
2018.11.12 03:35:17   info : Current WebDriver Win Count is:: 1
2018.11.12 03:35:17   info : page object present in excel : 1
2018.11.12 03:35:17   info : Under single object handle operation!!
2018.11.12 03:35:17   info : col 6 data :  and col 5 data : SSO_Next_Button
2018.11.12 03:35:17   info : Normal click operation !!
2018.11.12 03:35:17   info : Checking for object in click
2018.11.12 03:35:17   info : Xml obj_repo path C:\Talent_Automation_Framework_Backup\Project_Talent/ObjectRepositories/BenefitAsia2_MercerAdmin/MA_Home.xml
2018.11.12 03:35:17   info : xpath object successfully mapped!!
2018.11.12 03:35:17   info : xpath object contains property value !!
2018.11.12 03:35:17   info : Property name - xpath
2018.11.12 03:35:17   info : Property value - //input[contains(@id,"ContentPlaceHolder1_PassiveSignInButton")]
2018.11.12 03:35:17   info : Finding xpath element on webpage..
2018.11.12 03:35:17   info : Searching for element. Try number 0
2018.11.12 03:35:18   info : element disappeared after trying for 1 times
2018.11.12 03:35:18   info : Element found!!
2018.11.12 03:35:18   info : Xml obj_repo path C:\Talent_Automation_Framework_Backup\Project_Talent/ObjectRepositories/BenefitAsia2_MercerAdmin/MA_Home.xml
2018.11.12 03:35:18   info : xpath object successfully mapped!!
2018.11.12 03:35:18   info : xpath object contains property value !!
2018.11.12 03:35:18   info : Property name - xpath
2018.11.12 03:35:18   info : Property value - //input[contains(@id,"ContentPlaceHolder1_PassiveSignInButton")]
2018.11.12 03:35:18   info : Finding xpath element on webpage..
2018.11.12 03:35:18   info : Searching for element. Try number 0
2018.11.12 03:35:19   info : element disappeared after trying for 1 times
2018.11.12 03:35:19   info : Element found!!
2018.11.12 03:35:23   info : clicked on SSO_Next_Button
2018.11.12 03:35:24   info : Current WebDriver Win Count is:: 1
2018.11.12 03:35:30   info : restult status : 1
2018.11.12 03:35:30   info : Test ID TC1 : previous test step/row 3 status is Passed and value of next test step/row is :: 4
2018.11.12 03:35:30   info : 

2018.11.12 03:35:30   info : -------------------- Executing Testcase ID TC1 and test step : 4 ---------------------- 
2018.11.12 03:35:31   info : Current WebDriver Win Count is:: 1
2018.11.12 03:35:32   info : not doing anything!!
2018.11.12 03:35:32   info : Navigating to another url..
2018.11.12 03:35:36   info : Current WebDriver Win Count is:: 1
2018.11.12 03:35:36   info : restult status : 1
2018.11.12 03:35:36   info : Test ID TC1 : previous test step/row 4 status is Passed and value of next test step/row is :: 5
2018.11.12 03:35:36   info : 

2018.11.12 03:35:36   info : -------------------- Executing Testcase ID TC1 and test step : 5 ---------------------- 
2018.11.12 03:35:38   info : Current WebDriver Win Count is:: 1
2018.11.12 03:35:38   info : Xml obj_repo path C:\Talent_Automation_Framework_Backup\Project_Talent/ObjectRepositories/BenefitAsia2_MercerAdmin/MA_UploadEmployeeData.xml
2018.11.12 03:35:38   info : xpath object successfully mapped!!
2018.11.12 03:35:38   info : xpath object contains property value !!
2018.11.12 03:35:38   info : Property name - xpath
2018.11.12 03:35:38   info : Property value - //input[contains(@id,"_fupdDataFile")]
2018.11.12 03:35:38   info : Finding xpath element on webpage..
2018.11.12 03:35:38   info : Searching for element. Try number 0
2018.11.12 03:35:39   info : element disappeared after trying for 1 times
2018.11.12 03:35:39   info : Element found!!
2018.11.12 03:35:40   info : Current WebDriver Win Count is:: 1
2018.11.12 03:35:40   info : restult status : 1
2018.11.12 03:35:40   info : Test ID TC1 : previous test step/row 5 status is Passed and value of next test step/row is :: 6
2018.11.12 03:35:40   info : 

2018.11.12 03:35:40   info : -------------------- Executing Testcase ID TC1 and test step : 6 ---------------------- 
2018.11.12 03:35:42   info : Current WebDriver Win Count is:: 1
2018.11.12 03:35:42   info : page object present in excel : 1
2018.11.12 03:35:42   info : Under single object handle operation!!
2018.11.12 03:35:42   info : col 6 data : alert_accept_multiple and col 5 data : Start_Upload
2018.11.12 03:35:42   info : Click case operation !!
2018.11.12 03:35:42   info : oprnm alert_accept_multiple
2018.11.12 03:35:42   info : Xml obj_repo path C:\Talent_Automation_Framework_Backup\Project_Talent/ObjectRepositories/BenefitAsia2_MercerAdmin/MA_UploadEmployeeData.xml
2018.11.12 03:35:42   info : xpath object successfully mapped!!
2018.11.12 03:35:42   info : xpath object contains property value !!
2018.11.12 03:35:42   info : Property name - xpath
2018.11.12 03:35:42   info : Property value - //input[contains(@id,"_btnStartUpload")]
2018.11.12 03:35:42   info : Finding xpath element on webpage..
2018.11.12 03:35:42   info : Searching for element. Try number 0
2018.11.12 03:35:43   info : element disappeared after trying for 1 times
2018.11.12 03:35:43   info : Element found!!
2018.11.12 03:35:43   info : click alert_accept_multiple operation perfomred!!
2018.11.12 03:35:49   info : You are about to begin the data upload.
By Clicking "OK" the system will Proceed with the upload and it is not interruptable during the processing.
Do you want to proceed?
2018.11.12 03:36:01   info : Alert is not present
2018.11.12 03:36:02   info : Current WebDriver Win Count is:: 1
2018.11.12 03:36:02   info : restult status : 1
2018.11.12 03:36:02   info : Test ID TC1 : previous test step/row 6 status is Passed and value of next test step/row is :: 7
2018.11.12 03:36:02   info : 

2018.11.12 03:36:02   info : -------------------- Executing Testcase ID TC1 and test step : 7 ---------------------- 
2018.11.12 03:36:04   info : Current WebDriver Win Count is:: 1
2018.11.12 03:36:04   info : page object present in excel : 1
2018.11.12 03:36:04   info : Under single object handle operation!!
2018.11.12 03:36:04   info : col 6 data :  and col 5 data : Submit
2018.11.12 03:36:04   info : Normal click operation !!
2018.11.12 03:36:04   info : Checking for object in click
2018.11.12 03:36:04   info : Xml obj_repo path C:\Talent_Automation_Framework_Backup\Project_Talent/ObjectRepositories/BenefitAsia2_MercerAdmin/MA_UploadEmployeeData.xml
2018.11.12 03:36:04   info : xpath object successfully mapped!!
2018.11.12 03:36:04   info : xpath object contains property value !!
2018.11.12 03:36:04   info : Property name - xpath
2018.11.12 03:36:04   info : Property value - //input[contains(@id,"_EmployeeDataNew_btnSubmit")]
2018.11.12 03:36:04   info : Finding xpath element on webpage..
2018.11.12 03:36:04   info : Searching for element. Try number 0
2018.11.12 03:36:05   info : element disappeared after trying for 1 times
2018.11.12 03:36:05   info : Element found!!
2018.11.12 03:36:05   info : Xml obj_repo path C:\Talent_Automation_Framework_Backup\Project_Talent/ObjectRepositories/BenefitAsia2_MercerAdmin/MA_UploadEmployeeData.xml
2018.11.12 03:36:05   info : xpath object successfully mapped!!
2018.11.12 03:36:05   info : xpath object contains property value !!
2018.11.12 03:36:05   info : Property name - xpath
2018.11.12 03:36:05   info : Property value - //input[contains(@id,"_EmployeeDataNew_btnSubmit")]
2018.11.12 03:36:05   info : Finding xpath element on webpage..
2018.11.12 03:36:05   info : Searching for element. Try number 0
2018.11.12 03:36:06   info : element disappeared after trying for 1 times
2018.11.12 03:36:06   info : Element found!!
2018.11.12 03:36:09   info : clicked on Submit
2018.11.12 03:36:10   info : Current WebDriver Win Count is:: 1
2018.11.12 03:36:10   info : restult status : 1
2018.11.12 03:36:10   info : Test ID TC1 : previous test step/row 7 status is Passed and value of next test step/row is :: 8
2018.11.12 03:36:10   info : 

2018.11.12 03:36:10   info : -------------------- Executing Testcase ID TC1 and test step : 8 ---------------------- 
2018.11.12 03:36:11   info : Current WebDriver Win Count is:: 1
2018.11.12 03:36:11   info : page object present in excel : 1
2018.11.12 03:36:11   info : Under single object handle operation!!
2018.11.12 03:36:11   info : col 6 data :  and col 5 data : Close
2018.11.12 03:36:11   info : Normal click operation !!
2018.11.12 03:36:11   info : Checking for object in click
2018.11.12 03:36:11   info : Xml obj_repo path C:\Talent_Automation_Framework_Backup\Project_Talent/ObjectRepositories/BenefitAsia2_MercerAdmin/MA_UploadEmployeeData.xml
2018.11.12 03:36:11   info : xpath object successfully mapped!!
2018.11.12 03:36:11   info : xpath object contains property value !!
2018.11.12 03:36:11   info : Property name - xpath
2018.11.12 03:36:11   info : Property value - //input[contains(@id,"_btnClose")]
2018.11.12 03:36:11   info : Finding xpath element on webpage..
2018.11.12 03:36:11   info : Searching for element. Try number 0
2018.11.12 03:36:12   info : element disappeared after trying for 1 times
2018.11.12 03:36:12   info : Element found!!
2018.11.12 03:36:12   info : Xml obj_repo path C:\Talent_Automation_Framework_Backup\Project_Talent/ObjectRepositories/BenefitAsia2_MercerAdmin/MA_UploadEmployeeData.xml
2018.11.12 03:36:12   info : xpath object successfully mapped!!
2018.11.12 03:36:12   info : xpath object contains property value !!
2018.11.12 03:36:12   info : Property name - xpath
2018.11.12 03:36:13   info : Property value - //input[contains(@id,"_btnClose")]
2018.11.12 03:36:13   info : Finding xpath element on webpage..
2018.11.12 03:36:13   info : Searching for element. Try number 0
2018.11.12 03:36:14   info : element disappeared after trying for 1 times
2018.11.12 03:36:14   info : Element found!!
2018.11.12 03:36:15   info : clicked on Close
2018.11.12 03:36:16   info : Current WebDriver Win Count is:: 1
2018.11.12 03:36:16   info : restult status : 1
2018.11.12 03:36:16   info : Test ID TC1 : previous test step/row 8 status is Passed and value of next test step/row is :: 9
2018.11.12 03:36:16   info : 

2018.11.12 03:36:16   info : -------------------- Executing Testcase ID TC1 and test step : 9 ---------------------- 
2018.11.12 03:36:17   info : Current WebDriver Win Count is:: 1
2018.11.12 03:36:17   info : not doing anything!!
2018.11.12 03:36:17   info : Navigating to another url..
2018.11.12 03:36:21   info : Current WebDriver Win Count is:: 1
2018.11.12 03:36:22   info : restult status : 1
2018.11.12 03:36:22   info : Test ID TC1 : previous test step/row 9 status is Passed and value of next test step/row is :: 10
2018.11.12 03:36:22   info : 

2018.11.12 03:36:22   info : -------------------- Executing Testcase ID TC1 and test step : 10 ---------------------- 
2018.11.12 03:36:23   info : Current WebDriver Win Count is:: 1
2018.11.12 03:36:23   info : Xml obj_repo path C:\Talent_Automation_Framework_Backup\Project_Talent/ObjectRepositories/BenefitAsia2_MercerAdmin/MA_UploadDependentData.xml
2018.11.12 03:36:23   info : xpath object successfully mapped!!
2018.11.12 03:36:23   info : xpath object contains property value !!
2018.11.12 03:36:23   info : Property name - xpath
2018.11.12 03:36:23   info : Property value - //input[contains(@id,"_fupdDataFile")]
2018.11.12 03:36:23   info : Finding xpath element on webpage..
2018.11.12 03:36:23   info : Searching for element. Try number 0
2018.11.12 03:36:24   info : element disappeared after trying for 1 times
2018.11.12 03:36:24   info : Element found!!
2018.11.12 03:36:25   info : Current WebDriver Win Count is:: 1
2018.11.12 03:36:25   info : restult status : 1
2018.11.12 03:36:25   info : Test ID TC1 : previous test step/row 10 status is Passed and value of next test step/row is :: 11
2018.11.12 03:36:25   info : 

2018.11.12 03:36:25   info : -------------------- Executing Testcase ID TC1 and test step : 11 ---------------------- 
2018.11.12 03:36:27   info : Current WebDriver Win Count is:: 1
2018.11.12 03:36:27   info : page object present in excel : 1
2018.11.12 03:36:27   info : Under single object handle operation!!
2018.11.12 03:36:27   info : col 6 data : alert_accept_multiple and col 5 data : Start_Upload
2018.11.12 03:36:27   info : Click case operation !!
2018.11.12 03:36:27   info : oprnm alert_accept_multiple
2018.11.12 03:36:27   info : Xml obj_repo path C:\Talent_Automation_Framework_Backup\Project_Talent/ObjectRepositories/BenefitAsia2_MercerAdmin/MA_UploadDependentData.xml
2018.11.12 03:36:27   info : xpath object successfully mapped!!
2018.11.12 03:36:27   info : xpath object contains property value !!
2018.11.12 03:36:27   info : Property name - xpath
2018.11.12 03:36:27   info : Property value - //input[contains(@id,"_btnStartUpload")]
2018.11.12 03:36:27   info : Finding xpath element on webpage..
2018.11.12 03:36:27   info : Searching for element. Try number 0
2018.11.12 03:36:28   info : element disappeared after trying for 1 times
2018.11.12 03:36:28   info : Element found!!
2018.11.12 03:36:28   info : click alert_accept_multiple operation perfomred!!
2018.11.12 03:36:34   info : You are Start to begin the data upload.By Clicking yes

 the system will Proceed and not interruptable

 in the middle of processing.Do you want to proceed? 
2018.11.12 03:36:46   info : Alert is not present
2018.11.12 03:36:47   info : Current WebDriver Win Count is:: 1
2018.11.12 03:36:47   info : restult status : 1
2018.11.12 03:36:47   info : Test ID TC1 : previous test step/row 11 status is Passed and value of next test step/row is :: 12
2018.11.12 03:36:47   info : 

2018.11.12 03:36:47   info : -------------------- Executing Testcase ID TC1 and test step : 12 ---------------------- 
2018.11.12 03:36:49   info : Current WebDriver Win Count is:: 1
2018.11.12 03:36:49   info : page object present in excel : 1
2018.11.12 03:36:49   info : Under single object handle operation!!
2018.11.12 03:36:49   info : col 6 data :  and col 5 data : Submit
2018.11.12 03:36:49   info : Normal click operation !!
2018.11.12 03:36:49   info : Checking for object in click
2018.11.12 03:36:49   info : Xml obj_repo path C:\Talent_Automation_Framework_Backup\Project_Talent/ObjectRepositories/BenefitAsia2_MercerAdmin/MA_UploadDependentData.xml
2018.11.12 03:36:49   info : xpath object successfully mapped!!
2018.11.12 03:36:49   info : xpath object contains property value !!
2018.11.12 03:36:49   info : Property name - xpath
2018.11.12 03:36:49   info : Property value - //input[contains(@id,"DataNew_btnSubmit")]
2018.11.12 03:36:49   info : Finding xpath element on webpage..
2018.11.12 03:36:49   info : Searching for element. Try number 0
2018.11.12 03:36:50   info : element disappeared after trying for 1 times
2018.11.12 03:36:50   info : Element found!!
2018.11.12 03:36:50   info : Xml obj_repo path C:\Talent_Automation_Framework_Backup\Project_Talent/ObjectRepositories/BenefitAsia2_MercerAdmin/MA_UploadDependentData.xml
2018.11.12 03:36:50   info : xpath object successfully mapped!!
2018.11.12 03:36:50   info : xpath object contains property value !!
2018.11.12 03:36:50   info : Property name - xpath
2018.11.12 03:36:50   info : Property value - //input[contains(@id,"DataNew_btnSubmit")]
2018.11.12 03:36:50   info : Finding xpath element on webpage..
2018.11.12 03:36:50   info : Searching for element. Try number 0
2018.11.12 03:36:51   info : element disappeared after trying for 1 times
2018.11.12 03:36:51   info : Element found!!
2018.11.12 03:36:52   info : clicked on Submit
2018.11.12 03:36:53   info : Current WebDriver Win Count is:: 1
2018.11.12 03:36:53   info : restult status : 1
2018.11.12 03:36:53   info : Test ID TC1 : previous test step/row 12 status is Passed and value of next test step/row is :: 13
2018.11.12 03:36:53   info : 

2018.11.12 03:36:53   info : -------------------- Executing Testcase ID TC1 and test step : 13 ---------------------- 
2018.11.12 03:36:55   info : Current WebDriver Win Count is:: 1
2018.11.12 03:36:55   info : page object present in excel : 1
2018.11.12 03:36:55   info : Under single object handle operation!!
2018.11.12 03:36:55   info : col 6 data :  and col 5 data : Close
2018.11.12 03:36:55   info : Normal click operation !!
2018.11.12 03:36:55   info : Checking for object in click
2018.11.12 03:36:55   info : Xml obj_repo path C:\Talent_Automation_Framework_Backup\Project_Talent/ObjectRepositories/BenefitAsia2_MercerAdmin/MA_UploadDependentData.xml
2018.11.12 03:36:55   info : xpath object successfully mapped!!
2018.11.12 03:36:55   info : xpath object contains property value !!
2018.11.12 03:36:55   info : Property name - xpath
2018.11.12 03:36:55   info : Property value - //input[contains(@id,"_btnClose")]
2018.11.12 03:36:55   info : Finding xpath element on webpage..
2018.11.12 03:36:55   info : Searching for element. Try number 0
2018.11.12 03:36:56   info : element disappeared after trying for 1 times
2018.11.12 03:36:56   info : Element found!!
2018.11.12 03:36:56   info : Xml obj_repo path C:\Talent_Automation_Framework_Backup\Project_Talent/ObjectRepositories/BenefitAsia2_MercerAdmin/MA_UploadDependentData.xml
2018.11.12 03:36:56   info : xpath object successfully mapped!!
2018.11.12 03:36:56   info : xpath object contains property value !!
2018.11.12 03:36:56   info : Property name - xpath
2018.11.12 03:36:56   info : Property value - //input[contains(@id,"_btnClose")]
2018.11.12 03:36:56   info : Finding xpath element on webpage..
2018.11.12 03:36:56   info : Searching for element. Try number 0
2018.11.12 03:36:57   info : element disappeared after trying for 1 times
2018.11.12 03:36:57   info : Element found!!
2018.11.12 03:36:59   info : clicked on Close
2018.11.12 03:37:00   info : Current WebDriver Win Count is:: 1
2018.11.12 03:37:00   info : restult status : 1
2018.11.12 03:37:00   info : Test ID TC1 : previous test step/row 13 status is Passed and value of next test step/row is :: 14
2018.11.12 03:37:00   info : 

2018.11.12 03:37:00   info : -------------------- Executing Testcase ID TC1 and test step : 14 ---------------------- 
2018.11.12 03:37:01   info : Current WebDriver Win Count is:: 1
2018.11.12 03:37:01   info : not doing anything!!
2018.11.12 03:37:01   info : Navigating to another url..
2018.11.12 03:37:06   info : Current WebDriver Win Count is:: 1
2018.11.12 03:37:06   info : restult status : 1
2018.11.12 03:37:06   info : Test ID TC1 : previous test step/row 14 status is Passed and value of next test step/row is :: 15
2018.11.12 03:37:06   info : 

2018.11.12 03:37:06   info : -------------------- Executing Testcase ID TC1 and test step : 15 ---------------------- 
2018.11.12 03:37:07   info : Current WebDriver Win Count is:: 1
2018.11.12 03:37:07   info : Total static wait time 3
2018.11.12 03:37:10   info : Xml obj_repo path C:\Talent_Automation_Framework_Backup\Project_Talent/ObjectRepositories/BenefitAsia2_MercerAdmin/MA_Initialization.xml
2018.11.12 03:37:10   info : xpath object successfully mapped!!
2018.11.12 03:37:10   info : xpath object contains property value !!
2018.11.12 03:37:10   info : Property name - xpath
2018.11.12 03:37:10   info : Property value - //input[contains(@id,"_txtEnrolStDt")]
2018.11.12 03:37:10   info : Finding xpath element on webpage..
2018.11.12 03:37:10   info : Searching for element. Try number 0
2018.11.12 03:37:11   info : element disappeared after trying for 1 times
2018.11.12 03:37:11   info : Element found!!
2018.11.12 03:37:11   info : ObjectTag input and ObjectType text
2018.11.12 03:37:11   info : Enter data operation
2018.11.12 03:37:12   info : Xml obj_repo path C:\Talent_Automation_Framework_Backup\Project_Talent/ObjectRepositories/BenefitAsia2_MercerAdmin/MA_Initialization.xml
2018.11.12 03:37:12   info : xpath object successfully mapped!!
2018.11.12 03:37:12   info : xpath object contains property value !!
2018.11.12 03:37:12   info : Property name - xpath
2018.11.12 03:37:12   info : Property value - //input[contains(@id,"_txtEnrolStDt")]
2018.11.12 03:37:12   info : Finding xpath element on webpage..
2018.11.12 03:37:12   info : Searching for element. Try number 0
2018.11.12 03:37:13   info : element disappeared after trying for 1 times
2018.11.12 03:37:13   info : Element found!!
2018.11.12 03:37:13   info : Xml obj_repo path C:\Talent_Automation_Framework_Backup\Project_Talent/ObjectRepositories/BenefitAsia2_MercerAdmin/MA_Initialization.xml
2018.11.12 03:37:13   info : xpath object successfully mapped!!
2018.11.12 03:37:13   info : xpath object contains property value !!
2018.11.12 03:37:13   info : Property name - xpath
2018.11.12 03:37:13   info : Property value - //input[contains(@id,"_txtEnrolStDt")]
2018.11.12 03:37:13   info : Finding xpath element on webpage..
2018.11.12 03:37:13   info : Searching for element. Try number 0
2018.11.12 03:37:14   info : element disappeared after trying for 1 times
2018.11.12 03:37:14   info : Element found!!
2018.11.12 03:37:14   info : ValueToEnter 12/11/2018
2018.11.12 03:37:15   info : Entered value is 12/11/2018
2018.11.12 03:37:15   info : Attribute entered value 12/11/2018
2018.11.12 03:37:16   info : Current WebDriver Win Count is:: 1
2018.11.12 03:37:16   info : restult status : 1
2018.11.12 03:37:16   info : Test ID TC1 : previous test step/row 15 status is Passed and value of next test step/row is :: 16
2018.11.12 03:37:16   info : 

2018.11.12 03:37:16   info : -------------------- Executing Testcase ID TC1 and test step : 16 ---------------------- 
2018.11.12 03:37:17   info : Current WebDriver Win Count is:: 1
2018.11.12 03:37:17   info : Total static wait time 3
2018.11.12 03:37:20   info : Xml obj_repo path C:\Talent_Automation_Framework_Backup\Project_Talent/ObjectRepositories/BenefitAsia2_MercerAdmin/MA_Initialization.xml
2018.11.12 03:37:20   info : xpath object successfully mapped!!
2018.11.12 03:37:20   info : xpath object contains property value !!
2018.11.12 03:37:20   info : Property name - xpath
2018.11.12 03:37:20   info : Property value - //input[contains(@id,"_txtEnrolEndDt")]
2018.11.12 03:37:20   info : Finding xpath element on webpage..
2018.11.12 03:37:20   info : Searching for element. Try number 0
2018.11.12 03:37:21   info : element disappeared after trying for 1 times
2018.11.12 03:37:21   info : Element found!!
2018.11.12 03:37:21   info : ObjectTag input and ObjectType text
2018.11.12 03:37:21   info : Enter data operation
2018.11.12 03:37:22   info : Xml obj_repo path C:\Talent_Automation_Framework_Backup\Project_Talent/ObjectRepositories/BenefitAsia2_MercerAdmin/MA_Initialization.xml
2018.11.12 03:37:22   info : xpath object successfully mapped!!
2018.11.12 03:37:22   info : xpath object contains property value !!
2018.11.12 03:37:22   info : Property name - xpath
2018.11.12 03:37:22   info : Property value - //input[contains(@id,"_txtEnrolEndDt")]
2018.11.12 03:37:22   info : Finding xpath element on webpage..
2018.11.12 03:37:22   info : Searching for element. Try number 0
2018.11.12 03:37:23   info : element disappeared after trying for 1 times
2018.11.12 03:37:23   info : Element found!!
2018.11.12 03:37:23   info : Xml obj_repo path C:\Talent_Automation_Framework_Backup\Project_Talent/ObjectRepositories/BenefitAsia2_MercerAdmin/MA_Initialization.xml
2018.11.12 03:37:23   info : xpath object successfully mapped!!
2018.11.12 03:37:23   info : xpath object contains property value !!
2018.11.12 03:37:23   info : Property name - xpath
2018.11.12 03:37:23   info : Property value - //input[contains(@id,"_txtEnrolEndDt")]
2018.11.12 03:37:23   info : Finding xpath element on webpage..
2018.11.12 03:37:23   info : Searching for element. Try number 0
2018.11.12 03:37:24   info : element disappeared after trying for 1 times
2018.11.12 03:37:24   info : Element found!!
2018.11.12 03:37:24   info : ValueToEnter 22/11/2018
2018.11.12 03:37:25   info : Entered value is 22/11/2018
2018.11.12 03:37:25   info : Attribute entered value 22/11/2018
2018.11.12 03:37:26   info : Current WebDriver Win Count is:: 1
2018.11.12 03:37:26   info : restult status : 1
2018.11.12 03:37:26   info : Test ID TC1 : previous test step/row 16 status is Passed and value of next test step/row is :: 17
2018.11.12 03:37:26   info : 

2018.11.12 03:37:26   info : -------------------- Executing Testcase ID TC1 and test step : 17 ---------------------- 
2018.11.12 03:37:27   info : Current WebDriver Win Count is:: 1
2018.11.12 03:37:27   info : Total static wait time 3
2018.11.12 03:37:30   info : Xml obj_repo path C:\Talent_Automation_Framework_Backup\Project_Talent/ObjectRepositories/BenefitAsia2_MercerAdmin/MA_Initialization.xml
2018.11.12 03:37:30   info : xpath object successfully mapped!!
2018.11.12 03:37:30   info : xpath object contains property value !!
2018.11.12 03:37:30   info : Property name - xpath
2018.11.12 03:37:30   info : Property value - //input[contains(@id,"_txtHREmployeeId")]
2018.11.12 03:37:30   info : Finding xpath element on webpage..
2018.11.12 03:37:30   info : Searching for element. Try number 0
2018.11.12 03:37:31   info : element disappeared after trying for 1 times
2018.11.12 03:37:31   info : Element found!!
2018.11.12 03:37:31   info : ObjectTag input and ObjectType text
2018.11.12 03:37:31   info : Enter data operation
2018.11.12 03:37:32   info : Xml obj_repo path C:\Talent_Automation_Framework_Backup\Project_Talent/ObjectRepositories/BenefitAsia2_MercerAdmin/MA_Initialization.xml
2018.11.12 03:37:32   info : xpath object successfully mapped!!
2018.11.12 03:37:32   info : xpath object contains property value !!
2018.11.12 03:37:32   info : Property name - xpath
2018.11.12 03:37:32   info : Property value - //input[contains(@id,"_txtHREmployeeId")]
2018.11.12 03:37:32   info : Finding xpath element on webpage..
2018.11.12 03:37:32   info : Searching for element. Try number 0
2018.11.12 03:37:33   info : element disappeared after trying for 1 times
2018.11.12 03:37:33   info : Element found!!
2018.11.12 03:37:33   info : Xml obj_repo path C:\Talent_Automation_Framework_Backup\Project_Talent/ObjectRepositories/BenefitAsia2_MercerAdmin/MA_Initialization.xml
2018.11.12 03:37:33   info : xpath object successfully mapped!!
2018.11.12 03:37:33   info : xpath object contains property value !!
2018.11.12 03:37:33   info : Property name - xpath
2018.11.12 03:37:33   info : Property value - //input[contains(@id,"_txtHREmployeeId")]
2018.11.12 03:37:33   info : Finding xpath element on webpage..
2018.11.12 03:37:33   info : Searching for element. Try number 0
2018.11.12 03:37:34   info : element disappeared after trying for 1 times
2018.11.12 03:37:34   info : Element found!!
2018.11.12 03:37:34   info : ValueToEnter Auto_EE
2018.11.12 03:37:34   info : Entered value is Auto_EE
2018.11.12 03:37:35   info : Attribute entered value Auto_EE
2018.11.12 03:37:36   info : Current WebDriver Win Count is:: 1
2018.11.12 03:37:36   info : restult status : 1
2018.11.12 03:37:36   info : Test ID TC1 : previous test step/row 17 status is Passed and value of next test step/row is :: 18
2018.11.12 03:37:36   info : 

2018.11.12 03:37:36   info : -------------------- Executing Testcase ID TC1 and test step : 18 ---------------------- 
2018.11.12 03:37:37   info : Current WebDriver Win Count is:: 1
2018.11.12 03:37:37   info : page object present in excel : 1
2018.11.12 03:37:37   info : Under single object handle operation!!
2018.11.12 03:37:37   info : col 6 data :  and col 5 data : Search_button
2018.11.12 03:37:37   info : Normal click operation !!
2018.11.12 03:37:37   info : Checking for object in click
2018.11.12 03:37:37   info : Xml obj_repo path C:\Talent_Automation_Framework_Backup\Project_Talent/ObjectRepositories/BenefitAsia2_MercerAdmin/MA_Initialization.xml
2018.11.12 03:37:37   info : xpath object successfully mapped!!
2018.11.12 03:37:37   info : xpath object contains property value !!
2018.11.12 03:37:37   info : Property name - xpath
2018.11.12 03:37:37   info : Property value - //input[contains(@id,"_ChoosePlanNew_btnSubmit")]
2018.11.12 03:37:37   info : Finding xpath element on webpage..
2018.11.12 03:37:37   info : Searching for element. Try number 0
2018.11.12 03:37:38   info : element disappeared after trying for 1 times
2018.11.12 03:37:38   info : Element found!!
2018.11.12 03:37:38   info : Xml obj_repo path C:\Talent_Automation_Framework_Backup\Project_Talent/ObjectRepositories/BenefitAsia2_MercerAdmin/MA_Initialization.xml
2018.11.12 03:37:38   info : xpath object successfully mapped!!
2018.11.12 03:37:38   info : xpath object contains property value !!
2018.11.12 03:37:38   info : Property name - xpath
2018.11.12 03:37:38   info : Property value - //input[contains(@id,"_ChoosePlanNew_btnSubmit")]
2018.11.12 03:37:38   info : Finding xpath element on webpage..
2018.11.12 03:37:38   info : Searching for element. Try number 0
2018.11.12 03:37:39   info : element disappeared after trying for 1 times
2018.11.12 03:37:39   info : Element found!!
2018.11.12 03:37:42   info : clicked on Search_button
2018.11.12 03:37:43   info : Current WebDriver Win Count is:: 1
2018.11.12 03:37:43   info : restult status : 1
2018.11.12 03:37:43   info : Test ID TC1 : previous test step/row 18 status is Passed and value of next test step/row is :: 19
2018.11.12 03:37:43   info : 

2018.11.12 03:37:43   info : -------------------- Executing Testcase ID TC1 and test step : 19 ---------------------- 
2018.11.12 03:37:44   info : Current WebDriver Win Count is:: 1
2018.11.12 03:37:44   info : Total static wait time 3
2018.11.12 03:37:47   info : Xml obj_repo path C:\Talent_Automation_Framework_Backup\Project_Talent/ObjectRepositories/BenefitAsia2_MercerAdmin/MA_Initialization.xml
2018.11.12 03:37:47   info : xpath object successfully mapped!!
2018.11.12 03:37:47   info : xpath object contains property value !!
2018.11.12 03:37:47   info : Property name - xpath
2018.11.12 03:37:47   info : Property value - //*[contains(@id,"_SearchEmployeeNew_txtSearch")]
2018.11.12 03:37:47   info : Finding xpath element on webpage..
2018.11.12 03:37:47   info : Searching for element. Try number 0
2018.11.12 03:37:49   info : element disappeared after trying for 1 times
2018.11.12 03:37:49   info : Element found!!
2018.11.12 03:37:49   info : ObjectTag input and ObjectType text
2018.11.12 03:37:49   info : Enter data operation
2018.11.12 03:37:50   info : Xml obj_repo path C:\Talent_Automation_Framework_Backup\Project_Talent/ObjectRepositories/BenefitAsia2_MercerAdmin/MA_Initialization.xml
2018.11.12 03:37:50   info : xpath object successfully mapped!!
2018.11.12 03:37:50   info : xpath object contains property value !!
2018.11.12 03:37:50   info : Property name - xpath
2018.11.12 03:37:50   info : Property value - //*[contains(@id,"_SearchEmployeeNew_txtSearch")]
2018.11.12 03:37:50   info : Finding xpath element on webpage..
2018.11.12 03:37:50   info : Searching for element. Try number 0
2018.11.12 03:37:51   info : element disappeared after trying for 1 times
2018.11.12 03:37:51   info : Element found!!
2018.11.12 03:37:51   info : Xml obj_repo path C:\Talent_Automation_Framework_Backup\Project_Talent/ObjectRepositories/BenefitAsia2_MercerAdmin/MA_Initialization.xml
2018.11.12 03:37:51   info : xpath object successfully mapped!!
2018.11.12 03:37:51   info : xpath object contains property value !!
2018.11.12 03:37:51   info : Property name - xpath
2018.11.12 03:37:51   info : Property value - //*[contains(@id,"_SearchEmployeeNew_txtSearch")]
2018.11.12 03:37:51   info : Finding xpath element on webpage..
2018.11.12 03:37:51   info : Searching for element. Try number 0
2018.11.12 03:37:52   info : element disappeared after trying for 1 times
2018.11.12 03:37:52   info : Element found!!
2018.11.12 03:37:52   info : ValueToEnter Auto_EE
2018.11.12 03:37:52   info : Entered value is Auto_EE
2018.11.12 03:37:52   info : Attribute entered value Auto_EE
2018.11.12 03:37:53   info : Current WebDriver Win Count is:: 1
2018.11.12 03:37:53   info : restult status : 1
2018.11.12 03:37:53   info : Test ID TC1 : previous test step/row 19 status is Passed and value of next test step/row is :: 20
2018.11.12 03:37:53   info : 

2018.11.12 03:37:53   info : -------------------- Executing Testcase ID TC1 and test step : 20 ---------------------- 
2018.11.12 03:37:54   info : Current WebDriver Win Count is:: 1
2018.11.12 03:37:54   info : Total static wait time 3
2018.11.12 03:37:57   info : Xml obj_repo path C:\Talent_Automation_Framework_Backup\Project_Talent/ObjectRepositories/BenefitAsia2_MercerAdmin/MA_Initialization.xml
2018.11.12 03:37:57   info : xpath object successfully mapped!!
2018.11.12 03:37:57   info : xpath object contains property value !!
2018.11.12 03:37:57   info : Property name - xpath
2018.11.12 03:37:57   info : Property value - //*[contains(@id,"_SearchEmployeeNew_rdbsearch_2")]
2018.11.12 03:37:57   info : Finding xpath element on webpage..
2018.11.12 03:37:57   info : Searching for element. Try number 0
2018.11.12 03:37:59   info : element disappeared after trying for 1 times
2018.11.12 03:37:59   info : Element found!!
2018.11.12 03:37:59   info : ObjectTag input and ObjectType radio
2018.11.12 03:37:59   info : Radio operation 
2018.11.12 03:37:59   info : Xml obj_repo path C:\Talent_Automation_Framework_Backup\Project_Talent/ObjectRepositories/BenefitAsia2_MercerAdmin/MA_Initialization.xml
2018.11.12 03:37:59   info : xpath object successfully mapped!!
2018.11.12 03:37:59   info : xpath object contains property value !!
2018.11.12 03:37:59   info : Property name - xpath
2018.11.12 03:37:59   info : Property value - //*[contains(@id,"_SearchEmployeeNew_rdbsearch_2")]
2018.11.12 03:37:59   info : Finding xpath element on webpage..
2018.11.12 03:37:59   info : Searching for element. Try number 0
2018.11.12 03:38:00   info : element disappeared after trying for 1 times
2018.11.12 03:38:00   info : Element found!!
2018.11.12 03:38:01   info : Current WebDriver Win Count is:: 1
2018.11.12 03:38:01   info : restult status : 1
2018.11.12 03:38:01   info : Test ID TC1 : previous test step/row 20 status is Passed and value of next test step/row is :: 21
2018.11.12 03:38:01   info : 

2018.11.12 03:38:01   info : -------------------- Executing Testcase ID TC1 and test step : 21 ---------------------- 
2018.11.12 03:38:02   info : Current WebDriver Win Count is:: 1
2018.11.12 03:38:02   info : page object present in excel : 1
2018.11.12 03:38:02   info : Under single object handle operation!!
2018.11.12 03:38:02   info : col 6 data :  and col 5 data : SearchButton
2018.11.12 03:38:02   info : Normal click operation !!
2018.11.12 03:38:02   info : Checking for object in click
2018.11.12 03:38:02   info : Xml obj_repo path C:\Talent_Automation_Framework_Backup\Project_Talent/ObjectRepositories/BenefitAsia2_MercerAdmin/MA_Initialization.xml
2018.11.12 03:38:02   info : xpath object successfully mapped!!
2018.11.12 03:38:02   info : xpath object contains property value !!
2018.11.12 03:38:02   info : Property name - xpath
2018.11.12 03:38:02   info : Property value - //*[contains(@id,"_SearchEmployeeNew_btnSearch")]
2018.11.12 03:38:02   info : Finding xpath element on webpage..
2018.11.12 03:38:02   info : Searching for element. Try number 0
2018.11.12 03:38:03   info : element disappeared after trying for 1 times
2018.11.12 03:38:03   info : Element found!!
2018.11.12 03:38:03   info : Xml obj_repo path C:\Talent_Automation_Framework_Backup\Project_Talent/ObjectRepositories/BenefitAsia2_MercerAdmin/MA_Initialization.xml
2018.11.12 03:38:03   info : xpath object successfully mapped!!
2018.11.12 03:38:03   info : xpath object contains property value !!
2018.11.12 03:38:03   info : Property name - xpath
2018.11.12 03:38:03   info : Property value - //*[contains(@id,"_SearchEmployeeNew_btnSearch")]
2018.11.12 03:38:03   info : Finding xpath element on webpage..
2018.11.12 03:38:03   info : Searching for element. Try number 0
2018.11.12 03:38:04   info : element disappeared after trying for 1 times
2018.11.12 03:38:05   info : Element found!!
2018.11.12 03:38:06   info : clicked on SearchButton
2018.11.12 03:38:07   info : Current WebDriver Win Count is:: 1
2018.11.12 03:38:07   info : restult status : 1
2018.11.12 03:38:07   info : Test ID TC1 : previous test step/row 21 status is Passed and value of next test step/row is :: 22
2018.11.12 03:38:07   info : 

2018.11.12 03:38:07   info : -------------------- Executing Testcase ID TC1 and test step : 22 ---------------------- 
2018.11.12 03:38:09   info : Current WebDriver Win Count is:: 1
2018.11.12 03:38:09   info : Total static wait time 3
2018.11.12 03:38:12   info : Xml obj_repo path C:\Talent_Automation_Framework_Backup\Project_Talent/ObjectRepositories/BenefitAsia2_MercerAdmin/MA_Initialization.xml
2018.11.12 03:38:12   info : xpath object successfully mapped!!
2018.11.12 03:38:12   info : xpath object contains property value !!
2018.11.12 03:38:12   info : Property name - xpath
2018.11.12 03:38:12   info : Property value - //*[contains(@id,"_SearchEmployeeNew_ddlPageSize")]
2018.11.12 03:38:12   info : Finding xpath element on webpage..
2018.11.12 03:38:12   info : Searching for element. Try number 0
2018.11.12 03:38:13   info : element disappeared after trying for 1 times
2018.11.12 03:38:13   info : Element found!!
2018.11.12 03:38:13   info : ObjectTag select and ObjectType null
2018.11.12 03:38:13   info : select combobox operation 
2018.11.12 03:38:13   info : Xml obj_repo path C:\Talent_Automation_Framework_Backup\Project_Talent/ObjectRepositories/BenefitAsia2_MercerAdmin/MA_Initialization.xml
2018.11.12 03:38:13   info : xpath object successfully mapped!!
2018.11.12 03:38:13   info : xpath object contains property value !!
2018.11.12 03:38:13   info : Property name - xpath
2018.11.12 03:38:13   info : Property value - //*[contains(@id,"_SearchEmployeeNew_ddlPageSize")]
2018.11.12 03:38:13   info : Finding xpath element on webpage..
2018.11.12 03:38:13   info : Searching for element. Try number 0
2018.11.12 03:38:14   info : element disappeared after trying for 1 times
2018.11.12 03:38:14   info : Element found!!
2018.11.12 03:38:14   info : Xml obj_repo path C:\Talent_Automation_Framework_Backup\Project_Talent/ObjectRepositories/BenefitAsia2_MercerAdmin/MA_Initialization.xml
2018.11.12 03:38:14   info : xpath object successfully mapped!!
2018.11.12 03:38:14   info : xpath object contains property value !!
2018.11.12 03:38:14   info : Property name - xpath
2018.11.12 03:38:14   info : Property value - //*[contains(@id,"_SearchEmployeeNew_ddlPageSize")]
2018.11.12 03:38:14   info : Finding xpath element on webpage..
2018.11.12 03:38:14   info : Element found!!
2018.11.12 03:38:14   info : 1500 value selected!!
2018.11.12 03:38:18   info : Alert is not present
2018.11.12 03:38:19   info : Current WebDriver Win Count is:: 1
2018.11.12 03:38:19   info : restult status : 1
2018.11.12 03:38:19   info : Test ID TC1 : previous test step/row 22 status is Passed and value of next test step/row is :: 23
2018.11.12 03:38:19   info : 

2018.11.12 03:38:19   info : -------------------- Executing Testcase ID TC1 and test step : 23 ---------------------- 
2018.11.12 03:38:20   info : Current WebDriver Win Count is:: 1
2018.11.12 03:38:20   info : page object present in excel : 1
2018.11.12 03:38:20   info : Under single object handle operation!!
2018.11.12 03:38:20   info : col 6 data :  and col 5 data : Submit
2018.11.12 03:38:20   info : Normal click operation !!
2018.11.12 03:38:20   info : Checking for object in click
2018.11.12 03:38:20   info : Xml obj_repo path C:\Talent_Automation_Framework_Backup\Project_Talent/ObjectRepositories/BenefitAsia2_MercerAdmin/MA_Initialization.xml
2018.11.12 03:38:20   info : xpath object successfully mapped!!
2018.11.12 03:38:20   info : xpath object contains property value !!
2018.11.12 03:38:20   info : Property name - xpath
2018.11.12 03:38:20   info : Property value - //input[contains(@id,"_SearchEmployeeNew_btnSubmit")]
2018.11.12 03:38:20   info : Finding xpath element on webpage..
2018.11.12 03:38:20   info : Searching for element. Try number 0
2018.11.12 03:38:21   info : element disappeared after trying for 1 times
2018.11.12 03:38:21   info : Element found!!
2018.11.12 03:38:21   info : Xml obj_repo path C:\Talent_Automation_Framework_Backup\Project_Talent/ObjectRepositories/BenefitAsia2_MercerAdmin/MA_Initialization.xml
2018.11.12 03:38:21   info : xpath object successfully mapped!!
2018.11.12 03:38:21   info : xpath object contains property value !!
2018.11.12 03:38:21   info : Property name - xpath
2018.11.12 03:38:21   info : Property value - //input[contains(@id,"_SearchEmployeeNew_btnSubmit")]
2018.11.12 03:38:21   info : Finding xpath element on webpage..
2018.11.12 03:38:21   info : Searching for element. Try number 0
2018.11.12 03:38:22   info : element disappeared after trying for 1 times
2018.11.12 03:38:23   info : Element found!!
2018.11.12 03:38:25   info : clicked on Submit
2018.11.12 03:38:26   info : Current WebDriver Win Count is:: 1
2018.11.12 03:38:26   info : restult status : 1
2018.11.12 03:38:26   info : Test ID TC1 : previous test step/row 23 status is Passed and value of next test step/row is :: 24
2018.11.12 03:38:26   info : 

2018.11.12 03:38:26   info : -------------------- Executing Testcase ID TC1 and test step : 24 ---------------------- 
2018.11.12 03:38:27   info : Current WebDriver Win Count is:: 1
2018.11.12 03:38:27   info : page object present in excel : 1
2018.11.12 03:38:27   info : Under single object handle operation!!
2018.11.12 03:38:27   info : col 6 data :  and col 5 data : init_ok
2018.11.12 03:38:27   info : Normal click operation !!
2018.11.12 03:38:27   info : Checking for object in click
2018.11.12 03:38:27   info : Xml obj_repo path C:\Talent_Automation_Framework_Backup\Project_Talent/ObjectRepositories/BenefitAsia2_MercerAdmin/MA_Initialization.xml
2018.11.12 03:38:27   info : xpath object successfully mapped!!
2018.11.12 03:38:27   info : xpath object contains property value !!
2018.11.12 03:38:27   info : Property name - xpath
2018.11.12 03:38:27   info : Property value - //*[contains(@id,"SearchEmployeeNew_ucScheduleJob_btnOk")]
2018.11.12 03:38:27   info : Finding xpath element on webpage..
2018.11.12 03:38:27   info : Searching for element. Try number 0
2018.11.12 03:38:28   info : element disappeared after trying for 1 times
2018.11.12 03:38:28   info : Element found!!
2018.11.12 03:38:28   info : Xml obj_repo path C:\Talent_Automation_Framework_Backup\Project_Talent/ObjectRepositories/BenefitAsia2_MercerAdmin/MA_Initialization.xml
2018.11.12 03:38:28   info : xpath object successfully mapped!!
2018.11.12 03:38:28   info : xpath object contains property value !!
2018.11.12 03:38:28   info : Property name - xpath
2018.11.12 03:38:28   info : Property value - //*[contains(@id,"SearchEmployeeNew_ucScheduleJob_btnOk")]
2018.11.12 03:38:28   info : Finding xpath element on webpage..
2018.11.12 03:38:28   info : Searching for element. Try number 0
2018.11.12 03:38:29   info : element disappeared after trying for 1 times
2018.11.12 03:38:30   info : Element found!!
2018.11.12 03:38:31   info : clicked on init_ok
2018.11.12 03:38:32   info : Current WebDriver Win Count is:: 1
2018.11.12 03:38:32   info : restult status : 1
2018.11.12 03:38:33   info : Test ID TC1 : previous test step/row 24 status is Passed and value of next test step/row is :: 25
2018.11.12 03:38:33   info : 

2018.11.12 03:38:33   info : -------------------- Executing Testcase ID TC1 and test step : 25 ---------------------- 
2018.11.12 03:38:34   info : Current WebDriver Win Count is:: 1
2018.11.12 03:38:34   info : page object present in excel : 1
2018.11.12 03:38:34   info : Under single object handle operation!!
2018.11.12 03:38:34   info : col 6 data :  and col 5 data : Close
2018.11.12 03:38:34   info : Normal click operation !!
2018.11.12 03:38:34   info : Checking for object in click
2018.11.12 03:38:34   info : Xml obj_repo path C:\Talent_Automation_Framework_Backup\Project_Talent/ObjectRepositories/BenefitAsia2_MercerAdmin/MA_Initialization.xml
2018.11.12 03:38:34   info : xpath object successfully mapped!!
2018.11.12 03:38:34   info : xpath object contains property value !!
2018.11.12 03:38:34   info : Property name - xpath
2018.11.12 03:38:34   info : Property value - //*[contains(@id, "_SearchEmployeeNew_BA2JobProgress1_btnClose")]
2018.11.12 03:38:34   info : Finding xpath element on webpage..
2018.11.12 03:38:34   info : Searching for element. Try number 0
2018.11.12 03:38:35   info : element disappeared after trying for 1 times
2018.11.12 03:38:35   info : Element found!!
2018.11.12 03:38:35   info : Xml obj_repo path C:\Talent_Automation_Framework_Backup\Project_Talent/ObjectRepositories/BenefitAsia2_MercerAdmin/MA_Initialization.xml
2018.11.12 03:38:35   info : xpath object successfully mapped!!
2018.11.12 03:38:35   info : xpath object contains property value !!
2018.11.12 03:38:35   info : Property name - xpath
2018.11.12 03:38:35   info : Property value - //*[contains(@id, "_SearchEmployeeNew_BA2JobProgress1_btnClose")]
2018.11.12 03:38:35   info : Finding xpath element on webpage..
2018.11.12 03:38:35   info : Searching for element. Try number 0
2018.11.12 03:38:36   info : element disappeared after trying for 1 times
2018.11.12 03:38:36   info : Element found!!
2018.11.12 03:38:39   info : clicked on Close
2018.11.12 03:38:40   info : Current WebDriver Win Count is:: 1
2018.11.12 03:38:40   info : restult status : 1
2018.11.12 03:38:40   info : Test ID TC1 : previous test step/row 25 status is Passed and value of next test step/row is :: 26
2018.11.12 03:38:40   info : 

2018.11.12 03:38:40   info : -------------------- Executing Testcase ID TC1 and test step : 26 ---------------------- 
2018.11.12 03:38:41   info : Current WebDriver Win Count is:: 1
2018.11.12 03:38:41   info : Xml obj_repo path C:\Talent_Automation_Framework_Backup\Project_Talent/ObjectRepositories/BenefitAsia2_MercerAdmin/MA_LoginLogout.xml
2018.11.12 03:38:41   info : Title contains null value in xml!!
2018.11.12 03:38:41   info : Window title Initialization (New)
2018.11.12 03:38:41   info : Xml obj_repo path C:\Talent_Automation_Framework_Backup\Project_Talent/ObjectRepositories/BenefitAsia2_MercerAdmin/MA_LoginLogout.xml
2018.11.12 03:38:41   info : xpath object successfully mapped!!
2018.11.12 03:38:41   info : xpath object contains property value !!
2018.11.12 03:38:41   info : Property name - xpath
2018.11.12 03:38:41   info : Property value - //a[contains(@id,"_cmdLogin")]
2018.11.12 03:38:41   info : Finding xpath element on webpage..
2018.11.12 03:38:41   info : Searching for element. Try number 0
2018.11.12 03:38:42   info : element disappeared after trying for 1 times
2018.11.12 03:38:42   info : Element found!!
2018.11.12 03:38:42   info : Desired window is activated!!
2018.11.12 03:38:42   info : page object present in excel : 1
2018.11.12 03:38:42   info : Under single object handle operation!!
2018.11.12 03:38:42   info : col 6 data :  and col 5 data : Logout
2018.11.12 03:38:42   info : Normal click operation !!
2018.11.12 03:38:42   info : Checking for object in click
2018.11.12 03:38:42   info : Xml obj_repo path C:\Talent_Automation_Framework_Backup\Project_Talent/ObjectRepositories/BenefitAsia2_MercerAdmin/MA_LoginLogout.xml
2018.11.12 03:38:42   info : xpath object successfully mapped!!
2018.11.12 03:38:42   info : xpath object contains property value !!
2018.11.12 03:38:42   info : Property name - xpath
2018.11.12 03:38:42   info : Property value - //a[contains(@id,"_cmdLogin")]
2018.11.12 03:38:42   info : Finding xpath element on webpage..
2018.11.12 03:38:42   info : Searching for element. Try number 0
2018.11.12 03:38:44   info : element disappeared after trying for 1 times
2018.11.12 03:38:44   info : Element found!!
2018.11.12 03:38:44   info : Xml obj_repo path C:\Talent_Automation_Framework_Backup\Project_Talent/ObjectRepositories/BenefitAsia2_MercerAdmin/MA_LoginLogout.xml
2018.11.12 03:38:44   info : xpath object successfully mapped!!
2018.11.12 03:38:44   info : xpath object contains property value !!
2018.11.12 03:38:44   info : Property name - xpath
2018.11.12 03:38:44   info : Property value - //a[contains(@id,"_cmdLogin")]
2018.11.12 03:38:44   info : Finding xpath element on webpage..
2018.11.12 03:38:44   info : Searching for element. Try number 0
2018.11.12 03:38:45   info : element disappeared after trying for 1 times
2018.11.12 03:38:45   info : Element found!!
2018.11.12 03:38:47   info : clicked on Logout
2018.11.12 03:38:48   info : Current WebDriver Win Count is:: 1
2018.11.12 03:38:48   info : restult status : 1
2018.11.12 03:38:48   info : Row TC1!=TC2 || (TC2==null)) && (26<=1976)
2018.11.12 03:38:48   info : Status :: Passed :: Finalizing result report
2018.11.12 03:38:49   info : closing window...
2018.11.12 03:38:49   info : window size 1
2018.11.12 03:38:50   info : Window is closed!!
