2018.07.04 04:42:11   info : Selenium version :: 2.48.2
2018.07.04 04:42:11   info : Download fodler path created!!
2018.07.04 04:42:11   info : date_time_down_folder C:\Talent_Automation_Framework_Backup\Project_Talent\Downloads\2018_07_04\time_16_42_11\
2018.07.04 04:42:12   info : Total number of applications :: 4
2018.07.04 04:42:12   info : Application Name - Auto_Sanity
2018.07.04 04:42:12   info : TestData_Sheet path:: C:\Talent_Automation_Framework_Backup\Project_Talent/TestCases/Auto_Sanity.xlsx
2018.07.04 04:42:12   info : CSV updating and creating dump....
2018.07.04 04:42:12   info : Sheet name: TestCaseScheduler
2018.07.04 04:42:12   info : Sheet name: Test Case
2018.07.04 04:42:12   info : Auto_Sanity sheetname found!!
2018.07.04 04:42:12   info : Total row 273
2018.07.04 04:42:12   info : After row validation for blank or null!!
2018.07.04 04:42:12   info : Total final row 272
2018.07.04 04:42:13   error : java.lang.NullPointerException
2018.07.04 04:42:13   info : Total number of test cases to be executed :: 1
2018.07.04 04:42:13   info : PrevTestID - null == null && row 1<= 272
2018.07.04 04:42:13   info : Test ID Sanity : previous test step/row 0 status is Passed and value of next test step/row is :: 1
2018.07.04 04:42:13   info : 

2018.07.04 04:42:13   info : -------------------- Executing Testcase ID Sanity and test step : 1 ---------------------- 
2018.07.04 04:42:13   info : please wait.. browser getting open !!
2018.07.04 04:42:26   info : Opening Application..
2018.07.04 04:42:30   info : Current WebDriver Win Count is:: 1
2018.07.04 04:42:39   info : restult status : 1
2018.07.04 04:42:40   info : Test ID Sanity : previous test step/row 1 status is Passed and value of next test step/row is :: 2
2018.07.04 04:42:40   info : 

2018.07.04 04:42:40   info : -------------------- Executing Testcase ID Sanity and test step : 2 ---------------------- 
2018.07.04 04:42:41   info : Current WebDriver Win Count is:: 1
2018.07.04 04:42:41   info : Xml obj_repo path C:\Talent_Automation_Framework_Backup\Project_Talent/ObjectRepositories/BenefitAsia2_EE/EE_SimpliflexSG_LoginLogout.xml
2018.07.04 04:42:41   info : Title contains null value in xml!!
2018.07.04 04:42:41   info : Window title User Login
2018.07.04 04:42:41   info : Xml obj_repo path C:\Talent_Automation_Framework_Backup\Project_Talent/ObjectRepositories/BenefitAsia2_EE/EE_SimpliflexSG_LoginLogout.xml
2018.07.04 04:42:41   info : xpath object successfully mapped!!
2018.07.04 04:42:41   info : xpath object contains property value !!
2018.07.04 04:42:41   info : Property name - xpath
2018.07.04 04:42:41   info : Property value - //input[contains(@id,"_txtUsername")]
2018.07.04 04:42:41   info : Finding xpath element on webpage..
2018.07.04 04:42:41   info : Searching for element. Try number 0
2018.07.04 04:42:42   info : element disappeared after trying for 1 times
2018.07.04 04:42:43   info : Current WebDriver Win Count is:: 1
2018.07.04 04:42:43   info : Element found!!
2018.07.04 04:42:43   info : Desired window is activated!!
2018.07.04 04:42:43   info : FiledName UserName and FiledValue Auto_prod_1
2018.07.04 04:42:43   info : FiledName Password and FiledValue Test@12345
2018.07.04 04:42:43   info : Total static wait time 3
2018.07.04 04:42:46   info : Xml obj_repo path C:\Talent_Automation_Framework_Backup\Project_Talent/ObjectRepositories/BenefitAsia2_EE/EE_SimpliflexSG_LoginLogout.xml
2018.07.04 04:42:46   info : xpath object successfully mapped!!
2018.07.04 04:42:46   info : xpath object contains property value !!
2018.07.04 04:42:46   info : Property name - xpath
2018.07.04 04:42:46   info : Property value - //input[contains(@id,"_txtUsername")]
2018.07.04 04:42:46   info : Finding xpath element on webpage..
2018.07.04 04:42:46   info : Searching for element. Try number 0
2018.07.04 04:42:47   info : element disappeared after trying for 1 times
2018.07.04 04:42:48   info : Current WebDriver Win Count is:: 1
2018.07.04 04:42:48   info : Element found!!
2018.07.04 04:42:48   info : ObjectTag input and ObjectType text
2018.07.04 04:42:48   info : Enter data operation
2018.07.04 04:42:49   info : Xml obj_repo path C:\Talent_Automation_Framework_Backup\Project_Talent/ObjectRepositories/BenefitAsia2_EE/EE_SimpliflexSG_LoginLogout.xml
2018.07.04 04:42:49   info : xpath object successfully mapped!!
2018.07.04 04:42:49   info : xpath object contains property value !!
2018.07.04 04:42:49   info : Property name - xpath
2018.07.04 04:42:49   info : Property value - //input[contains(@id,"_txtUsername")]
2018.07.04 04:42:49   info : Finding xpath element on webpage..
2018.07.04 04:42:49   info : Searching for element. Try number 0
2018.07.04 04:42:50   info : element disappeared after trying for 1 times
2018.07.04 04:42:51   info : Current WebDriver Win Count is:: 1
2018.07.04 04:42:51   info : Element found!!
2018.07.04 04:42:51   info : Xml obj_repo path C:\Talent_Automation_Framework_Backup\Project_Talent/ObjectRepositories/BenefitAsia2_EE/EE_SimpliflexSG_LoginLogout.xml
2018.07.04 04:42:51   info : xpath object successfully mapped!!
2018.07.04 04:42:51   info : xpath object contains property value !!
2018.07.04 04:42:51   info : Property name - xpath
2018.07.04 04:42:51   info : Property value - //input[contains(@id,"_txtUsername")]
2018.07.04 04:42:51   info : Finding xpath element on webpage..
2018.07.04 04:42:51   info : Searching for element. Try number 0
2018.07.04 04:42:52   info : element disappeared after trying for 1 times
2018.07.04 04:42:53   info : Current WebDriver Win Count is:: 1
2018.07.04 04:42:54   info : Element found!!
2018.07.04 04:42:54   info : ValueToEnter Auto_prod_1
2018.07.04 04:42:54   info : Entered value is Auto_prod_1
2018.07.04 04:42:54   info : Attribute entered value Auto_prod_1
2018.07.04 04:42:54   info : Total static wait time 3
2018.07.04 04:42:57   info : Xml obj_repo path C:\Talent_Automation_Framework_Backup\Project_Talent/ObjectRepositories/BenefitAsia2_EE/EE_SimpliflexSG_LoginLogout.xml
2018.07.04 04:42:57   info : xpath object successfully mapped!!
2018.07.04 04:42:57   info : xpath object contains property value !!
2018.07.04 04:42:57   info : Property name - xpath
2018.07.04 04:42:57   info : Property value - //input[contains(@id,"_txtPassword")]
2018.07.04 04:42:57   info : Finding xpath element on webpage..
2018.07.04 04:42:57   info : Searching for element. Try number 0
2018.07.04 04:42:58   info : element disappeared after trying for 1 times
2018.07.04 04:42:59   info : Current WebDriver Win Count is:: 1
2018.07.04 04:42:59   info : Element found!!
2018.07.04 04:42:59   info : ObjectTag input and ObjectType password
2018.07.04 04:42:59   info : Enter data operation
2018.07.04 04:42:59   info : Xml obj_repo path C:\Talent_Automation_Framework_Backup\Project_Talent/ObjectRepositories/BenefitAsia2_EE/EE_SimpliflexSG_LoginLogout.xml
2018.07.04 04:42:59   info : xpath object successfully mapped!!
2018.07.04 04:42:59   info : xpath object contains property value !!
2018.07.04 04:42:59   info : Property name - xpath
2018.07.04 04:42:59   info : Property value - //input[contains(@id,"_txtPassword")]
2018.07.04 04:42:59   info : Finding xpath element on webpage..
2018.07.04 04:42:59   info : Searching for element. Try number 0
2018.07.04 04:43:00   info : element disappeared after trying for 1 times
2018.07.04 04:43:01   info : Current WebDriver Win Count is:: 1
2018.07.04 04:43:01   info : Element found!!
2018.07.04 04:43:01   info : ValueToEnter Test@12345
2018.07.04 04:43:01   info : Entered value is Test@12345
2018.07.04 04:43:01   info : Attribute entered value Test@12345
2018.07.04 04:43:01   info : Checking for object in click
2018.07.04 04:43:01   info : Xml obj_repo path C:\Talent_Automation_Framework_Backup\Project_Talent/ObjectRepositories/BenefitAsia2_EE/EE_SimpliflexSG_LoginLogout.xml
2018.07.04 04:43:01   info : xpath object successfully mapped!!
2018.07.04 04:43:01   info : xpath object contains property value !!
2018.07.04 04:43:01   info : Property name - xpath
2018.07.04 04:43:01   info : Property value - //input[contains(@id,"_cmdLogin")]
2018.07.04 04:43:01   info : Finding xpath element on webpage..
2018.07.04 04:43:01   info : Searching for element. Try number 0
2018.07.04 04:43:02   info : element disappeared after trying for 1 times
2018.07.04 04:43:03   info : Current WebDriver Win Count is:: 1
2018.07.04 04:43:03   info : Element found!!
2018.07.04 04:43:03   info : Xml obj_repo path C:\Talent_Automation_Framework_Backup\Project_Talent/ObjectRepositories/BenefitAsia2_EE/EE_SimpliflexSG_LoginLogout.xml
2018.07.04 04:43:03   info : xpath object successfully mapped!!
2018.07.04 04:43:03   info : xpath object contains property value !!
2018.07.04 04:43:03   info : Property name - xpath
2018.07.04 04:43:03   info : Property value - //input[contains(@id,"_cmdLogin")]
2018.07.04 04:43:03   info : Finding xpath element on webpage..
2018.07.04 04:43:03   info : Searching for element. Try number 0
2018.07.04 04:43:04   info : element disappeared after trying for 1 times
2018.07.04 04:43:05   info : Current WebDriver Win Count is:: 1
2018.07.04 04:43:05   info : Element found!!
2018.07.04 04:43:20   info : clicked on LoginButton
2018.07.04 04:43:21   info : Current WebDriver Win Count is:: 1
2018.07.04 04:43:21   info : restult status : 1
2018.07.04 04:43:21   info : Test ID Sanity : previous test step/row 2 status is Passed and value of next test step/row is :: 3
2018.07.04 04:43:21   info : 

2018.07.04 04:43:21   info : -------------------- Executing Testcase ID Sanity and test step : 3 ---------------------- 
2018.07.04 04:43:22   info : Current WebDriver Win Count is:: 1
2018.07.04 04:43:22   info : Xml obj_repo path C:\Talent_Automation_Framework_Backup\Project_Talent/ObjectRepositories/BenefitAsia2_EE/EE_SimpliflexSG_Home.xml
2018.07.04 04:43:22   info : Title in xml file - SimpliflexSG > Home
2018.07.04 04:43:22   warn : Window is not switched, now trying based on element!!
2018.07.04 04:43:22   info : Window title BA2Login
2018.07.04 04:43:22   info : Xml obj_repo path C:\Talent_Automation_Framework_Backup\Project_Talent/ObjectRepositories/BenefitAsia2_EE/EE_SimpliflexSG_Home.xml
2018.07.04 04:43:22   info : xpath object successfully mapped!!
2018.07.04 04:43:22   info : xpath object contains property value !!
2018.07.04 04:43:22   info : Property name - xpath
2018.07.04 04:43:22   info : Property value - //a[contains(@id,"_BA2DashBoard_SUBMITCLAIM")]
2018.07.04 04:43:22   info : Finding xpath element on webpage..
2018.07.04 04:43:22   info : Searching for element. Try number 0
2018.07.04 04:43:23   info : element disappeared after trying for 1 times
2018.07.04 04:43:24   info : Current WebDriver Win Count is:: 1
