2018.07.04 06:10:55   info : Selenium version :: 2.48.2
2018.07.04 06:10:55   info : Download fodler path created!!
2018.07.04 06:10:55   info : date_time_down_folder C:\Talent_Automation_Framework_Backup\Project_Talent\Downloads\2018_07_04\time_18_10_55\
2018.07.04 06:10:56   info : Total number of applications :: 4
2018.07.04 06:10:56   info : Application Name - Auto_Sanity
2018.07.04 06:10:56   info : TestData_Sheet path:: C:\Talent_Automation_Framework_Backup\Project_Talent/TestCases/Auto_Sanity.xlsx
2018.07.04 06:10:56   info : CSV updating and creating dump....
2018.07.04 06:10:57   info : Sheet name: TestCaseScheduler
2018.07.04 06:10:57   info : Sheet name: Test Case
2018.07.04 06:10:57   info : Auto_Sanity sheetname found!!
2018.07.04 06:10:57   info : Total row 273
2018.07.04 06:10:57   info : After row validation for blank or null!!
2018.07.04 06:10:57   info : Total final row 272
2018.07.04 06:10:57   error : java.lang.NullPointerException
2018.07.04 06:10:57   info : Total number of test cases to be executed :: 2
2018.07.04 06:10:57   info : PrevTestID - null == null && row 185<= 272
2018.07.04 06:10:57   info : Test ID TC2 : previous test step/row 184 status is Passed and value of next test step/row is :: 185
2018.07.04 06:10:57   info : 

2018.07.04 06:10:57   info : -------------------- Executing Testcase ID TC2 and test step : 185 ---------------------- 
2018.07.04 06:10:57   info : please wait.. browser getting open !!
2018.07.04 06:11:09   info : Opening Application..
2018.07.04 06:11:13   info : Current WebDriver Win Count is:: 1
2018.07.04 06:11:20   info : restult status : 1
2018.07.04 06:11:21   info : Test ID TC2 : previous test step/row 185 status is Passed and value of next test step/row is :: 186
2018.07.04 06:11:21   info : 

2018.07.04 06:11:21   info : -------------------- Executing Testcase ID TC2 and test step : 186 ---------------------- 
2018.07.04 06:11:22   info : Current WebDriver Win Count is:: 1
2018.07.04 06:11:22   info : Xml obj_repo path C:\Talent_Automation_Framework_Backup\Project_Talent/ObjectRepositories/BenefitAsia2_EE/EE_SimpliflexSG_LoginLogout.xml
2018.07.04 06:11:22   info : Title contains null value in xml!!
2018.07.04 06:11:22   info : Window title User Login
2018.07.04 06:11:22   info : Xml obj_repo path C:\Talent_Automation_Framework_Backup\Project_Talent/ObjectRepositories/BenefitAsia2_EE/EE_SimpliflexSG_LoginLogout.xml
2018.07.04 06:11:22   info : xpath object successfully mapped!!
2018.07.04 06:11:22   info : xpath object contains property value !!
2018.07.04 06:11:22   info : Property name - xpath
2018.07.04 06:11:22   info : Property value - //input[contains(@id,"_txtUsername")]
2018.07.04 06:11:22   info : Finding xpath element on webpage..
2018.07.04 06:11:22   info : Searching for element. Try number 0
2018.07.04 06:11:23   info : element disappeared after trying for 1 times
2018.07.04 06:11:24   info : Current WebDriver Win Count is:: 1
2018.07.04 06:11:24   info : Element found!!
2018.07.04 06:11:24   info : Desired window is activated!!
2018.07.04 06:11:24   info : FiledName UserName and FiledValue Auto_prod_1
2018.07.04 06:11:24   info : FiledName Password and FiledValue Test@12345
2018.07.04 06:11:24   info : Total static wait time 3
2018.07.04 06:11:27   info : Xml obj_repo path C:\Talent_Automation_Framework_Backup\Project_Talent/ObjectRepositories/BenefitAsia2_EE/EE_SimpliflexSG_LoginLogout.xml
2018.07.04 06:11:27   info : xpath object successfully mapped!!
2018.07.04 06:11:27   info : xpath object contains property value !!
2018.07.04 06:11:27   info : Property name - xpath
2018.07.04 06:11:27   info : Property value - //input[contains(@id,"_txtUsername")]
2018.07.04 06:11:27   info : Finding xpath element on webpage..
2018.07.04 06:11:27   info : Searching for element. Try number 0
2018.07.04 06:11:28   info : element disappeared after trying for 1 times
2018.07.04 06:11:29   info : Current WebDriver Win Count is:: 1
2018.07.04 06:11:29   info : Element found!!
2018.07.04 06:11:29   info : ObjectTag input and ObjectType text
2018.07.04 06:11:29   info : Enter data operation
2018.07.04 06:11:30   info : Xml obj_repo path C:\Talent_Automation_Framework_Backup\Project_Talent/ObjectRepositories/BenefitAsia2_EE/EE_SimpliflexSG_LoginLogout.xml
2018.07.04 06:11:30   info : xpath object successfully mapped!!
2018.07.04 06:11:30   info : xpath object contains property value !!
2018.07.04 06:11:30   info : Property name - xpath
2018.07.04 06:11:30   info : Property value - //input[contains(@id,"_txtUsername")]
2018.07.04 06:11:30   info : Finding xpath element on webpage..
2018.07.04 06:11:30   info : Searching for element. Try number 0
2018.07.04 06:11:31   info : element disappeared after trying for 1 times
2018.07.04 06:11:32   info : Current WebDriver Win Count is:: 1
2018.07.04 06:11:32   info : Element found!!
2018.07.04 06:11:32   info : Xml obj_repo path C:\Talent_Automation_Framework_Backup\Project_Talent/ObjectRepositories/BenefitAsia2_EE/EE_SimpliflexSG_LoginLogout.xml
2018.07.04 06:11:32   info : xpath object successfully mapped!!
2018.07.04 06:11:32   info : xpath object contains property value !!
2018.07.04 06:11:32   info : Property name - xpath
2018.07.04 06:11:32   info : Property value - //input[contains(@id,"_txtUsername")]
2018.07.04 06:11:32   info : Finding xpath element on webpage..
2018.07.04 06:11:32   info : Searching for element. Try number 0
2018.07.04 06:11:33   info : element disappeared after trying for 1 times
2018.07.04 06:11:34   info : Current WebDriver Win Count is:: 1
2018.07.04 06:11:34   info : Element found!!
2018.07.04 06:11:34   info : ValueToEnter Auto_prod_1
2018.07.04 06:11:34   info : Entered value is Auto_prod_1
2018.07.04 06:11:34   info : Attribute entered value Auto_prod_1
2018.07.04 06:11:34   info : Total static wait time 3
2018.07.04 06:11:37   info : Xml obj_repo path C:\Talent_Automation_Framework_Backup\Project_Talent/ObjectRepositories/BenefitAsia2_EE/EE_SimpliflexSG_LoginLogout.xml
2018.07.04 06:11:37   info : xpath object successfully mapped!!
2018.07.04 06:11:37   info : xpath object contains property value !!
2018.07.04 06:11:37   info : Property name - xpath
2018.07.04 06:11:37   info : Property value - //input[contains(@id,"_txtPassword")]
2018.07.04 06:11:37   info : Finding xpath element on webpage..
2018.07.04 06:11:37   info : Searching for element. Try number 0
2018.07.04 06:11:38   info : element disappeared after trying for 1 times
2018.07.04 06:11:39   info : Current WebDriver Win Count is:: 1
2018.07.04 06:11:39   info : Element found!!
2018.07.04 06:11:39   info : ObjectTag input and ObjectType password
2018.07.04 06:11:39   info : Enter data operation
2018.07.04 06:11:39   info : Xml obj_repo path C:\Talent_Automation_Framework_Backup\Project_Talent/ObjectRepositories/BenefitAsia2_EE/EE_SimpliflexSG_LoginLogout.xml
2018.07.04 06:11:39   info : xpath object successfully mapped!!
2018.07.04 06:11:39   info : xpath object contains property value !!
2018.07.04 06:11:39   info : Property name - xpath
2018.07.04 06:11:39   info : Property value - //input[contains(@id,"_txtPassword")]
2018.07.04 06:11:39   info : Finding xpath element on webpage..
2018.07.04 06:11:39   info : Searching for element. Try number 0
2018.07.04 06:11:40   info : element disappeared after trying for 1 times
2018.07.04 06:11:41   info : Current WebDriver Win Count is:: 1
2018.07.04 06:11:42   info : Element found!!
2018.07.04 06:11:42   info : ValueToEnter Test@12345
2018.07.04 06:11:42   info : Entered value is Test@12345
2018.07.04 06:11:42   info : Attribute entered value Test@12345
2018.07.04 06:11:42   info : Checking for object in click
2018.07.04 06:11:42   info : Xml obj_repo path C:\Talent_Automation_Framework_Backup\Project_Talent/ObjectRepositories/BenefitAsia2_EE/EE_SimpliflexSG_LoginLogout.xml
2018.07.04 06:11:42   info : xpath object successfully mapped!!
2018.07.04 06:11:42   info : xpath object contains property value !!
2018.07.04 06:11:42   info : Property name - xpath
2018.07.04 06:11:42   info : Property value - //input[contains(@id,"_cmdLogin")]
2018.07.04 06:11:42   info : Finding xpath element on webpage..
2018.07.04 06:11:42   info : Searching for element. Try number 0
2018.07.04 06:11:43   info : element disappeared after trying for 1 times
2018.07.04 06:11:44   info : Current WebDriver Win Count is:: 1
2018.07.04 06:11:44   info : Element found!!
2018.07.04 06:11:44   info : Xml obj_repo path C:\Talent_Automation_Framework_Backup\Project_Talent/ObjectRepositories/BenefitAsia2_EE/EE_SimpliflexSG_LoginLogout.xml
2018.07.04 06:11:44   info : xpath object successfully mapped!!
2018.07.04 06:11:44   info : xpath object contains property value !!
2018.07.04 06:11:44   info : Property name - xpath
2018.07.04 06:11:44   info : Property value - //input[contains(@id,"_cmdLogin")]
2018.07.04 06:11:44   info : Finding xpath element on webpage..
2018.07.04 06:11:44   info : Searching for element. Try number 0
2018.07.04 06:11:45   info : element disappeared after trying for 1 times
2018.07.04 06:11:46   info : Current WebDriver Win Count is:: 1
2018.07.04 06:11:46   info : Element found!!
2018.07.04 06:11:56   info : clicked on LoginButton
2018.07.04 06:11:57   info : Current WebDriver Win Count is:: 1
2018.07.04 06:11:58   info : restult status : 1
2018.07.04 06:11:58   info : Test ID TC2 : previous test step/row 186 status is Passed and value of next test step/row is :: 187
2018.07.04 06:11:58   info : 

2018.07.04 06:11:58   info : -------------------- Executing Testcase ID TC2 and test step : 187 ---------------------- 
2018.07.04 06:11:59   info : Current WebDriver Win Count is:: 1
2018.07.04 06:11:59   info : Xml obj_repo path C:\Talent_Automation_Framework_Backup\Project_Talent/ObjectRepositories/BenefitAsia2_EE/EE_SimpliFlexSG_tabNavigation.xml
2018.07.04 06:11:59   info : Title in xml file - SimpliflexSG > Home
2018.07.04 06:11:59   info : Title of the page after - switching window To: SimpliflexSG > Home
2018.07.04 06:11:59   info : Desired window is activated!!
2018.07.04 06:11:59   info : page object present in excel : 4
2018.07.04 06:11:59   info : Under multiple object handle operation!!
2018.07.04 06:11:59   info : click operation perfomred!!
2018.07.04 06:11:59   info : textbased operation perfomred!!
2018.07.04 06:11:59   info : 4 operation perfomred!!
2018.07.04 06:11:59   info : Xml obj_repo path C:\Talent_Automation_Framework_Backup\Project_Talent/ObjectRepositories/BenefitAsia2_EE/EE_SimpliFlexSG_tabNavigation.xml
2018.07.04 06:11:59   info : class object successfully mapped!!
2018.07.04 06:11:59   info : class object contains property value !!
2018.07.04 06:11:59   info : Property name - class
2018.07.04 06:11:59   info : Property value - nav
2018.07.04 06:11:59   info : Finding class element on webpage..
2018.07.04 06:11:59   info : Element found!!
2018.07.04 06:11:59   info : Xml obj_repo path C:\Talent_Automation_Framework_Backup\Project_Talent/ObjectRepositories/BenefitAsia2_EE/EE_SimpliFlexSG_tabNavigation.xml
2018.07.04 06:11:59   info : tagname object successfully mapped!!
2018.07.04 06:11:59   info : tagname object contains property value !!
2018.07.04 06:11:59   info : Property name - tagname
2018.07.04 06:11:59   info : Property value - li
2018.07.04 06:11:59   info : Finding tagname element on webpage..
2018.07.04 06:11:59   info : Element found!!
2018.07.04 06:11:59   info : Xml obj_repo path C:\Talent_Automation_Framework_Backup\Project_Talent/ObjectRepositories/BenefitAsia2_EE/EE_SimpliFlexSG_tabNavigation.xml
2018.07.04 06:11:59   info : tagname object successfully mapped!!
2018.07.04 06:11:59   info : tagname object contains property value !!
2018.07.04 06:11:59   info : Property name - tagname
2018.07.04 06:11:59   info : Property value - a
2018.07.04 06:11:59   info : Finding tagname element on webpage..
2018.07.04 06:11:59   info : Element found!!
2018.07.04 06:11:59   info : Xml obj_repo path C:\Talent_Automation_Framework_Backup\Project_Talent/ObjectRepositories/BenefitAsia2_EE/EE_SimpliFlexSG_tabNavigation.xml
2018.07.04 06:11:59   info : tagname object successfully mapped!!
2018.07.04 06:11:59   info : tagname object contains property value !!
2018.07.04 06:11:59   info : Property name - tagname
2018.07.04 06:11:59   info : Property value - span
2018.07.04 06:11:59   info : Finding tagname element on webpage..
2018.07.04 06:11:59   info : Element found!!
2018.07.04 06:11:59   info : Size of element 6
2018.07.04 06:11:59   info : actData Home
2018.07.04 06:11:59   info : actData Start Enrollment
2018.07.04 06:12:01   info : Current WebDriver Win Count is:: 1
2018.07.04 06:12:01   info : restult status : 1
2018.07.04 06:12:01   info : Test ID TC2 : previous test step/row 187 status is Passed and value of next test step/row is :: 188
2018.07.04 06:12:01   info : 

2018.07.04 06:12:01   info : -------------------- Executing Testcase ID TC2 and test step : 188 ---------------------- 
2018.07.04 06:12:02   info : Current WebDriver Win Count is:: 1
2018.07.04 06:12:02   info : not doing anything!!
2018.07.04 06:12:02   info : Navigating to another url..
2018.07.04 06:12:07   info : Current WebDriver Win Count is:: 1
2018.07.04 06:12:07   info : restult status : 1
2018.07.04 06:12:07   info : Test ID TC2 : previous test step/row 188 status is Passed and value of next test step/row is :: 189
2018.07.04 06:12:07   info : 

2018.07.04 06:12:07   info : -------------------- Executing Testcase ID TC2 and test step : 189 ---------------------- 
2018.07.04 06:12:08   info : Current WebDriver Win Count is:: 1
2018.07.04 06:12:08   info : Xml obj_repo path C:\Talent_Automation_Framework_Backup\Project_Talent/ObjectRepositories/BenefitAsia2_EE/EE_SimpliflexSG_Enrolment.xml
2018.07.04 06:12:08   info : Title in xml file - MyEnrollment
2018.07.04 06:12:08   warn : Window is not switched, now trying based on element!!
2018.07.04 06:12:08   info : Window title My Enrollment
2018.07.04 06:12:08   info : Xml obj_repo path C:\Talent_Automation_Framework_Backup\Project_Talent/ObjectRepositories/BenefitAsia2_EE/EE_SimpliflexSG_Enrolment.xml
2018.07.04 06:12:08   info : xpath object successfully mapped!!
2018.07.04 06:12:08   info : xpath object contains property value !!
2018.07.04 06:12:08   info : Property name - xpath
2018.07.04 06:12:08   info : Property value - //*[contains(@id,"_ctl00_lblMessage")]
2018.07.04 06:12:08   info : Finding xpath element on webpage..
2018.07.04 06:12:08   info : Searching for element. Try number 0
2018.07.04 06:12:09   info : element disappeared after trying for 1 times
2018.07.04 06:12:10   info : Current WebDriver Win Count is:: 1
2018.07.04 06:12:10   info : Element found!!
2018.07.04 06:12:10   info : Desired window is activated!!
2018.07.04 06:12:10   info : Xml obj_repo path C:\Talent_Automation_Framework_Backup\Project_Talent/ObjectRepositories/BenefitAsia2_EE/EE_SimpliflexSG_Enrolment.xml
2018.07.04 06:12:10   info : xpath object successfully mapped!!
2018.07.04 06:12:10   info : xpath object contains property value !!
2018.07.04 06:12:10   info : Property name - xpath
2018.07.04 06:12:10   info : Property value - //*[contains(@id,"_ctl00_lblMessage")]
2018.07.04 06:12:10   info : Finding xpath element on webpage..
2018.07.04 06:12:10   info : Searching for element. Try number 0
2018.07.04 06:12:11   info : element disappeared after trying for 1 times
2018.07.04 06:12:12   info : Current WebDriver Win Count is:: 1
2018.07.04 06:12:12   info : Element found!!
2018.07.04 06:12:12   info : ObjectTag span and ObjectType null
2018.07.04 06:12:12   info : Exp_value Either you are not currently logged in, or you do not have access to this content.
2018.07.04 06:12:12   info : Searching for element. Try number 0
2018.07.04 06:12:13   info : element disappeared after trying for 1 times
2018.07.04 06:12:13   info : Actual ValueEither you are not currently logged in, or you do not have access to this content.
2018.07.04 06:12:13   info : Exp : Either you are not currently logged in, or you do not have access to this content. and act : Either you are not currently logged in, or you do not have access to this content. value matched!!
2018.07.04 06:12:14   info : Current WebDriver Win Count is:: 1
2018.07.04 06:12:15   info : restult status : 1
2018.07.04 06:12:15   info : Row TC2!=TC3 || (TC3==null)) && (189<=272)
2018.07.04 06:12:15   info : Status :: Passed :: Finalizing result report
2018.07.04 06:12:15   info : closing window...
2018.07.04 06:12:15   info : window size 1
2018.07.04 06:12:19   info : Window is closed!!
2018.07.04 06:12:19   info : PrevTestID - null == null && row 190<= 272
2018.07.04 06:12:19   info : Test ID TC3 : previous test step/row 189 status is passed and value of next test step/row is :: 190
2018.07.04 06:12:19   info : 

2018.07.04 06:12:19   info : -------------------- Executing Testcase ID TC3 and test step : 190 ---------------------- 
2018.07.04 06:12:19   info : please wait.. browser getting open !!
2018.07.04 06:12:30   info : Opening Application..
2018.07.04 06:12:32   info : Current WebDriver Win Count is:: 1
2018.07.04 06:12:32   info : restult status : 1
2018.07.04 06:12:32   info : Test ID TC3 : previous test step/row 190 status is Passed and value of next test step/row is :: 191
2018.07.04 06:12:32   info : 

2018.07.04 06:12:32   info : -------------------- Executing Testcase ID TC3 and test step : 191 ---------------------- 
2018.07.04 06:12:33   info : Current WebDriver Win Count is:: 1
2018.07.04 06:12:33   info : Xml obj_repo path C:\Talent_Automation_Framework_Backup\Project_Talent/ObjectRepositories/BenefitAsia2_MercerAdmin/MA_Home.xml
2018.07.04 06:12:33   info : Title in xml file - Home
2018.07.04 06:12:33   warn : Window is not switched, now trying based on element!!
2018.07.04 06:12:34   info : Window title Error
2018.07.04 06:12:34   info : Xml obj_repo path C:\Talent_Automation_Framework_Backup\Project_Talent/ObjectRepositories/BenefitAsia2_MercerAdmin/MA_Home.xml
2018.07.04 06:12:34   info : xpath object successfully mapped!!
2018.07.04 06:12:34   info : xpath object contains property value !!
2018.07.04 06:12:34   info : Property name - xpath
2018.07.04 06:12:34   info : Property value - //input[contains(@id,"ContentPlaceHolder1_TextBox1")]
2018.07.04 06:12:34   info : Finding xpath element on webpage..
2018.07.04 06:12:34   info : Searching for element. Try number 0
2018.07.04 06:12:35   info : element disappeared after trying for 1 times
2018.07.04 06:12:36   info : Current WebDriver Win Count is:: 1
