2018.07.04 06:15:14   info : Selenium version :: 2.48.2
2018.07.04 06:15:14   info : Download fodler path created!!
2018.07.04 06:15:14   info : date_time_down_folder C:\Talent_Automation_Framework_Backup\Project_Talent\Downloads\2018_07_04\time_18_15_14\
2018.07.04 06:15:15   info : Total number of applications :: 4
2018.07.04 06:15:15   info : Application Name - Auto_Sanity
2018.07.04 06:15:15   info : TestData_Sheet path:: C:\Talent_Automation_Framework_Backup\Project_Talent/TestCases/Auto_Sanity.xlsx
2018.07.04 06:15:15   info : CSV updating and creating dump....
2018.07.04 06:15:15   info : Sheet name: TestCaseScheduler
2018.07.04 06:15:15   info : Sheet name: Test Case
2018.07.04 06:15:15   info : Auto_Sanity sheetname found!!
2018.07.04 06:15:15   info : Total row 273
2018.07.04 06:15:15   info : After row validation for blank or null!!
2018.07.04 06:15:15   info : Total final row 272
2018.07.04 06:15:15   error : java.lang.NullPointerException
2018.07.04 06:15:15   info : Total number of test cases to be executed :: 1
2018.07.04 06:15:15   info : PrevTestID - null == null && row 190<= 272
2018.07.04 06:15:15   info : Test ID TC3 : previous test step/row 189 status is Passed and value of next test step/row is :: 190
2018.07.04 06:15:15   info : 

2018.07.04 06:15:15   info : -------------------- Executing Testcase ID TC3 and test step : 190 ---------------------- 
2018.07.04 06:15:16   info : please wait.. browser getting open !!
2018.07.04 06:15:28   info : Opening Application..
2018.07.04 06:15:34   info : Current WebDriver Win Count is:: 1
2018.07.04 06:15:34   info : restult status : 1
2018.07.04 06:15:35   info : Test ID TC3 : previous test step/row 190 status is Passed and value of next test step/row is :: 191
2018.07.04 06:15:35   info : 

2018.07.04 06:15:35   info : -------------------- Executing Testcase ID TC3 and test step : 191 ---------------------- 
2018.07.04 06:15:36   info : Current WebDriver Win Count is:: 1
2018.07.04 06:15:36   info : Xml obj_repo path C:\Talent_Automation_Framework_Backup\Project_Talent/ObjectRepositories/BenefitAsia2_MercerAdmin/MA_Home.xml
2018.07.04 06:15:36   info : Title in xml file - Home
2018.07.04 06:15:36   warn : Window is not switched, now trying based on element!!
2018.07.04 06:15:36   info : Window title Mercer Account Center
2018.07.04 06:15:36   info : Xml obj_repo path C:\Talent_Automation_Framework_Backup\Project_Talent/ObjectRepositories/BenefitAsia2_MercerAdmin/MA_Home.xml
2018.07.04 06:15:36   info : xpath object successfully mapped!!
2018.07.04 06:15:36   info : xpath object contains property value !!
2018.07.04 06:15:36   info : Property name - xpath
2018.07.04 06:15:36   info : Property value - //input[contains(@id,"ContentPlaceHolder1_TextBox1")]
2018.07.04 06:15:36   info : Finding xpath element on webpage..
2018.07.04 06:15:36   info : Searching for element. Try number 0
2018.07.04 06:15:37   info : element disappeared after trying for 1 times
2018.07.04 06:15:38   info : Current WebDriver Win Count is:: 1
2018.07.04 06:15:38   info : Element found!!
2018.07.04 06:15:38   info : Desired window is activated!!
2018.07.04 06:15:38   info : Total static wait time 3
2018.07.04 06:15:41   info : Xml obj_repo path C:\Talent_Automation_Framework_Backup\Project_Talent/ObjectRepositories/BenefitAsia2_MercerAdmin/MA_Home.xml
2018.07.04 06:15:41   info : xpath object successfully mapped!!
2018.07.04 06:15:41   info : xpath object contains property value !!
2018.07.04 06:15:41   info : Property name - xpath
2018.07.04 06:15:41   info : Property value - //input[contains(@id,"ContentPlaceHolder1_TextBox1")]
2018.07.04 06:15:41   info : Finding xpath element on webpage..
2018.07.04 06:15:41   info : Searching for element. Try number 0
2018.07.04 06:15:42   info : element disappeared after trying for 1 times
2018.07.04 06:15:43   info : Current WebDriver Win Count is:: 1
2018.07.04 06:15:43   info : Element found!!
2018.07.04 06:15:43   info : ObjectTag input and ObjectType text
2018.07.04 06:15:43   info : Enter data operation
2018.07.04 06:15:44   info : Xml obj_repo path C:\Talent_Automation_Framework_Backup\Project_Talent/ObjectRepositories/BenefitAsia2_MercerAdmin/MA_Home.xml
2018.07.04 06:15:44   info : xpath object successfully mapped!!
2018.07.04 06:15:44   info : xpath object contains property value !!
2018.07.04 06:15:44   info : Property name - xpath
2018.07.04 06:15:44   info : Property value - //input[contains(@id,"ContentPlaceHolder1_TextBox1")]
2018.07.04 06:15:44   info : Finding xpath element on webpage..
2018.07.04 06:15:44   info : Searching for element. Try number 0
2018.07.04 06:15:45   info : element disappeared after trying for 1 times
2018.07.04 06:15:46   info : Current WebDriver Win Count is:: 1
2018.07.04 06:15:46   info : Element found!!
2018.07.04 06:15:46   info : Xml obj_repo path C:\Talent_Automation_Framework_Backup\Project_Talent/ObjectRepositories/BenefitAsia2_MercerAdmin/MA_Home.xml
2018.07.04 06:15:46   info : xpath object successfully mapped!!
2018.07.04 06:15:46   info : xpath object contains property value !!
2018.07.04 06:15:46   info : Property name - xpath
2018.07.04 06:15:46   info : Property value - //input[contains(@id,"ContentPlaceHolder1_TextBox1")]
2018.07.04 06:15:46   info : Finding xpath element on webpage..
2018.07.04 06:15:46   info : Searching for element. Try number 0
2018.07.04 06:15:47   info : element disappeared after trying for 1 times
2018.07.04 06:15:48   info : Current WebDriver Win Count is:: 1
2018.07.04 06:15:48   info : Element found!!
2018.07.04 06:15:48   info : ValueToEnter ashish.choudhary@mercer.com
2018.07.04 06:15:48   info : Entered value is ashish.choudhary@mercer.com
2018.07.04 06:15:48   info : Attribute entered value ashish.choudhary@mercer.com
2018.07.04 06:15:49   info : Current WebDriver Win Count is:: 1
2018.07.04 06:15:50   info : restult status : 1
2018.07.04 06:15:50   info : Test ID TC3 : previous test step/row 191 status is Passed and value of next test step/row is :: 192
2018.07.04 06:15:50   info : 

2018.07.04 06:15:50   info : -------------------- Executing Testcase ID TC3 and test step : 192 ---------------------- 
2018.07.04 06:15:51   info : Current WebDriver Win Count is:: 1
2018.07.04 06:15:51   info : page object present in excel : 1
2018.07.04 06:15:51   info : Under single object handle operation!!
2018.07.04 06:15:51   info : col 6 data :  and col 5 data : SSO_Next_Button
2018.07.04 06:15:51   info : Normal click operation !!
2018.07.04 06:15:51   info : Checking for object in click
2018.07.04 06:15:51   info : Xml obj_repo path C:\Talent_Automation_Framework_Backup\Project_Talent/ObjectRepositories/BenefitAsia2_MercerAdmin/MA_Home.xml
2018.07.04 06:15:51   info : xpath object successfully mapped!!
2018.07.04 06:15:51   info : xpath object contains property value !!
2018.07.04 06:15:51   info : Property name - xpath
2018.07.04 06:15:51   info : Property value - //input[contains(@id,"ContentPlaceHolder1_PassiveSignInButton")]
2018.07.04 06:15:51   info : Finding xpath element on webpage..
2018.07.04 06:15:51   info : Searching for element. Try number 0
2018.07.04 06:15:52   info : element disappeared after trying for 1 times
2018.07.04 06:15:53   info : Current WebDriver Win Count is:: 1
2018.07.04 06:15:53   info : Element found!!
2018.07.04 06:15:53   info : Xml obj_repo path C:\Talent_Automation_Framework_Backup\Project_Talent/ObjectRepositories/BenefitAsia2_MercerAdmin/MA_Home.xml
2018.07.04 06:15:53   info : xpath object successfully mapped!!
2018.07.04 06:15:53   info : xpath object contains property value !!
2018.07.04 06:15:53   info : Property name - xpath
2018.07.04 06:15:53   info : Property value - //input[contains(@id,"ContentPlaceHolder1_PassiveSignInButton")]
2018.07.04 06:15:53   info : Finding xpath element on webpage..
2018.07.04 06:15:53   info : Searching for element. Try number 0
2018.07.04 06:15:54   info : element disappeared after trying for 1 times
2018.07.04 06:15:55   info : Current WebDriver Win Count is:: 1
2018.07.04 06:15:55   info : Element found!!
2018.07.04 06:16:03   info : clicked on SSO_Next_Button
2018.07.04 06:16:04   info : Current WebDriver Win Count is:: 1
2018.07.04 06:16:11   info : restult status : 1
2018.07.04 06:16:11   info : Test ID TC3 : previous test step/row 192 status is Passed and value of next test step/row is :: 193
2018.07.04 06:16:11   info : 

2018.07.04 06:16:11   info : -------------------- Executing Testcase ID TC3 and test step : 193 ---------------------- 
2018.07.04 06:16:13   info : Current WebDriver Win Count is:: 1
2018.07.04 06:16:13   info : not doing anything!!
2018.07.04 06:16:13   info : Navigating to another url..
2018.07.04 06:16:20   info : Current WebDriver Win Count is:: 1
2018.07.04 06:16:20   info : restult status : 1
2018.07.04 06:16:20   info : Test ID TC3 : previous test step/row 193 status is Passed and value of next test step/row is :: 194
2018.07.04 06:16:20   info : 

2018.07.04 06:16:20   info : -------------------- Executing Testcase ID TC3 and test step : 194 ---------------------- 
2018.07.04 06:16:21   info : Current WebDriver Win Count is:: 1
2018.07.04 06:16:21   info : page object present in excel : 1
2018.07.04 06:16:21   info : Under single object handle operation!!
2018.07.04 06:16:21   info : col 6 data : javascript_click and col 5 data : General_link
2018.07.04 06:16:21   info : Click case operation !!
2018.07.04 06:16:21   info : oprnm javascript_click
2018.07.04 06:16:21   info : click javascript_click operation perfomred!!
2018.07.04 06:16:21   info : Xml obj_repo path C:\Talent_Automation_Framework_Backup\Project_Talent/ObjectRepositories/BenefitAsia2_MercerAdmin/MA_Configuration_tool.xml
2018.07.04 06:16:21   info : xpath object successfully mapped!!
2018.07.04 06:16:21   info : xpath object contains property value !!
2018.07.04 06:16:21   info : Property name - xpath
2018.07.04 06:16:21   info : Property value - .//*[@id='demo1']/p[2]/a
2018.07.04 06:16:21   info : Finding xpath element on webpage..
2018.07.04 06:16:21   info : Searching for element. Try number 0
2018.07.04 06:16:22   info : element disappeared after trying for 1 times
2018.07.04 06:16:23   info : Current WebDriver Win Count is:: 1
2018.07.04 06:16:23   info : Element found!!
2018.07.04 06:16:24   info : Current WebDriver Win Count is:: 1
2018.07.04 06:16:24   info : restult status : 1
2018.07.04 06:16:25   info : Test ID TC3 : previous test step/row 194 status is Passed and value of next test step/row is :: 195
2018.07.04 06:16:25   info : 

2018.07.04 06:16:25   info : -------------------- Executing Testcase ID TC3 and test step : 195 ---------------------- 
2018.07.04 06:16:26   info : Current WebDriver Win Count is:: 1
2018.07.04 06:16:26   info : page object present in excel : 1
2018.07.04 06:16:26   info : Under single object handle operation!!
2018.07.04 06:16:26   info : col 6 data : javascript_click and col 5 data : Edit_config
2018.07.04 06:16:26   info : Click case operation !!
2018.07.04 06:16:26   info : oprnm javascript_click
2018.07.04 06:16:26   info : click javascript_click operation perfomred!!
2018.07.04 06:16:26   info : Xml obj_repo path C:\Talent_Automation_Framework_Backup\Project_Talent/ObjectRepositories/BenefitAsia2_MercerAdmin/MA_Configuration_tool.xml
2018.07.04 06:16:26   info : xpath object successfully mapped!!
2018.07.04 06:16:26   info : xpath object contains property value !!
2018.07.04 06:16:26   info : Property name - xpath
2018.07.04 06:16:26   info : Property value - //input[contains(@id,"_LandingControl_ctl00_uxGeneral_btnEdit") and @value='Edit']
2018.07.04 06:16:26   info : Finding xpath element on webpage..
2018.07.04 06:16:26   info : Searching for element. Try number 0
2018.07.04 06:16:27   info : element disappeared after trying for 1 times
2018.07.04 06:16:28   info : Current WebDriver Win Count is:: 1
2018.07.04 06:16:28   info : Element found!!
2018.07.04 06:16:29   info : Current WebDriver Win Count is:: 1
2018.07.04 06:16:32   info : restult status : 1
2018.07.04 06:16:32   info : Test ID TC3 : previous test step/row 195 status is Passed and value of next test step/row is :: 196
2018.07.04 06:16:32   info : 

2018.07.04 06:16:32   info : -------------------- Executing Testcase ID TC3 and test step : 196 ---------------------- 
2018.07.04 06:16:33   info : Current WebDriver Win Count is:: 1
2018.07.04 06:16:33   info : Total static wait time 3
2018.07.04 06:16:36   info : Xml obj_repo path C:\Talent_Automation_Framework_Backup\Project_Talent/ObjectRepositories/BenefitAsia2_MercerAdmin/MA_Configuration_tool.xml
2018.07.04 06:16:36   info : xpath object successfully mapped!!
2018.07.04 06:16:36   info : xpath object contains property value !!
2018.07.04 06:16:36   info : Property name - xpath
2018.07.04 06:16:36   info : Property value - //*[contains(@id,"_uxGeneral_txtCompanyName")]
2018.07.04 06:16:36   info : Finding xpath element on webpage..
2018.07.04 06:16:36   info : Searching for element. Try number 0
2018.07.04 06:16:37   info : element disappeared after trying for 1 times
2018.07.04 06:16:38   info : Current WebDriver Win Count is:: 1
2018.07.04 06:16:38   info : Element found!!
2018.07.04 06:16:38   info : ObjectTag input and ObjectType text
2018.07.04 06:16:38   info : Enter data operation
2018.07.04 06:16:39   info : Xml obj_repo path C:\Talent_Automation_Framework_Backup\Project_Talent/ObjectRepositories/BenefitAsia2_MercerAdmin/MA_Configuration_tool.xml
2018.07.04 06:16:39   info : xpath object successfully mapped!!
2018.07.04 06:16:39   info : xpath object contains property value !!
2018.07.04 06:16:39   info : Property name - xpath
2018.07.04 06:16:39   info : Property value - //*[contains(@id,"_uxGeneral_txtCompanyName")]
2018.07.04 06:16:39   info : Finding xpath element on webpage..
2018.07.04 06:16:39   info : Searching for element. Try number 0
2018.07.04 06:16:40   info : element disappeared after trying for 1 times
2018.07.04 06:16:41   info : Current WebDriver Win Count is:: 1
2018.07.04 06:16:41   info : Element found!!
2018.07.04 06:16:41   info : Xml obj_repo path C:\Talent_Automation_Framework_Backup\Project_Talent/ObjectRepositories/BenefitAsia2_MercerAdmin/MA_Configuration_tool.xml
2018.07.04 06:16:41   info : xpath object successfully mapped!!
2018.07.04 06:16:41   info : xpath object contains property value !!
2018.07.04 06:16:41   info : Property name - xpath
2018.07.04 06:16:41   info : Property value - //*[contains(@id,"_uxGeneral_txtCompanyName")]
2018.07.04 06:16:41   info : Finding xpath element on webpage..
2018.07.04 06:16:41   info : Searching for element. Try number 0
2018.07.04 06:16:42   info : element disappeared after trying for 1 times
2018.07.04 06:16:43   info : Current WebDriver Win Count is:: 1
2018.07.04 06:16:43   info : Element found!!
2018.07.04 06:16:44   info : ValueToEnter SimpliFlex SG_Updated
2018.07.04 06:16:44   info : Entered value is SimpliFlex SG_Updated
2018.07.04 06:16:44   info : Attribute entered value SimpliFlex SG_Updated
2018.07.04 06:16:45   info : Current WebDriver Win Count is:: 1
2018.07.04 06:16:45   info : restult status : 1
2018.07.04 06:16:45   info : Test ID TC3 : previous test step/row 196 status is Passed and value of next test step/row is :: 197
2018.07.04 06:16:45   info : 

2018.07.04 06:16:45   info : -------------------- Executing Testcase ID TC3 and test step : 197 ---------------------- 
2018.07.04 06:16:46   info : Current WebDriver Win Count is:: 1
2018.07.04 06:16:46   info : page object present in excel : 1
2018.07.04 06:16:46   info : Under single object handle operation!!
2018.07.04 06:16:46   info : col 6 data :  and col 5 data : Save_config
2018.07.04 06:16:46   info : Normal click operation !!
2018.07.04 06:16:46   info : Checking for object in click
2018.07.04 06:16:46   info : Xml obj_repo path C:\Talent_Automation_Framework_Backup\Project_Talent/ObjectRepositories/BenefitAsia2_MercerAdmin/MA_Configuration_tool.xml
2018.07.04 06:16:46   info : xpath object successfully mapped!!
2018.07.04 06:16:46   info : xpath object contains property value !!
2018.07.04 06:16:46   info : Property name - xpath
2018.07.04 06:16:46   info : Property value - //input[contains(@id,"_LandingControl_ctl00_uxGeneral_btnEdit") and @value='Save']
2018.07.04 06:16:46   info : Finding xpath element on webpage..
2018.07.04 06:16:46   info : Searching for element. Try number 0
2018.07.04 06:16:47   info : element disappeared after trying for 1 times
2018.07.04 06:16:48   info : Current WebDriver Win Count is:: 1
2018.07.04 06:16:48   info : Element found!!
2018.07.04 06:16:48   info : Xml obj_repo path C:\Talent_Automation_Framework_Backup\Project_Talent/ObjectRepositories/BenefitAsia2_MercerAdmin/MA_Configuration_tool.xml
2018.07.04 06:16:48   info : xpath object successfully mapped!!
2018.07.04 06:16:48   info : xpath object contains property value !!
2018.07.04 06:16:48   info : Property name - xpath
2018.07.04 06:16:48   info : Property value - //input[contains(@id,"_LandingControl_ctl00_uxGeneral_btnEdit") and @value='Save']
2018.07.04 06:16:48   info : Finding xpath element on webpage..
2018.07.04 06:16:48   info : Searching for element. Try number 0
2018.07.04 06:16:49   info : element disappeared after trying for 1 times
2018.07.04 06:16:50   info : Current WebDriver Win Count is:: 1
2018.07.04 06:16:50   info : Element found!!
2018.07.04 06:16:54   info : clicked on Save_config
2018.07.04 06:16:55   info : Current WebDriver Win Count is:: 1
2018.07.04 06:16:55   info : restult status : 1
2018.07.04 06:16:55   info : Test ID TC3 : previous test step/row 197 status is Passed and value of next test step/row is :: 198
2018.07.04 06:16:55   info : 

2018.07.04 06:16:55   info : -------------------- Executing Testcase ID TC3 and test step : 198 ---------------------- 
2018.07.04 06:16:56   info : Current WebDriver Win Count is:: 1
2018.07.04 06:16:56   info : Total static wait time 3
2018.07.04 06:16:59   info : Xml obj_repo path C:\Talent_Automation_Framework_Backup\Project_Talent/ObjectRepositories/BenefitAsia2_MercerAdmin/MA_Configuration_tool.xml
2018.07.04 06:16:59   info : xpath object successfully mapped!!
2018.07.04 06:16:59   info : xpath object contains property value !!
2018.07.04 06:16:59   info : Property name - xpath
2018.07.04 06:16:59   info : Property value - //*[contains(@id,"_LandingControl_") and contains(@id,"_txtStagingRemarks")]
2018.07.04 06:16:59   info : Finding xpath element on webpage..
2018.07.04 06:16:59   info : Searching for element. Try number 0
2018.07.04 06:17:00   info : element disappeared after trying for 1 times
2018.07.04 06:17:01   info : Current WebDriver Win Count is:: 1
2018.07.04 06:17:01   info : Element found!!
2018.07.04 06:17:01   info : ObjectTag input and ObjectType text
2018.07.04 06:17:01   info : Enter data operation
2018.07.04 06:17:02   info : Xml obj_repo path C:\Talent_Automation_Framework_Backup\Project_Talent/ObjectRepositories/BenefitAsia2_MercerAdmin/MA_Configuration_tool.xml
2018.07.04 06:17:02   info : xpath object successfully mapped!!
2018.07.04 06:17:02   info : xpath object contains property value !!
2018.07.04 06:17:02   info : Property name - xpath
2018.07.04 06:17:02   info : Property value - //*[contains(@id,"_LandingControl_") and contains(@id,"_txtStagingRemarks")]
2018.07.04 06:17:02   info : Finding xpath element on webpage..
2018.07.04 06:17:02   info : Searching for element. Try number 0
2018.07.04 06:17:03   info : element disappeared after trying for 1 times
2018.07.04 06:17:04   info : Current WebDriver Win Count is:: 1
2018.07.04 06:17:05   info : Element found!!
2018.07.04 06:17:05   info : Xml obj_repo path C:\Talent_Automation_Framework_Backup\Project_Talent/ObjectRepositories/BenefitAsia2_MercerAdmin/MA_Configuration_tool.xml
2018.07.04 06:17:05   info : xpath object successfully mapped!!
2018.07.04 06:17:05   info : xpath object contains property value !!
2018.07.04 06:17:05   info : Property name - xpath
2018.07.04 06:17:05   info : Property value - //*[contains(@id,"_LandingControl_") and contains(@id,"_txtStagingRemarks")]
2018.07.04 06:17:05   info : Finding xpath element on webpage..
2018.07.04 06:17:05   info : Searching for element. Try number 0
2018.07.04 06:17:06   info : element disappeared after trying for 1 times
2018.07.04 06:17:07   info : Current WebDriver Win Count is:: 1
2018.07.04 06:17:07   info : Element found!!
2018.07.04 06:17:07   info : ValueToEnter Automation
2018.07.04 06:17:07   info : Entered value is Automation
2018.07.04 06:17:07   info : Attribute entered value Automation
2018.07.04 06:17:08   info : Current WebDriver Win Count is:: 1
2018.07.04 06:17:08   info : restult status : 1
2018.07.04 06:17:08   info : Test ID TC3 : previous test step/row 198 status is Passed and value of next test step/row is :: 199
2018.07.04 06:17:08   info : 

2018.07.04 06:17:08   info : -------------------- Executing Testcase ID TC3 and test step : 199 ---------------------- 
2018.07.04 06:17:09   info : Current WebDriver Win Count is:: 1
2018.07.04 06:17:09   info : page object present in excel : 1
2018.07.04 06:17:09   info : Under single object handle operation!!
2018.07.04 06:17:09   info : col 6 data : alert_accept_multiple and col 5 data : Save_Staging
2018.07.04 06:17:09   info : Click case operation !!
2018.07.04 06:17:09   info : oprnm alert_accept_multiple
2018.07.04 06:17:09   info : Xml obj_repo path C:\Talent_Automation_Framework_Backup\Project_Talent/ObjectRepositories/BenefitAsia2_MercerAdmin/MA_Configuration_tool.xml
2018.07.04 06:17:09   info : xpath object successfully mapped!!
2018.07.04 06:17:09   info : xpath object contains property value !!
2018.07.04 06:17:09   info : Property name - xpath
2018.07.04 06:17:09   info : Property value - //input[contains(@id,"_LandingControl_") and contains(@id,"_btnSave") and @value='Save your changes to Staging']
2018.07.04 06:17:09   info : Finding xpath element on webpage..
2018.07.04 06:17:09   info : Searching for element. Try number 0
2018.07.04 06:17:10   info : element disappeared after trying for 1 times
2018.07.04 06:17:11   info : Current WebDriver Win Count is:: 1
2018.07.04 06:17:11   info : Element found!!
2018.07.04 06:17:11   info : click alert_accept_multiple operation perfomred!!
2018.07.04 06:17:18   info : Please note that this process will have an immediate effect on staging environment.
 Are you sure you want to save your changes to staging ?
2018.07.04 06:17:37   info : Alert is not present
2018.07.04 06:17:38   info : Current WebDriver Win Count is:: 1
2018.07.04 06:17:38   info : restult status : 1
2018.07.04 06:17:38   info : Test ID TC3 : previous test step/row 199 status is Passed and value of next test step/row is :: 200
2018.07.04 06:17:38   info : 

2018.07.04 06:17:38   info : -------------------- Executing Testcase ID TC3 and test step : 200 ---------------------- 
2018.07.04 06:17:39   info : Current WebDriver Win Count is:: 1
2018.07.04 06:17:39   info : Total static wait time 3
2018.07.04 06:17:42   info : Xml obj_repo path C:\Talent_Automation_Framework_Backup\Project_Talent/ObjectRepositories/BenefitAsia2_MercerAdmin/MA_Configuration_tool.xml
2018.07.04 06:17:42   info : xpath object successfully mapped!!
2018.07.04 06:17:42   info : xpath object contains property value !!
2018.07.04 06:17:42   info : Property name - xpath
2018.07.04 06:17:42   info : Property value - //*[contains(@id,"_LandingControl_") and contains(@id,"_txtProdRemarks")]
2018.07.04 06:17:42   info : Finding xpath element on webpage..
2018.07.04 06:17:42   info : Searching for element. Try number 0
2018.07.04 06:17:43   info : element disappeared after trying for 1 times
2018.07.04 06:17:44   info : Current WebDriver Win Count is:: 1
2018.07.04 06:17:44   info : Element found!!
2018.07.04 06:17:44   info : ObjectTag input and ObjectType text
2018.07.04 06:17:44   info : Enter data operation
2018.07.04 06:17:45   info : Xml obj_repo path C:\Talent_Automation_Framework_Backup\Project_Talent/ObjectRepositories/BenefitAsia2_MercerAdmin/MA_Configuration_tool.xml
2018.07.04 06:17:45   info : xpath object successfully mapped!!
2018.07.04 06:17:45   info : xpath object contains property value !!
2018.07.04 06:17:45   info : Property name - xpath
2018.07.04 06:17:45   info : Property value - //*[contains(@id,"_LandingControl_") and contains(@id,"_txtProdRemarks")]
2018.07.04 06:17:45   info : Finding xpath element on webpage..
2018.07.04 06:17:45   info : Searching for element. Try number 0
2018.07.04 06:17:46   info : element disappeared after trying for 1 times
2018.07.04 06:17:47   info : Current WebDriver Win Count is:: 1
2018.07.04 06:17:47   info : Element found!!
2018.07.04 06:17:47   info : Xml obj_repo path C:\Talent_Automation_Framework_Backup\Project_Talent/ObjectRepositories/BenefitAsia2_MercerAdmin/MA_Configuration_tool.xml
2018.07.04 06:17:47   info : xpath object successfully mapped!!
2018.07.04 06:17:47   info : xpath object contains property value !!
2018.07.04 06:17:47   info : Property name - xpath
2018.07.04 06:17:47   info : Property value - //*[contains(@id,"_LandingControl_") and contains(@id,"_txtProdRemarks")]
2018.07.04 06:17:47   info : Finding xpath element on webpage..
2018.07.04 06:17:47   info : Searching for element. Try number 0
2018.07.04 06:17:48   info : element disappeared after trying for 1 times
2018.07.04 06:17:49   info : Current WebDriver Win Count is:: 1
2018.07.04 06:17:49   info : Element found!!
2018.07.04 06:17:50   info : ValueToEnter Automation
2018.07.04 06:17:50   info : Entered value is Automation
2018.07.04 06:17:50   info : Attribute entered value Automation
2018.07.04 06:17:51   info : Current WebDriver Win Count is:: 1
2018.07.04 06:17:51   info : restult status : 1
2018.07.04 06:17:51   info : Test ID TC3 : previous test step/row 200 status is Passed and value of next test step/row is :: 201
2018.07.04 06:17:51   info : 

2018.07.04 06:17:51   info : -------------------- Executing Testcase ID TC3 and test step : 201 ---------------------- 
2018.07.04 06:17:52   info : Current WebDriver Win Count is:: 1
2018.07.04 06:17:52   info : page object present in excel : 1
2018.07.04 06:17:52   info : Under single object handle operation!!
2018.07.04 06:17:52   info : col 6 data : alert_accept_multiple and col 5 data : Prod_Sync
2018.07.04 06:17:52   info : Click case operation !!
2018.07.04 06:17:52   info : oprnm alert_accept_multiple
2018.07.04 06:17:52   info : Xml obj_repo path C:\Talent_Automation_Framework_Backup\Project_Talent/ObjectRepositories/BenefitAsia2_MercerAdmin/MA_Configuration_tool.xml
2018.07.04 06:17:52   info : xpath object successfully mapped!!
2018.07.04 06:17:52   info : xpath object contains property value !!
2018.07.04 06:17:52   info : Property name - xpath
2018.07.04 06:17:52   info : Property value - //*[contains(@id,"_LandingControl_") and contains(@id,"_synch")]
2018.07.04 06:17:52   info : Finding xpath element on webpage..
2018.07.04 06:17:52   info : Searching for element. Try number 0
2018.07.04 06:17:53   info : element disappeared after trying for 1 times
2018.07.04 06:17:54   info : Current WebDriver Win Count is:: 1
2018.07.04 06:17:54   info : Element found!!
2018.07.04 06:17:54   info : click alert_accept_multiple operation perfomred!!
2018.07.04 06:18:00   info : please note that this synchronization process will have immediate effect on production environment.
Are you sure you want to synchronize your changes to production ?
2018.07.04 06:18:13   info : Alert is not present
2018.07.04 06:18:14   info : Current WebDriver Win Count is:: 1
2018.07.04 06:18:14   info : restult status : 1
2018.07.04 06:18:14   info : Test ID TC3 : previous test step/row 201 status is Passed and value of next test step/row is :: 202
2018.07.04 06:18:14   info : 

2018.07.04 06:18:14   info : -------------------- Executing Testcase ID TC3 and test step : 202 ---------------------- 
2018.07.04 06:18:15   info : Current WebDriver Win Count is:: 1
2018.07.04 06:18:15   info : page object present in excel : 1
2018.07.04 06:18:15   info : Under single object handle operation!!
2018.07.04 06:18:15   info : col 6 data :  and col 5 data : Prod_Sync_popup
2018.07.04 06:18:15   info : Normal click operation !!
2018.07.04 06:18:15   info : Checking for object in click
2018.07.04 06:18:15   info : Xml obj_repo path C:\Talent_Automation_Framework_Backup\Project_Talent/ObjectRepositories/BenefitAsia2_MercerAdmin/MA_Configuration_tool.xml
2018.07.04 06:18:15   info : xpath object successfully mapped!!
2018.07.04 06:18:15   info : xpath object contains property value !!
2018.07.04 06:18:15   info : Property name - xpath
2018.07.04 06:18:15   info : Property value - //input[contains(@id,"_LandingControl_") and contains(@id,"_btnSynchronizeProdParams") and @value='Synchronize']
2018.07.04 06:18:15   info : Finding xpath element on webpage..
2018.07.04 06:18:15   info : Searching for element. Try number 0
2018.07.04 06:18:16   info : element disappeared after trying for 1 times
2018.07.04 06:18:17   info : Current WebDriver Win Count is:: 1
2018.07.04 06:18:17   info : Element found!!
2018.07.04 06:18:17   info : Xml obj_repo path C:\Talent_Automation_Framework_Backup\Project_Talent/ObjectRepositories/BenefitAsia2_MercerAdmin/MA_Configuration_tool.xml
2018.07.04 06:18:17   info : xpath object successfully mapped!!
2018.07.04 06:18:17   info : xpath object contains property value !!
2018.07.04 06:18:17   info : Property name - xpath
2018.07.04 06:18:17   info : Property value - //input[contains(@id,"_LandingControl_") and contains(@id,"_btnSynchronizeProdParams") and @value='Synchronize']
2018.07.04 06:18:17   info : Finding xpath element on webpage..
2018.07.04 06:18:17   info : Searching for element. Try number 0
2018.07.04 06:18:18   info : element disappeared after trying for 1 times
2018.07.04 06:18:19   info : Current WebDriver Win Count is:: 1
2018.07.04 06:18:19   info : Element found!!
2018.07.04 06:18:25   info : clicked on Prod_Sync_popup
2018.07.04 06:18:26   info : Current WebDriver Win Count is:: 1
2018.07.04 06:18:26   info : restult status : 1
2018.07.04 06:18:27   info : Test ID TC3 : previous test step/row 202 status is Passed and value of next test step/row is :: 203
2018.07.04 06:18:27   info : 

2018.07.04 06:18:27   info : -------------------- Executing Testcase ID TC3 and test step : 203 ---------------------- 
2018.07.04 06:18:28   info : Current WebDriver Win Count is:: 1
2018.07.04 06:18:28   info : not doing anything!!
2018.07.04 06:18:28   info : Navigating to another url..
2018.07.04 06:18:33   info : Current WebDriver Win Count is:: 1
2018.07.04 06:18:33   info : restult status : 1
2018.07.04 06:18:33   info : Test ID TC3 : previous test step/row 203 status is Passed and value of next test step/row is :: 204
2018.07.04 06:18:33   info : 

2018.07.04 06:18:33   info : -------------------- Executing Testcase ID TC3 and test step : 204 ---------------------- 
2018.07.04 06:18:34   info : Current WebDriver Win Count is:: 1
2018.07.04 06:18:34   info : Xml obj_repo path C:\Talent_Automation_Framework_Backup\Project_Talent/ObjectRepositories/BenefitAsia2_MercerAdmin/MA_Configuration_tool.xml
2018.07.04 06:18:34   info : Title contains null value in xml!!
2018.07.04 06:18:34   info : Window title Company
2018.07.04 06:18:34   info : Xml obj_repo path C:\Talent_Automation_Framework_Backup\Project_Talent/ObjectRepositories/BenefitAsia2_MercerAdmin/MA_Configuration_tool.xml
2018.07.04 06:18:34   info : xpath object successfully mapped!!
2018.07.04 06:18:34   info : xpath object contains property value !!
2018.07.04 06:18:34   info : Property name - xpath
2018.07.04 06:18:34   info : Property value - .//*[@id='dnn_CN_lblMsg']/span
2018.07.04 06:18:34   info : Finding xpath element on webpage..
2018.07.04 06:18:34   info : Searching for element. Try number 0
2018.07.04 06:18:35   info : element disappeared after trying for 1 times
2018.07.04 06:18:36   info : Current WebDriver Win Count is:: 1
2018.07.04 06:18:37   info : Element found!!
2018.07.04 06:18:37   info : Desired window is activated!!
2018.07.04 06:18:37   info : Xml obj_repo path C:\Talent_Automation_Framework_Backup\Project_Talent/ObjectRepositories/BenefitAsia2_MercerAdmin/MA_Configuration_tool.xml
2018.07.04 06:18:37   info : xpath object successfully mapped!!
2018.07.04 06:18:37   info : xpath object contains property value !!
2018.07.04 06:18:37   info : Property name - xpath
2018.07.04 06:18:37   info : Property value - .//*[@id='dnn_CN_lblMsg']/span
2018.07.04 06:18:37   info : Finding xpath element on webpage..
2018.07.04 06:18:37   info : Searching for element. Try number 0
2018.07.04 06:18:38   info : element disappeared after trying for 1 times
2018.07.04 06:18:39   info : Current WebDriver Win Count is:: 1
2018.07.04 06:18:39   info : Element found!!
2018.07.04 06:18:39   info : ObjectTag span and ObjectType null
2018.07.04 06:18:39   info : Exp_value SimpliFlex SG_Updated (SIMPLIFLEXSG)
2018.07.04 06:18:39   info : Searching for element. Try number 0
2018.07.04 06:18:40   info : element disappeared after trying for 1 times
2018.07.04 06:18:40   info : Actual ValueSimpliFlex SG_Updated (SimpliflexSG)
2018.07.04 06:18:40   info : Exp : SimpliFlex SG_Updated (SIMPLIFLEXSG) and act : SimpliFlex SG_Updated (SimpliflexSG) value matched!!
2018.07.04 06:18:41   info : Current WebDriver Win Count is:: 1
2018.07.04 06:18:41   info : restult status : 1
2018.07.04 06:18:41   info : Test ID TC3 : previous test step/row 204 status is Passed and value of next test step/row is :: 205
2018.07.04 06:18:41   info : 

2018.07.04 06:18:41   info : -------------------- Executing Testcase ID TC3 and test step : 205 ---------------------- 
2018.07.04 06:18:42   info : Current WebDriver Win Count is:: 1
2018.07.04 06:18:42   info : Xml obj_repo path C:\Talent_Automation_Framework_Backup\Project_Talent/ObjectRepositories/BenefitAsia2_MercerAdmin/MA_LoginLogout.xml
2018.07.04 06:18:42   info : Title contains null value in xml!!
2018.07.04 06:18:42   info : Window title Company
2018.07.04 06:18:42   info : Xml obj_repo path C:\Talent_Automation_Framework_Backup\Project_Talent/ObjectRepositories/BenefitAsia2_MercerAdmin/MA_LoginLogout.xml
2018.07.04 06:18:42   info : xpath object successfully mapped!!
2018.07.04 06:18:42   info : xpath object contains property value !!
2018.07.04 06:18:42   info : Property name - xpath
2018.07.04 06:18:42   info : Property value - //a[contains(@id,"_cmdLogin")]
2018.07.04 06:18:42   info : Finding xpath element on webpage..
2018.07.04 06:18:42   info : Searching for element. Try number 0
2018.07.04 06:18:43   info : element disappeared after trying for 1 times
2018.07.04 06:18:43   info : Element found!!
2018.07.04 06:18:43   info : Desired window is activated!!
2018.07.04 06:18:43   info : page object present in excel : 1
2018.07.04 06:18:43   info : Under single object handle operation!!
2018.07.04 06:18:43   info : col 6 data :  and col 5 data : Logout
2018.07.04 06:18:43   info : Normal click operation !!
2018.07.04 06:18:43   info : Checking for object in click
2018.07.04 06:18:43   info : Xml obj_repo path C:\Talent_Automation_Framework_Backup\Project_Talent/ObjectRepositories/BenefitAsia2_MercerAdmin/MA_LoginLogout.xml
2018.07.04 06:18:43   info : xpath object successfully mapped!!
2018.07.04 06:18:43   info : xpath object contains property value !!
2018.07.04 06:18:43   info : Property name - xpath
2018.07.04 06:18:43   info : Property value - //a[contains(@id,"_cmdLogin")]
2018.07.04 06:18:43   info : Finding xpath element on webpage..
2018.07.04 06:18:43   info : Searching for element. Try number 0
2018.07.04 06:18:45   info : element disappeared after trying for 1 times
2018.07.04 06:18:45   info : Element found!!
2018.07.04 06:18:45   info : Xml obj_repo path C:\Talent_Automation_Framework_Backup\Project_Talent/ObjectRepositories/BenefitAsia2_MercerAdmin/MA_LoginLogout.xml
2018.07.04 06:18:45   info : xpath object successfully mapped!!
2018.07.04 06:18:45   info : xpath object contains property value !!
2018.07.04 06:18:45   info : Property name - xpath
2018.07.04 06:18:45   info : Property value - //a[contains(@id,"_cmdLogin")]
2018.07.04 06:18:45   info : Finding xpath element on webpage..
2018.07.04 06:18:45   info : Searching for element. Try number 0
2018.07.04 06:18:46   info : element disappeared after trying for 1 times
2018.07.04 06:18:46   info : Element found!!
2018.07.04 06:18:49   info : clicked on Logout
2018.07.04 06:18:50   info : Current WebDriver Win Count is:: 1
2018.07.04 06:18:50   info : restult status : 1
2018.07.04 06:18:50   info : Test ID TC3 : previous test step/row 205 status is Passed and value of next test step/row is :: 206
2018.07.04 06:18:50   info : 

2018.07.04 06:18:50   info : -------------------- Executing Testcase ID TC3 and test step : 206 ---------------------- 
2018.07.04 06:18:51   info : Current WebDriver Win Count is:: 1
2018.07.04 06:18:51   info : not doing anything!!
2018.07.04 06:18:51   info : Navigating to another url..
2018.07.04 06:19:28   info : Current WebDriver Win Count is:: 1
2018.07.04 06:19:29   info : restult status : 1
2018.07.04 06:19:29   info : Test ID TC3 : previous test step/row 206 status is Passed and value of next test step/row is :: 207
2018.07.04 06:19:29   info : 

2018.07.04 06:19:29   info : -------------------- Executing Testcase ID TC3 and test step : 207 ---------------------- 
2018.07.04 06:19:30   info : Current WebDriver Win Count is:: 1
2018.07.04 06:19:30   info : Xml obj_repo path C:\Talent_Automation_Framework_Backup\Project_Talent/ObjectRepositories/BenefitAsia2_MercerAdmin/MA_Configuration_tool.xml
2018.07.04 06:19:30   info : Title contains null value in xml!!
2018.07.04 06:19:30   info : Window title Home
2018.07.04 06:19:30   info : Xml obj_repo path C:\Talent_Automation_Framework_Backup\Project_Talent/ObjectRepositories/BenefitAsia2_MercerAdmin/MA_Configuration_tool.xml
2018.07.04 06:19:30   info : xpath object successfully mapped!!
2018.07.04 06:19:30   info : xpath object contains property value !!
2018.07.04 06:19:30   info : Property name - xpath
2018.07.04 06:19:30   info : Property value - .//*[@id='dnn_CN_lblMsg']/span
2018.07.04 06:19:30   info : Finding xpath element on webpage..
2018.07.04 06:19:30   info : Searching for element. Try number 0
2018.07.04 06:19:31   info : element disappeared after trying for 1 times
2018.07.04 06:19:32   info : Current WebDriver Win Count is:: 1
2018.07.04 06:19:32   info : Element found!!
2018.07.04 06:19:32   info : Desired window is activated!!
2018.07.04 06:19:32   info : Xml obj_repo path C:\Talent_Automation_Framework_Backup\Project_Talent/ObjectRepositories/BenefitAsia2_MercerAdmin/MA_Configuration_tool.xml
2018.07.04 06:19:32   info : xpath object successfully mapped!!
2018.07.04 06:19:32   info : xpath object contains property value !!
2018.07.04 06:19:32   info : Property name - xpath
2018.07.04 06:19:32   info : Property value - .//*[@id='dnn_CN_lblMsg']/span
2018.07.04 06:19:32   info : Finding xpath element on webpage..
2018.07.04 06:19:32   info : Searching for element. Try number 0
2018.07.04 06:19:33   info : element disappeared after trying for 1 times
2018.07.04 06:19:34   info : Current WebDriver Win Count is:: 1
2018.07.04 06:19:34   info : Element found!!
2018.07.04 06:19:34   info : ObjectTag span and ObjectType null
2018.07.04 06:19:34   info : Exp_value SimpliFlex SG_Updated (SIMPLIFLEXSG)
2018.07.04 06:19:34   info : Searching for element. Try number 0
2018.07.04 06:19:35   info : element disappeared after trying for 1 times
2018.07.04 06:19:35   info : Actual ValueSimpliFlex SG_Updated (SimpliflexSG)
2018.07.04 06:19:35   info : Exp : SimpliFlex SG_Updated (SIMPLIFLEXSG) and act : SimpliFlex SG_Updated (SimpliflexSG) value matched!!
2018.07.04 06:19:36   info : Current WebDriver Win Count is:: 1
2018.07.04 06:19:36   info : restult status : 1
2018.07.04 06:19:36   info : Test ID TC3 : previous test step/row 207 status is Passed and value of next test step/row is :: 208
2018.07.04 06:19:36   info : 

2018.07.04 06:19:36   info : -------------------- Executing Testcase ID TC3 and test step : 208 ---------------------- 
2018.07.04 06:19:37   info : Current WebDriver Win Count is:: 1
2018.07.04 06:19:37   info : Xml obj_repo path C:\Talent_Automation_Framework_Backup\Project_Talent/ObjectRepositories/BenefitAsia2_MercerAdmin/MA_LoginLogout.xml
2018.07.04 06:19:37   info : Title contains null value in xml!!
2018.07.04 06:19:37   info : Window title Home
2018.07.04 06:19:37   info : Xml obj_repo path C:\Talent_Automation_Framework_Backup\Project_Talent/ObjectRepositories/BenefitAsia2_MercerAdmin/MA_LoginLogout.xml
2018.07.04 06:19:37   info : xpath object successfully mapped!!
2018.07.04 06:19:37   info : xpath object contains property value !!
2018.07.04 06:19:37   info : Property name - xpath
2018.07.04 06:19:37   info : Property value - //a[contains(@id,"_cmdLogin")]
2018.07.04 06:19:37   info : Finding xpath element on webpage..
2018.07.04 06:19:37   info : Searching for element. Try number 0
2018.07.04 06:19:38   info : element disappeared after trying for 1 times
2018.07.04 06:19:38   info : Element found!!
2018.07.04 06:19:38   info : Desired window is activated!!
2018.07.04 06:19:39   info : page object present in excel : 1
2018.07.04 06:19:39   info : Under single object handle operation!!
2018.07.04 06:19:39   info : col 6 data :  and col 5 data : Logout
2018.07.04 06:19:39   info : Normal click operation !!
2018.07.04 06:19:39   info : Checking for object in click
2018.07.04 06:19:39   info : Xml obj_repo path C:\Talent_Automation_Framework_Backup\Project_Talent/ObjectRepositories/BenefitAsia2_MercerAdmin/MA_LoginLogout.xml
2018.07.04 06:19:39   info : xpath object successfully mapped!!
2018.07.04 06:19:39   info : xpath object contains property value !!
2018.07.04 06:19:39   info : Property name - xpath
2018.07.04 06:19:39   info : Property value - //a[contains(@id,"_cmdLogin")]
2018.07.04 06:19:39   info : Finding xpath element on webpage..
2018.07.04 06:19:39   info : Searching for element. Try number 0
2018.07.04 06:19:40   info : element disappeared after trying for 1 times
2018.07.04 06:19:40   info : Element found!!
2018.07.04 06:19:40   info : Xml obj_repo path C:\Talent_Automation_Framework_Backup\Project_Talent/ObjectRepositories/BenefitAsia2_MercerAdmin/MA_LoginLogout.xml
2018.07.04 06:19:40   info : xpath object successfully mapped!!
2018.07.04 06:19:40   info : xpath object contains property value !!
2018.07.04 06:19:40   info : Property name - xpath
2018.07.04 06:19:40   info : Property value - //a[contains(@id,"_cmdLogin")]
2018.07.04 06:19:40   info : Finding xpath element on webpage..
2018.07.04 06:19:40   info : Searching for element. Try number 0
2018.07.04 06:19:41   info : element disappeared after trying for 1 times
2018.07.04 06:19:41   info : Element found!!
2018.07.04 06:19:43   info : clicked on Logout
2018.07.04 06:19:44   info : Current WebDriver Win Count is:: 1
2018.07.04 06:19:44   info : restult status : 1
2018.07.04 06:19:44   info : Test ID TC3 : previous test step/row 208 status is Passed and value of next test step/row is :: 209
2018.07.04 06:19:44   info : 

2018.07.04 06:19:44   info : -------------------- Executing Testcase ID TC3 and test step : 209 ---------------------- 
2018.07.04 06:19:45   info : Current WebDriver Win Count is:: 1
2018.07.04 06:19:45   info : not doing anything!!
2018.07.04 06:19:45   info : Navigating to another url..
2018.07.04 06:19:55   info : Current WebDriver Win Count is:: 1
2018.07.04 06:19:55   info : restult status : 1
2018.07.04 06:19:56   info : Test ID TC3 : previous test step/row 209 status is Passed and value of next test step/row is :: 210
2018.07.04 06:19:56   info : 

2018.07.04 06:19:56   info : -------------------- Executing Testcase ID TC3 and test step : 210 ---------------------- 
2018.07.04 06:19:57   info : Current WebDriver Win Count is:: 1
2018.07.04 06:19:57   info : Navigating to another url..
2018.07.04 06:20:02   info : Current WebDriver Win Count is:: 1
2018.07.04 06:20:02   info : restult status : 1
2018.07.04 06:20:02   info : Test ID TC3 : previous test step/row 210 status is Passed and value of next test step/row is :: 211
2018.07.04 06:20:02   info : 

2018.07.04 06:20:02   info : -------------------- Executing Testcase ID TC3 and test step : 211 ---------------------- 
2018.07.04 06:20:04   info : Current WebDriver Win Count is:: 1
2018.07.04 06:20:04   info : Xml obj_repo path C:\Talent_Automation_Framework_Backup\Project_Talent/ObjectRepositories/BenefitAsia2_MercerAdmin/MA_Configuration_tool.xml
2018.07.04 06:20:04   info : Title contains null value in xml!!
2018.07.04 06:20:04   info : Window title Client Information
2018.07.04 06:20:04   info : Xml obj_repo path C:\Talent_Automation_Framework_Backup\Project_Talent/ObjectRepositories/BenefitAsia2_MercerAdmin/MA_Configuration_tool.xml
2018.07.04 06:20:04   info : xpath object successfully mapped!!
2018.07.04 06:20:04   info : xpath object contains property value !!
2018.07.04 06:20:04   info : Property name - xpath
2018.07.04 06:20:04   info : Property value - .//*[@id='demo1']/p[2]/a
2018.07.04 06:20:04   info : Finding xpath element on webpage..
2018.07.04 06:20:04   info : Searching for element. Try number 0
2018.07.04 06:20:05   info : element disappeared after trying for 1 times
2018.07.04 06:20:06   info : Current WebDriver Win Count is:: 1
2018.07.04 06:20:06   info : Element found!!
2018.07.04 06:20:06   info : Desired window is activated!!
2018.07.04 06:20:06   info : page object present in excel : 1
2018.07.04 06:20:06   info : Under single object handle operation!!
2018.07.04 06:20:06   info : col 6 data : javascript_click and col 5 data : General_link
2018.07.04 06:20:06   info : Click case operation !!
2018.07.04 06:20:06   info : oprnm javascript_click
2018.07.04 06:20:06   info : click javascript_click operation perfomred!!
2018.07.04 06:20:06   info : Xml obj_repo path C:\Talent_Automation_Framework_Backup\Project_Talent/ObjectRepositories/BenefitAsia2_MercerAdmin/MA_Configuration_tool.xml
2018.07.04 06:20:06   info : xpath object successfully mapped!!
2018.07.04 06:20:06   info : xpath object contains property value !!
2018.07.04 06:20:06   info : Property name - xpath
2018.07.04 06:20:06   info : Property value - .//*[@id='demo1']/p[2]/a
2018.07.04 06:20:06   info : Finding xpath element on webpage..
2018.07.04 06:20:06   info : Searching for element. Try number 0
2018.07.04 06:20:07   info : element disappeared after trying for 1 times
2018.07.04 06:20:08   info : Current WebDriver Win Count is:: 1
2018.07.04 06:20:08   info : Element found!!
2018.07.04 06:20:09   info : Current WebDriver Win Count is:: 1
2018.07.04 06:20:09   info : restult status : 1
2018.07.04 06:20:09   info : Test ID TC3 : previous test step/row 211 status is Passed and value of next test step/row is :: 212
2018.07.04 06:20:09   info : 

2018.07.04 06:20:09   info : -------------------- Executing Testcase ID TC3 and test step : 212 ---------------------- 
2018.07.04 06:20:10   info : Current WebDriver Win Count is:: 1
2018.07.04 06:20:10   info : page object present in excel : 1
2018.07.04 06:20:10   info : Under single object handle operation!!
2018.07.04 06:20:10   info : col 6 data : javascript_click and col 5 data : Edit_config
2018.07.04 06:20:10   info : Click case operation !!
2018.07.04 06:20:10   info : oprnm javascript_click
2018.07.04 06:20:10   info : click javascript_click operation perfomred!!
2018.07.04 06:20:10   info : Xml obj_repo path C:\Talent_Automation_Framework_Backup\Project_Talent/ObjectRepositories/BenefitAsia2_MercerAdmin/MA_Configuration_tool.xml
2018.07.04 06:20:10   info : xpath object successfully mapped!!
2018.07.04 06:20:10   info : xpath object contains property value !!
2018.07.04 06:20:10   info : Property name - xpath
2018.07.04 06:20:10   info : Property value - //input[contains(@id,"_LandingControl_ctl00_uxGeneral_btnEdit") and @value='Edit']
2018.07.04 06:20:10   info : Finding xpath element on webpage..
2018.07.04 06:20:10   info : Searching for element. Try number 0
2018.07.04 06:20:11   info : element disappeared after trying for 1 times
2018.07.04 06:20:12   info : Current WebDriver Win Count is:: 1
2018.07.04 06:20:13   info : Element found!!
2018.07.04 06:20:14   info : Current WebDriver Win Count is:: 1
2018.07.04 06:20:16   info : restult status : 1
2018.07.04 06:20:16   info : Test ID TC3 : previous test step/row 212 status is Passed and value of next test step/row is :: 213
2018.07.04 06:20:16   info : 

2018.07.04 06:20:16   info : -------------------- Executing Testcase ID TC3 and test step : 213 ---------------------- 
2018.07.04 06:20:17   info : Current WebDriver Win Count is:: 1
2018.07.04 06:20:17   info : Total static wait time 3
2018.07.04 06:20:20   info : Xml obj_repo path C:\Talent_Automation_Framework_Backup\Project_Talent/ObjectRepositories/BenefitAsia2_MercerAdmin/MA_Configuration_tool.xml
2018.07.04 06:20:20   info : xpath object successfully mapped!!
2018.07.04 06:20:20   info : xpath object contains property value !!
2018.07.04 06:20:20   info : Property name - xpath
2018.07.04 06:20:20   info : Property value - //*[contains(@id,"_uxGeneral_txtCompanyName")]
2018.07.04 06:20:20   info : Finding xpath element on webpage..
2018.07.04 06:20:20   info : Searching for element. Try number 0
2018.07.04 06:20:21   info : element disappeared after trying for 1 times
2018.07.04 06:20:22   info : Current WebDriver Win Count is:: 1
2018.07.04 06:20:22   info : Element found!!
2018.07.04 06:20:22   info : ObjectTag input and ObjectType text
2018.07.04 06:20:22   info : Enter data operation
2018.07.04 06:20:23   info : Xml obj_repo path C:\Talent_Automation_Framework_Backup\Project_Talent/ObjectRepositories/BenefitAsia2_MercerAdmin/MA_Configuration_tool.xml
2018.07.04 06:20:23   info : xpath object successfully mapped!!
2018.07.04 06:20:23   info : xpath object contains property value !!
2018.07.04 06:20:23   info : Property name - xpath
2018.07.04 06:20:23   info : Property value - //*[contains(@id,"_uxGeneral_txtCompanyName")]
2018.07.04 06:20:23   info : Finding xpath element on webpage..
2018.07.04 06:20:23   info : Searching for element. Try number 0
2018.07.04 06:20:24   info : element disappeared after trying for 1 times
2018.07.04 06:20:25   info : Current WebDriver Win Count is:: 1
2018.07.04 06:20:26   info : Element found!!
2018.07.04 06:20:26   info : Xml obj_repo path C:\Talent_Automation_Framework_Backup\Project_Talent/ObjectRepositories/BenefitAsia2_MercerAdmin/MA_Configuration_tool.xml
2018.07.04 06:20:26   info : xpath object successfully mapped!!
2018.07.04 06:20:26   info : xpath object contains property value !!
2018.07.04 06:20:26   info : Property name - xpath
2018.07.04 06:20:26   info : Property value - //*[contains(@id,"_uxGeneral_txtCompanyName")]
2018.07.04 06:20:26   info : Finding xpath element on webpage..
2018.07.04 06:20:26   info : Searching for element. Try number 0
2018.07.04 06:20:27   info : element disappeared after trying for 1 times
2018.07.04 06:20:28   info : Current WebDriver Win Count is:: 1
2018.07.04 06:20:28   info : Element found!!
2018.07.04 06:20:28   info : ValueToEnter SimpliFlex SG
2018.07.04 06:20:28   info : Entered value is SimpliFlex SG
2018.07.04 06:20:28   info : Attribute entered value SimpliFlex SG
2018.07.04 06:20:29   info : Current WebDriver Win Count is:: 1
2018.07.04 06:20:29   info : restult status : 1
2018.07.04 06:20:29   info : Test ID TC3 : previous test step/row 213 status is Passed and value of next test step/row is :: 214
2018.07.04 06:20:29   info : 

2018.07.04 06:20:29   info : -------------------- Executing Testcase ID TC3 and test step : 214 ---------------------- 
2018.07.04 06:20:30   info : Current WebDriver Win Count is:: 1
2018.07.04 06:20:30   info : page object present in excel : 1
2018.07.04 06:20:30   info : Under single object handle operation!!
2018.07.04 06:20:30   info : col 6 data :  and col 5 data : Save_config
2018.07.04 06:20:30   info : Normal click operation !!
2018.07.04 06:20:30   info : Checking for object in click
2018.07.04 06:20:30   info : Xml obj_repo path C:\Talent_Automation_Framework_Backup\Project_Talent/ObjectRepositories/BenefitAsia2_MercerAdmin/MA_Configuration_tool.xml
2018.07.04 06:20:30   info : xpath object successfully mapped!!
2018.07.04 06:20:30   info : xpath object contains property value !!
2018.07.04 06:20:30   info : Property name - xpath
2018.07.04 06:20:30   info : Property value - //input[contains(@id,"_LandingControl_ctl00_uxGeneral_btnEdit") and @value='Save']
2018.07.04 06:20:30   info : Finding xpath element on webpage..
2018.07.04 06:20:30   info : Searching for element. Try number 0
2018.07.04 06:20:31   info : element disappeared after trying for 1 times
2018.07.04 06:20:32   info : Current WebDriver Win Count is:: 1
2018.07.04 06:20:32   info : Element found!!
2018.07.04 06:20:32   info : Xml obj_repo path C:\Talent_Automation_Framework_Backup\Project_Talent/ObjectRepositories/BenefitAsia2_MercerAdmin/MA_Configuration_tool.xml
2018.07.04 06:20:32   info : xpath object successfully mapped!!
2018.07.04 06:20:32   info : xpath object contains property value !!
2018.07.04 06:20:32   info : Property name - xpath
2018.07.04 06:20:32   info : Property value - //input[contains(@id,"_LandingControl_ctl00_uxGeneral_btnEdit") and @value='Save']
2018.07.04 06:20:32   info : Finding xpath element on webpage..
2018.07.04 06:20:32   info : Searching for element. Try number 0
2018.07.04 06:20:33   info : element disappeared after trying for 1 times
2018.07.04 06:20:34   info : Current WebDriver Win Count is:: 1
2018.07.04 06:20:35   info : Element found!!
2018.07.04 06:20:37   info : clicked on Save_config
2018.07.04 06:20:38   info : Current WebDriver Win Count is:: 1
2018.07.04 06:20:39   info : restult status : 1
2018.07.04 06:20:39   info : Test ID TC3 : previous test step/row 214 status is Passed and value of next test step/row is :: 215
2018.07.04 06:20:39   info : 

2018.07.04 06:20:39   info : -------------------- Executing Testcase ID TC3 and test step : 215 ---------------------- 
2018.07.04 06:20:40   info : Current WebDriver Win Count is:: 1
2018.07.04 06:20:40   info : Total static wait time 3
2018.07.04 06:20:43   info : Xml obj_repo path C:\Talent_Automation_Framework_Backup\Project_Talent/ObjectRepositories/BenefitAsia2_MercerAdmin/MA_Configuration_tool.xml
2018.07.04 06:20:43   info : xpath object successfully mapped!!
2018.07.04 06:20:43   info : xpath object contains property value !!
2018.07.04 06:20:43   info : Property name - xpath
2018.07.04 06:20:43   info : Property value - //*[contains(@id,"_LandingControl_") and contains(@id,"_txtStagingRemarks")]
2018.07.04 06:20:43   info : Finding xpath element on webpage..
2018.07.04 06:20:43   info : Searching for element. Try number 0
2018.07.04 06:20:44   info : element disappeared after trying for 1 times
2018.07.04 06:20:45   info : Current WebDriver Win Count is:: 1
2018.07.04 06:20:45   info : Element found!!
2018.07.04 06:20:45   info : ObjectTag input and ObjectType text
2018.07.04 06:20:45   info : Enter data operation
2018.07.04 06:20:46   info : Xml obj_repo path C:\Talent_Automation_Framework_Backup\Project_Talent/ObjectRepositories/BenefitAsia2_MercerAdmin/MA_Configuration_tool.xml
2018.07.04 06:20:46   info : xpath object successfully mapped!!
2018.07.04 06:20:46   info : xpath object contains property value !!
2018.07.04 06:20:46   info : Property name - xpath
2018.07.04 06:20:46   info : Property value - //*[contains(@id,"_LandingControl_") and contains(@id,"_txtStagingRemarks")]
2018.07.04 06:20:46   info : Finding xpath element on webpage..
2018.07.04 06:20:46   info : Searching for element. Try number 0
2018.07.04 06:20:47   info : element disappeared after trying for 1 times
2018.07.04 06:20:48   info : Current WebDriver Win Count is:: 1
2018.07.04 06:20:48   info : Element found!!
2018.07.04 06:20:48   info : Xml obj_repo path C:\Talent_Automation_Framework_Backup\Project_Talent/ObjectRepositories/BenefitAsia2_MercerAdmin/MA_Configuration_tool.xml
2018.07.04 06:20:48   info : xpath object successfully mapped!!
2018.07.04 06:20:48   info : xpath object contains property value !!
2018.07.04 06:20:48   info : Property name - xpath
2018.07.04 06:20:48   info : Property value - //*[contains(@id,"_LandingControl_") and contains(@id,"_txtStagingRemarks")]
2018.07.04 06:20:48   info : Finding xpath element on webpage..
2018.07.04 06:20:48   info : Searching for element. Try number 0
2018.07.04 06:20:49   info : element disappeared after trying for 1 times
2018.07.04 06:20:50   info : Current WebDriver Win Count is:: 1
2018.07.04 06:20:51   info : Element found!!
2018.07.04 06:20:51   info : ValueToEnter Automation
2018.07.04 06:20:51   info : Entered value is Automation
2018.07.04 06:20:51   info : Attribute entered value Automation
2018.07.04 06:20:52   info : Current WebDriver Win Count is:: 1
2018.07.04 06:20:52   info : restult status : 1
2018.07.04 06:20:52   info : Test ID TC3 : previous test step/row 215 status is Passed and value of next test step/row is :: 216
2018.07.04 06:20:52   info : 

2018.07.04 06:20:52   info : -------------------- Executing Testcase ID TC3 and test step : 216 ---------------------- 
2018.07.04 06:20:53   info : Current WebDriver Win Count is:: 1
2018.07.04 06:20:53   info : page object present in excel : 1
2018.07.04 06:20:53   info : Under single object handle operation!!
2018.07.04 06:20:53   info : col 6 data : alert_accept_multiple and col 5 data : Save_Staging
2018.07.04 06:20:53   info : Click case operation !!
2018.07.04 06:20:53   info : oprnm alert_accept_multiple
2018.07.04 06:20:53   info : Xml obj_repo path C:\Talent_Automation_Framework_Backup\Project_Talent/ObjectRepositories/BenefitAsia2_MercerAdmin/MA_Configuration_tool.xml
2018.07.04 06:20:53   info : xpath object successfully mapped!!
2018.07.04 06:20:53   info : xpath object contains property value !!
2018.07.04 06:20:53   info : Property name - xpath
2018.07.04 06:20:53   info : Property value - //input[contains(@id,"_LandingControl_") and contains(@id,"_btnSave") and @value='Save your changes to Staging']
2018.07.04 06:20:53   info : Finding xpath element on webpage..
2018.07.04 06:20:53   info : Searching for element. Try number 0
2018.07.04 06:20:54   info : element disappeared after trying for 1 times
2018.07.04 06:20:55   info : Current WebDriver Win Count is:: 1
2018.07.04 06:20:55   info : Element found!!
2018.07.04 06:20:55   info : click alert_accept_multiple operation perfomred!!
2018.07.04 06:21:01   info : Please note that this process will have an immediate effect on staging environment.
 Are you sure you want to save your changes to staging ?
2018.07.04 06:21:14   info : Alert is not present
2018.07.04 06:21:15   info : Current WebDriver Win Count is:: 1
2018.07.04 06:21:15   info : restult status : 1
2018.07.04 06:21:15   info : Test ID TC3 : previous test step/row 216 status is Passed and value of next test step/row is :: 217
2018.07.04 06:21:15   info : 

2018.07.04 06:21:15   info : -------------------- Executing Testcase ID TC3 and test step : 217 ---------------------- 
2018.07.04 06:21:16   info : Current WebDriver Win Count is:: 1
2018.07.04 06:21:16   info : Total static wait time 3
2018.07.04 06:21:19   info : Xml obj_repo path C:\Talent_Automation_Framework_Backup\Project_Talent/ObjectRepositories/BenefitAsia2_MercerAdmin/MA_Configuration_tool.xml
2018.07.04 06:21:19   info : xpath object successfully mapped!!
2018.07.04 06:21:19   info : xpath object contains property value !!
2018.07.04 06:21:19   info : Property name - xpath
2018.07.04 06:21:19   info : Property value - //*[contains(@id,"_LandingControl_") and contains(@id,"_txtProdRemarks")]
2018.07.04 06:21:19   info : Finding xpath element on webpage..
2018.07.04 06:21:19   info : Searching for element. Try number 0
2018.07.04 06:21:21   info : element disappeared after trying for 1 times
2018.07.04 06:21:22   info : Current WebDriver Win Count is:: 1
2018.07.04 06:21:22   info : Element found!!
2018.07.04 06:21:22   info : ObjectTag input and ObjectType text
2018.07.04 06:21:22   info : Enter data operation
2018.07.04 06:21:23   info : Xml obj_repo path C:\Talent_Automation_Framework_Backup\Project_Talent/ObjectRepositories/BenefitAsia2_MercerAdmin/MA_Configuration_tool.xml
2018.07.04 06:21:23   info : xpath object successfully mapped!!
2018.07.04 06:21:23   info : xpath object contains property value !!
2018.07.04 06:21:23   info : Property name - xpath
2018.07.04 06:21:23   info : Property value - //*[contains(@id,"_LandingControl_") and contains(@id,"_txtProdRemarks")]
2018.07.04 06:21:23   info : Finding xpath element on webpage..
2018.07.04 06:21:23   info : Searching for element. Try number 0
2018.07.04 06:21:24   info : element disappeared after trying for 1 times
2018.07.04 06:21:25   info : Current WebDriver Win Count is:: 1
2018.07.04 06:21:25   info : Element found!!
2018.07.04 06:21:25   info : Xml obj_repo path C:\Talent_Automation_Framework_Backup\Project_Talent/ObjectRepositories/BenefitAsia2_MercerAdmin/MA_Configuration_tool.xml
2018.07.04 06:21:25   info : xpath object successfully mapped!!
2018.07.04 06:21:25   info : xpath object contains property value !!
2018.07.04 06:21:25   info : Property name - xpath
2018.07.04 06:21:25   info : Property value - //*[contains(@id,"_LandingControl_") and contains(@id,"_txtProdRemarks")]
2018.07.04 06:21:25   info : Finding xpath element on webpage..
2018.07.04 06:21:25   info : Searching for element. Try number 0
2018.07.04 06:21:26   info : element disappeared after trying for 1 times
2018.07.04 06:21:27   info : Current WebDriver Win Count is:: 1
2018.07.04 06:21:27   info : Element found!!
2018.07.04 06:21:27   info : ValueToEnter Automation
2018.07.04 06:21:27   info : Entered value is Automation
2018.07.04 06:21:27   info : Attribute entered value Automation
2018.07.04 06:21:28   info : Current WebDriver Win Count is:: 1
2018.07.04 06:21:29   info : restult status : 1
2018.07.04 06:21:29   info : Test ID TC3 : previous test step/row 217 status is Passed and value of next test step/row is :: 218
2018.07.04 06:21:29   info : 

2018.07.04 06:21:29   info : -------------------- Executing Testcase ID TC3 and test step : 218 ---------------------- 
2018.07.04 06:21:30   info : Current WebDriver Win Count is:: 1
2018.07.04 06:21:30   info : page object present in excel : 1
2018.07.04 06:21:30   info : Under single object handle operation!!
2018.07.04 06:21:30   info : col 6 data : alert_accept_multiple and col 5 data : Prod_Sync
2018.07.04 06:21:30   info : Click case operation !!
2018.07.04 06:21:30   info : oprnm alert_accept_multiple
2018.07.04 06:21:30   info : Xml obj_repo path C:\Talent_Automation_Framework_Backup\Project_Talent/ObjectRepositories/BenefitAsia2_MercerAdmin/MA_Configuration_tool.xml
2018.07.04 06:21:30   info : xpath object successfully mapped!!
2018.07.04 06:21:30   info : xpath object contains property value !!
2018.07.04 06:21:30   info : Property name - xpath
2018.07.04 06:21:30   info : Property value - //*[contains(@id,"_LandingControl_") and contains(@id,"_synch")]
2018.07.04 06:21:30   info : Finding xpath element on webpage..
2018.07.04 06:21:30   info : Searching for element. Try number 0
2018.07.04 06:21:31   info : element disappeared after trying for 1 times
2018.07.04 06:21:32   info : Current WebDriver Win Count is:: 1
2018.07.04 06:21:32   info : Element found!!
2018.07.04 06:21:32   info : click alert_accept_multiple operation perfomred!!
2018.07.04 06:21:38   info : please note that this synchronization process will have immediate effect on production environment.
Are you sure you want to synchronize your changes to production ?
2018.07.04 06:21:51   info : Alert is not present
2018.07.04 06:21:52   info : Current WebDriver Win Count is:: 1
2018.07.04 06:21:52   info : restult status : 1
2018.07.04 06:21:52   info : Test ID TC3 : previous test step/row 218 status is Passed and value of next test step/row is :: 219
2018.07.04 06:21:52   info : 

2018.07.04 06:21:52   info : -------------------- Executing Testcase ID TC3 and test step : 219 ---------------------- 
2018.07.04 06:21:53   info : Current WebDriver Win Count is:: 1
2018.07.04 06:21:53   info : page object present in excel : 1
2018.07.04 06:21:53   info : Under single object handle operation!!
2018.07.04 06:21:53   info : col 6 data :  and col 5 data : Prod_Sync_popup
2018.07.04 06:21:53   info : Normal click operation !!
2018.07.04 06:21:53   info : Checking for object in click
2018.07.04 06:21:53   info : Xml obj_repo path C:\Talent_Automation_Framework_Backup\Project_Talent/ObjectRepositories/BenefitAsia2_MercerAdmin/MA_Configuration_tool.xml
2018.07.04 06:21:53   info : xpath object successfully mapped!!
2018.07.04 06:21:53   info : xpath object contains property value !!
2018.07.04 06:21:53   info : Property name - xpath
2018.07.04 06:21:53   info : Property value - //input[contains(@id,"_LandingControl_") and contains(@id,"_btnSynchronizeProdParams") and @value='Synchronize']
2018.07.04 06:21:53   info : Finding xpath element on webpage..
2018.07.04 06:21:53   info : Searching for element. Try number 0
2018.07.04 06:21:54   info : element disappeared after trying for 1 times
2018.07.04 06:21:55   info : Current WebDriver Win Count is:: 1
2018.07.04 06:21:55   info : Element found!!
2018.07.04 06:21:55   info : Xml obj_repo path C:\Talent_Automation_Framework_Backup\Project_Talent/ObjectRepositories/BenefitAsia2_MercerAdmin/MA_Configuration_tool.xml
2018.07.04 06:21:55   info : xpath object successfully mapped!!
2018.07.04 06:21:55   info : xpath object contains property value !!
2018.07.04 06:21:55   info : Property name - xpath
2018.07.04 06:21:55   info : Property value - //input[contains(@id,"_LandingControl_") and contains(@id,"_btnSynchronizeProdParams") and @value='Synchronize']
2018.07.04 06:21:55   info : Finding xpath element on webpage..
2018.07.04 06:21:55   info : Searching for element. Try number 0
2018.07.04 06:21:56   info : element disappeared after trying for 1 times
2018.07.04 06:21:57   info : Current WebDriver Win Count is:: 1
2018.07.04 06:21:58   info : Element found!!
2018.07.04 06:22:01   info : clicked on Prod_Sync_popup
2018.07.04 06:22:02   info : Current WebDriver Win Count is:: 1
2018.07.04 06:22:02   info : restult status : 1
2018.07.04 06:22:02   info : Test ID TC3 : previous test step/row 219 status is Passed and value of next test step/row is :: 220
2018.07.04 06:22:02   info : 

2018.07.04 06:22:02   info : -------------------- Executing Testcase ID TC3 and test step : 220 ---------------------- 
2018.07.04 06:22:03   info : Current WebDriver Win Count is:: 1
2018.07.04 06:22:03   info : not doing anything!!
2018.07.04 06:22:03   info : Navigating to another url..
2018.07.04 06:22:08   info : Current WebDriver Win Count is:: 1
2018.07.04 06:22:09   info : restult status : 1
2018.07.04 06:22:09   info : Test ID TC3 : previous test step/row 220 status is Passed and value of next test step/row is :: 221
2018.07.04 06:22:09   info : 

2018.07.04 06:22:09   info : -------------------- Executing Testcase ID TC3 and test step : 221 ---------------------- 
2018.07.04 06:22:10   info : Current WebDriver Win Count is:: 1
2018.07.04 06:22:10   info : Xml obj_repo path C:\Talent_Automation_Framework_Backup\Project_Talent/ObjectRepositories/BenefitAsia2_MercerAdmin/MA_Configuration_tool.xml
2018.07.04 06:22:10   info : Title contains null value in xml!!
2018.07.04 06:22:10   info : Window title Company
2018.07.04 06:22:10   info : Xml obj_repo path C:\Talent_Automation_Framework_Backup\Project_Talent/ObjectRepositories/BenefitAsia2_MercerAdmin/MA_Configuration_tool.xml
2018.07.04 06:22:10   info : xpath object successfully mapped!!
2018.07.04 06:22:10   info : xpath object contains property value !!
2018.07.04 06:22:10   info : Property name - xpath
2018.07.04 06:22:10   info : Property value - .//*[@id='dnn_CN_lblMsg']/span
2018.07.04 06:22:10   info : Finding xpath element on webpage..
2018.07.04 06:22:10   info : Searching for element. Try number 0
2018.07.04 06:22:11   info : element disappeared after trying for 1 times
2018.07.04 06:22:12   info : Current WebDriver Win Count is:: 1
2018.07.04 06:22:12   info : Element found!!
2018.07.04 06:22:12   info : Desired window is activated!!
2018.07.04 06:22:12   info : Xml obj_repo path C:\Talent_Automation_Framework_Backup\Project_Talent/ObjectRepositories/BenefitAsia2_MercerAdmin/MA_Configuration_tool.xml
2018.07.04 06:22:12   info : xpath object successfully mapped!!
2018.07.04 06:22:12   info : xpath object contains property value !!
2018.07.04 06:22:12   info : Property name - xpath
2018.07.04 06:22:12   info : Property value - .//*[@id='dnn_CN_lblMsg']/span
2018.07.04 06:22:12   info : Finding xpath element on webpage..
2018.07.04 06:22:12   info : Searching for element. Try number 0
2018.07.04 06:22:13   info : element disappeared after trying for 1 times
2018.07.04 06:22:14   info : Current WebDriver Win Count is:: 1
2018.07.04 06:22:15   info : Element found!!
2018.07.04 06:22:15   info : ObjectTag span and ObjectType null
2018.07.04 06:22:15   info : Exp_value SimpliFlex SG (SIMPLIFLEXSG)
2018.07.04 06:22:15   info : Searching for element. Try number 0
2018.07.04 06:22:16   info : element disappeared after trying for 1 times
2018.07.04 06:22:16   info : Actual ValueSimpliFlex SG (SimpliflexSG)
2018.07.04 06:22:16   info : Exp : SimpliFlex SG (SIMPLIFLEXSG) and act : SimpliFlex SG (SimpliflexSG) value matched!!
2018.07.04 06:22:17   info : Current WebDriver Win Count is:: 1
2018.07.04 06:22:17   info : restult status : 1
2018.07.04 06:22:17   info : Test ID TC3 : previous test step/row 221 status is Passed and value of next test step/row is :: 222
2018.07.04 06:22:17   info : 

2018.07.04 06:22:17   info : -------------------- Executing Testcase ID TC3 and test step : 222 ---------------------- 
2018.07.04 06:22:18   info : Current WebDriver Win Count is:: 1
2018.07.04 06:22:18   info : Xml obj_repo path C:\Talent_Automation_Framework_Backup\Project_Talent/ObjectRepositories/BenefitAsia2_MercerAdmin/MA_LoginLogout.xml
2018.07.04 06:22:18   info : Title contains null value in xml!!
2018.07.04 06:22:18   info : Window title Company
2018.07.04 06:22:18   info : Xml obj_repo path C:\Talent_Automation_Framework_Backup\Project_Talent/ObjectRepositories/BenefitAsia2_MercerAdmin/MA_LoginLogout.xml
2018.07.04 06:22:18   info : xpath object successfully mapped!!
2018.07.04 06:22:18   info : xpath object contains property value !!
2018.07.04 06:22:18   info : Property name - xpath
2018.07.04 06:22:18   info : Property value - //a[contains(@id,"_cmdLogin")]
2018.07.04 06:22:18   info : Finding xpath element on webpage..
2018.07.04 06:22:18   info : Searching for element. Try number 0
2018.07.04 06:22:19   info : element disappeared after trying for 1 times
2018.07.04 06:22:20   info : Element found!!
2018.07.04 06:22:20   info : Desired window is activated!!
2018.07.04 06:22:20   info : page object present in excel : 1
2018.07.04 06:22:20   info : Under single object handle operation!!
2018.07.04 06:22:20   info : col 6 data :  and col 5 data : Logout
2018.07.04 06:22:20   info : Normal click operation !!
2018.07.04 06:22:20   info : Checking for object in click
2018.07.04 06:22:20   info : Xml obj_repo path C:\Talent_Automation_Framework_Backup\Project_Talent/ObjectRepositories/BenefitAsia2_MercerAdmin/MA_LoginLogout.xml
2018.07.04 06:22:20   info : xpath object successfully mapped!!
2018.07.04 06:22:20   info : xpath object contains property value !!
2018.07.04 06:22:20   info : Property name - xpath
2018.07.04 06:22:20   info : Property value - //a[contains(@id,"_cmdLogin")]
2018.07.04 06:22:20   info : Finding xpath element on webpage..
2018.07.04 06:22:20   info : Searching for element. Try number 0
2018.07.04 06:22:21   info : element disappeared after trying for 1 times
2018.07.04 06:22:21   info : Element found!!
2018.07.04 06:22:21   info : Xml obj_repo path C:\Talent_Automation_Framework_Backup\Project_Talent/ObjectRepositories/BenefitAsia2_MercerAdmin/MA_LoginLogout.xml
2018.07.04 06:22:21   info : xpath object successfully mapped!!
2018.07.04 06:22:21   info : xpath object contains property value !!
2018.07.04 06:22:21   info : Property name - xpath
2018.07.04 06:22:21   info : Property value - //a[contains(@id,"_cmdLogin")]
2018.07.04 06:22:21   info : Finding xpath element on webpage..
2018.07.04 06:22:21   info : Searching for element. Try number 0
2018.07.04 06:22:22   info : element disappeared after trying for 1 times
2018.07.04 06:22:22   info : Element found!!
2018.07.04 06:22:24   info : clicked on Logout
2018.07.04 06:22:25   info : Current WebDriver Win Count is:: 1
2018.07.04 06:22:25   info : restult status : 1
2018.07.04 06:22:26   info : Test ID TC3 : previous test step/row 222 status is Passed and value of next test step/row is :: 223
2018.07.04 06:22:26   info : 

2018.07.04 06:22:26   info : -------------------- Executing Testcase ID TC3 and test step : 223 ---------------------- 
2018.07.04 06:22:27   info : Current WebDriver Win Count is:: 1
2018.07.04 06:22:27   info : not doing anything!!
2018.07.04 06:22:27   info : Navigating to another url..
2018.07.04 06:22:36   info : Current WebDriver Win Count is:: 1
2018.07.04 06:22:36   info : restult status : 1
2018.07.04 06:22:36   info : Test ID TC3 : previous test step/row 223 status is Passed and value of next test step/row is :: 224
2018.07.04 06:22:36   info : 

2018.07.04 06:22:36   info : -------------------- Executing Testcase ID TC3 and test step : 224 ---------------------- 
2018.07.04 06:22:37   info : Current WebDriver Win Count is:: 1
2018.07.04 06:22:37   info : Xml obj_repo path C:\Talent_Automation_Framework_Backup\Project_Talent/ObjectRepositories/BenefitAsia2_MercerAdmin/MA_Configuration_tool.xml
2018.07.04 06:22:37   info : Title contains null value in xml!!
2018.07.04 06:22:37   info : Window title Home
2018.07.04 06:22:37   info : Xml obj_repo path C:\Talent_Automation_Framework_Backup\Project_Talent/ObjectRepositories/BenefitAsia2_MercerAdmin/MA_Configuration_tool.xml
2018.07.04 06:22:37   info : xpath object successfully mapped!!
2018.07.04 06:22:37   info : xpath object contains property value !!
2018.07.04 06:22:37   info : Property name - xpath
2018.07.04 06:22:37   info : Property value - .//*[@id='dnn_CN_lblMsg']/span
2018.07.04 06:22:37   info : Finding xpath element on webpage..
2018.07.04 06:22:37   info : Searching for element. Try number 0
2018.07.04 06:22:38   info : element disappeared after trying for 1 times
2018.07.04 06:22:39   info : Current WebDriver Win Count is:: 1
2018.07.04 06:22:39   info : Element found!!
2018.07.04 06:22:39   info : Desired window is activated!!
2018.07.04 06:22:39   info : Xml obj_repo path C:\Talent_Automation_Framework_Backup\Project_Talent/ObjectRepositories/BenefitAsia2_MercerAdmin/MA_Configuration_tool.xml
2018.07.04 06:22:39   info : xpath object successfully mapped!!
2018.07.04 06:22:39   info : xpath object contains property value !!
2018.07.04 06:22:39   info : Property name - xpath
2018.07.04 06:22:39   info : Property value - .//*[@id='dnn_CN_lblMsg']/span
2018.07.04 06:22:39   info : Finding xpath element on webpage..
2018.07.04 06:22:39   info : Searching for element. Try number 0
2018.07.04 06:22:40   info : element disappeared after trying for 1 times
2018.07.04 06:22:42   info : Current WebDriver Win Count is:: 1
2018.07.04 06:22:42   info : Element found!!
2018.07.04 06:22:42   info : ObjectTag span and ObjectType null
2018.07.04 06:22:42   info : Exp_value SimpliFlex SG (SIMPLIFLEXSG)
2018.07.04 06:22:42   info : Searching for element. Try number 0
2018.07.04 06:22:43   info : element disappeared after trying for 1 times
2018.07.04 06:22:43   info : Actual ValueSimpliFlex SG (SimpliflexSG)
2018.07.04 06:22:43   info : Exp : SimpliFlex SG (SIMPLIFLEXSG) and act : SimpliFlex SG (SimpliflexSG) value matched!!
2018.07.04 06:22:44   info : Current WebDriver Win Count is:: 1
2018.07.04 06:22:44   info : restult status : 1
2018.07.04 06:22:44   info : Test ID TC3 : previous test step/row 224 status is Passed and value of next test step/row is :: 225
2018.07.04 06:22:44   info : 

2018.07.04 06:22:44   info : -------------------- Executing Testcase ID TC3 and test step : 225 ---------------------- 
2018.07.04 06:22:45   info : Current WebDriver Win Count is:: 1
2018.07.04 06:22:45   info : Xml obj_repo path C:\Talent_Automation_Framework_Backup\Project_Talent/ObjectRepositories/BenefitAsia2_MercerAdmin/MA_LoginLogout.xml
2018.07.04 06:22:45   info : Title contains null value in xml!!
2018.07.04 06:22:45   info : Window title Home
2018.07.04 06:22:45   info : Xml obj_repo path C:\Talent_Automation_Framework_Backup\Project_Talent/ObjectRepositories/BenefitAsia2_MercerAdmin/MA_LoginLogout.xml
2018.07.04 06:22:45   info : xpath object successfully mapped!!
2018.07.04 06:22:45   info : xpath object contains property value !!
2018.07.04 06:22:45   info : Property name - xpath
2018.07.04 06:22:45   info : Property value - //a[contains(@id,"_cmdLogin")]
2018.07.04 06:22:45   info : Finding xpath element on webpage..
2018.07.04 06:22:45   info : Searching for element. Try number 0
2018.07.04 06:22:46   info : element disappeared after trying for 1 times
2018.07.04 06:22:46   info : Element found!!
2018.07.04 06:22:46   info : Desired window is activated!!
2018.07.04 06:22:46   info : page object present in excel : 1
2018.07.04 06:22:46   info : Under single object handle operation!!
2018.07.04 06:22:46   info : col 6 data :  and col 5 data : Logout
2018.07.04 06:22:46   info : Normal click operation !!
2018.07.04 06:22:46   info : Checking for object in click
2018.07.04 06:22:46   info : Xml obj_repo path C:\Talent_Automation_Framework_Backup\Project_Talent/ObjectRepositories/BenefitAsia2_MercerAdmin/MA_LoginLogout.xml
2018.07.04 06:22:46   info : xpath object successfully mapped!!
2018.07.04 06:22:46   info : xpath object contains property value !!
2018.07.04 06:22:46   info : Property name - xpath
2018.07.04 06:22:46   info : Property value - //a[contains(@id,"_cmdLogin")]
2018.07.04 06:22:46   info : Finding xpath element on webpage..
2018.07.04 06:22:46   info : Searching for element. Try number 0
2018.07.04 06:22:47   info : element disappeared after trying for 1 times
2018.07.04 06:22:47   info : Element found!!
2018.07.04 06:22:47   info : Xml obj_repo path C:\Talent_Automation_Framework_Backup\Project_Talent/ObjectRepositories/BenefitAsia2_MercerAdmin/MA_LoginLogout.xml
2018.07.04 06:22:47   info : xpath object successfully mapped!!
2018.07.04 06:22:47   info : xpath object contains property value !!
2018.07.04 06:22:47   info : Property name - xpath
2018.07.04 06:22:47   info : Property value - //a[contains(@id,"_cmdLogin")]
2018.07.04 06:22:47   info : Finding xpath element on webpage..
2018.07.04 06:22:47   info : Searching for element. Try number 0
2018.07.04 06:22:49   info : element disappeared after trying for 1 times
2018.07.04 06:22:49   info : Element found!!
2018.07.04 06:22:51   info : clicked on Logout
2018.07.04 06:22:52   info : Current WebDriver Win Count is:: 1
2018.07.04 06:22:52   info : restult status : 1
2018.07.04 06:22:52   info : Row TC3!=TC4 || (TC4==null)) && (225<=272)
2018.07.04 06:22:52   info : Status :: Passed :: Finalizing result report
2018.07.04 06:22:53   info : closing window...
2018.07.04 06:22:53   info : window size 1
2018.07.04 06:22:56   info : Window is closed!!
