2019.01.10 02:44:44   info : Selenium version :: 2.48.2
2019.01.10 02:44:44   info : Download fodler path created!!
2019.01.10 02:44:44   info : date_time_down_folder C:\Talent_Automation_Framework_Backup\Project_Talent\Downloads\2019_01_10\time_14_44_44\
2019.01.10 02:44:44   info : Total number of applications :: 4
2019.01.10 02:44:44   info : Application Name - Latest_Simp
2019.01.10 02:44:44   info : TestData_Sheet path:: C:\Talent_Automation_Framework_Backup\Project_Talent/TestCases/Latest_Simp.xlsx
2019.01.10 02:44:44   info : CSV updating and creating dump....
2019.01.10 02:44:46   info : Sheet name: Scenarios
2019.01.10 02:44:46   info : Sheet name: TestCaseScheduler
2019.01.10 02:44:46   info : Sheet name: Test Case
2019.01.10 02:44:46   info : Latest_Simp sheetname found!!
2019.01.10 02:44:46   info : Total row 929
2019.01.10 02:44:46   info : After row validation for blank or null!!
2019.01.10 02:44:46   info : Total final row 928
2019.01.10 02:44:46   info : Total number of test cases to be executed :: 1
2019.01.10 02:44:46   info : PrevTestID - null == null && row 752<= 928
2019.01.10 02:44:46   info : Test ID TC6 : previous test step/row 751 status is Passed and value of next test step/row is :: 752
2019.01.10 02:44:46   info : 

2019.01.10 02:44:46   info : -------------------- Executing Testcase ID TC6 and test step : 752 ---------------------- 
2019.01.10 02:44:47   info : please wait.. browser getting open !!
2019.01.10 02:44:58   info : Opening Application..
2019.01.10 02:46:21   info : Current WebDriver Win Count is:: 1
2019.01.10 02:46:22   info : restult status : 1
2019.01.10 02:46:22   info : Test ID TC6 : previous test step/row 752 status is Passed and value of next test step/row is :: 753
2019.01.10 02:46:22   info : 

2019.01.10 02:46:22   info : -------------------- Executing Testcase ID TC6 and test step : 753 ---------------------- 
2019.01.10 02:46:23   info : Current WebDriver Win Count is:: 1
2019.01.10 02:46:23   info : Xml obj_repo path C:\Talent_Automation_Framework_Backup\Project_Talent/ObjectRepositories/BenefitAsia2_EE/EE_SimpliflexSG_LoginLogout.xml
2019.01.10 02:46:23   info : Title contains null value in xml!!
2019.01.10 02:46:23   info : Window title User Login
2019.01.10 02:46:23   info : Xml obj_repo path C:\Talent_Automation_Framework_Backup\Project_Talent/ObjectRepositories/BenefitAsia2_EE/EE_SimpliflexSG_LoginLogout.xml
2019.01.10 02:46:23   info : xpath object successfully mapped!!
2019.01.10 02:46:23   info : xpath object contains property value !!
2019.01.10 02:46:23   info : Property name - xpath
2019.01.10 02:46:23   info : Property value - //input[contains(@id,"_txtUsername")]
2019.01.10 02:46:23   info : Finding xpath element on webpage..
2019.01.10 02:46:23   info : Searching for element. Try number 0
2019.01.10 02:46:25   info : element disappeared after trying for 1 times
2019.01.10 02:46:26   info : Current WebDriver Win Count is:: 1
2019.01.10 02:46:26   info : Element found!!
2019.01.10 02:46:26   info : Desired window is activated!!
2019.01.10 02:46:26   info : FiledName UserName and FiledValue Simpli_10jan_005
2019.01.10 02:46:26   info : FiledName Password and FiledValue Password123$
2019.01.10 02:46:26   info : Total static wait time 3
2019.01.10 02:46:29   info : Xml obj_repo path C:\Talent_Automation_Framework_Backup\Project_Talent/ObjectRepositories/BenefitAsia2_EE/EE_SimpliflexSG_LoginLogout.xml
2019.01.10 02:46:29   info : xpath object successfully mapped!!
2019.01.10 02:46:29   info : xpath object contains property value !!
2019.01.10 02:46:29   info : Property name - xpath
2019.01.10 02:46:29   info : Property value - //input[contains(@id,"_txtUsername")]
2019.01.10 02:46:29   info : Finding xpath element on webpage..
2019.01.10 02:46:29   info : Searching for element. Try number 0
2019.01.10 02:46:30   info : element disappeared after trying for 1 times
2019.01.10 02:46:31   info : Current WebDriver Win Count is:: 1
2019.01.10 02:46:31   info : Element found!!
2019.01.10 02:46:31   info : ObjectTag input and ObjectType text
2019.01.10 02:46:31   info : Enter data operation
2019.01.10 02:46:32   info : Xml obj_repo path C:\Talent_Automation_Framework_Backup\Project_Talent/ObjectRepositories/BenefitAsia2_EE/EE_SimpliflexSG_LoginLogout.xml
2019.01.10 02:46:32   info : xpath object successfully mapped!!
2019.01.10 02:46:32   info : xpath object contains property value !!
2019.01.10 02:46:32   info : Property name - xpath
2019.01.10 02:46:32   info : Property value - //input[contains(@id,"_txtUsername")]
2019.01.10 02:46:32   info : Finding xpath element on webpage..
2019.01.10 02:46:32   info : Searching for element. Try number 0
2019.01.10 02:46:33   info : element disappeared after trying for 1 times
2019.01.10 02:46:34   info : Current WebDriver Win Count is:: 1
2019.01.10 02:46:34   info : Element found!!
2019.01.10 02:46:34   info : Xml obj_repo path C:\Talent_Automation_Framework_Backup\Project_Talent/ObjectRepositories/BenefitAsia2_EE/EE_SimpliflexSG_LoginLogout.xml
2019.01.10 02:46:34   info : xpath object successfully mapped!!
2019.01.10 02:46:34   info : xpath object contains property value !!
2019.01.10 02:46:34   info : Property name - xpath
2019.01.10 02:46:34   info : Property value - //input[contains(@id,"_txtUsername")]
2019.01.10 02:46:34   info : Finding xpath element on webpage..
2019.01.10 02:46:34   info : Searching for element. Try number 0
2019.01.10 02:46:35   info : element disappeared after trying for 1 times
2019.01.10 02:46:36   info : Current WebDriver Win Count is:: 1
2019.01.10 02:46:36   info : Element found!!
2019.01.10 02:46:36   info : ValueToEnter Simpli_10jan_005
2019.01.10 02:46:36   info : Entered value is Simpli_10jan_005
2019.01.10 02:46:36   info : Attribute entered value Simpli_10jan_005
2019.01.10 02:46:36   info : Total static wait time 3
2019.01.10 02:46:39   info : Xml obj_repo path C:\Talent_Automation_Framework_Backup\Project_Talent/ObjectRepositories/BenefitAsia2_EE/EE_SimpliflexSG_LoginLogout.xml
2019.01.10 02:46:39   info : xpath object successfully mapped!!
2019.01.10 02:46:39   info : xpath object contains property value !!
2019.01.10 02:46:39   info : Property name - xpath
2019.01.10 02:46:39   info : Property value - //input[contains(@id,"_txtPassword")]
2019.01.10 02:46:39   info : Finding xpath element on webpage..
2019.01.10 02:46:39   info : Searching for element. Try number 0
2019.01.10 02:46:40   info : element disappeared after trying for 1 times
2019.01.10 02:46:41   info : Current WebDriver Win Count is:: 1
2019.01.10 02:46:41   info : Element found!!
2019.01.10 02:46:41   info : ObjectTag input and ObjectType password
2019.01.10 02:46:41   info : Enter data operation
2019.01.10 02:46:41   info : Xml obj_repo path C:\Talent_Automation_Framework_Backup\Project_Talent/ObjectRepositories/BenefitAsia2_EE/EE_SimpliflexSG_LoginLogout.xml
2019.01.10 02:46:41   info : xpath object successfully mapped!!
2019.01.10 02:46:41   info : xpath object contains property value !!
2019.01.10 02:46:41   info : Property name - xpath
2019.01.10 02:46:41   info : Property value - //input[contains(@id,"_txtPassword")]
2019.01.10 02:46:41   info : Finding xpath element on webpage..
2019.01.10 02:46:41   info : Searching for element. Try number 0
2019.01.10 02:46:42   info : element disappeared after trying for 1 times
2019.01.10 02:46:43   info : Current WebDriver Win Count is:: 1
2019.01.10 02:46:43   info : Element found!!
2019.01.10 02:46:43   info : ValueToEnter Password123$
2019.01.10 02:46:43   info : Entered value is Password123$
2019.01.10 02:46:43   info : Attribute entered value Password123$
2019.01.10 02:46:43   info : Checking for object in click
2019.01.10 02:46:43   info : Xml obj_repo path C:\Talent_Automation_Framework_Backup\Project_Talent/ObjectRepositories/BenefitAsia2_EE/EE_SimpliflexSG_LoginLogout.xml
2019.01.10 02:46:43   info : xpath object successfully mapped!!
2019.01.10 02:46:43   info : xpath object contains property value !!
2019.01.10 02:46:43   info : Property name - xpath
2019.01.10 02:46:43   info : Property value - //input[contains(@id,"_cmdLogin")]
2019.01.10 02:46:43   info : Finding xpath element on webpage..
2019.01.10 02:46:43   info : Searching for element. Try number 0
2019.01.10 02:46:44   info : element disappeared after trying for 1 times
2019.01.10 02:46:45   info : Current WebDriver Win Count is:: 1
2019.01.10 02:46:45   info : Element found!!
2019.01.10 02:46:45   info : Xml obj_repo path C:\Talent_Automation_Framework_Backup\Project_Talent/ObjectRepositories/BenefitAsia2_EE/EE_SimpliflexSG_LoginLogout.xml
2019.01.10 02:46:45   info : xpath object successfully mapped!!
2019.01.10 02:46:45   info : xpath object contains property value !!
2019.01.10 02:46:45   info : Property name - xpath
2019.01.10 02:46:45   info : Property value - //input[contains(@id,"_cmdLogin")]
2019.01.10 02:46:45   info : Finding xpath element on webpage..
2019.01.10 02:46:45   info : Searching for element. Try number 0
2019.01.10 02:46:46   info : element disappeared after trying for 1 times
2019.01.10 02:46:47   info : Current WebDriver Win Count is:: 1
2019.01.10 02:46:47   info : Element found!!
2019.01.10 02:46:57   info : clicked on LoginButton
2019.01.10 02:46:58   info : Current WebDriver Win Count is:: 1
2019.01.10 02:46:58   info : restult status : 1
2019.01.10 02:46:58   info : Test ID TC6 : previous test step/row 753 status is Passed and value of next test step/row is :: 754
2019.01.10 02:46:58   info : 

2019.01.10 02:46:58   info : -------------------- Executing Testcase ID TC6 and test step : 754 ---------------------- 
2019.01.10 02:47:00   info : Current WebDriver Win Count is:: 1
2019.01.10 02:47:00   info : Xml obj_repo path C:\Talent_Automation_Framework_Backup\Project_Talent/ObjectRepositories/BenefitAsia2_EE/EE_SimpliFlexSG_tabNavigation2.xml
2019.01.10 02:47:00   info : Title in xml file - My Enrollment
2019.01.10 02:47:00   warn : Window is not switched, now trying based on element!!
2019.01.10 02:47:00   info : Window title SimpliflexSG > Home
2019.01.10 02:47:00   info : Xml obj_repo path C:\Talent_Automation_Framework_Backup\Project_Talent/ObjectRepositories/BenefitAsia2_EE/EE_SimpliFlexSG_tabNavigation2.xml
2019.01.10 02:47:00   info : Defined excel object tag is not found in xml!!
2019.01.10 02:47:00   info : size of the element return by xmlreading is 0
2019.01.10 02:47:00   error : java.lang.NullPointerException
2019.01.10 02:47:00   info : page object present in excel : 4
2019.01.10 02:47:00   info : Under multiple object handle operation!!
2019.01.10 02:47:00   info : click operation perfomred!!
2019.01.10 02:47:00   info : textbased operation perfomred!!
2019.01.10 02:47:00   info : 4 operation perfomred!!
2019.01.10 02:47:00   info : Xml obj_repo path C:\Talent_Automation_Framework_Backup\Project_Talent/ObjectRepositories/BenefitAsia2_EE/EE_SimpliFlexSG_tabNavigation2.xml
2019.01.10 02:47:00   info : class object successfully mapped!!
2019.01.10 02:47:00   info : class object contains property value !!
2019.01.10 02:47:00   info : Property name - class
2019.01.10 02:47:00   info : Property value - nav
2019.01.10 02:47:00   info : Finding class element on webpage..
2019.01.10 02:47:00   info : Element found!!
2019.01.10 02:47:00   info : Xml obj_repo path C:\Talent_Automation_Framework_Backup\Project_Talent/ObjectRepositories/BenefitAsia2_EE/EE_SimpliFlexSG_tabNavigation2.xml
2019.01.10 02:47:00   info : tagname object successfully mapped!!
2019.01.10 02:47:00   info : tagname object contains property value !!
2019.01.10 02:47:00   info : Property name - tagname
2019.01.10 02:47:00   info : Property value - li
2019.01.10 02:47:00   info : Finding tagname element on webpage..
2019.01.10 02:47:00   info : Element found!!
2019.01.10 02:47:00   info : Xml obj_repo path C:\Talent_Automation_Framework_Backup\Project_Talent/ObjectRepositories/BenefitAsia2_EE/EE_SimpliFlexSG_tabNavigation2.xml
2019.01.10 02:47:00   info : tagname object successfully mapped!!
2019.01.10 02:47:00   info : tagname object contains property value !!
2019.01.10 02:47:00   info : Property name - tagname
2019.01.10 02:47:00   info : Property value - a
2019.01.10 02:47:00   info : Finding tagname element on webpage..
2019.01.10 02:47:00   info : Element found!!
2019.01.10 02:47:00   info : Xml obj_repo path C:\Talent_Automation_Framework_Backup\Project_Talent/ObjectRepositories/BenefitAsia2_EE/EE_SimpliFlexSG_tabNavigation2.xml
2019.01.10 02:47:00   info : tagname object successfully mapped!!
2019.01.10 02:47:00   info : tagname object contains property value !!
2019.01.10 02:47:00   info : Property name - tagname
2019.01.10 02:47:00   info : Property value - span
2019.01.10 02:47:00   info : Finding tagname element on webpage..
2019.01.10 02:47:00   info : Element found!!
2019.01.10 02:47:00   info : Size of element 6
2019.01.10 02:47:00   info : actData Home
2019.01.10 02:47:00   info : actData Start Enrollment
2019.01.10 02:47:38   info : Current WebDriver Win Count is:: 1
2019.01.10 02:47:38   info : restult status : 1
2019.01.10 02:47:38   info : Test ID TC6 : previous test step/row 754 status is Passed and value of next test step/row is :: 755
2019.01.10 02:47:38   info : 

2019.01.10 02:47:38   info : -------------------- Executing Testcase ID TC6 and test step : 755 ---------------------- 
2019.01.10 02:47:39   info : Current WebDriver Win Count is:: 1
2019.01.10 02:47:39   info : Xml obj_repo path C:\Talent_Automation_Framework_Backup\Project_Talent/ObjectRepositories/BenefitAsia2_EE/EE_SimpliFlex_Enrolment.xml
2019.01.10 02:47:39   info : Title in xml file - MyEnrollment
2019.01.10 02:47:39   warn : Window is not switched, now trying based on element!!
2019.01.10 02:47:39   info : Window title My Enrollment
2019.01.10 02:47:39   info : Xml obj_repo path C:\Talent_Automation_Framework_Backup\Project_Talent/ObjectRepositories/BenefitAsia2_EE/EE_SimpliFlex_Enrolment.xml
2019.01.10 02:47:39   info : xpath object successfully mapped!!
2019.01.10 02:47:39   info : xpath object contains property value !!
2019.01.10 02:47:39   info : Property name - xpath
2019.01.10 02:47:39   info : Property value - //*[contains(@id,"_EnrolmentSelection_FlexPointsNew_hlFlexPointsAllocationDetailsNew")]
2019.01.10 02:47:39   info : Finding xpath element on webpage..
2019.01.10 02:47:39   info : Searching for element. Try number 0
2019.01.10 02:47:40   info : element disappeared after trying for 1 times
2019.01.10 02:47:41   info : Current WebDriver Win Count is:: 1
2019.01.10 02:47:41   info : Element found!!
2019.01.10 02:47:41   info : Desired window is activated!!
2019.01.10 02:47:41   info : Xml obj_repo path C:\Talent_Automation_Framework_Backup\Project_Talent/ObjectRepositories/BenefitAsia2_EE/EE_SimpliFlex_Enrolment.xml
2019.01.10 02:47:41   info : xpath object successfully mapped!!
2019.01.10 02:47:41   info : xpath object contains property value !!
2019.01.10 02:47:41   info : Property name - xpath
2019.01.10 02:47:41   info : Property value - //*[contains(@id,"_EnrolmentSelection_FlexPointsNew_hlFlexPointsAllocationDetailsNew")]
2019.01.10 02:47:41   info : Finding xpath element on webpage..
2019.01.10 02:47:41   info : Searching for element. Try number 0
2019.01.10 02:47:42   info : element disappeared after trying for 1 times
2019.01.10 02:47:43   info : Current WebDriver Win Count is:: 1
2019.01.10 02:47:43   info : Element found!!
2019.01.10 02:47:43   info : ObjectTag a and ObjectType null
2019.01.10 02:47:43   info : Exp_value 2,050.00
2019.01.10 02:47:43   info : Searching for element. Try number 0
2019.01.10 02:47:44   info : element disappeared after trying for 1 times
2019.01.10 02:47:44   info : Actual Value2,050.00
2019.01.10 02:47:44   info : Exp : 2,050.00 and act : 2,050.00 value matched!!
2019.01.10 02:47:45   info : Current WebDriver Win Count is:: 1
2019.01.10 02:47:46   info : restult status : 1
2019.01.10 02:47:46   info : Test ID TC6 : previous test step/row 755 status is Passed and value of next test step/row is :: 756
2019.01.10 02:47:46   info : 

2019.01.10 02:47:46   info : -------------------- Executing Testcase ID TC6 and test step : 756 ---------------------- 
2019.01.10 02:47:47   info : Current WebDriver Win Count is:: 1
2019.01.10 02:47:47   info : page object present in excel : 1
2019.01.10 02:47:47   info : Under single object handle operation!!
2019.01.10 02:47:47   info : col 6 data :  and col 5 data : P2_Link_Local_GH
2019.01.10 02:47:47   info : Normal click operation !!
2019.01.10 02:47:47   info : Checking for object in click
2019.01.10 02:47:47   info : Xml obj_repo path C:\Talent_Automation_Framework_Backup\Project_Talent/ObjectRepositories/BenefitAsia2_EE/EE_SimpliFlex_Enrolment.xml
2019.01.10 02:47:47   info : xpath object successfully mapped!!
2019.01.10 02:47:47   info : xpath object contains property value !!
2019.01.10 02:47:47   info : Property name - xpath
2019.01.10 02:47:47   info : Property value - //*[contains(@id,"_EnrolmentSelection_ctl08_gvInsuranceBenefitsNew")]/tbody/tr[td//text()[contains(translate(., 'ABCDEFGHIJKLMNOPQRSTUVWXYZ', 'abcdefghijklmnopqrstuvwxyz'), 'group hospital') and contains(translate(., 'ABCDEFGHIJKLMNOPQRSTUVWXYZ', 'abcdefghijklmnopqrstuvwxyz'), 'group major medical')]]/td[count(//*[contains(@id,"_EnrolmentSelection_ctl08_gvInsuranceBenefitsNew")]/tbody/tr[1]/th[contains(translate(., 'ABCDEFGHIJKLMNOPQRSTUVWXYZ', 'abcdefghijklmnopqrstuvwxyz'), 'benefit type')]/preceding-sibling::th)+1]/a
2019.01.10 02:47:47   info : Finding xpath element on webpage..
2019.01.10 02:47:47   info : Searching for element. Try number 0
2019.01.10 02:47:48   info : element disappeared after trying for 1 times
2019.01.10 02:47:49   info : Current WebDriver Win Count is:: 1
2019.01.10 02:47:49   info : Element found!!
2019.01.10 02:47:49   info : Xml obj_repo path C:\Talent_Automation_Framework_Backup\Project_Talent/ObjectRepositories/BenefitAsia2_EE/EE_SimpliFlex_Enrolment.xml
2019.01.10 02:47:49   info : xpath object successfully mapped!!
2019.01.10 02:47:49   info : xpath object contains property value !!
2019.01.10 02:47:49   info : Property name - xpath
2019.01.10 02:47:49   info : Property value - //*[contains(@id,"_EnrolmentSelection_ctl08_gvInsuranceBenefitsNew")]/tbody/tr[td//text()[contains(translate(., 'ABCDEFGHIJKLMNOPQRSTUVWXYZ', 'abcdefghijklmnopqrstuvwxyz'), 'group hospital') and contains(translate(., 'ABCDEFGHIJKLMNOPQRSTUVWXYZ', 'abcdefghijklmnopqrstuvwxyz'), 'group major medical')]]/td[count(//*[contains(@id,"_EnrolmentSelection_ctl08_gvInsuranceBenefitsNew")]/tbody/tr[1]/th[contains(translate(., 'ABCDEFGHIJKLMNOPQRSTUVWXYZ', 'abcdefghijklmnopqrstuvwxyz'), 'benefit type')]/preceding-sibling::th)+1]/a
2019.01.10 02:47:49   info : Finding xpath element on webpage..
2019.01.10 02:47:49   info : Searching for element. Try number 0
2019.01.10 02:47:50   info : element disappeared after trying for 1 times
2019.01.10 02:47:51   info : Current WebDriver Win Count is:: 1
2019.01.10 02:47:51   info : Element found!!
2019.01.10 02:47:55   info : clicked on P2_Link_Local_GH
2019.01.10 02:47:56   info : Current WebDriver Win Count is:: 1
2019.01.10 02:47:56   info : restult status : 1
2019.01.10 02:47:56   info : Test ID TC6 : previous test step/row 756 status is Passed and value of next test step/row is :: 757
2019.01.10 02:47:56   info : 

2019.01.10 02:47:56   info : -------------------- Executing Testcase ID TC6 and test step : 757 ---------------------- 
2019.01.10 02:47:57   info : Current WebDriver Win Count is:: 1
2019.01.10 02:47:57   info : page object present in excel : 1
2019.01.10 02:47:57   info : Under single object handle operation!!
2019.01.10 02:47:57   info : col 6 data :  and col 5 data : P2_Members_Wife_chkBox
2019.01.10 02:47:57   info : Normal click operation !!
2019.01.10 02:47:57   info : Checking for object in click
2019.01.10 02:47:57   info : Xml obj_repo path C:\Talent_Automation_Framework_Backup\Project_Talent/ObjectRepositories/BenefitAsia2_EE/EE_SimpliFlex_Enrolment.xml
2019.01.10 02:47:57   info : xpath object successfully mapped!!
2019.01.10 02:47:57   info : xpath object contains property value !!
2019.01.10 02:47:57   info : Property name - xpath
2019.01.10 02:47:57   info : Property value - //*[@id="tblEnrolDependents"]/tbody/tr[td//text()[contains(translate(., 'ABCDEFGHIJKLMNOPQRSTUVWXYZ', 'abcdefghijklmnopqrstuvwxyz'), 'wife')]]/td[count(//*[contains(@id,"tblEnrolDependents")]/tbody/tr[1]/th[contains(translate(., 'ABCDEFGHIJKLMNOPQRSTUVWXYZ', 'abcdefghijklmnopqrstuvwxyz'), 'relationship')]/preceding-sibling::th)+1]/input
2019.01.10 02:47:57   info : Finding xpath element on webpage..
2019.01.10 02:47:57   info : Searching for element. Try number 0
2019.01.10 02:47:57   info : element disappeared after trying for 1 times
2019.01.10 02:47:58   info : Current WebDriver Win Count is:: 1
2019.01.10 02:47:58   info : Element found!!
2019.01.10 02:47:58   info : Xml obj_repo path C:\Talent_Automation_Framework_Backup\Project_Talent/ObjectRepositories/BenefitAsia2_EE/EE_SimpliFlex_Enrolment.xml
2019.01.10 02:47:58   info : xpath object successfully mapped!!
2019.01.10 02:47:58   info : xpath object contains property value !!
2019.01.10 02:47:58   info : Property name - xpath
2019.01.10 02:47:58   info : Property value - //*[@id="tblEnrolDependents"]/tbody/tr[td//text()[contains(translate(., 'ABCDEFGHIJKLMNOPQRSTUVWXYZ', 'abcdefghijklmnopqrstuvwxyz'), 'wife')]]/td[count(//*[contains(@id,"tblEnrolDependents")]/tbody/tr[1]/th[contains(translate(., 'ABCDEFGHIJKLMNOPQRSTUVWXYZ', 'abcdefghijklmnopqrstuvwxyz'), 'relationship')]/preceding-sibling::th)+1]/input
2019.01.10 02:47:58   info : Finding xpath element on webpage..
2019.01.10 02:47:58   info : Searching for element. Try number 0
2019.01.10 02:47:58   info : element disappeared after trying for 1 times
2019.01.10 02:47:59   info : Current WebDriver Win Count is:: 1
2019.01.10 02:47:59   info : Element found!!
2019.01.10 02:48:00   info : clicked on P2_Members_Wife_chkBox
2019.01.10 02:48:01   info : Current WebDriver Win Count is:: 1
2019.01.10 02:48:01   info : restult status : 1
2019.01.10 02:48:01   info : Test ID TC6 : previous test step/row 757 status is Passed and value of next test step/row is :: 758
2019.01.10 02:48:01   info : 

2019.01.10 02:48:01   info : -------------------- Executing Testcase ID TC6 and test step : 758 ---------------------- 
2019.01.10 02:48:02   info : Current WebDriver Win Count is:: 1
2019.01.10 02:48:02   info : Total static wait time 3
2019.01.10 02:48:05   info : Xml obj_repo path C:\Talent_Automation_Framework_Backup\Project_Talent/ObjectRepositories/BenefitAsia2_EE/EE_SimpliFlex_Enrolment.xml
2019.01.10 02:48:05   info : xpath object successfully mapped!!
2019.01.10 02:48:05   info : xpath object contains property value !!
2019.01.10 02:48:05   info : Property name - xpath
2019.01.10 02:48:05   info : Property value - //*[contains(@id,"_ProductType2Page_v2_gvNewPlans")]/tbody/tr[td//text()[contains(translate(., 'ABCDEFGHIJKLMNOPQRSTUVWXYZ', 'abcdefghijklmnopqrstuvwxyz'), 'single bed restr') and contains(translate(., 'ABCDEFGHIJKLMNOPQRSTUVWXYZ', 'abcdefghijklmnopqrstuvwxyz'), 'employee')]]/td[count(//*[contains(@id,"_ProductType2Page_v2_gvNewPlans")]/tbody/tr[1]/th[contains(translate(., 'ABCDEFGHIJKLMNOPQRSTUVWXYZ', 'abcdefghijklmnopqrstuvwxyz'), 'select')]/preceding-sibling::th)+1]/input
2019.01.10 02:48:05   info : Finding xpath element on webpage..
2019.01.10 02:48:05   info : Searching for element. Try number 0
2019.01.10 02:48:07   info : element disappeared after trying for 1 times
2019.01.10 02:48:08   info : Current WebDriver Win Count is:: 1
2019.01.10 02:48:08   info : Element found!!
2019.01.10 02:48:08   info : ObjectTag input and ObjectType radio
2019.01.10 02:48:08   info : Radio operation 
2019.01.10 02:48:08   info : Xml obj_repo path C:\Talent_Automation_Framework_Backup\Project_Talent/ObjectRepositories/BenefitAsia2_EE/EE_SimpliFlex_Enrolment.xml
2019.01.10 02:48:08   info : xpath object successfully mapped!!
2019.01.10 02:48:08   info : xpath object contains property value !!
2019.01.10 02:48:08   info : Property name - xpath
2019.01.10 02:48:08   info : Property value - //*[contains(@id,"_ProductType2Page_v2_gvNewPlans")]/tbody/tr[td//text()[contains(translate(., 'ABCDEFGHIJKLMNOPQRSTUVWXYZ', 'abcdefghijklmnopqrstuvwxyz'), 'single bed restr') and contains(translate(., 'ABCDEFGHIJKLMNOPQRSTUVWXYZ', 'abcdefghijklmnopqrstuvwxyz'), 'employee')]]/td[count(//*[contains(@id,"_ProductType2Page_v2_gvNewPlans")]/tbody/tr[1]/th[contains(translate(., 'ABCDEFGHIJKLMNOPQRSTUVWXYZ', 'abcdefghijklmnopqrstuvwxyz'), 'select')]/preceding-sibling::th)+1]/input
2019.01.10 02:48:08   info : Finding xpath element on webpage..
2019.01.10 02:48:08   info : Searching for element. Try number 0
2019.01.10 02:48:08   info : element disappeared after trying for 1 times
2019.01.10 02:48:09   info : Current WebDriver Win Count is:: 1
2019.01.10 02:48:09   info : Element found!!
2019.01.10 02:48:09   info : The Radio Button  [[FirefoxDriver: firefox on WINDOWS (aa9f3160-4b0d-48e7-8a5f-1e53768df5a8)] -> xpath: //*[contains(@id,"_ProductType2Page_v2_gvNewPlans")]/tbody/tr[td//text()[contains(translate(., 'ABCDEFGHIJKLMNOPQRSTUVWXYZ', 'abcdefghijklmnopqrstuvwxyz'), 'single bed restr') and contains(translate(., 'ABCDEFGHIJKLMNOPQRSTUVWXYZ', 'abcdefghijklmnopqrstuvwxyz'), 'employee')]]/td[count(//*[contains(@id,"_ProductType2Page_v2_gvNewPlans")]/tbody/tr[1]/th[contains(translate(., 'ABCDEFGHIJKLMNOPQRSTUVWXYZ', 'abcdefghijklmnopqrstuvwxyz'), 'select')]/preceding-sibling::th)+1]/input] is already selected
2019.01.10 02:48:10   info : Current WebDriver Win Count is:: 1
2019.01.10 02:48:10   info : restult status : 1
2019.01.10 02:48:10   info : Test ID TC6 : previous test step/row 758 status is Passed and value of next test step/row is :: 759
2019.01.10 02:48:10   info : 

2019.01.10 02:48:10   info : -------------------- Executing Testcase ID TC6 and test step : 759 ---------------------- 
2019.01.10 02:48:12   info : Current WebDriver Win Count is:: 1
2019.01.10 02:48:12   info : Xml obj_repo path C:\Talent_Automation_Framework_Backup\Project_Talent/ObjectRepositories/BenefitAsia2_EE/EE_SimpliFlex_Enrolment.xml
2019.01.10 02:48:12   info : xpath object successfully mapped!!
2019.01.10 02:48:12   info : xpath object contains property value !!
2019.01.10 02:48:12   info : Property name - xpath
2019.01.10 02:48:12   info : Property value - //*[contains(@id,"_ProductType2Page_v2_gvNewPlans_ctl03_lbPrice")]
2019.01.10 02:48:12   info : Finding xpath element on webpage..
2019.01.10 02:48:12   info : Searching for element. Try number 0
2019.01.10 02:48:12   info : element disappeared after trying for 1 times
2019.01.10 02:48:13   info : Current WebDriver Win Count is:: 1
2019.01.10 02:48:13   info : Element found!!
2019.01.10 02:48:13   info : ObjectTag span and ObjectType null
2019.01.10 02:48:13   info : Exp_value 1,736.00
2019.01.10 02:48:13   info : Searching for element. Try number 0
2019.01.10 02:48:13   info : element disappeared after trying for 1 times
2019.01.10 02:48:13   info : Actual Value1,736.00
2019.01.10 02:48:13   info : Exp : 1,736.00 and act : 1,736.00 value matched!!
2019.01.10 02:48:14   info : Current WebDriver Win Count is:: 1
2019.01.10 02:48:14   info : restult status : 1
2019.01.10 02:48:14   info : Test ID TC6 : previous test step/row 759 status is Passed and value of next test step/row is :: 760
2019.01.10 02:48:14   info : 

2019.01.10 02:48:14   info : -------------------- Executing Testcase ID TC6 and test step : 760 ---------------------- 
2019.01.10 02:48:15   info : Current WebDriver Win Count is:: 1
2019.01.10 02:48:15   info : page object present in excel : 1
2019.01.10 02:48:15   info : Under single object handle operation!!
2019.01.10 02:48:15   info : col 6 data :  and col 5 data : P2_ButtonConfirm
2019.01.10 02:48:15   info : Normal click operation !!
2019.01.10 02:48:15   info : Checking for object in click
2019.01.10 02:48:15   info : Xml obj_repo path C:\Talent_Automation_Framework_Backup\Project_Talent/ObjectRepositories/BenefitAsia2_EE/EE_SimpliFlex_Enrolment.xml
2019.01.10 02:48:15   info : xpath object successfully mapped!!
2019.01.10 02:48:15   info : xpath object contains property value !!
2019.01.10 02:48:15   info : Property name - xpath
2019.01.10 02:48:15   info : Property value - //input[contains(@id,"_ProductType2Page_v2_confirm")]
2019.01.10 02:48:15   info : Finding xpath element on webpage..
2019.01.10 02:48:15   info : Searching for element. Try number 0
2019.01.10 02:48:15   info : element disappeared after trying for 1 times
2019.01.10 02:48:16   info : Current WebDriver Win Count is:: 1
2019.01.10 02:48:16   info : Element found!!
2019.01.10 02:48:16   info : Xml obj_repo path C:\Talent_Automation_Framework_Backup\Project_Talent/ObjectRepositories/BenefitAsia2_EE/EE_SimpliFlex_Enrolment.xml
2019.01.10 02:48:16   info : xpath object successfully mapped!!
2019.01.10 02:48:16   info : xpath object contains property value !!
2019.01.10 02:48:16   info : Property name - xpath
2019.01.10 02:48:16   info : Property value - //input[contains(@id,"_ProductType2Page_v2_confirm")]
2019.01.10 02:48:16   info : Finding xpath element on webpage..
2019.01.10 02:48:16   info : Searching for element. Try number 0
2019.01.10 02:48:16   info : element disappeared after trying for 1 times
2019.01.10 02:48:17   info : Current WebDriver Win Count is:: 1
2019.01.10 02:48:17   info : Element found!!
2019.01.10 02:48:17   info : clicked on P2_ButtonConfirm
2019.01.10 02:48:18   info : Current WebDriver Win Count is:: 1
2019.01.10 02:48:19   info : restult status : 1
2019.01.10 02:48:19   info : Test ID TC6 : previous test step/row 760 status is Passed and value of next test step/row is :: 761
2019.01.10 02:48:19   info : 

2019.01.10 02:48:19   info : -------------------- Executing Testcase ID TC6 and test step : 761 ---------------------- 
2019.01.10 02:48:20   info : Current WebDriver Win Count is:: 1
2019.01.10 02:48:20   info : page object present in excel : 1
2019.01.10 02:48:20   info : Under single object handle operation!!
2019.01.10 02:48:20   info : col 6 data :  and col 5 data : confirmButton_popup
2019.01.10 02:48:20   info : Normal click operation !!
2019.01.10 02:48:20   info : Checking for object in click
2019.01.10 02:48:20   info : Xml obj_repo path C:\Talent_Automation_Framework_Backup\Project_Talent/ObjectRepositories/BenefitAsia2_EE/EE_SimpliFlex_Enrolment.xml
2019.01.10 02:48:20   info : xpath object successfully mapped!!
2019.01.10 02:48:20   info : xpath object contains property value !!
2019.01.10 02:48:20   info : Property name - xpath
2019.01.10 02:48:20   info : Property value - //*[@id="confirmButton"]
2019.01.10 02:48:20   info : Finding xpath element on webpage..
2019.01.10 02:48:20   info : Searching for element. Try number 0
2019.01.10 02:48:20   info : element disappeared after trying for 1 times
2019.01.10 02:48:21   info : Current WebDriver Win Count is:: 1
2019.01.10 02:48:21   info : Element found!!
2019.01.10 02:48:21   info : Xml obj_repo path C:\Talent_Automation_Framework_Backup\Project_Talent/ObjectRepositories/BenefitAsia2_EE/EE_SimpliFlex_Enrolment.xml
2019.01.10 02:48:21   info : xpath object successfully mapped!!
2019.01.10 02:48:21   info : xpath object contains property value !!
2019.01.10 02:48:21   info : Property name - xpath
2019.01.10 02:48:21   info : Property value - //*[@id="confirmButton"]
2019.01.10 02:48:21   info : Finding xpath element on webpage..
2019.01.10 02:48:21   info : Searching for element. Try number 0
2019.01.10 02:48:21   info : element disappeared after trying for 1 times
2019.01.10 02:48:22   info : Current WebDriver Win Count is:: 1
2019.01.10 02:48:22   info : Element found!!
2019.01.10 02:48:22   info : clicked on confirmButton_popup
2019.01.10 02:48:23   info : Current WebDriver Win Count is:: 1
2019.01.10 02:48:23   info : restult status : 1
2019.01.10 02:48:23   info : Test ID TC6 : previous test step/row 761 status is Passed and value of next test step/row is :: 762
2019.01.10 02:48:23   info : 

2019.01.10 02:48:23   info : -------------------- Executing Testcase ID TC6 and test step : 762 ---------------------- 
2019.01.10 02:48:25   info : Current WebDriver Win Count is:: 1
2019.01.10 02:48:25   info : Xml obj_repo path C:\Talent_Automation_Framework_Backup\Project_Talent/ObjectRepositories/BenefitAsia2_EE/EE_SimpliFlex_Enrolment.xml
2019.01.10 02:48:25   info : xpath object successfully mapped!!
2019.01.10 02:48:25   info : xpath object contains property value !!
2019.01.10 02:48:25   info : Property name - xpath
2019.01.10 02:48:25   info : Property value - //*[contains(@id,"_EnrolmentSelection_FlexPointsNew_hlFlexPointsAllocationDetailsNew")]
2019.01.10 02:48:25   info : Finding xpath element on webpage..
2019.01.10 02:48:25   info : Searching for element. Try number 0
2019.01.10 02:48:28   info : element disappeared after trying for 1 times
2019.01.10 02:48:29   info : Current WebDriver Win Count is:: 1
2019.01.10 02:48:29   info : Element found!!
2019.01.10 02:48:29   info : ObjectTag a and ObjectType null
2019.01.10 02:48:29   info : Exp_value 2,050.00
2019.01.10 02:48:29   info : Searching for element. Try number 0
2019.01.10 02:48:30   info : element disappeared after trying for 1 times
2019.01.10 02:48:30   info : Actual Value2,050.00
2019.01.10 02:48:30   info : Exp : 2,050.00 and act : 2,050.00 value matched!!
2019.01.10 02:48:31   info : Current WebDriver Win Count is:: 1
2019.01.10 02:48:32   info : restult status : 1
2019.01.10 02:48:32   info : Xml obj_repo path C:\Talent_Automation_Framework_Backup\Project_Talent/ObjectRepositories/BenefitAsia2_EE/EE_SimpliFlex_Enrolment.xml
2019.01.10 02:48:32   info : xpath object successfully mapped!!
2019.01.10 02:48:32   info : xpath object contains property value !!
2019.01.10 02:48:32   info : Property name - xpath
2019.01.10 02:48:32   info : Property value - //*[contains(@id,"_EnrolmentSelection_FlexPointsNew_lbPointsBalanceNew")]
2019.01.10 02:48:32   info : Finding xpath element on webpage..
2019.01.10 02:48:32   info : Searching for element. Try number 0
2019.01.10 02:48:33   info : element disappeared after trying for 1 times
2019.01.10 02:48:34   info : Current WebDriver Win Count is:: 1
2019.01.10 02:48:34   info : Element found!!
2019.01.10 02:48:34   info : ObjectTag span and ObjectType null
2019.01.10 02:48:34   info : Exp_value #VALUE!
2019.01.10 02:48:34   info : Searching for element. Try number 0
2019.01.10 02:48:35   info : element disappeared after trying for 1 times
2019.01.10 02:48:35   info : Actual Value314.00
2019.01.10 02:48:35   info : Exp : #VALUE! and act : 314.00 value not matched!!
2019.01.10 02:48:36   info : Current WebDriver Win Count is:: 1
2019.01.10 02:48:36   info : restult status : 2
2019.01.10 02:48:36   info : Test ID TC6 : previous test step/row 762 status is Failed and value of next test step/row is :: 763
2019.01.10 02:48:36   info : 

2019.01.10 02:48:36   info : -------------------- Executing Testcase ID TC6 and test step : 763 ---------------------- 
2019.01.10 02:48:37   info : Current WebDriver Win Count is:: 1
2019.01.10 02:48:37   info : page object present in excel : 1
2019.01.10 02:48:37   info : Under single object handle operation!!
2019.01.10 02:48:37   info : col 6 data :  and col 5 data : Logout
2019.01.10 02:48:37   info : Normal click operation !!
2019.01.10 02:48:37   info : Checking for object in click
2019.01.10 02:48:37   info : Xml obj_repo path C:\Talent_Automation_Framework_Backup\Project_Talent/ObjectRepositories/BenefitAsia2_EE/EE_SimpliFlex_Enrolment.xml
2019.01.10 02:48:37   info : Defined excel object tag is not found in xml!!
2019.01.10 02:48:37   info : size of the element return by xmlreading is 0
2019.01.10 02:48:37   info : Xml obj_repo path C:\Talent_Automation_Framework_Backup\Project_Talent/ObjectRepositories/BenefitAsia2_EE/EE_SimpliFlex_Enrolment.xml
2019.01.10 02:48:37   info : Defined excel object tag is not found in xml!!
2019.01.10 02:48:37   info : size of the element return by xmlreading is 0
2019.01.10 02:48:37   warn : exceptionHandler called!!
2019.01.10 02:48:38   info : Current WebDriver Win Count is:: 1
2019.01.10 02:48:38   error : java.lang.NullPointerException
2019.01.10 02:48:38   info : Test ID TC6 : previous test step/row 763 status is Failed and value of next test step/row is :: 764
2019.01.10 02:48:38   info : 

2019.01.10 02:48:38   info : -------------------- Executing Testcase ID TC6 and test step : 764 ---------------------- 
2019.01.10 02:48:40   info : Current WebDriver Win Count is:: 1
2019.01.10 02:48:40   info : not doing anything!!
2019.01.10 02:48:40   info : Navigating to another url..
