2019.01.10 03:07:30   info : Selenium version :: 2.48.2
2019.01.10 03:07:30   info : Download fodler path created!!
2019.01.10 03:07:30   info : date_time_down_folder C:\Talent_Automation_Framework_Backup\Project_Talent\Downloads\2019_01_10\time_15_07_30\
2019.01.10 03:07:30   info : Total number of applications :: 4
2019.01.10 03:07:30   info : Application Name - Latest_Simp
2019.01.10 03:07:30   info : TestData_Sheet path:: C:\Talent_Automation_Framework_Backup\Project_Talent/TestCases/Latest_Simp.xlsx
2019.01.10 03:07:30   info : CSV updating and creating dump....
2019.01.10 03:07:32   info : Sheet name: Scenarios
2019.01.10 03:07:32   info : Sheet name: TestCaseScheduler
2019.01.10 03:07:32   info : Sheet name: Test Case
2019.01.10 03:07:32   info : Latest_Simp sheetname found!!
2019.01.10 03:07:32   info : Total row 929
2019.01.10 03:07:32   info : After row validation for blank or null!!
2019.01.10 03:07:32   info : Total final row 928
2019.01.10 03:07:32   info : Total number of test cases to be executed :: 1
2019.01.10 03:07:32   info : PrevTestID - null == null && row 792<= 928
2019.01.10 03:07:32   info : Test ID TC7 : previous test step/row 791 status is Passed and value of next test step/row is :: 792
2019.01.10 03:07:32   info : 

2019.01.10 03:07:32   info : -------------------- Executing Testcase ID TC7 and test step : 792 ---------------------- 
2019.01.10 03:07:33   info : please wait.. browser getting open !!
2019.01.10 03:07:44   info : Opening Application..
2019.01.10 03:07:49   info : Current WebDriver Win Count is:: 1
2019.01.10 03:07:50   info : restult status : 1
2019.01.10 03:07:50   info : Test ID TC7 : previous test step/row 792 status is Passed and value of next test step/row is :: 793
2019.01.10 03:07:50   info : 

2019.01.10 03:07:50   info : -------------------- Executing Testcase ID TC7 and test step : 793 ---------------------- 
2019.01.10 03:07:52   info : Current WebDriver Win Count is:: 1
2019.01.10 03:07:52   info : Xml obj_repo path C:\Talent_Automation_Framework_Backup\Project_Talent/ObjectRepositories/BenefitAsia2_MercerAdmin/MA_Home.xml
2019.01.10 03:07:52   info : Title in xml file - Home
2019.01.10 03:07:52   warn : Window is not switched, now trying based on element!!
2019.01.10 03:07:52   info : Window title Mercer Account Center
2019.01.10 03:07:52   info : Xml obj_repo path C:\Talent_Automation_Framework_Backup\Project_Talent/ObjectRepositories/BenefitAsia2_MercerAdmin/MA_Home.xml
2019.01.10 03:07:52   info : xpath object successfully mapped!!
2019.01.10 03:07:52   info : xpath object contains property value !!
2019.01.10 03:07:52   info : Property name - xpath
2019.01.10 03:07:52   info : Property value - //input[contains(@id,"ContentPlaceHolder1_TextBox1")]
2019.01.10 03:07:52   info : Finding xpath element on webpage..
2019.01.10 03:07:52   info : Searching for element. Try number 0
2019.01.10 03:07:53   info : element disappeared after trying for 1 times
2019.01.10 03:07:54   info : Current WebDriver Win Count is:: 1
2019.01.10 03:07:54   info : Element found!!
2019.01.10 03:07:54   info : Desired window is activated!!
2019.01.10 03:07:54   info : Total static wait time 3
2019.01.10 03:07:57   info : Xml obj_repo path C:\Talent_Automation_Framework_Backup\Project_Talent/ObjectRepositories/BenefitAsia2_MercerAdmin/MA_Home.xml
2019.01.10 03:07:57   info : xpath object successfully mapped!!
2019.01.10 03:07:57   info : xpath object contains property value !!
2019.01.10 03:07:57   info : Property name - xpath
2019.01.10 03:07:57   info : Property value - //input[contains(@id,"ContentPlaceHolder1_TextBox1")]
2019.01.10 03:07:57   info : Finding xpath element on webpage..
2019.01.10 03:07:57   info : Searching for element. Try number 0
2019.01.10 03:07:58   info : element disappeared after trying for 1 times
2019.01.10 03:07:59   info : Current WebDriver Win Count is:: 1
2019.01.10 03:07:59   info : Element found!!
2019.01.10 03:07:59   info : ObjectTag input and ObjectType text
2019.01.10 03:07:59   info : Enter data operation
2019.01.10 03:08:00   info : Xml obj_repo path C:\Talent_Automation_Framework_Backup\Project_Talent/ObjectRepositories/BenefitAsia2_MercerAdmin/MA_Home.xml
2019.01.10 03:08:00   info : xpath object successfully mapped!!
2019.01.10 03:08:00   info : xpath object contains property value !!
2019.01.10 03:08:00   info : Property name - xpath
2019.01.10 03:08:00   info : Property value - //input[contains(@id,"ContentPlaceHolder1_TextBox1")]
2019.01.10 03:08:00   info : Finding xpath element on webpage..
2019.01.10 03:08:00   info : Searching for element. Try number 0
2019.01.10 03:08:01   info : element disappeared after trying for 1 times
2019.01.10 03:08:02   info : Current WebDriver Win Count is:: 1
2019.01.10 03:08:02   info : Element found!!
2019.01.10 03:08:02   info : Xml obj_repo path C:\Talent_Automation_Framework_Backup\Project_Talent/ObjectRepositories/BenefitAsia2_MercerAdmin/MA_Home.xml
2019.01.10 03:08:02   info : xpath object successfully mapped!!
2019.01.10 03:08:02   info : xpath object contains property value !!
2019.01.10 03:08:02   info : Property name - xpath
2019.01.10 03:08:02   info : Property value - //input[contains(@id,"ContentPlaceHolder1_TextBox1")]
2019.01.10 03:08:02   info : Finding xpath element on webpage..
2019.01.10 03:08:02   info : Searching for element. Try number 0
2019.01.10 03:08:03   info : element disappeared after trying for 1 times
2019.01.10 03:08:04   info : Current WebDriver Win Count is:: 1
2019.01.10 03:08:04   info : Element found!!
2019.01.10 03:08:04   info : ValueToEnter ashish.choudhary@mercer.com
2019.01.10 03:08:04   info : Entered value is ashish.choudhary@mercer.com
2019.01.10 03:08:04   info : Attribute entered value ashish.choudhary@mercer.com
2019.01.10 03:08:05   info : Current WebDriver Win Count is:: 1
2019.01.10 03:08:06   info : restult status : 1
2019.01.10 03:08:06   info : Test ID TC7 : previous test step/row 793 status is Passed and value of next test step/row is :: 794
2019.01.10 03:08:06   info : 

2019.01.10 03:08:06   info : -------------------- Executing Testcase ID TC7 and test step : 794 ---------------------- 
2019.01.10 03:08:07   info : Current WebDriver Win Count is:: 1
2019.01.10 03:08:07   info : page object present in excel : 1
2019.01.10 03:08:07   info : Under single object handle operation!!
2019.01.10 03:08:07   info : col 6 data :  and col 5 data : SSO_Next_Button
2019.01.10 03:08:07   info : Normal click operation !!
2019.01.10 03:08:07   info : Checking for object in click
2019.01.10 03:08:07   info : Xml obj_repo path C:\Talent_Automation_Framework_Backup\Project_Talent/ObjectRepositories/BenefitAsia2_MercerAdmin/MA_Home.xml
2019.01.10 03:08:07   info : xpath object successfully mapped!!
2019.01.10 03:08:07   info : xpath object contains property value !!
2019.01.10 03:08:07   info : Property name - xpath
2019.01.10 03:08:07   info : Property value - //input[contains(@id,"ContentPlaceHolder1_PassiveSignInButton")]
2019.01.10 03:08:07   info : Finding xpath element on webpage..
2019.01.10 03:08:07   info : Searching for element. Try number 0
2019.01.10 03:08:08   info : element disappeared after trying for 1 times
2019.01.10 03:08:09   info : Current WebDriver Win Count is:: 1
2019.01.10 03:08:09   info : Element found!!
2019.01.10 03:08:09   info : Xml obj_repo path C:\Talent_Automation_Framework_Backup\Project_Talent/ObjectRepositories/BenefitAsia2_MercerAdmin/MA_Home.xml
2019.01.10 03:08:09   info : xpath object successfully mapped!!
2019.01.10 03:08:09   info : xpath object contains property value !!
2019.01.10 03:08:09   info : Property name - xpath
2019.01.10 03:08:09   info : Property value - //input[contains(@id,"ContentPlaceHolder1_PassiveSignInButton")]
2019.01.10 03:08:09   info : Finding xpath element on webpage..
2019.01.10 03:08:09   info : Searching for element. Try number 0
2019.01.10 03:08:10   info : element disappeared after trying for 1 times
2019.01.10 03:08:11   info : Current WebDriver Win Count is:: 1
2019.01.10 03:08:11   info : Element found!!
2019.01.10 03:08:18   info : clicked on SSO_Next_Button
2019.01.10 03:08:19   info : Current WebDriver Win Count is:: 1
2019.01.10 03:08:24   info : restult status : 1
2019.01.10 03:08:24   info : Test ID TC7 : previous test step/row 794 status is Passed and value of next test step/row is :: 795
2019.01.10 03:08:24   info : 

2019.01.10 03:08:24   info : -------------------- Executing Testcase ID TC7 and test step : 795 ---------------------- 
2019.01.10 03:08:25   info : Current WebDriver Win Count is:: 1
2019.01.10 03:08:25   info : not doing anything!!
2019.01.10 03:08:25   info : Navigating to another url..
2019.01.10 03:08:38   info : Current WebDriver Win Count is:: 1
2019.01.10 03:08:38   info : restult status : 1
2019.01.10 03:08:38   info : Test ID TC7 : previous test step/row 795 status is Passed and value of next test step/row is :: 796
2019.01.10 03:08:38   info : 

2019.01.10 03:08:38   info : -------------------- Executing Testcase ID TC7 and test step : 796 ---------------------- 
2019.01.10 03:08:39   info : Current WebDriver Win Count is:: 1
2019.01.10 03:08:39   info : page object present in excel : 1
2019.01.10 03:08:39   info : Under single object handle operation!!
2019.01.10 03:08:39   info : col 6 data :  and col 5 data : Portal_Configurations
2019.01.10 03:08:39   info : Normal click operation !!
2019.01.10 03:08:39   info : Checking for object in click
2019.01.10 03:08:39   info : Xml obj_repo path C:\Talent_Automation_Framework_Backup\Project_Talent/ObjectRepositories/BenefitAsia2_MercerAdmin/MA_SecurityAccess.xml
2019.01.10 03:08:39   info : xpath object successfully mapped!!
2019.01.10 03:08:39   info : xpath object contains property value !!
2019.01.10 03:08:39   info : Property name - xpath
2019.01.10 03:08:39   info : Property value - //*[contains(@id,"_lbtnPortalConfig")]
2019.01.10 03:08:39   info : Finding xpath element on webpage..
2019.01.10 03:08:39   info : Searching for element. Try number 0
2019.01.10 03:08:40   info : element disappeared after trying for 1 times
2019.01.10 03:08:41   info : Current WebDriver Win Count is:: 1
2019.01.10 03:08:41   info : Element found!!
2019.01.10 03:08:41   info : Xml obj_repo path C:\Talent_Automation_Framework_Backup\Project_Talent/ObjectRepositories/BenefitAsia2_MercerAdmin/MA_SecurityAccess.xml
2019.01.10 03:08:41   info : xpath object successfully mapped!!
2019.01.10 03:08:41   info : xpath object contains property value !!
2019.01.10 03:08:41   info : Property name - xpath
2019.01.10 03:08:41   info : Property value - //*[contains(@id,"_lbtnPortalConfig")]
2019.01.10 03:08:41   info : Finding xpath element on webpage..
2019.01.10 03:08:41   info : Searching for element. Try number 0
2019.01.10 03:08:42   info : element disappeared after trying for 1 times
2019.01.10 03:08:43   info : Current WebDriver Win Count is:: 1
2019.01.10 03:08:43   info : Element found!!
2019.01.10 03:08:45   info : clicked on Portal_Configurations
2019.01.10 03:08:46   info : Current WebDriver Win Count is:: 1
2019.01.10 03:08:46   info : restult status : 1
2019.01.10 03:08:46   info : Test ID TC7 : previous test step/row 796 status is Passed and value of next test step/row is :: 797
2019.01.10 03:08:46   info : 

2019.01.10 03:08:46   info : -------------------- Executing Testcase ID TC7 and test step : 797 ---------------------- 
2019.01.10 03:08:47   info : Current WebDriver Win Count is:: 1
2019.01.10 03:08:47   info : Total static wait time 3
2019.01.10 03:08:50   info : Xml obj_repo path C:\Talent_Automation_Framework_Backup\Project_Talent/ObjectRepositories/BenefitAsia2_MercerAdmin/MA_SecurityAccess.xml
2019.01.10 03:08:50   info : xpath object successfully mapped!!
2019.01.10 03:08:50   info : xpath object contains property value !!
2019.01.10 03:08:50   info : Property name - xpath
2019.01.10 03:08:50   info : Property value - //*[contains(@id,"_PortalConfigurations_ddlPortal2")]
2019.01.10 03:08:50   info : Finding xpath element on webpage..
2019.01.10 03:08:50   info : Searching for element. Try number 0
2019.01.10 03:08:51   info : element disappeared after trying for 1 times
2019.01.10 03:08:52   info : Current WebDriver Win Count is:: 1
2019.01.10 03:08:52   info : Element found!!
2019.01.10 03:08:52   info : ObjectTag select and ObjectType null
2019.01.10 03:08:52   info : select combobox operation 
2019.01.10 03:08:52   info : Xml obj_repo path C:\Talent_Automation_Framework_Backup\Project_Talent/ObjectRepositories/BenefitAsia2_MercerAdmin/MA_SecurityAccess.xml
2019.01.10 03:08:52   info : xpath object successfully mapped!!
2019.01.10 03:08:52   info : xpath object contains property value !!
2019.01.10 03:08:52   info : Property name - xpath
2019.01.10 03:08:52   info : Property value - //*[contains(@id,"_PortalConfigurations_ddlPortal2")]
2019.01.10 03:08:52   info : Finding xpath element on webpage..
2019.01.10 03:08:52   info : Searching for element. Try number 0
2019.01.10 03:08:53   info : element disappeared after trying for 1 times
2019.01.10 03:08:54   info : Current WebDriver Win Count is:: 1
2019.01.10 03:08:54   info : Element found!!
2019.01.10 03:08:54   info : Xml obj_repo path C:\Talent_Automation_Framework_Backup\Project_Talent/ObjectRepositories/BenefitAsia2_MercerAdmin/MA_SecurityAccess.xml
2019.01.10 03:08:54   info : xpath object successfully mapped!!
2019.01.10 03:08:54   info : xpath object contains property value !!
2019.01.10 03:08:54   info : Property name - xpath
2019.01.10 03:08:54   info : Property value - //*[contains(@id,"_PortalConfigurations_ddlPortal2")]
2019.01.10 03:08:54   info : Finding xpath element on webpage..
2019.01.10 03:08:54   info : Element found!!
2019.01.10 03:08:55   info : SimpliflexSG value selected!!
2019.01.10 03:08:57   info : Alert is not present
2019.01.10 03:08:58   info : Current WebDriver Win Count is:: 1
2019.01.10 03:08:58   info : restult status : 1
2019.01.10 03:08:58   info : Test ID TC7 : previous test step/row 797 status is Passed and value of next test step/row is :: 798
2019.01.10 03:08:58   info : 

2019.01.10 03:08:58   info : -------------------- Executing Testcase ID TC7 and test step : 798 ---------------------- 
2019.01.10 03:08:59   info : Current WebDriver Win Count is:: 1
2019.01.10 03:08:59   info : Total static wait time 3
2019.01.10 03:09:02   info : Xml obj_repo path C:\Talent_Automation_Framework_Backup\Project_Talent/ObjectRepositories/BenefitAsia2_MercerAdmin/MA_SecurityAccess.xml
2019.01.10 03:09:02   info : xpath object successfully mapped!!
2019.01.10 03:09:02   info : xpath object contains property value !!
2019.01.10 03:09:02   info : Property name - xpath
2019.01.10 03:09:02   info : Property value - //input[contains(@id,"_txtClientUserName")]
2019.01.10 03:09:02   info : Finding xpath element on webpage..
2019.01.10 03:09:02   info : Searching for element. Try number 0
2019.01.10 03:09:03   info : element disappeared after trying for 1 times
2019.01.10 03:09:04   info : Current WebDriver Win Count is:: 1
2019.01.10 03:09:04   info : Element found!!
2019.01.10 03:09:04   info : ObjectTag input and ObjectType text
2019.01.10 03:09:04   info : Enter data operation
2019.01.10 03:09:05   info : Xml obj_repo path C:\Talent_Automation_Framework_Backup\Project_Talent/ObjectRepositories/BenefitAsia2_MercerAdmin/MA_SecurityAccess.xml
2019.01.10 03:09:05   info : xpath object successfully mapped!!
2019.01.10 03:09:05   info : xpath object contains property value !!
2019.01.10 03:09:05   info : Property name - xpath
2019.01.10 03:09:05   info : Property value - //input[contains(@id,"_txtClientUserName")]
2019.01.10 03:09:05   info : Finding xpath element on webpage..
2019.01.10 03:09:05   info : Searching for element. Try number 0
2019.01.10 03:09:06   info : element disappeared after trying for 1 times
2019.01.10 03:09:07   info : Current WebDriver Win Count is:: 1
2019.01.10 03:09:07   info : Element found!!
2019.01.10 03:09:07   info : Xml obj_repo path C:\Talent_Automation_Framework_Backup\Project_Talent/ObjectRepositories/BenefitAsia2_MercerAdmin/MA_SecurityAccess.xml
2019.01.10 03:09:07   info : xpath object successfully mapped!!
2019.01.10 03:09:07   info : xpath object contains property value !!
2019.01.10 03:09:07   info : Property name - xpath
2019.01.10 03:09:07   info : Property value - //input[contains(@id,"_txtClientUserName")]
2019.01.10 03:09:07   info : Finding xpath element on webpage..
2019.01.10 03:09:07   info : Searching for element. Try number 0
2019.01.10 03:09:08   info : element disappeared after trying for 1 times
2019.01.10 03:09:09   info : Current WebDriver Win Count is:: 1
2019.01.10 03:09:09   info : Element found!!
2019.01.10 03:09:09   info : ValueToEnter Simpli_10jan_006
2019.01.10 03:09:10   info : Entered value is Simpli_10jan_006
2019.01.10 03:09:10   info : Attribute entered value Simpli_10jan_006
2019.01.10 03:09:11   info : Current WebDriver Win Count is:: 1
2019.01.10 03:09:11   info : restult status : 1
2019.01.10 03:09:11   info : Test ID TC7 : previous test step/row 798 status is Passed and value of next test step/row is :: 799
2019.01.10 03:09:11   info : 

2019.01.10 03:09:11   info : -------------------- Executing Testcase ID TC7 and test step : 799 ---------------------- 
2019.01.10 03:09:12   info : Current WebDriver Win Count is:: 1
2019.01.10 03:09:12   info : page object present in excel : 1
2019.01.10 03:09:12   info : Under single object handle operation!!
2019.01.10 03:09:12   info : col 6 data :  and col 5 data : User_Info
2019.01.10 03:09:12   info : Normal click operation !!
2019.01.10 03:09:12   info : Checking for object in click
2019.01.10 03:09:12   info : Xml obj_repo path C:\Talent_Automation_Framework_Backup\Project_Talent/ObjectRepositories/BenefitAsia2_MercerAdmin/MA_SecurityAccess.xml
2019.01.10 03:09:12   info : xpath object successfully mapped!!
2019.01.10 03:09:12   info : xpath object contains property value !!
2019.01.10 03:09:12   info : Property name - xpath
2019.01.10 03:09:12   info : Property value - //input[contains(@id,"_btnUserInfo")]
2019.01.10 03:09:12   info : Finding xpath element on webpage..
2019.01.10 03:09:12   info : Searching for element. Try number 0
2019.01.10 03:09:13   info : element disappeared after trying for 1 times
2019.01.10 03:09:14   info : Current WebDriver Win Count is:: 1
2019.01.10 03:09:14   info : Element found!!
2019.01.10 03:09:14   info : Xml obj_repo path C:\Talent_Automation_Framework_Backup\Project_Talent/ObjectRepositories/BenefitAsia2_MercerAdmin/MA_SecurityAccess.xml
2019.01.10 03:09:14   info : xpath object successfully mapped!!
2019.01.10 03:09:14   info : xpath object contains property value !!
2019.01.10 03:09:14   info : Property name - xpath
2019.01.10 03:09:14   info : Property value - //input[contains(@id,"_btnUserInfo")]
2019.01.10 03:09:14   info : Finding xpath element on webpage..
2019.01.10 03:09:14   info : Searching for element. Try number 0
2019.01.10 03:09:15   info : element disappeared after trying for 1 times
2019.01.10 03:09:16   info : Current WebDriver Win Count is:: 1
2019.01.10 03:09:16   info : Element found!!
2019.01.10 03:09:17   info : clicked on User_Info
2019.01.10 03:09:18   info : Current WebDriver Win Count is:: 1
2019.01.10 03:09:18   info : restult status : 1
2019.01.10 03:09:18   info : Test ID TC7 : previous test step/row 799 status is Passed and value of next test step/row is :: 800
2019.01.10 03:09:18   info : 

2019.01.10 03:09:18   info : -------------------- Executing Testcase ID TC7 and test step : 800 ---------------------- 
2019.01.10 03:09:20   info : Current WebDriver Win Count is:: 1
2019.01.10 03:09:20   info : Total static wait time 3
2019.01.10 03:09:23   info : Xml obj_repo path C:\Talent_Automation_Framework_Backup\Project_Talent/ObjectRepositories/BenefitAsia2_MercerAdmin/MA_SecurityAccess.xml
2019.01.10 03:09:23   info : xpath object successfully mapped!!
2019.01.10 03:09:23   info : xpath object contains property value !!
2019.01.10 03:09:23   info : Property name - xpath
2019.01.10 03:09:23   info : Property value - //input[contains(@id,"_txtClientPassword")]
2019.01.10 03:09:23   info : Finding xpath element on webpage..
2019.01.10 03:09:23   info : Searching for element. Try number 0
2019.01.10 03:09:24   info : element disappeared after trying for 1 times
2019.01.10 03:09:25   info : Current WebDriver Win Count is:: 1
2019.01.10 03:09:25   info : Element found!!
2019.01.10 03:09:25   info : ObjectTag input and ObjectType text
2019.01.10 03:09:25   info : Enter data operation
2019.01.10 03:09:26   info : Xml obj_repo path C:\Talent_Automation_Framework_Backup\Project_Talent/ObjectRepositories/BenefitAsia2_MercerAdmin/MA_SecurityAccess.xml
2019.01.10 03:09:26   info : xpath object successfully mapped!!
2019.01.10 03:09:26   info : xpath object contains property value !!
2019.01.10 03:09:26   info : Property name - xpath
2019.01.10 03:09:26   info : Property value - //input[contains(@id,"_txtClientPassword")]
2019.01.10 03:09:26   info : Finding xpath element on webpage..
2019.01.10 03:09:26   info : Searching for element. Try number 0
2019.01.10 03:09:27   info : element disappeared after trying for 1 times
2019.01.10 03:09:28   info : Current WebDriver Win Count is:: 1
2019.01.10 03:09:28   info : Element found!!
2019.01.10 03:09:28   info : Xml obj_repo path C:\Talent_Automation_Framework_Backup\Project_Talent/ObjectRepositories/BenefitAsia2_MercerAdmin/MA_SecurityAccess.xml
2019.01.10 03:09:28   info : xpath object successfully mapped!!
2019.01.10 03:09:28   info : xpath object contains property value !!
2019.01.10 03:09:28   info : Property name - xpath
2019.01.10 03:09:28   info : Property value - //input[contains(@id,"_txtClientPassword")]
2019.01.10 03:09:28   info : Finding xpath element on webpage..
2019.01.10 03:09:28   info : Searching for element. Try number 0
2019.01.10 03:09:29   info : element disappeared after trying for 1 times
2019.01.10 03:09:30   info : Current WebDriver Win Count is:: 1
2019.01.10 03:09:30   info : Element found!!
2019.01.10 03:09:30   info : ValueToEnter 1
2019.01.10 03:09:30   info : Entered value is 1
2019.01.10 03:09:30   info : Attribute entered value 1
2019.01.10 03:09:31   info : Current WebDriver Win Count is:: 1
2019.01.10 03:09:31   info : restult status : 1
2019.01.10 03:09:31   info : Test ID TC7 : previous test step/row 800 status is Passed and value of next test step/row is :: 801
2019.01.10 03:09:31   info : 

2019.01.10 03:09:31   info : -------------------- Executing Testcase ID TC7 and test step : 801 ---------------------- 
2019.01.10 03:09:33   info : Current WebDriver Win Count is:: 1
2019.01.10 03:09:33   info : page object present in excel : 1
2019.01.10 03:09:33   info : Under single object handle operation!!
2019.01.10 03:09:33   info : col 6 data :  and col 5 data : Reset_Password
2019.01.10 03:09:33   info : Normal click operation !!
2019.01.10 03:09:33   info : Checking for object in click
2019.01.10 03:09:33   info : Xml obj_repo path C:\Talent_Automation_Framework_Backup\Project_Talent/ObjectRepositories/BenefitAsia2_MercerAdmin/MA_SecurityAccess.xml
2019.01.10 03:09:33   info : xpath object successfully mapped!!
2019.01.10 03:09:33   info : xpath object contains property value !!
2019.01.10 03:09:33   info : Property name - xpath
2019.01.10 03:09:33   info : Property value - //input[contains(@id,"_btnResetPassword")]
2019.01.10 03:09:33   info : Finding xpath element on webpage..
2019.01.10 03:09:33   info : Searching for element. Try number 0
2019.01.10 03:09:34   info : element disappeared after trying for 1 times
2019.01.10 03:09:35   info : Current WebDriver Win Count is:: 1
2019.01.10 03:09:35   info : Element found!!
2019.01.10 03:09:35   info : Xml obj_repo path C:\Talent_Automation_Framework_Backup\Project_Talent/ObjectRepositories/BenefitAsia2_MercerAdmin/MA_SecurityAccess.xml
2019.01.10 03:09:35   info : xpath object successfully mapped!!
2019.01.10 03:09:35   info : xpath object contains property value !!
2019.01.10 03:09:35   info : Property name - xpath
2019.01.10 03:09:35   info : Property value - //input[contains(@id,"_btnResetPassword")]
2019.01.10 03:09:35   info : Finding xpath element on webpage..
2019.01.10 03:09:35   info : Searching for element. Try number 0
2019.01.10 03:09:36   info : element disappeared after trying for 1 times
2019.01.10 03:09:37   info : Current WebDriver Win Count is:: 1
2019.01.10 03:09:37   info : Element found!!
2019.01.10 03:09:38   info : clicked on Reset_Password
2019.01.10 03:09:39   info : Current WebDriver Win Count is:: 1
2019.01.10 03:09:39   info : restult status : 1
2019.01.10 03:09:39   info : Test ID TC7 : previous test step/row 801 status is Passed and value of next test step/row is :: 802
2019.01.10 03:09:39   info : 

2019.01.10 03:09:39   info : -------------------- Executing Testcase ID TC7 and test step : 802 ---------------------- 
2019.01.10 03:09:40   info : Current WebDriver Win Count is:: 1
2019.01.10 03:09:40   info : not doing anything!!
2019.01.10 03:09:40   info : Navigating to another url..
2019.01.10 03:09:44   info : Current WebDriver Win Count is:: 1
2019.01.10 03:09:45   info : restult status : 1
2019.01.10 03:09:45   info : Test ID TC7 : previous test step/row 802 status is Passed and value of next test step/row is :: 803
2019.01.10 03:09:45   info : 

2019.01.10 03:09:45   info : -------------------- Executing Testcase ID TC7 and test step : 803 ---------------------- 
2019.01.10 03:09:46   info : Current WebDriver Win Count is:: 1
2019.01.10 03:09:46   info : Total static wait time 3
2019.01.10 03:09:49   info : Xml obj_repo path C:\Talent_Automation_Framework_Backup\Project_Talent/ObjectRepositories/BenefitAsia2_MercerAdmin/MA_Enrollment.xml
2019.01.10 03:09:49   info : xpath object successfully mapped!!
2019.01.10 03:09:49   info : xpath object contains property value !!
2019.01.10 03:09:49   info : Property name - xpath
2019.01.10 03:09:49   info : Property value - //input[contains(@id,"_txtSearch")]
2019.01.10 03:09:49   info : Finding xpath element on webpage..
2019.01.10 03:09:49   info : Searching for element. Try number 0
2019.01.10 03:09:50   info : element disappeared after trying for 1 times
2019.01.10 03:09:51   info : Current WebDriver Win Count is:: 1
2019.01.10 03:09:51   info : Element found!!
2019.01.10 03:09:51   info : ObjectTag input and ObjectType text
2019.01.10 03:09:51   info : Enter data operation
2019.01.10 03:09:52   info : Xml obj_repo path C:\Talent_Automation_Framework_Backup\Project_Talent/ObjectRepositories/BenefitAsia2_MercerAdmin/MA_Enrollment.xml
2019.01.10 03:09:52   info : xpath object successfully mapped!!
2019.01.10 03:09:52   info : xpath object contains property value !!
2019.01.10 03:09:52   info : Property name - xpath
2019.01.10 03:09:52   info : Property value - //input[contains(@id,"_txtSearch")]
2019.01.10 03:09:52   info : Finding xpath element on webpage..
2019.01.10 03:09:52   info : Searching for element. Try number 0
2019.01.10 03:09:53   info : element disappeared after trying for 1 times
2019.01.10 03:09:54   info : Current WebDriver Win Count is:: 1
2019.01.10 03:09:54   info : Element found!!
2019.01.10 03:09:54   info : Xml obj_repo path C:\Talent_Automation_Framework_Backup\Project_Talent/ObjectRepositories/BenefitAsia2_MercerAdmin/MA_Enrollment.xml
2019.01.10 03:09:54   info : xpath object successfully mapped!!
2019.01.10 03:09:54   info : xpath object contains property value !!
2019.01.10 03:09:54   info : Property name - xpath
2019.01.10 03:09:54   info : Property value - //input[contains(@id,"_txtSearch")]
2019.01.10 03:09:54   info : Finding xpath element on webpage..
2019.01.10 03:09:54   info : Searching for element. Try number 0
2019.01.10 03:09:55   info : element disappeared after trying for 1 times
2019.01.10 03:09:56   info : Current WebDriver Win Count is:: 1
2019.01.10 03:09:56   info : Element found!!
2019.01.10 03:09:56   info : ValueToEnter Simpli_10jan_006
2019.01.10 03:09:56   info : Entered value is Simpli_10jan_006
2019.01.10 03:09:56   info : Attribute entered value Simpli_10jan_006
2019.01.10 03:09:57   info : Current WebDriver Win Count is:: 1
2019.01.10 03:09:57   info : restult status : 1
2019.01.10 03:09:57   info : Test ID TC7 : previous test step/row 803 status is Passed and value of next test step/row is :: 804
2019.01.10 03:09:57   info : 

2019.01.10 03:09:57   info : -------------------- Executing Testcase ID TC7 and test step : 804 ---------------------- 
2019.01.10 03:09:59   info : Current WebDriver Win Count is:: 1
2019.01.10 03:09:59   info : page object present in excel : 1
2019.01.10 03:09:59   info : Under single object handle operation!!
2019.01.10 03:09:59   info : col 6 data : javascript_click and col 5 data : Radio_EmployeeID
2019.01.10 03:09:59   info : Click case operation !!
2019.01.10 03:09:59   info : oprnm javascript_click
2019.01.10 03:09:59   info : click javascript_click operation perfomred!!
2019.01.10 03:09:59   info : Xml obj_repo path C:\Talent_Automation_Framework_Backup\Project_Talent/ObjectRepositories/BenefitAsia2_MercerAdmin/MA_Enrollment.xml
2019.01.10 03:09:59   info : xpath object successfully mapped!!
2019.01.10 03:09:59   info : xpath object contains property value !!
2019.01.10 03:09:59   info : Property name - xpath
2019.01.10 03:09:59   info : Property value - //input[contains(@id,"_rdbsearch_3")]
2019.01.10 03:09:59   info : Finding xpath element on webpage..
2019.01.10 03:09:59   info : Searching for element. Try number 0
2019.01.10 03:10:00   info : element disappeared after trying for 1 times
2019.01.10 03:10:01   info : Current WebDriver Win Count is:: 1
2019.01.10 03:10:01   info : Element found!!
2019.01.10 03:10:02   info : Current WebDriver Win Count is:: 1
2019.01.10 03:10:02   info : restult status : 1
2019.01.10 03:10:02   info : Test ID TC7 : previous test step/row 804 status is Passed and value of next test step/row is :: 805
2019.01.10 03:10:02   info : 

2019.01.10 03:10:02   info : -------------------- Executing Testcase ID TC7 and test step : 805 ---------------------- 
2019.01.10 03:10:03   info : Current WebDriver Win Count is:: 1
2019.01.10 03:10:03   info : page object present in excel : 1
2019.01.10 03:10:03   info : Under single object handle operation!!
2019.01.10 03:10:03   info : col 6 data :  and col 5 data : Search_Button
2019.01.10 03:10:03   info : Normal click operation !!
2019.01.10 03:10:03   info : Checking for object in click
2019.01.10 03:10:03   info : Xml obj_repo path C:\Talent_Automation_Framework_Backup\Project_Talent/ObjectRepositories/BenefitAsia2_MercerAdmin/MA_Enrollment.xml
2019.01.10 03:10:03   info : xpath object successfully mapped!!
2019.01.10 03:10:03   info : xpath object contains property value !!
2019.01.10 03:10:03   info : Property name - xpath
2019.01.10 03:10:03   info : Property value - //input[contains(@id,"_btnSearch")]
2019.01.10 03:10:03   info : Finding xpath element on webpage..
2019.01.10 03:10:03   info : Searching for element. Try number 0
2019.01.10 03:10:04   info : element disappeared after trying for 1 times
2019.01.10 03:10:05   info : Current WebDriver Win Count is:: 1
2019.01.10 03:10:05   info : Element found!!
2019.01.10 03:10:05   info : Xml obj_repo path C:\Talent_Automation_Framework_Backup\Project_Talent/ObjectRepositories/BenefitAsia2_MercerAdmin/MA_Enrollment.xml
2019.01.10 03:10:05   info : xpath object successfully mapped!!
2019.01.10 03:10:05   info : xpath object contains property value !!
2019.01.10 03:10:05   info : Property name - xpath
2019.01.10 03:10:05   info : Property value - //input[contains(@id,"_btnSearch")]
2019.01.10 03:10:05   info : Finding xpath element on webpage..
2019.01.10 03:10:05   info : Searching for element. Try number 0
2019.01.10 03:10:06   info : element disappeared after trying for 1 times
2019.01.10 03:10:07   info : Current WebDriver Win Count is:: 1
2019.01.10 03:10:07   info : Element found!!
2019.01.10 03:10:08   info : clicked on Search_Button
2019.01.10 03:10:09   info : Current WebDriver Win Count is:: 1
2019.01.10 03:10:10   info : restult status : 1
2019.01.10 03:10:10   info : Test ID TC7 : previous test step/row 805 status is Passed and value of next test step/row is :: 806
2019.01.10 03:10:10   info : 

2019.01.10 03:10:10   info : -------------------- Executing Testcase ID TC7 and test step : 806 ---------------------- 
2019.01.10 03:10:11   info : Current WebDriver Win Count is:: 1
2019.01.10 03:10:11   info : Xml obj_repo path C:\Talent_Automation_Framework_Backup\Project_Talent/ObjectRepositories/BenefitAsia2_MercerAdmin/MA_Enrollment.xml
2019.01.10 03:10:11   info : xpath object successfully mapped!!
2019.01.10 03:10:11   info : xpath object contains property value !!
2019.01.10 03:10:11   info : Property name - xpath
2019.01.10 03:10:11   info : Property value - //*[contains(@id,"_SearchEnrolmentStatus_GrdEmployee")]/tbody/tr[2]/td[count(//*[contains(@id,"_SearchEnrolmentStatus_GrdEmployee")]/tbody/tr[1]/th[contains(translate(., 'ABCDEFGHIJKLMNOPQRSTUVWXYZ', 'abcdefghijklmnopqrstuvwxyz'), 'employee id')]/preceding-sibling::th)+1]
2019.01.10 03:10:11   info : Finding xpath element on webpage..
2019.01.10 03:10:11   info : Searching for element. Try number 0
2019.01.10 03:10:12   info : element disappeared after trying for 1 times
2019.01.10 03:10:13   info : Current WebDriver Win Count is:: 1
2019.01.10 03:10:13   info : Element found!!
2019.01.10 03:10:13   info : ObjectTag td and ObjectType null
2019.01.10 03:10:13   info : Exp_value Simpli_10jan_006
2019.01.10 03:10:13   info : Searching for element. Try number 0
2019.01.10 03:10:14   info : element disappeared after trying for 1 times
2019.01.10 03:10:14   info : Actual ValueSimpli_10jan_006
2019.01.10 03:10:14   info : Exp : Simpli_10jan_006 and act : Simpli_10jan_006 value matched!!
2019.01.10 03:10:15   info : Current WebDriver Win Count is:: 1
2019.01.10 03:10:15   info : restult status : 1
2019.01.10 03:10:15   info : Test ID TC7 : previous test step/row 806 status is Passed and value of next test step/row is :: 807
2019.01.10 03:10:15   info : 

2019.01.10 03:10:15   info : -------------------- Executing Testcase ID TC7 and test step : 807 ---------------------- 
2019.01.10 03:10:16   info : Current WebDriver Win Count is:: 1
2019.01.10 03:10:16   info : page object present in excel : 1
2019.01.10 03:10:16   info : Under single object handle operation!!
2019.01.10 03:10:16   info : col 6 data :  and col 5 data : Edit_Period
2019.01.10 03:10:16   info : Normal click operation !!
2019.01.10 03:10:16   info : Checking for object in click
2019.01.10 03:10:16   info : Xml obj_repo path C:\Talent_Automation_Framework_Backup\Project_Talent/ObjectRepositories/BenefitAsia2_MercerAdmin/MA_Enrollment.xml
2019.01.10 03:10:16   info : xpath object successfully mapped!!
2019.01.10 03:10:16   info : xpath object contains property value !!
2019.01.10 03:10:16   info : Property name - xpath
2019.01.10 03:10:16   info : Property value - //input[contains(@id,"_btnEditPeriod")]
2019.01.10 03:10:16   info : Finding xpath element on webpage..
2019.01.10 03:10:16   info : Searching for element. Try number 0
2019.01.10 03:10:17   info : element disappeared after trying for 1 times
2019.01.10 03:10:18   info : Current WebDriver Win Count is:: 1
2019.01.10 03:10:18   info : Element found!!
2019.01.10 03:10:18   info : Xml obj_repo path C:\Talent_Automation_Framework_Backup\Project_Talent/ObjectRepositories/BenefitAsia2_MercerAdmin/MA_Enrollment.xml
2019.01.10 03:10:18   info : xpath object successfully mapped!!
2019.01.10 03:10:18   info : xpath object contains property value !!
2019.01.10 03:10:18   info : Property name - xpath
2019.01.10 03:10:18   info : Property value - //input[contains(@id,"_btnEditPeriod")]
2019.01.10 03:10:18   info : Finding xpath element on webpage..
2019.01.10 03:10:18   info : Searching for element. Try number 0
2019.01.10 03:10:20   info : element disappeared after trying for 1 times
2019.01.10 03:10:21   info : Current WebDriver Win Count is:: 1
2019.01.10 03:10:21   info : Element found!!
2019.01.10 03:10:23   info : clicked on Edit_Period
2019.01.10 03:10:24   info : Current WebDriver Win Count is:: 1
2019.01.10 03:10:24   info : restult status : 1
2019.01.10 03:10:24   info : Test ID TC7 : previous test step/row 807 status is Passed and value of next test step/row is :: 808
2019.01.10 03:10:24   info : 

2019.01.10 03:10:24   info : -------------------- Executing Testcase ID TC7 and test step : 808 ---------------------- 
2019.01.10 03:10:25   info : Current WebDriver Win Count is:: 1
2019.01.10 03:10:25   info : page object present in excel : 1
2019.01.10 03:10:25   info : Under single object handle operation!!
2019.01.10 03:10:25   info : col 6 data :  and col 5 data : Submit_Button
2019.01.10 03:10:25   info : Normal click operation !!
2019.01.10 03:10:25   info : Checking for object in click
2019.01.10 03:10:25   info : Xml obj_repo path C:\Talent_Automation_Framework_Backup\Project_Talent/ObjectRepositories/BenefitAsia2_MercerAdmin/MA_Enrollment.xml
2019.01.10 03:10:25   info : xpath object successfully mapped!!
2019.01.10 03:10:25   info : xpath object contains property value !!
2019.01.10 03:10:25   info : Property name - xpath
2019.01.10 03:10:25   info : Property value - //input[contains(@id,"_btnSubmit")]
2019.01.10 03:10:25   info : Finding xpath element on webpage..
2019.01.10 03:10:25   info : Searching for element. Try number 0
2019.01.10 03:10:26   info : element disappeared after trying for 1 times
2019.01.10 03:10:27   info : Current WebDriver Win Count is:: 1
2019.01.10 03:10:27   info : Element found!!
2019.01.10 03:10:27   info : Xml obj_repo path C:\Talent_Automation_Framework_Backup\Project_Talent/ObjectRepositories/BenefitAsia2_MercerAdmin/MA_Enrollment.xml
2019.01.10 03:10:27   info : xpath object successfully mapped!!
2019.01.10 03:10:27   info : xpath object contains property value !!
2019.01.10 03:10:27   info : Property name - xpath
2019.01.10 03:10:27   info : Property value - //input[contains(@id,"_btnSubmit")]
2019.01.10 03:10:27   info : Finding xpath element on webpage..
2019.01.10 03:10:27   info : Searching for element. Try number 0
2019.01.10 03:10:28   info : element disappeared after trying for 1 times
2019.01.10 03:10:29   info : Current WebDriver Win Count is:: 1
2019.01.10 03:10:29   info : Element found!!
2019.01.10 03:10:30   info : clicked on Submit_Button
2019.01.10 03:10:31   info : Current WebDriver Win Count is:: 1
2019.01.10 03:10:32   info : restult status : 1
2019.01.10 03:10:32   info : Test ID TC7 : previous test step/row 808 status is Passed and value of next test step/row is :: 809
2019.01.10 03:10:32   info : 

2019.01.10 03:10:32   info : -------------------- Executing Testcase ID TC7 and test step : 809 ---------------------- 
2019.01.10 03:10:33   info : Current WebDriver Win Count is:: 1
2019.01.10 03:10:33   info : Xml obj_repo path C:\Talent_Automation_Framework_Backup\Project_Talent/ObjectRepositories/BenefitAsia2_MercerAdmin/MA_LoginLogout.xml
2019.01.10 03:10:33   info : Title contains null value in xml!!
2019.01.10 03:10:33   info : Window title View Enrollment Status
2019.01.10 03:10:33   info : Xml obj_repo path C:\Talent_Automation_Framework_Backup\Project_Talent/ObjectRepositories/BenefitAsia2_MercerAdmin/MA_LoginLogout.xml
2019.01.10 03:10:33   info : xpath object successfully mapped!!
2019.01.10 03:10:33   info : xpath object contains property value !!
2019.01.10 03:10:33   info : Property name - xpath
2019.01.10 03:10:33   info : Property value - //a[contains(@id,"_cmdLogin")]
2019.01.10 03:10:33   info : Finding xpath element on webpage..
2019.01.10 03:10:33   info : Searching for element. Try number 0
2019.01.10 03:10:34   info : element disappeared after trying for 1 times
2019.01.10 03:10:34   info : Element found!!
2019.01.10 03:10:34   info : Desired window is activated!!
2019.01.10 03:10:34   info : page object present in excel : 1
2019.01.10 03:10:34   info : Under single object handle operation!!
2019.01.10 03:10:34   info : col 6 data :  and col 5 data : Logout
2019.01.10 03:10:34   info : Normal click operation !!
2019.01.10 03:10:34   info : Checking for object in click
2019.01.10 03:10:34   info : Xml obj_repo path C:\Talent_Automation_Framework_Backup\Project_Talent/ObjectRepositories/BenefitAsia2_MercerAdmin/MA_LoginLogout.xml
2019.01.10 03:10:34   info : xpath object successfully mapped!!
2019.01.10 03:10:34   info : xpath object contains property value !!
2019.01.10 03:10:34   info : Property name - xpath
2019.01.10 03:10:34   info : Property value - //a[contains(@id,"_cmdLogin")]
2019.01.10 03:10:34   info : Finding xpath element on webpage..
2019.01.10 03:10:34   info : Searching for element. Try number 0
2019.01.10 03:10:35   info : element disappeared after trying for 1 times
2019.01.10 03:10:35   info : Element found!!
2019.01.10 03:10:35   info : Xml obj_repo path C:\Talent_Automation_Framework_Backup\Project_Talent/ObjectRepositories/BenefitAsia2_MercerAdmin/MA_LoginLogout.xml
2019.01.10 03:10:35   info : xpath object successfully mapped!!
2019.01.10 03:10:35   info : xpath object contains property value !!
2019.01.10 03:10:35   info : Property name - xpath
2019.01.10 03:10:35   info : Property value - //a[contains(@id,"_cmdLogin")]
2019.01.10 03:10:35   info : Finding xpath element on webpage..
2019.01.10 03:10:35   info : Searching for element. Try number 0
2019.01.10 03:10:36   info : element disappeared after trying for 1 times
2019.01.10 03:10:36   info : Element found!!
2019.01.10 03:10:38   info : clicked on Logout
2019.01.10 03:10:39   info : Current WebDriver Win Count is:: 1
2019.01.10 03:10:39   info : restult status : 1
2019.01.10 03:10:39   info : Test ID TC7 : previous test step/row 809 status is Passed and value of next test step/row is :: 810
2019.01.10 03:10:39   info : 

2019.01.10 03:10:39   info : -------------------- Executing Testcase ID TC7 and test step : 810 ---------------------- 
2019.01.10 03:10:41   info : Current WebDriver Win Count is:: 1
2019.01.10 03:10:41   info : not doing anything!!
2019.01.10 03:10:41   info : Navigating to another url..
2019.01.10 03:10:53   info : Current WebDriver Win Count is:: 1
2019.01.10 03:10:53   info : restult status : 1
2019.01.10 03:10:54   info : Test ID TC7 : previous test step/row 810 status is Passed and value of next test step/row is :: 811
2019.01.10 03:10:54   info : 

2019.01.10 03:10:54   info : -------------------- Executing Testcase ID TC7 and test step : 811 ---------------------- 
2019.01.10 03:10:55   info : Current WebDriver Win Count is:: 1
2019.01.10 03:10:55   info : Xml obj_repo path C:\Talent_Automation_Framework_Backup\Project_Talent/ObjectRepositories/BenefitAsia2_EE/EE_SimpliflexSG_LoginLogout.xml
2019.01.10 03:10:55   info : Title contains null value in xml!!
2019.01.10 03:10:55   info : Window title User Login
2019.01.10 03:10:55   info : Xml obj_repo path C:\Talent_Automation_Framework_Backup\Project_Talent/ObjectRepositories/BenefitAsia2_EE/EE_SimpliflexSG_LoginLogout.xml
2019.01.10 03:10:55   info : xpath object successfully mapped!!
2019.01.10 03:10:55   info : xpath object contains property value !!
2019.01.10 03:10:55   info : Property name - xpath
2019.01.10 03:10:55   info : Property value - //input[contains(@id,"_txtUsername")]
2019.01.10 03:10:55   info : Finding xpath element on webpage..
2019.01.10 03:10:55   info : Searching for element. Try number 0
2019.01.10 03:10:56   info : element disappeared after trying for 1 times
2019.01.10 03:10:57   info : Current WebDriver Win Count is:: 1
2019.01.10 03:10:57   info : Element found!!
2019.01.10 03:10:57   info : Desired window is activated!!
2019.01.10 03:10:57   info : FiledName UserName and FiledValue Simpli_10jan_006
2019.01.10 03:10:57   info : FiledName Password and FiledValue 1
2019.01.10 03:10:57   info : Total static wait time 3
2019.01.10 03:11:00   info : Xml obj_repo path C:\Talent_Automation_Framework_Backup\Project_Talent/ObjectRepositories/BenefitAsia2_EE/EE_SimpliflexSG_LoginLogout.xml
2019.01.10 03:11:00   info : xpath object successfully mapped!!
2019.01.10 03:11:00   info : xpath object contains property value !!
2019.01.10 03:11:00   info : Property name - xpath
2019.01.10 03:11:00   info : Property value - //input[contains(@id,"_txtUsername")]
2019.01.10 03:11:00   info : Finding xpath element on webpage..
2019.01.10 03:11:00   info : Searching for element. Try number 0
2019.01.10 03:11:01   info : element disappeared after trying for 1 times
2019.01.10 03:11:02   info : Current WebDriver Win Count is:: 1
2019.01.10 03:11:02   info : Element found!!
2019.01.10 03:11:02   info : ObjectTag input and ObjectType text
2019.01.10 03:11:02   info : Enter data operation
2019.01.10 03:11:03   info : Xml obj_repo path C:\Talent_Automation_Framework_Backup\Project_Talent/ObjectRepositories/BenefitAsia2_EE/EE_SimpliflexSG_LoginLogout.xml
2019.01.10 03:11:03   info : xpath object successfully mapped!!
2019.01.10 03:11:03   info : xpath object contains property value !!
2019.01.10 03:11:03   info : Property name - xpath
2019.01.10 03:11:03   info : Property value - //input[contains(@id,"_txtUsername")]
2019.01.10 03:11:03   info : Finding xpath element on webpage..
2019.01.10 03:11:03   info : Searching for element. Try number 0
2019.01.10 03:11:04   info : element disappeared after trying for 1 times
2019.01.10 03:11:05   info : Current WebDriver Win Count is:: 1
2019.01.10 03:11:05   info : Element found!!
2019.01.10 03:11:05   info : Xml obj_repo path C:\Talent_Automation_Framework_Backup\Project_Talent/ObjectRepositories/BenefitAsia2_EE/EE_SimpliflexSG_LoginLogout.xml
2019.01.10 03:11:05   info : xpath object successfully mapped!!
2019.01.10 03:11:05   info : xpath object contains property value !!
2019.01.10 03:11:05   info : Property name - xpath
2019.01.10 03:11:05   info : Property value - //input[contains(@id,"_txtUsername")]
2019.01.10 03:11:05   info : Finding xpath element on webpage..
2019.01.10 03:11:05   info : Searching for element. Try number 0
2019.01.10 03:11:06   info : element disappeared after trying for 1 times
2019.01.10 03:11:07   info : Current WebDriver Win Count is:: 1
2019.01.10 03:11:07   info : Element found!!
2019.01.10 03:11:07   info : ValueToEnter Simpli_10jan_006
2019.01.10 03:11:07   info : Entered value is Simpli_10jan_006
2019.01.10 03:11:07   info : Attribute entered value Simpli_10jan_006
2019.01.10 03:11:07   info : Total static wait time 3
2019.01.10 03:11:10   info : Xml obj_repo path C:\Talent_Automation_Framework_Backup\Project_Talent/ObjectRepositories/BenefitAsia2_EE/EE_SimpliflexSG_LoginLogout.xml
2019.01.10 03:11:10   info : xpath object successfully mapped!!
2019.01.10 03:11:10   info : xpath object contains property value !!
2019.01.10 03:11:10   info : Property name - xpath
2019.01.10 03:11:10   info : Property value - //input[contains(@id,"_txtPassword")]
2019.01.10 03:11:10   info : Finding xpath element on webpage..
2019.01.10 03:11:10   info : Searching for element. Try number 0
2019.01.10 03:11:11   info : element disappeared after trying for 1 times
2019.01.10 03:11:12   info : Current WebDriver Win Count is:: 1
2019.01.10 03:11:12   info : Element found!!
2019.01.10 03:11:12   info : ObjectTag input and ObjectType password
2019.01.10 03:11:12   info : Enter data operation
2019.01.10 03:11:12   info : Xml obj_repo path C:\Talent_Automation_Framework_Backup\Project_Talent/ObjectRepositories/BenefitAsia2_EE/EE_SimpliflexSG_LoginLogout.xml
2019.01.10 03:11:12   info : xpath object successfully mapped!!
2019.01.10 03:11:12   info : xpath object contains property value !!
2019.01.10 03:11:12   info : Property name - xpath
2019.01.10 03:11:12   info : Property value - //input[contains(@id,"_txtPassword")]
2019.01.10 03:11:12   info : Finding xpath element on webpage..
2019.01.10 03:11:12   info : Searching for element. Try number 0
2019.01.10 03:11:13   info : element disappeared after trying for 1 times
2019.01.10 03:11:14   info : Current WebDriver Win Count is:: 1
2019.01.10 03:11:14   info : Element found!!
2019.01.10 03:11:14   info : ValueToEnter 1
2019.01.10 03:11:14   info : Entered value is 1
2019.01.10 03:11:14   info : Attribute entered value 1
2019.01.10 03:11:14   info : Checking for object in click
2019.01.10 03:11:14   info : Xml obj_repo path C:\Talent_Automation_Framework_Backup\Project_Talent/ObjectRepositories/BenefitAsia2_EE/EE_SimpliflexSG_LoginLogout.xml
2019.01.10 03:11:14   info : xpath object successfully mapped!!
2019.01.10 03:11:14   info : xpath object contains property value !!
2019.01.10 03:11:14   info : Property name - xpath
2019.01.10 03:11:14   info : Property value - //input[contains(@id,"_cmdLogin")]
2019.01.10 03:11:14   info : Finding xpath element on webpage..
2019.01.10 03:11:14   info : Searching for element. Try number 0
2019.01.10 03:11:15   info : element disappeared after trying for 1 times
2019.01.10 03:11:16   info : Current WebDriver Win Count is:: 1
2019.01.10 03:11:16   info : Element found!!
2019.01.10 03:11:16   info : Xml obj_repo path C:\Talent_Automation_Framework_Backup\Project_Talent/ObjectRepositories/BenefitAsia2_EE/EE_SimpliflexSG_LoginLogout.xml
2019.01.10 03:11:16   info : xpath object successfully mapped!!
2019.01.10 03:11:16   info : xpath object contains property value !!
2019.01.10 03:11:16   info : Property name - xpath
2019.01.10 03:11:16   info : Property value - //input[contains(@id,"_cmdLogin")]
2019.01.10 03:11:16   info : Finding xpath element on webpage..
2019.01.10 03:11:16   info : Searching for element. Try number 0
2019.01.10 03:11:17   info : element disappeared after trying for 1 times
2019.01.10 03:11:18   info : Current WebDriver Win Count is:: 1
2019.01.10 03:11:18   info : Element found!!
2019.01.10 03:11:22   info : clicked on LoginButton
2019.01.10 03:11:23   info : Current WebDriver Win Count is:: 1
2019.01.10 03:11:23   info : restult status : 1
2019.01.10 03:11:23   info : Test ID TC7 : previous test step/row 811 status is Passed and value of next test step/row is :: 812
2019.01.10 03:11:23   info : 

2019.01.10 03:11:23   info : -------------------- Executing Testcase ID TC7 and test step : 812 ---------------------- 
2019.01.10 03:11:24   info : Current WebDriver Win Count is:: 1
2019.01.10 03:11:24   info : Xml obj_repo path C:\Talent_Automation_Framework_Backup\Project_Talent/ObjectRepositories/BenefitAsia2_EE/EE_SimpliflexSG_Enrolment.xml
2019.01.10 03:11:24   info : Title in xml file - MyEnrollment
2019.01.10 03:11:25   warn : Window is not switched, now trying based on element!!
2019.01.10 03:11:25   info : Window title Terms and Agreement
2019.01.10 03:11:25   info : Xml obj_repo path C:\Talent_Automation_Framework_Backup\Project_Talent/ObjectRepositories/BenefitAsia2_EE/EE_SimpliflexSG_Enrolment.xml
2019.01.10 03:11:25   info : xpath object successfully mapped!!
2019.01.10 03:11:25   info : xpath object contains property value !!
2019.01.10 03:11:25   info : Property name - xpath
2019.01.10 03:11:25   info : Property value - //input[contains(@id,"ctlTermsAndAgreements_btnAgreeNew")]
2019.01.10 03:11:25   info : Finding xpath element on webpage..
2019.01.10 03:11:25   info : Searching for element. Try number 0
2019.01.10 03:11:26   info : element disappeared after trying for 1 times
2019.01.10 03:11:27   info : Current WebDriver Win Count is:: 1
2019.01.10 03:11:27   info : Element found!!
2019.01.10 03:11:27   info : Desired window is activated!!
2019.01.10 03:11:27   info : page object present in excel : 1
2019.01.10 03:11:27   info : Under single object handle operation!!
2019.01.10 03:11:27   info : col 6 data :  and col 5 data : AgreementButton
2019.01.10 03:11:27   info : Normal click operation !!
2019.01.10 03:11:27   info : Checking for object in click
2019.01.10 03:11:27   info : Xml obj_repo path C:\Talent_Automation_Framework_Backup\Project_Talent/ObjectRepositories/BenefitAsia2_EE/EE_SimpliflexSG_Enrolment.xml
2019.01.10 03:11:27   info : xpath object successfully mapped!!
2019.01.10 03:11:27   info : xpath object contains property value !!
2019.01.10 03:11:27   info : Property name - xpath
2019.01.10 03:11:27   info : Property value - //input[contains(@id,"ctlTermsAndAgreements_btnAgreeNew")]
2019.01.10 03:11:27   info : Finding xpath element on webpage..
2019.01.10 03:11:27   info : Searching for element. Try number 0
2019.01.10 03:11:28   info : element disappeared after trying for 1 times
2019.01.10 03:11:29   info : Current WebDriver Win Count is:: 1
2019.01.10 03:11:29   info : Element found!!
2019.01.10 03:11:29   info : Xml obj_repo path C:\Talent_Automation_Framework_Backup\Project_Talent/ObjectRepositories/BenefitAsia2_EE/EE_SimpliflexSG_Enrolment.xml
2019.01.10 03:11:29   info : xpath object successfully mapped!!
2019.01.10 03:11:29   info : xpath object contains property value !!
2019.01.10 03:11:29   info : Property name - xpath
2019.01.10 03:11:29   info : Property value - //input[contains(@id,"ctlTermsAndAgreements_btnAgreeNew")]
2019.01.10 03:11:29   info : Finding xpath element on webpage..
2019.01.10 03:11:29   info : Searching for element. Try number 0
2019.01.10 03:11:30   info : element disappeared after trying for 1 times
2019.01.10 03:11:31   info : Current WebDriver Win Count is:: 1
2019.01.10 03:11:31   info : Element found!!
2019.01.10 03:11:33   info : clicked on AgreementButton
2019.01.10 03:11:34   info : Current WebDriver Win Count is:: 1
2019.01.10 03:11:34   info : restult status : 1
2019.01.10 03:11:34   info : Test ID TC7 : previous test step/row 812 status is Passed and value of next test step/row is :: 813
2019.01.10 03:11:34   info : 

2019.01.10 03:11:34   info : -------------------- Executing Testcase ID TC7 and test step : 813 ---------------------- 
2019.01.10 03:11:35   info : Current WebDriver Win Count is:: 1
2019.01.10 03:11:35   info : Total static wait time 3
2019.01.10 03:11:38   info : Xml obj_repo path C:\Talent_Automation_Framework_Backup\Project_Talent/ObjectRepositories/BenefitAsia2_EE/EE_SimpliflexSG_Enrolment.xml
2019.01.10 03:11:38   info : xpath object successfully mapped!!
2019.01.10 03:11:38   info : xpath object contains property value !!
2019.01.10 03:11:38   info : Property name - xpath
2019.01.10 03:11:38   info : Property value - //input[contains(@id,"_LoginDefault_NewLoginDefault1_SignIn_v2_Password_txtOldPassword")]
2019.01.10 03:11:38   info : Finding xpath element on webpage..
2019.01.10 03:11:38   info : Searching for element. Try number 0
2019.01.10 03:11:39   info : element disappeared after trying for 1 times
2019.01.10 03:11:40   info : Current WebDriver Win Count is:: 1
2019.01.10 03:11:40   info : Element found!!
2019.01.10 03:11:40   info : ObjectTag input and ObjectType password
2019.01.10 03:11:40   info : Enter data operation
2019.01.10 03:11:40   info : Xml obj_repo path C:\Talent_Automation_Framework_Backup\Project_Talent/ObjectRepositories/BenefitAsia2_EE/EE_SimpliflexSG_Enrolment.xml
2019.01.10 03:11:40   info : xpath object successfully mapped!!
2019.01.10 03:11:40   info : xpath object contains property value !!
2019.01.10 03:11:40   info : Property name - xpath
2019.01.10 03:11:40   info : Property value - //input[contains(@id,"_LoginDefault_NewLoginDefault1_SignIn_v2_Password_txtOldPassword")]
2019.01.10 03:11:40   info : Finding xpath element on webpage..
2019.01.10 03:11:40   info : Searching for element. Try number 0
2019.01.10 03:11:41   info : element disappeared after trying for 1 times
2019.01.10 03:11:42   info : Current WebDriver Win Count is:: 1
2019.01.10 03:11:42   info : Element found!!
2019.01.10 03:11:43   info : ValueToEnter 1
2019.01.10 03:11:43   info : Entered value is 1
2019.01.10 03:11:43   info : Attribute entered value 1
2019.01.10 03:11:44   info : Current WebDriver Win Count is:: 1
2019.01.10 03:11:44   info : restult status : 1
2019.01.10 03:11:44   info : Test ID TC7 : previous test step/row 813 status is Passed and value of next test step/row is :: 814
2019.01.10 03:11:44   info : 

2019.01.10 03:11:44   info : -------------------- Executing Testcase ID TC7 and test step : 814 ---------------------- 
2019.01.10 03:11:45   info : Current WebDriver Win Count is:: 1
2019.01.10 03:11:45   info : Total static wait time 3
2019.01.10 03:11:48   info : Xml obj_repo path C:\Talent_Automation_Framework_Backup\Project_Talent/ObjectRepositories/BenefitAsia2_EE/EE_SimpliflexSG_Enrolment.xml
2019.01.10 03:11:48   info : xpath object successfully mapped!!
2019.01.10 03:11:48   info : xpath object contains property value !!
2019.01.10 03:11:48   info : Property name - xpath
2019.01.10 03:11:48   info : Property value - //input[contains(@id,"_LoginDefault_NewLoginDefault1_SignIn_v2_Password_txtNewPassword")]
2019.01.10 03:11:48   info : Finding xpath element on webpage..
2019.01.10 03:11:48   info : Searching for element. Try number 0
2019.01.10 03:11:49   info : element disappeared after trying for 1 times
2019.01.10 03:11:50   info : Current WebDriver Win Count is:: 1
2019.01.10 03:11:50   info : Element found!!
2019.01.10 03:11:50   info : ObjectTag input and ObjectType password
2019.01.10 03:11:50   info : Enter data operation
2019.01.10 03:11:50   info : Xml obj_repo path C:\Talent_Automation_Framework_Backup\Project_Talent/ObjectRepositories/BenefitAsia2_EE/EE_SimpliflexSG_Enrolment.xml
2019.01.10 03:11:50   info : xpath object successfully mapped!!
2019.01.10 03:11:50   info : xpath object contains property value !!
2019.01.10 03:11:50   info : Property name - xpath
2019.01.10 03:11:50   info : Property value - //input[contains(@id,"_LoginDefault_NewLoginDefault1_SignIn_v2_Password_txtNewPassword")]
2019.01.10 03:11:50   info : Finding xpath element on webpage..
2019.01.10 03:11:50   info : Searching for element. Try number 0
2019.01.10 03:11:51   info : element disappeared after trying for 1 times
2019.01.10 03:11:52   info : Current WebDriver Win Count is:: 1
2019.01.10 03:11:52   info : Element found!!
2019.01.10 03:11:52   info : ValueToEnter Password123$
2019.01.10 03:11:52   info : Entered value is Password123$
2019.01.10 03:11:52   info : Attribute entered value Password123$
2019.01.10 03:11:53   info : Current WebDriver Win Count is:: 1
2019.01.10 03:11:53   info : restult status : 1
2019.01.10 03:11:54   info : Test ID TC7 : previous test step/row 814 status is Passed and value of next test step/row is :: 815
2019.01.10 03:11:54   info : 

2019.01.10 03:11:54   info : -------------------- Executing Testcase ID TC7 and test step : 815 ---------------------- 
2019.01.10 03:11:55   info : Current WebDriver Win Count is:: 1
2019.01.10 03:11:55   info : Total static wait time 3
2019.01.10 03:11:58   info : Xml obj_repo path C:\Talent_Automation_Framework_Backup\Project_Talent/ObjectRepositories/BenefitAsia2_EE/EE_SimpliflexSG_Enrolment.xml
2019.01.10 03:11:58   info : xpath object successfully mapped!!
2019.01.10 03:11:58   info : xpath object contains property value !!
2019.01.10 03:11:58   info : Property name - xpath
2019.01.10 03:11:58   info : Property value - //input[contains(@id,"_LoginDefault_NewLoginDefault1_SignIn_v2_Password_txtNewConfirm")]
2019.01.10 03:11:58   info : Finding xpath element on webpage..
2019.01.10 03:11:58   info : Searching for element. Try number 0
2019.01.10 03:11:59   info : element disappeared after trying for 1 times
2019.01.10 03:12:00   info : Current WebDriver Win Count is:: 1
2019.01.10 03:12:00   info : Element found!!
2019.01.10 03:12:00   info : ObjectTag input and ObjectType password
2019.01.10 03:12:00   info : Enter data operation
2019.01.10 03:12:00   info : Xml obj_repo path C:\Talent_Automation_Framework_Backup\Project_Talent/ObjectRepositories/BenefitAsia2_EE/EE_SimpliflexSG_Enrolment.xml
2019.01.10 03:12:00   info : xpath object successfully mapped!!
2019.01.10 03:12:00   info : xpath object contains property value !!
2019.01.10 03:12:00   info : Property name - xpath
2019.01.10 03:12:00   info : Property value - //input[contains(@id,"_LoginDefault_NewLoginDefault1_SignIn_v2_Password_txtNewConfirm")]
2019.01.10 03:12:00   info : Finding xpath element on webpage..
2019.01.10 03:12:00   info : Searching for element. Try number 0
2019.01.10 03:12:01   info : element disappeared after trying for 1 times
2019.01.10 03:12:02   info : Current WebDriver Win Count is:: 1
2019.01.10 03:12:02   info : Element found!!
2019.01.10 03:12:02   info : ValueToEnter Password123$
2019.01.10 03:12:02   info : Entered value is Password123$
2019.01.10 03:12:02   info : Attribute entered value Password123$
2019.01.10 03:12:03   info : Current WebDriver Win Count is:: 1
2019.01.10 03:12:03   info : restult status : 1
2019.01.10 03:12:03   info : Test ID TC7 : previous test step/row 815 status is Passed and value of next test step/row is :: 816
2019.01.10 03:12:03   info : 

2019.01.10 03:12:03   info : -------------------- Executing Testcase ID TC7 and test step : 816 ---------------------- 
2019.01.10 03:12:04   info : Current WebDriver Win Count is:: 1
2019.01.10 03:12:04   info : page object present in excel : 1
2019.01.10 03:12:04   info : Under single object handle operation!!
2019.01.10 03:12:04   info : col 6 data :  and col 5 data : UpdatePassword
2019.01.10 03:12:04   info : Normal click operation !!
2019.01.10 03:12:04   info : Checking for object in click
2019.01.10 03:12:04   info : Xml obj_repo path C:\Talent_Automation_Framework_Backup\Project_Talent/ObjectRepositories/BenefitAsia2_EE/EE_SimpliflexSG_Enrolment.xml
2019.01.10 03:12:04   info : xpath object successfully mapped!!
2019.01.10 03:12:04   info : xpath object contains property value !!
2019.01.10 03:12:04   info : Property name - xpath
2019.01.10 03:12:04   info : Property value - //input[contains(@id,"_LoginDefault_NewLoginDefault1_SignIn_v2_Password_cmdUpdate")]
2019.01.10 03:12:04   info : Finding xpath element on webpage..
2019.01.10 03:12:04   info : Searching for element. Try number 0
2019.01.10 03:12:05   info : element disappeared after trying for 1 times
2019.01.10 03:12:06   info : Current WebDriver Win Count is:: 1
2019.01.10 03:12:06   info : Element found!!
2019.01.10 03:12:06   info : Xml obj_repo path C:\Talent_Automation_Framework_Backup\Project_Talent/ObjectRepositories/BenefitAsia2_EE/EE_SimpliflexSG_Enrolment.xml
2019.01.10 03:12:06   info : xpath object successfully mapped!!
2019.01.10 03:12:06   info : xpath object contains property value !!
2019.01.10 03:12:06   info : Property name - xpath
2019.01.10 03:12:06   info : Property value - //input[contains(@id,"_LoginDefault_NewLoginDefault1_SignIn_v2_Password_cmdUpdate")]
2019.01.10 03:12:06   info : Finding xpath element on webpage..
2019.01.10 03:12:06   info : Searching for element. Try number 0
2019.01.10 03:12:07   info : element disappeared after trying for 1 times
2019.01.10 03:12:08   info : Current WebDriver Win Count is:: 1
2019.01.10 03:12:08   info : Element found!!
2019.01.10 03:12:11   info : clicked on UpdatePassword
2019.01.10 03:12:12   info : Current WebDriver Win Count is:: 1
2019.01.10 03:12:12   info : restult status : 1
2019.01.10 03:12:12   info : Test ID TC7 : previous test step/row 816 status is Passed and value of next test step/row is :: 817
2019.01.10 03:12:12   info : 

2019.01.10 03:12:12   info : -------------------- Executing Testcase ID TC7 and test step : 817 ---------------------- 
2019.01.10 03:12:14   info : Current WebDriver Win Count is:: 1
2019.01.10 03:12:14   info : Navigating to another url..
2019.01.10 03:12:19   info : Current WebDriver Win Count is:: 1
2019.01.10 03:12:20   info : restult status : 1
2019.01.10 03:12:20   info : Test ID TC7 : previous test step/row 817 status is Passed and value of next test step/row is :: 818
2019.01.10 03:12:20   info : 

2019.01.10 03:12:20   info : -------------------- Executing Testcase ID TC7 and test step : 818 ---------------------- 
2019.01.10 03:12:21   info : Current WebDriver Win Count is:: 1
2019.01.10 03:12:21   info : Xml obj_repo path C:\Talent_Automation_Framework_Backup\Project_Talent/ObjectRepositories/BenefitAsia2_EE/EE_SimpliflexSG_LoginLogout.xml
2019.01.10 03:12:21   info : Title contains null value in xml!!
2019.01.10 03:12:21   info : Window title User Login
2019.01.10 03:12:21   info : Xml obj_repo path C:\Talent_Automation_Framework_Backup\Project_Talent/ObjectRepositories/BenefitAsia2_EE/EE_SimpliflexSG_LoginLogout.xml
2019.01.10 03:12:21   info : xpath object successfully mapped!!
2019.01.10 03:12:21   info : xpath object contains property value !!
2019.01.10 03:12:21   info : Property name - xpath
2019.01.10 03:12:21   info : Property value - //input[contains(@id,"_txtUsername")]
2019.01.10 03:12:21   info : Finding xpath element on webpage..
2019.01.10 03:12:21   info : Searching for element. Try number 0
2019.01.10 03:12:22   info : element disappeared after trying for 1 times
2019.01.10 03:12:23   info : Current WebDriver Win Count is:: 1
2019.01.10 03:12:23   info : Element found!!
2019.01.10 03:12:23   info : Desired window is activated!!
2019.01.10 03:12:23   info : FiledName UserName and FiledValue Simpli_10jan_006
2019.01.10 03:12:23   info : FiledName Password and FiledValue Password123$
2019.01.10 03:12:23   info : Total static wait time 3
2019.01.10 03:12:26   info : Xml obj_repo path C:\Talent_Automation_Framework_Backup\Project_Talent/ObjectRepositories/BenefitAsia2_EE/EE_SimpliflexSG_LoginLogout.xml
2019.01.10 03:12:26   info : xpath object successfully mapped!!
2019.01.10 03:12:26   info : xpath object contains property value !!
2019.01.10 03:12:26   info : Property name - xpath
2019.01.10 03:12:26   info : Property value - //input[contains(@id,"_txtUsername")]
2019.01.10 03:12:26   info : Finding xpath element on webpage..
2019.01.10 03:12:26   info : Searching for element. Try number 0
2019.01.10 03:12:27   info : element disappeared after trying for 1 times
2019.01.10 03:12:28   info : Current WebDriver Win Count is:: 1
2019.01.10 03:12:28   info : Element found!!
2019.01.10 03:12:28   info : ObjectTag input and ObjectType text
2019.01.10 03:12:28   info : Enter data operation
2019.01.10 03:12:29   info : Xml obj_repo path C:\Talent_Automation_Framework_Backup\Project_Talent/ObjectRepositories/BenefitAsia2_EE/EE_SimpliflexSG_LoginLogout.xml
2019.01.10 03:12:29   info : xpath object successfully mapped!!
2019.01.10 03:12:29   info : xpath object contains property value !!
2019.01.10 03:12:29   info : Property name - xpath
2019.01.10 03:12:29   info : Property value - //input[contains(@id,"_txtUsername")]
2019.01.10 03:12:29   info : Finding xpath element on webpage..
2019.01.10 03:12:29   info : Searching for element. Try number 0
2019.01.10 03:12:30   info : element disappeared after trying for 1 times
2019.01.10 03:12:31   info : Current WebDriver Win Count is:: 1
2019.01.10 03:12:31   info : Element found!!
2019.01.10 03:12:31   info : Xml obj_repo path C:\Talent_Automation_Framework_Backup\Project_Talent/ObjectRepositories/BenefitAsia2_EE/EE_SimpliflexSG_LoginLogout.xml
2019.01.10 03:12:31   info : xpath object successfully mapped!!
2019.01.10 03:12:31   info : xpath object contains property value !!
2019.01.10 03:12:31   info : Property name - xpath
2019.01.10 03:12:31   info : Property value - //input[contains(@id,"_txtUsername")]
2019.01.10 03:12:31   info : Finding xpath element on webpage..
2019.01.10 03:12:31   info : Searching for element. Try number 0
2019.01.10 03:12:32   info : element disappeared after trying for 1 times
2019.01.10 03:12:33   info : Current WebDriver Win Count is:: 1
2019.01.10 03:12:33   info : Element found!!
2019.01.10 03:12:33   info : ValueToEnter Simpli_10jan_006
2019.01.10 03:12:33   info : Entered value is Simpli_10jan_006
2019.01.10 03:12:33   info : Attribute entered value Simpli_10jan_006
2019.01.10 03:12:33   info : Total static wait time 3
2019.01.10 03:12:36   info : Xml obj_repo path C:\Talent_Automation_Framework_Backup\Project_Talent/ObjectRepositories/BenefitAsia2_EE/EE_SimpliflexSG_LoginLogout.xml
2019.01.10 03:12:36   info : xpath object successfully mapped!!
2019.01.10 03:12:36   info : xpath object contains property value !!
2019.01.10 03:12:36   info : Property name - xpath
2019.01.10 03:12:36   info : Property value - //input[contains(@id,"_txtPassword")]
2019.01.10 03:12:36   info : Finding xpath element on webpage..
2019.01.10 03:12:36   info : Searching for element. Try number 0
2019.01.10 03:12:37   info : element disappeared after trying for 1 times
2019.01.10 03:12:38   info : Current WebDriver Win Count is:: 1
2019.01.10 03:12:38   info : Element found!!
2019.01.10 03:12:39   info : ObjectTag input and ObjectType password
2019.01.10 03:12:39   info : Enter data operation
2019.01.10 03:12:39   info : Xml obj_repo path C:\Talent_Automation_Framework_Backup\Project_Talent/ObjectRepositories/BenefitAsia2_EE/EE_SimpliflexSG_LoginLogout.xml
2019.01.10 03:12:39   info : xpath object successfully mapped!!
2019.01.10 03:12:39   info : xpath object contains property value !!
2019.01.10 03:12:39   info : Property name - xpath
2019.01.10 03:12:39   info : Property value - //input[contains(@id,"_txtPassword")]
2019.01.10 03:12:39   info : Finding xpath element on webpage..
2019.01.10 03:12:39   info : Searching for element. Try number 0
2019.01.10 03:12:40   info : element disappeared after trying for 1 times
2019.01.10 03:12:41   info : Current WebDriver Win Count is:: 1
2019.01.10 03:12:41   info : Element found!!
2019.01.10 03:12:41   info : ValueToEnter Password123$
2019.01.10 03:12:41   info : Entered value is Password123$
2019.01.10 03:12:41   info : Attribute entered value Password123$
2019.01.10 03:12:41   info : Checking for object in click
2019.01.10 03:12:41   info : Xml obj_repo path C:\Talent_Automation_Framework_Backup\Project_Talent/ObjectRepositories/BenefitAsia2_EE/EE_SimpliflexSG_LoginLogout.xml
2019.01.10 03:12:41   info : xpath object successfully mapped!!
2019.01.10 03:12:41   info : xpath object contains property value !!
2019.01.10 03:12:41   info : Property name - xpath
2019.01.10 03:12:41   info : Property value - //input[contains(@id,"_cmdLogin")]
2019.01.10 03:12:41   info : Finding xpath element on webpage..
2019.01.10 03:12:41   info : Searching for element. Try number 0
2019.01.10 03:12:42   info : element disappeared after trying for 1 times
2019.01.10 03:12:43   info : Current WebDriver Win Count is:: 1
2019.01.10 03:12:43   info : Element found!!
2019.01.10 03:12:43   info : Xml obj_repo path C:\Talent_Automation_Framework_Backup\Project_Talent/ObjectRepositories/BenefitAsia2_EE/EE_SimpliflexSG_LoginLogout.xml
2019.01.10 03:12:43   info : xpath object successfully mapped!!
2019.01.10 03:12:43   info : xpath object contains property value !!
2019.01.10 03:12:43   info : Property name - xpath
2019.01.10 03:12:43   info : Property value - //input[contains(@id,"_cmdLogin")]
2019.01.10 03:12:43   info : Finding xpath element on webpage..
2019.01.10 03:12:43   info : Searching for element. Try number 0
2019.01.10 03:12:44   info : element disappeared after trying for 1 times
2019.01.10 03:12:45   info : Current WebDriver Win Count is:: 1
2019.01.10 03:12:45   info : Element found!!
2019.01.10 03:12:49   info : clicked on LoginButton
2019.01.10 03:12:50   info : Current WebDriver Win Count is:: 1
2019.01.10 03:12:50   info : restult status : 1
2019.01.10 03:12:50   info : Test ID TC7 : previous test step/row 818 status is Passed and value of next test step/row is :: 819
2019.01.10 03:12:50   info : 

2019.01.10 03:12:50   info : -------------------- Executing Testcase ID TC7 and test step : 819 ---------------------- 
2019.01.10 03:12:51   info : Current WebDriver Win Count is:: 1
2019.01.10 03:12:51   info : Xml obj_repo path C:\Talent_Automation_Framework_Backup\Project_Talent/ObjectRepositories/BenefitAsia2_EE/EE_SimpliFlexSG_tabNavigation2.xml
2019.01.10 03:12:51   info : Title in xml file - My Enrollment
2019.01.10 03:12:51   warn : Window is not switched, now trying based on element!!
2019.01.10 03:12:51   info : Window title SimpliflexSG > Home
2019.01.10 03:12:51   info : Xml obj_repo path C:\Talent_Automation_Framework_Backup\Project_Talent/ObjectRepositories/BenefitAsia2_EE/EE_SimpliFlexSG_tabNavigation2.xml
2019.01.10 03:12:51   info : Defined excel object tag is not found in xml!!
2019.01.10 03:12:51   info : size of the element return by xmlreading is 0
2019.01.10 03:12:51   error : java.lang.NullPointerException
2019.01.10 03:12:51   info : page object present in excel : 4
2019.01.10 03:12:51   info : Under multiple object handle operation!!
2019.01.10 03:12:51   info : click operation perfomred!!
2019.01.10 03:12:51   info : textbased operation perfomred!!
2019.01.10 03:12:52   info : 4 operation perfomred!!
2019.01.10 03:12:52   info : Xml obj_repo path C:\Talent_Automation_Framework_Backup\Project_Talent/ObjectRepositories/BenefitAsia2_EE/EE_SimpliFlexSG_tabNavigation2.xml
2019.01.10 03:12:52   info : class object successfully mapped!!
2019.01.10 03:12:52   info : class object contains property value !!
2019.01.10 03:12:52   info : Property name - class
2019.01.10 03:12:52   info : Property value - nav
2019.01.10 03:12:52   info : Finding class element on webpage..
2019.01.10 03:12:52   info : Element found!!
2019.01.10 03:12:52   info : Xml obj_repo path C:\Talent_Automation_Framework_Backup\Project_Talent/ObjectRepositories/BenefitAsia2_EE/EE_SimpliFlexSG_tabNavigation2.xml
2019.01.10 03:12:52   info : tagname object successfully mapped!!
2019.01.10 03:12:52   info : tagname object contains property value !!
2019.01.10 03:12:52   info : Property name - tagname
2019.01.10 03:12:52   info : Property value - li
2019.01.10 03:12:52   info : Finding tagname element on webpage..
2019.01.10 03:12:52   info : Element found!!
2019.01.10 03:12:52   info : Xml obj_repo path C:\Talent_Automation_Framework_Backup\Project_Talent/ObjectRepositories/BenefitAsia2_EE/EE_SimpliFlexSG_tabNavigation2.xml
2019.01.10 03:12:52   info : tagname object successfully mapped!!
2019.01.10 03:12:52   info : tagname object contains property value !!
2019.01.10 03:12:52   info : Property name - tagname
2019.01.10 03:12:52   info : Property value - a
2019.01.10 03:12:52   info : Finding tagname element on webpage..
2019.01.10 03:12:52   info : Element found!!
2019.01.10 03:12:52   info : Xml obj_repo path C:\Talent_Automation_Framework_Backup\Project_Talent/ObjectRepositories/BenefitAsia2_EE/EE_SimpliFlexSG_tabNavigation2.xml
2019.01.10 03:12:52   info : tagname object successfully mapped!!
2019.01.10 03:12:52   info : tagname object contains property value !!
2019.01.10 03:12:52   info : Property name - tagname
2019.01.10 03:12:52   info : Property value - span
2019.01.10 03:12:52   info : Finding tagname element on webpage..
2019.01.10 03:12:52   info : Element found!!
2019.01.10 03:12:52   info : Size of element 6
2019.01.10 03:12:52   info : actData Home
2019.01.10 03:12:52   info : actData Start Enrollment
2019.01.10 03:12:55   info : Current WebDriver Win Count is:: 1
2019.01.10 03:12:55   info : restult status : 1
2019.01.10 03:12:56   info : Test ID TC7 : previous test step/row 819 status is Passed and value of next test step/row is :: 820
2019.01.10 03:12:56   info : 

2019.01.10 03:12:56   info : -------------------- Executing Testcase ID TC7 and test step : 820 ---------------------- 
2019.01.10 03:12:57   info : Current WebDriver Win Count is:: 1
2019.01.10 03:12:57   info : Xml obj_repo path C:\Talent_Automation_Framework_Backup\Project_Talent/ObjectRepositories/BenefitAsia2_EE/EE_SimpliflexSG_Enrolment.xml
2019.01.10 03:12:57   info : Title in xml file - MyEnrollment
2019.01.10 03:12:57   warn : Window is not switched, now trying based on element!!
2019.01.10 03:12:57   info : Window title My Enrollment
2019.01.10 03:12:57   info : Xml obj_repo path C:\Talent_Automation_Framework_Backup\Project_Talent/ObjectRepositories/BenefitAsia2_EE/EE_SimpliflexSG_Enrolment.xml
2019.01.10 03:12:57   info : xpath object successfully mapped!!
2019.01.10 03:12:57   info : xpath object contains property value !!
2019.01.10 03:12:57   info : Property name - xpath
2019.01.10 03:12:57   info : Property value - //input[contains(@id,"_Introduction_v2_btnNextNew")]
2019.01.10 03:12:57   info : Finding xpath element on webpage..
2019.01.10 03:12:57   info : Searching for element. Try number 0
2019.01.10 03:12:58   info : element disappeared after trying for 1 times
2019.01.10 03:12:59   info : Current WebDriver Win Count is:: 1
2019.01.10 03:12:59   info : Element found!!
2019.01.10 03:12:59   info : Desired window is activated!!
2019.01.10 03:12:59   info : page object present in excel : 1
2019.01.10 03:12:59   info : Under single object handle operation!!
2019.01.10 03:12:59   info : col 6 data :  and col 5 data : Next
2019.01.10 03:12:59   info : Normal click operation !!
2019.01.10 03:12:59   info : Checking for object in click
2019.01.10 03:12:59   info : Xml obj_repo path C:\Talent_Automation_Framework_Backup\Project_Talent/ObjectRepositories/BenefitAsia2_EE/EE_SimpliflexSG_Enrolment.xml
2019.01.10 03:12:59   info : xpath object successfully mapped!!
2019.01.10 03:12:59   info : xpath object contains property value !!
2019.01.10 03:12:59   info : Property name - xpath
2019.01.10 03:12:59   info : Property value - //input[contains(@id,"_Introduction_v2_btnNextNew")]
2019.01.10 03:12:59   info : Finding xpath element on webpage..
2019.01.10 03:12:59   info : Searching for element. Try number 0
2019.01.10 03:13:00   info : element disappeared after trying for 1 times
2019.01.10 03:13:01   info : Current WebDriver Win Count is:: 1
2019.01.10 03:13:01   info : Element found!!
2019.01.10 03:13:01   info : Xml obj_repo path C:\Talent_Automation_Framework_Backup\Project_Talent/ObjectRepositories/BenefitAsia2_EE/EE_SimpliflexSG_Enrolment.xml
2019.01.10 03:13:01   info : xpath object successfully mapped!!
2019.01.10 03:13:01   info : xpath object contains property value !!
2019.01.10 03:13:01   info : Property name - xpath
2019.01.10 03:13:01   info : Property value - //input[contains(@id,"_Introduction_v2_btnNextNew")]
2019.01.10 03:13:01   info : Finding xpath element on webpage..
2019.01.10 03:13:01   info : Searching for element. Try number 0
2019.01.10 03:13:02   info : element disappeared after trying for 1 times
2019.01.10 03:13:03   info : Current WebDriver Win Count is:: 1
2019.01.10 03:13:03   info : Element found!!
2019.01.10 03:13:05   info : clicked on Next
2019.01.10 03:13:06   info : Current WebDriver Win Count is:: 1
2019.01.10 03:13:06   info : restult status : 1
2019.01.10 03:13:07   info : Test ID TC7 : previous test step/row 820 status is Passed and value of next test step/row is :: 821
2019.01.10 03:13:07   info : 

2019.01.10 03:13:07   info : -------------------- Executing Testcase ID TC7 and test step : 821 ---------------------- 
2019.01.10 03:13:08   info : Current WebDriver Win Count is:: 1
2019.01.10 03:13:08   info : page object present in excel : 1
2019.01.10 03:13:08   info : Under single object handle operation!!
2019.01.10 03:13:08   info : col 6 data :  and col 5 data : StartEnrollmentButton
2019.01.10 03:13:08   info : Normal click operation !!
2019.01.10 03:13:08   info : Checking for object in click
2019.01.10 03:13:08   info : Xml obj_repo path C:\Talent_Automation_Framework_Backup\Project_Talent/ObjectRepositories/BenefitAsia2_EE/EE_SimpliflexSG_Enrolment.xml
2019.01.10 03:13:08   info : xpath object successfully mapped!!
2019.01.10 03:13:08   info : xpath object contains property value !!
2019.01.10 03:13:08   info : Property name - xpath
2019.01.10 03:13:08   info : Property value - //input[contains(@id,"_Introduction_v2_btnStartNew")]
2019.01.10 03:13:08   info : Finding xpath element on webpage..
2019.01.10 03:13:08   info : Searching for element. Try number 0
2019.01.10 03:13:09   info : element disappeared after trying for 1 times
2019.01.10 03:13:10   info : Current WebDriver Win Count is:: 1
2019.01.10 03:13:10   info : Element found!!
2019.01.10 03:13:10   info : Xml obj_repo path C:\Talent_Automation_Framework_Backup\Project_Talent/ObjectRepositories/BenefitAsia2_EE/EE_SimpliflexSG_Enrolment.xml
2019.01.10 03:13:10   info : xpath object successfully mapped!!
2019.01.10 03:13:10   info : xpath object contains property value !!
2019.01.10 03:13:10   info : Property name - xpath
2019.01.10 03:13:10   info : Property value - //input[contains(@id,"_Introduction_v2_btnStartNew")]
2019.01.10 03:13:10   info : Finding xpath element on webpage..
2019.01.10 03:13:10   info : Searching for element. Try number 0
2019.01.10 03:13:11   info : element disappeared after trying for 1 times
2019.01.10 03:13:12   info : Current WebDriver Win Count is:: 1
2019.01.10 03:13:12   info : Element found!!
2019.01.10 03:13:12   info : clicked on StartEnrollmentButton
2019.01.10 03:13:13   info : Current WebDriver Win Count is:: 1
2019.01.10 03:13:13   info : restult status : 1
2019.01.10 03:13:13   info : Test ID TC7 : previous test step/row 821 status is Passed and value of next test step/row is :: 822
2019.01.10 03:13:13   info : 

2019.01.10 03:13:13   info : -------------------- Executing Testcase ID TC7 and test step : 822 ---------------------- 
2019.01.10 03:13:14   info : Current WebDriver Win Count is:: 1
2019.01.10 03:13:14   info : page object present in excel : 1
2019.01.10 03:13:14   info : Under single object handle operation!!
2019.01.10 03:13:14   info : col 6 data : javascript_click and col 5 data : AcknowledgeBeginButton
2019.01.10 03:13:14   info : Click case operation !!
2019.01.10 03:13:14   info : oprnm javascript_click
2019.01.10 03:13:14   info : click javascript_click operation perfomred!!
2019.01.10 03:13:14   info : Xml obj_repo path C:\Talent_Automation_Framework_Backup\Project_Talent/ObjectRepositories/BenefitAsia2_EE/EE_SimpliflexSG_Enrolment.xml
2019.01.10 03:13:14   info : xpath object successfully mapped!!
2019.01.10 03:13:14   info : xpath object contains property value !!
2019.01.10 03:13:14   info : Property name - xpath
2019.01.10 03:13:14   info : Property value - //*[contains(@id,"_Introduction_v2_btnBegin")]
2019.01.10 03:13:14   info : Finding xpath element on webpage..
2019.01.10 03:13:14   info : Searching for element. Try number 0
2019.01.10 03:13:16   info : element disappeared after trying for 1 times
2019.01.10 03:13:17   info : Current WebDriver Win Count is:: 1
2019.01.10 03:13:17   info : Element found!!
2019.01.10 03:13:18   info : Current WebDriver Win Count is:: 1
2019.01.10 03:13:20   info : restult status : 1
2019.01.10 03:13:20   info : Test ID TC7 : previous test step/row 822 status is Passed and value of next test step/row is :: 823
2019.01.10 03:13:20   info : 

2019.01.10 03:13:20   info : -------------------- Executing Testcase ID TC7 and test step : 823 ---------------------- 
2019.01.10 03:13:21   info : Current WebDriver Win Count is:: 1
2019.01.10 03:13:21   info : Xml obj_repo path C:\Talent_Automation_Framework_Backup\Project_Talent/ObjectRepositories/BenefitAsia2_EE/EE_SimpliflexSG_Enrolment.xml
2019.01.10 03:13:21   info : xpath object successfully mapped!!
2019.01.10 03:13:21   info : xpath object contains property value !!
2019.01.10 03:13:21   info : Property name - xpath
2019.01.10 03:13:21   info : Property value - //*[contains(@id,"_EnrolmentSelection_FlexPointsNew_hlFlexPointsAllocationDetailsNew")]
2019.01.10 03:13:21   info : Finding xpath element on webpage..
2019.01.10 03:13:21   info : Searching for element. Try number 0
2019.01.10 03:13:22   info : element disappeared after trying for 1 times
2019.01.10 03:13:23   info : Current WebDriver Win Count is:: 1
2019.01.10 03:13:23   info : Element found!!
2019.01.10 03:13:23   info : ObjectTag a and ObjectType null
2019.01.10 03:13:23   info : Exp_value 3,404.00
2019.01.10 03:13:24   info : Searching for element. Try number 0
2019.01.10 03:13:25   info : element disappeared after trying for 1 times
2019.01.10 03:13:25   info : Actual Value3,404.00
2019.01.10 03:13:25   info : Exp : 3,404.00 and act : 3,404.00 value matched!!
2019.01.10 03:13:26   info : Current WebDriver Win Count is:: 1
2019.01.10 03:13:26   info : restult status : 1
2019.01.10 03:13:26   info : Test ID TC7 : previous test step/row 823 status is Passed and value of next test step/row is :: 824
2019.01.10 03:13:26   info : 

2019.01.10 03:13:26   info : -------------------- Executing Testcase ID TC7 and test step : 824 ---------------------- 
2019.01.10 03:13:27   info : Current WebDriver Win Count is:: 1
2019.01.10 03:13:27   info : page object present in excel : 1
2019.01.10 03:13:27   info : Under single object handle operation!!
2019.01.10 03:13:27   info : col 6 data :  and col 5 data : P2_Link_Local_GH
2019.01.10 03:13:27   info : Normal click operation !!
2019.01.10 03:13:27   info : Checking for object in click
2019.01.10 03:13:27   info : Xml obj_repo path C:\Talent_Automation_Framework_Backup\Project_Talent/ObjectRepositories/BenefitAsia2_EE/EE_SimpliflexSG_Enrolment.xml
2019.01.10 03:13:27   info : Defined excel object tag is not found in xml!!
2019.01.10 03:13:27   info : size of the element return by xmlreading is 0
2019.01.10 03:13:27   info : Xml obj_repo path C:\Talent_Automation_Framework_Backup\Project_Talent/ObjectRepositories/BenefitAsia2_EE/EE_SimpliflexSG_Enrolment.xml
2019.01.10 03:13:27   info : Defined excel object tag is not found in xml!!
2019.01.10 03:13:27   info : size of the element return by xmlreading is 0
2019.01.10 03:13:27   warn : exceptionHandler called!!
2019.01.10 03:13:28   info : Current WebDriver Win Count is:: 1
2019.01.10 03:13:28   error : java.lang.NullPointerException
2019.01.10 03:13:28   info : Test ID TC7 : previous test step/row 824 status is Failed and value of next test step/row is :: 825
2019.01.10 03:13:28   info : Test ID TC7 : previous test step/row 825 status is Failed and value of next test step/row is :: 826
2019.01.10 03:13:28   info : Test ID TC7 : previous test step/row 826 status is Failed and value of next test step/row is :: 827
2019.01.10 03:13:28   info : Test ID TC7 : previous test step/row 827 status is Failed and value of next test step/row is :: 828
2019.01.10 03:13:28   info : Test ID TC7 : previous test step/row 828 status is Failed and value of next test step/row is :: 829
2019.01.10 03:13:28   info : Test ID TC7 : previous test step/row 829 status is Failed and value of next test step/row is :: 830
2019.01.10 03:13:28   info : Test ID TC7 : previous test step/row 830 status is Failed and value of next test step/row is :: 831
2019.01.10 03:13:28   info : Test ID TC7 : previous test step/row 831 status is Failed and value of next test step/row is :: 832
2019.01.10 03:13:28   info : Test ID TC7 : previous test step/row 832 status is Failed and value of next test step/row is :: 833
2019.01.10 03:13:28   info : Test ID TC7 : previous test step/row 833 status is Failed and value of next test step/row is :: 834
2019.01.10 03:13:28   info : Test ID TC7 : previous test step/row 834 status is Failed and value of next test step/row is :: 835
2019.01.10 03:13:28   info : Test ID TC7 : previous test step/row 835 status is Failed and value of next test step/row is :: 836
2019.01.10 03:13:28   info : Test ID TC7 : previous test step/row 836 status is Failed and value of next test step/row is :: 837
2019.01.10 03:13:28   info : Test ID TC7 : previous test step/row 837 status is Failed and value of next test step/row is :: 838
2019.01.10 03:13:28   info : Test ID TC7 : previous test step/row 838 status is Failed and value of next test step/row is :: 839
2019.01.10 03:13:28   info : Test ID TC7 : previous test step/row 839 status is Failed and value of next test step/row is :: 840
2019.01.10 03:13:28   info : Test ID TC7 : previous test step/row 840 status is Failed and value of next test step/row is :: 841
2019.01.10 03:13:28   info : Test ID TC7 : previous test step/row 841 status is Failed and value of next test step/row is :: 842
2019.01.10 03:13:28   info : Test ID TC7 : previous test step/row 842 status is Failed and value of next test step/row is :: 843
2019.01.10 03:13:28   info : Test ID TC7 : previous test step/row 843 status is Failed and value of next test step/row is :: 844
2019.01.10 03:13:28   info : Test ID TC7 : previous test step/row 844 status is Failed and value of next test step/row is :: 845
2019.01.10 03:13:28   info : Test ID TC7 : previous test step/row 845 status is Failed and value of next test step/row is :: 846
2019.01.10 03:13:28   info : Test ID TC7 : previous test step/row 846 status is Failed and value of next test step/row is :: 847
2019.01.10 03:13:28   info : Test ID TC7 : previous test step/row 847 status is Failed and value of next test step/row is :: 848
2019.01.10 03:13:28   info : Test ID TC7 : previous test step/row 848 status is Failed and value of next test step/row is :: 849
2019.01.10 03:13:28   info : Test ID TC7 : previous test step/row 849 status is Failed and value of next test step/row is :: 850
2019.01.10 03:13:28   info : Test ID TC7 : previous test step/row 850 status is Failed and value of next test step/row is :: 851
2019.01.10 03:13:28   info : Test ID TC7 : previous test step/row 851 status is Failed and value of next test step/row is :: 852
2019.01.10 03:13:28   info : Test ID TC7 : previous test step/row 852 status is Failed and value of next test step/row is :: 853
2019.01.10 03:13:28   info : Test ID TC7 : previous test step/row 853 status is Failed and value of next test step/row is :: 854
2019.01.10 03:13:28   info : Test ID TC7 : previous test step/row 854 status is Failed and value of next test step/row is :: 855
2019.01.10 03:13:28   info : Test ID TC7 : previous test step/row 855 status is Failed and value of next test step/row is :: 856
2019.01.10 03:13:28   info : Test ID TC7 : previous test step/row 856 status is Failed and value of next test step/row is :: 857
2019.01.10 03:13:28   info : Test ID TC7 : previous test step/row 857 status is Failed and value of next test step/row is :: 858
2019.01.10 03:13:28   info : Test ID TC7 : previous test step/row 858 status is Failed and value of next test step/row is :: 859
2019.01.10 03:13:28   info : Test ID TC7 : previous test step/row 859 status is Failed and value of next test step/row is :: 860
2019.01.10 03:13:28   info : Row TC7!=TC8 || (TC8==null)) && (860<=928)
2019.01.10 03:13:28   info : Status :: Failed :: Finalizing result report
2019.01.10 03:13:29   info : closing window...
2019.01.10 03:13:29   info : window size 1
2019.01.10 03:13:30   info : Window is closed!!
