2018.11.01 11:13:44   info : Selenium version :: 2.48.2
2018.11.01 11:13:44   info : Download fodler path created!!
2018.11.01 11:13:44   info : date_time_down_folder C:\Talent_Automation_Framework_Backup\Project_Talent\Downloads\2018_11_01\time_11_13_44\
2018.11.01 11:13:45   info : Total number of applications :: 4
2018.11.01 11:13:45   info : Application Name - Auto_Sanity
2018.11.01 11:13:45   info : TestData_Sheet path:: C:\Talent_Automation_Framework_Backup\Project_Talent/TestCases/Auto_Sanity.xlsx
2018.11.01 11:13:45   info : CSV updating and creating dump....
2018.11.01 11:13:45   info : Sheet name: TestCaseScheduler
2018.11.01 11:13:45   info : Sheet name: Test Case
2018.11.01 11:13:45   info : Auto_Sanity sheetname found!!
2018.11.01 11:13:45   info : Total row 211
2018.11.01 11:13:45   info : After row validation for blank or null!!
2018.11.01 11:13:45   info : Total final row 210
2018.11.01 11:13:46   error : java.lang.NullPointerException
2018.11.01 11:13:46   info : Total number of test cases to be executed :: 1
2018.11.01 11:13:46   info : PrevTestID - null == null && row 1<= 210
2018.11.01 11:13:46   info : Test ID Sanity : previous test step/row 0 status is Passed and value of next test step/row is :: 1
2018.11.01 11:13:46   info : 

2018.11.01 11:13:46   info : -------------------- Executing Testcase ID Sanity and test step : 1 ---------------------- 
2018.11.01 11:13:46   info : please wait.. browser getting open !!
2018.11.01 11:13:58   info : Opening Application..
2018.11.01 11:14:04   info : Current WebDriver Win Count is:: 1
2018.11.01 11:14:05   info : restult status : 1
2018.11.01 11:14:05   info : Test ID Sanity : previous test step/row 1 status is Passed and value of next test step/row is :: 2
2018.11.01 11:14:05   info : 

2018.11.01 11:14:05   info : -------------------- Executing Testcase ID Sanity and test step : 2 ---------------------- 
2018.11.01 11:14:07   info : Current WebDriver Win Count is:: 1
2018.11.01 11:14:07   info : Xml obj_repo path C:\Talent_Automation_Framework_Backup\Project_Talent/ObjectRepositories/BenefitAsia2_MercerAdmin/MA_Home.xml
2018.11.01 11:14:07   info : Title in xml file - Home
2018.11.01 11:14:07   warn : Window is not switched, now trying based on element!!
2018.11.01 11:14:07   info : Window title Mercer Account Center
2018.11.01 11:14:07   info : Xml obj_repo path C:\Talent_Automation_Framework_Backup\Project_Talent/ObjectRepositories/BenefitAsia2_MercerAdmin/MA_Home.xml
2018.11.01 11:14:07   info : xpath object successfully mapped!!
2018.11.01 11:14:07   info : xpath object contains property value !!
2018.11.01 11:14:07   info : Property name - xpath
2018.11.01 11:14:07   info : Property value - //input[contains(@id,"ContentPlaceHolder1_TextBox1")]
2018.11.01 11:14:07   info : Finding xpath element on webpage..
2018.11.01 11:14:07   info : Searching for element. Try number 0
2018.11.01 11:14:08   info : element disappeared after trying for 1 times
2018.11.01 11:14:09   info : Current WebDriver Win Count is:: 1
2018.11.01 11:14:09   info : Element found!!
2018.11.01 11:14:09   info : Desired window is activated!!
2018.11.01 11:14:09   info : Total static wait time 3
2018.11.01 11:14:12   info : Xml obj_repo path C:\Talent_Automation_Framework_Backup\Project_Talent/ObjectRepositories/BenefitAsia2_MercerAdmin/MA_Home.xml
2018.11.01 11:14:12   info : xpath object successfully mapped!!
2018.11.01 11:14:12   info : xpath object contains property value !!
2018.11.01 11:14:12   info : Property name - xpath
2018.11.01 11:14:12   info : Property value - //input[contains(@id,"ContentPlaceHolder1_TextBox1")]
2018.11.01 11:14:12   info : Finding xpath element on webpage..
2018.11.01 11:14:12   info : Searching for element. Try number 0
2018.11.01 11:14:13   info : element disappeared after trying for 1 times
2018.11.01 11:14:14   info : Current WebDriver Win Count is:: 1
2018.11.01 11:14:14   info : Element found!!
2018.11.01 11:14:14   info : ObjectTag input and ObjectType text
2018.11.01 11:14:14   info : Enter data operation
2018.11.01 11:14:15   info : Xml obj_repo path C:\Talent_Automation_Framework_Backup\Project_Talent/ObjectRepositories/BenefitAsia2_MercerAdmin/MA_Home.xml
2018.11.01 11:14:15   info : xpath object successfully mapped!!
2018.11.01 11:14:15   info : xpath object contains property value !!
2018.11.01 11:14:15   info : Property name - xpath
2018.11.01 11:14:15   info : Property value - //input[contains(@id,"ContentPlaceHolder1_TextBox1")]
2018.11.01 11:14:15   info : Finding xpath element on webpage..
2018.11.01 11:14:15   info : Searching for element. Try number 0
2018.11.01 11:14:16   info : element disappeared after trying for 1 times
2018.11.01 11:14:17   info : Current WebDriver Win Count is:: 1
2018.11.01 11:14:17   info : Element found!!
2018.11.01 11:14:17   info : Xml obj_repo path C:\Talent_Automation_Framework_Backup\Project_Talent/ObjectRepositories/BenefitAsia2_MercerAdmin/MA_Home.xml
2018.11.01 11:14:17   info : xpath object successfully mapped!!
2018.11.01 11:14:17   info : xpath object contains property value !!
2018.11.01 11:14:17   info : Property name - xpath
2018.11.01 11:14:17   info : Property value - //input[contains(@id,"ContentPlaceHolder1_TextBox1")]
2018.11.01 11:14:17   info : Finding xpath element on webpage..
2018.11.01 11:14:17   info : Searching for element. Try number 0
2018.11.01 11:14:18   info : element disappeared after trying for 1 times
2018.11.01 11:14:19   info : Current WebDriver Win Count is:: 1
2018.11.01 11:14:19   info : Element found!!
2018.11.01 11:14:19   info : ValueToEnter ashish.choudhary@mercer.com
2018.11.01 11:14:19   info : Entered value is ashish.choudhary@mercer.com
2018.11.01 11:14:19   info : Attribute entered value ashish.choudhary@mercer.com
2018.11.01 11:14:20   info : Current WebDriver Win Count is:: 1
2018.11.01 11:14:21   info : restult status : 1
2018.11.01 11:14:21   info : Test ID Sanity : previous test step/row 2 status is Passed and value of next test step/row is :: 3
2018.11.01 11:14:21   info : 

2018.11.01 11:14:21   info : -------------------- Executing Testcase ID Sanity and test step : 3 ---------------------- 
2018.11.01 11:14:22   info : Current WebDriver Win Count is:: 1
2018.11.01 11:14:22   info : page object present in excel : 1
2018.11.01 11:14:22   info : Under single object handle operation!!
2018.11.01 11:14:22   info : col 6 data :  and col 5 data : SSO_Next_Button
2018.11.01 11:14:22   info : Normal click operation !!
2018.11.01 11:14:22   info : Checking for object in click
2018.11.01 11:14:22   info : Xml obj_repo path C:\Talent_Automation_Framework_Backup\Project_Talent/ObjectRepositories/BenefitAsia2_MercerAdmin/MA_Home.xml
2018.11.01 11:14:22   info : xpath object successfully mapped!!
2018.11.01 11:14:22   info : xpath object contains property value !!
2018.11.01 11:14:22   info : Property name - xpath
2018.11.01 11:14:22   info : Property value - //input[contains(@id,"ContentPlaceHolder1_PassiveSignInButton")]
2018.11.01 11:14:22   info : Finding xpath element on webpage..
2018.11.01 11:14:22   info : Searching for element. Try number 0
2018.11.01 11:14:23   info : element disappeared after trying for 1 times
2018.11.01 11:14:24   info : Current WebDriver Win Count is:: 1
2018.11.01 11:14:24   info : Element found!!
2018.11.01 11:14:24   info : Xml obj_repo path C:\Talent_Automation_Framework_Backup\Project_Talent/ObjectRepositories/BenefitAsia2_MercerAdmin/MA_Home.xml
2018.11.01 11:14:24   info : xpath object successfully mapped!!
2018.11.01 11:14:24   info : xpath object contains property value !!
2018.11.01 11:14:24   info : Property name - xpath
2018.11.01 11:14:24   info : Property value - //input[contains(@id,"ContentPlaceHolder1_PassiveSignInButton")]
2018.11.01 11:14:24   info : Finding xpath element on webpage..
2018.11.01 11:14:24   info : Searching for element. Try number 0
2018.11.01 11:14:25   info : element disappeared after trying for 1 times
2018.11.01 11:14:26   info : Current WebDriver Win Count is:: 1
2018.11.01 11:14:26   info : Element found!!
2018.11.01 11:14:33   info : clicked on SSO_Next_Button
2018.11.01 11:14:34   info : Current WebDriver Win Count is:: 1
2018.11.01 11:14:39   info : restult status : 1
2018.11.01 11:14:39   info : Test ID Sanity : previous test step/row 3 status is Passed and value of next test step/row is :: 4
2018.11.01 11:14:39   info : 

2018.11.01 11:14:39   info : -------------------- Executing Testcase ID Sanity and test step : 4 ---------------------- 
2018.11.01 11:14:40   info : Current WebDriver Win Count is:: 1
2018.11.01 11:14:40   info : page object present in excel : 1
2018.11.01 11:14:40   info : Under single object handle operation!!
2018.11.01 11:14:40   info : col 6 data : javascript_click and col 5 data : ClaimsMenu
2018.11.01 11:14:40   info : Click case operation !!
2018.11.01 11:14:40   info : oprnm javascript_click
2018.11.01 11:14:40   info : click javascript_click operation perfomred!!
2018.11.01 11:14:40   info : Xml obj_repo path C:\Talent_Automation_Framework_Backup\Project_Talent/ObjectRepositories/BenefitAsia2_MercerAdmin/MA_Home.xml
2018.11.01 11:14:40   info : xpath object successfully mapped!!
2018.11.01 11:14:40   info : xpath object contains property value !!
2018.11.01 11:14:40   info : Property name - xpath
2018.11.01 11:14:40   info : Property value - //a[text()='Claims']
2018.11.01 11:14:40   info : Finding xpath element on webpage..
2018.11.01 11:14:40   info : Searching for element. Try number 0
2018.11.01 11:14:41   info : element disappeared after trying for 1 times
2018.11.01 11:14:42   info : Current WebDriver Win Count is:: 1
2018.11.01 11:14:42   info : Element found!!
2018.11.01 11:14:43   info : Current WebDriver Win Count is:: 1
2018.11.01 11:14:44   info : restult status : 1
2018.11.01 11:14:44   info : Test ID Sanity : previous test step/row 4 status is Passed and value of next test step/row is :: 5
2018.11.01 11:14:44   info : 

2018.11.01 11:14:44   info : -------------------- Executing Testcase ID Sanity and test step : 5 ---------------------- 
2018.11.01 11:14:45   info : Current WebDriver Win Count is:: 1
2018.11.01 11:14:45   info : Xml obj_repo path C:\Talent_Automation_Framework_Backup\Project_Talent/ObjectRepositories/BenefitAsia2_MercerAdmin/MA_ClaimAdmin.xml
2018.11.01 11:14:45   info : Title in xml file - Claims
2018.11.01 11:14:45   info : Title of the page after - switching window To: Claims
2018.11.01 11:14:45   info : Desired window is activated!!
2018.11.01 11:14:46   info : page object present in excel : 1
2018.11.01 11:14:46   info : Under single object handle operation!!
2018.11.01 11:14:46   info : col 6 data : javascript_click and col 5 data : CreateANewBatchLink
2018.11.01 11:14:46   info : Click case operation !!
2018.11.01 11:14:46   info : oprnm javascript_click
2018.11.01 11:14:46   info : click javascript_click operation perfomred!!
2018.11.01 11:14:46   info : Xml obj_repo path C:\Talent_Automation_Framework_Backup\Project_Talent/ObjectRepositories/BenefitAsia2_MercerAdmin/MA_ClaimAdmin.xml
2018.11.01 11:14:46   info : linktext object successfully mapped!!
2018.11.01 11:14:46   info : linktext object contains property value !!
2018.11.01 11:14:46   info : Property name - linktext
2018.11.01 11:14:46   info : Property value - Create a New Batch
2018.11.01 11:14:46   info : Finding linktext element on webpage..
2018.11.01 11:14:46   info : Searching for element. Try number 0
2018.11.01 11:14:46   info : element disappeared after trying for 1 times
2018.11.01 11:14:51   info : Element found!!
2018.11.01 11:14:52   info : Current WebDriver Win Count is:: 1
2018.11.01 11:14:53   info : restult status : 1
2018.11.01 11:14:53   info : Test ID Sanity : previous test step/row 5 status is Passed and value of next test step/row is :: 6
2018.11.01 11:14:53   info : 

2018.11.01 11:14:53   info : -------------------- Executing Testcase ID Sanity and test step : 6 ---------------------- 
2018.11.01 11:14:54   info : Current WebDriver Win Count is:: 1
2018.11.01 11:14:54   info : Xml obj_repo path C:\Talent_Automation_Framework_Backup\Project_Talent/ObjectRepositories/BenefitAsia2_MercerAdmin/MA_CreateBatch.xml
2018.11.01 11:14:54   info : Title contains null value in xml!!
2018.11.01 11:14:54   info : Window title Claims
2018.11.01 11:14:54   info : Xml obj_repo path C:\Talent_Automation_Framework_Backup\Project_Talent/ObjectRepositories/BenefitAsia2_MercerAdmin/MA_CreateBatch.xml
2018.11.01 11:14:54   info : xpath object successfully mapped!!
2018.11.01 11:14:54   info : xpath object contains property value !!
2018.11.01 11:14:54   info : Property name - xpath
2018.11.01 11:14:54   info : Property value - //input[contains(@id,"_ClaimsBatchForm_txtBatchName")]
2018.11.01 11:14:54   info : Finding xpath element on webpage..
2018.11.01 11:14:54   info : Searching for element. Try number 0
2018.11.01 11:14:54   info : element disappeared after trying for 1 times
2018.11.01 11:14:55   info : Current WebDriver Win Count is:: 1
2018.11.01 11:14:55   info : Element found!!
2018.11.01 11:14:55   info : Desired window is activated!!
2018.11.01 11:14:55   info : Total static wait time 3
2018.11.01 11:14:58   info : Xml obj_repo path C:\Talent_Automation_Framework_Backup\Project_Talent/ObjectRepositories/BenefitAsia2_MercerAdmin/MA_CreateBatch.xml
2018.11.01 11:14:58   info : xpath object successfully mapped!!
2018.11.01 11:14:58   info : xpath object contains property value !!
2018.11.01 11:14:58   info : Property name - xpath
2018.11.01 11:14:58   info : Property value - //input[contains(@id,"_ClaimsBatchForm_txtBatchName")]
2018.11.01 11:14:58   info : Finding xpath element on webpage..
2018.11.01 11:14:58   info : Searching for element. Try number 0
2018.11.01 11:14:59   warn : exceptionHandler called!!
