2018.08.29 04:34:20   info : Selenium version :: 2.48.2
2018.08.29 04:34:20   info : Download fodler path created!!
2018.08.29 04:34:20   info : date_time_down_folder C:\Talent_Automation_Framework_Backup\Project_Talent\Downloads\2018_08_29\time_16_34_20\
2018.08.29 04:34:20   info : Total number of applications :: 4
2018.08.29 04:34:20   info : Application Name - DSOSG_Claims_C
2018.08.29 04:34:20   info : TestData_Sheet path:: C:\Talent_Automation_Framework_Backup\Project_Talent/TestCases/DSOSG_Claims_C.xlsx
2018.08.29 04:34:20   info : CSV updating and creating dump....
2018.08.29 04:34:22   info : Sheet name: TestCaseScheduler
2018.08.29 04:34:22   info : Sheet name: Test Case
2018.08.29 04:34:22   info : DSOSG_Claims_C sheetname found!!
2018.08.29 04:34:22   info : Total row 3665
2018.08.29 04:34:22   info : After row validation for blank or null!!
2018.08.29 04:34:22   info : Total final row 3664
2018.08.29 04:34:23   error : java.lang.NullPointerException
2018.08.29 04:34:23   info : Total number of test cases to be executed :: 11
2018.08.29 04:34:23   info : PrevTestID - null == null && row 2322<= 3664
2018.08.29 04:34:23   info : Test ID TC34 : previous test step/row 2321 status is Passed and value of next test step/row is :: 2322
2018.08.29 04:34:23   info : 

2018.08.29 04:34:23   info : -------------------- Executing Testcase ID TC34 and test step : 2322 ---------------------- 
2018.08.29 04:34:24   info : please wait.. browser getting open !!
2018.08.29 04:34:38   info : Opening Application..
2018.08.29 04:34:44   info : Current WebDriver Win Count is:: 1
2018.08.29 04:34:44   info : restult status : 1
2018.08.29 04:34:45   info : Test ID TC34 : previous test step/row 2322 status is Passed and value of next test step/row is :: 2323
2018.08.29 04:34:45   info : 

2018.08.29 04:34:45   info : -------------------- Executing Testcase ID TC34 and test step : 2323 ---------------------- 
2018.08.29 04:34:46   info : Current WebDriver Win Count is:: 1
2018.08.29 04:34:46   info : Xml obj_repo path C:\Talent_Automation_Framework_Backup\Project_Talent/ObjectRepositories/BenefitAsia2_MercerAdmin/MA_Home.xml
2018.08.29 04:34:46   info : Title in xml file - Home
2018.08.29 04:34:46   warn : Window is not switched, now trying based on element!!
2018.08.29 04:34:46   info : Window title Mercer Account Center
2018.08.29 04:34:46   info : Xml obj_repo path C:\Talent_Automation_Framework_Backup\Project_Talent/ObjectRepositories/BenefitAsia2_MercerAdmin/MA_Home.xml
2018.08.29 04:34:46   info : xpath object successfully mapped!!
2018.08.29 04:34:46   info : xpath object contains property value !!
2018.08.29 04:34:46   info : Property name - xpath
2018.08.29 04:34:46   info : Property value - //input[contains(@id,"ContentPlaceHolder1_TextBox1")]
2018.08.29 04:34:46   info : Finding xpath element on webpage..
2018.08.29 04:34:46   info : Searching for element. Try number 0
2018.08.29 04:34:47   info : element disappeared after trying for 1 times
2018.08.29 04:34:48   info : Current WebDriver Win Count is:: 1
2018.08.29 04:34:49   info : Element found!!
2018.08.29 04:34:49   info : Desired window is activated!!
2018.08.29 04:34:49   info : Total static wait time 3
2018.08.29 04:34:52   info : Xml obj_repo path C:\Talent_Automation_Framework_Backup\Project_Talent/ObjectRepositories/BenefitAsia2_MercerAdmin/MA_Home.xml
2018.08.29 04:34:52   info : xpath object successfully mapped!!
2018.08.29 04:34:52   info : xpath object contains property value !!
2018.08.29 04:34:52   info : Property name - xpath
2018.08.29 04:34:52   info : Property value - //input[contains(@id,"ContentPlaceHolder1_TextBox1")]
2018.08.29 04:34:52   info : Finding xpath element on webpage..
2018.08.29 04:34:52   info : Searching for element. Try number 0
2018.08.29 04:34:53   info : element disappeared after trying for 1 times
2018.08.29 04:34:54   info : Current WebDriver Win Count is:: 1
2018.08.29 04:34:54   info : Element found!!
2018.08.29 04:34:54   info : ObjectTag input and ObjectType text
2018.08.29 04:34:54   info : Enter data operation
2018.08.29 04:34:55   info : Xml obj_repo path C:\Talent_Automation_Framework_Backup\Project_Talent/ObjectRepositories/BenefitAsia2_MercerAdmin/MA_Home.xml
2018.08.29 04:34:55   info : xpath object successfully mapped!!
2018.08.29 04:34:55   info : xpath object contains property value !!
2018.08.29 04:34:55   info : Property name - xpath
2018.08.29 04:34:55   info : Property value - //input[contains(@id,"ContentPlaceHolder1_TextBox1")]
2018.08.29 04:34:55   info : Finding xpath element on webpage..
2018.08.29 04:34:55   info : Searching for element. Try number 0
2018.08.29 04:34:56   info : element disappeared after trying for 1 times
2018.08.29 04:34:57   info : Current WebDriver Win Count is:: 1
2018.08.29 04:34:57   info : Element found!!
2018.08.29 04:34:57   info : Xml obj_repo path C:\Talent_Automation_Framework_Backup\Project_Talent/ObjectRepositories/BenefitAsia2_MercerAdmin/MA_Home.xml
2018.08.29 04:34:57   info : xpath object successfully mapped!!
2018.08.29 04:34:57   info : xpath object contains property value !!
2018.08.29 04:34:57   info : Property name - xpath
2018.08.29 04:34:57   info : Property value - //input[contains(@id,"ContentPlaceHolder1_TextBox1")]
2018.08.29 04:34:57   info : Finding xpath element on webpage..
2018.08.29 04:34:57   info : Searching for element. Try number 0
2018.08.29 04:34:58   info : element disappeared after trying for 1 times
2018.08.29 04:34:59   info : Current WebDriver Win Count is:: 1
2018.08.29 04:34:59   info : Element found!!
2018.08.29 04:34:59   info : ValueToEnter ashish.choudhary@mercer.com
2018.08.29 04:34:59   info : Entered value is ashish.choudhary@mercer.com
2018.08.29 04:34:59   info : Attribute entered value ashish.choudhary@mercer.com
2018.08.29 04:35:00   info : Current WebDriver Win Count is:: 1
2018.08.29 04:35:01   info : restult status : 1
2018.08.29 04:35:01   info : Test ID TC34 : previous test step/row 2323 status is Passed and value of next test step/row is :: 2324
2018.08.29 04:35:01   info : 

2018.08.29 04:35:01   info : -------------------- Executing Testcase ID TC34 and test step : 2324 ---------------------- 
2018.08.29 04:35:02   info : Current WebDriver Win Count is:: 1
2018.08.29 04:35:02   info : page object present in excel : 1
2018.08.29 04:35:02   info : Under single object handle operation!!
2018.08.29 04:35:02   info : col 6 data :  and col 5 data : SSO_Next_Button
2018.08.29 04:35:02   info : Normal click operation !!
2018.08.29 04:35:02   info : Checking for object in click
2018.08.29 04:35:02   info : Xml obj_repo path C:\Talent_Automation_Framework_Backup\Project_Talent/ObjectRepositories/BenefitAsia2_MercerAdmin/MA_Home.xml
2018.08.29 04:35:02   info : xpath object successfully mapped!!
2018.08.29 04:35:02   info : xpath object contains property value !!
2018.08.29 04:35:02   info : Property name - xpath
2018.08.29 04:35:02   info : Property value - //input[contains(@id,"ContentPlaceHolder1_PassiveSignInButton")]
2018.08.29 04:35:02   info : Finding xpath element on webpage..
2018.08.29 04:35:02   info : Searching for element. Try number 0
2018.08.29 04:35:03   info : element disappeared after trying for 1 times
2018.08.29 04:35:04   info : Current WebDriver Win Count is:: 1
2018.08.29 04:35:04   info : Element found!!
2018.08.29 04:35:04   info : Xml obj_repo path C:\Talent_Automation_Framework_Backup\Project_Talent/ObjectRepositories/BenefitAsia2_MercerAdmin/MA_Home.xml
2018.08.29 04:35:04   info : xpath object successfully mapped!!
2018.08.29 04:35:04   info : xpath object contains property value !!
2018.08.29 04:35:04   info : Property name - xpath
2018.08.29 04:35:04   info : Property value - //input[contains(@id,"ContentPlaceHolder1_PassiveSignInButton")]
2018.08.29 04:35:04   info : Finding xpath element on webpage..
2018.08.29 04:35:04   info : Searching for element. Try number 0
2018.08.29 04:35:05   info : element disappeared after trying for 1 times
2018.08.29 04:35:06   info : Current WebDriver Win Count is:: 1
2018.08.29 04:35:06   info : Element found!!
2018.08.29 04:35:13   info : clicked on SSO_Next_Button
2018.08.29 04:35:14   info : Current WebDriver Win Count is:: 1
2018.08.29 04:35:21   info : restult status : 1
2018.08.29 04:35:21   info : Test ID TC34 : previous test step/row 2324 status is Passed and value of next test step/row is :: 2325
2018.08.29 04:35:21   info : 

2018.08.29 04:35:21   info : -------------------- Executing Testcase ID TC34 and test step : 2325 ---------------------- 
2018.08.29 04:35:22   info : Current WebDriver Win Count is:: 1
2018.08.29 04:35:22   info : Xml obj_repo path C:\Talent_Automation_Framework_Backup\Project_Talent/ObjectRepositories/BenefitAsia2_MercerAdmin/MA_ClaimAdmin.xml
2018.08.29 04:35:22   info : Title in xml file - Claims
2018.08.29 04:35:22   warn : Window is not switched, now trying based on element!!
2018.08.29 04:35:22   info : Window title Home
2018.08.29 04:35:22   info : Xml obj_repo path C:\Talent_Automation_Framework_Backup\Project_Talent/ObjectRepositories/BenefitAsia2_MercerAdmin/MA_ClaimAdmin.xml
2018.08.29 04:35:22   info : xpath object successfully mapped!!
2018.08.29 04:35:22   info : xpath object contains property value !!
2018.08.29 04:35:22   info : Property name - xpath
2018.08.29 04:35:22   info : Property value - //span[text()='Claims']
2018.08.29 04:35:22   info : Finding xpath element on webpage..
2018.08.29 04:35:22   info : Searching for element. Try number 0
2018.08.29 04:35:23   info : element disappeared after trying for 1 times
2018.08.29 04:35:24   info : Current WebDriver Win Count is:: 1
