2019.06.12 07:44:47   info : Selenium version :: 2.48.2
2019.06.12 07:44:47   info : Download fodler path created!!
2019.06.12 07:44:47   info : date_time_down_folder C:\Talent_Automation_Framework_Backup\Project_Talent\Downloads\2019_06_12\time_19_44_47\
2019.06.12 07:44:48   info : Total number of applications :: 4
2019.06.12 07:44:48   info : Application Name - Auto_Sanity
2019.06.12 07:44:48   info : TestData_Sheet path:: C:\Talent_Automation_Framework_Backup\Project_Talent/TestCases/Auto_Sanity.xlsx
2019.06.12 07:44:48   info : CSV updating and creating dump....
2019.06.12 07:44:49   info : Sheet name: TestCaseScheduler
2019.06.12 07:44:49   info : Sheet name: Test Case
2019.06.12 07:44:49   info : Auto_Sanity sheetname found!!
2019.06.12 07:44:49   info : Total row 269
2019.06.12 07:44:49   info : After row validation for blank or null!!
2019.06.12 07:44:49   info : Total final row 268
2019.06.12 07:44:49   error : java.lang.NullPointerException
2019.06.12 07:44:49   info : Total number of test cases to be executed :: 1
2019.06.12 07:44:49   info : PrevTestID - null == null && row 188<= 268
2019.06.12 07:44:49   info : Test ID TC3 : previous test step/row 187 status is Passed and value of next test step/row is :: 188
2019.06.12 07:44:49   info : 

2019.06.12 07:44:49   info : -------------------- Executing Testcase ID TC3 and test step : 188 ---------------------- 
2019.06.12 07:44:49   info : please wait.. browser getting open !!
2019.06.12 07:45:00   info : Opening Application..
2019.06.12 07:45:04   info : Current WebDriver Win Count is:: 1
2019.06.12 07:45:05   info : restult status : 1
2019.06.12 07:45:05   info : Test ID TC3 : previous test step/row 188 status is Passed and value of next test step/row is :: 189
2019.06.12 07:45:05   info : 

2019.06.12 07:45:05   info : -------------------- Executing Testcase ID TC3 and test step : 189 ---------------------- 
2019.06.12 07:45:07   info : Current WebDriver Win Count is:: 1
2019.06.12 07:45:07   info : not doing anything!!
2019.06.12 07:45:07   info : Navigating to another url..
2019.06.12 07:45:12   info : Current WebDriver Win Count is:: 1
2019.06.12 07:45:12   info : restult status : 1
2019.06.12 07:45:12   info : Test ID TC3 : previous test step/row 189 status is Passed and value of next test step/row is :: 190
2019.06.12 07:45:12   info : 

2019.06.12 07:45:12   info : -------------------- Executing Testcase ID TC3 and test step : 190 ---------------------- 
2019.06.12 07:45:13   info : Current WebDriver Win Count is:: 1
2019.06.12 07:45:13   info : page object present in excel : 1
2019.06.12 07:45:13   info : Under single object handle operation!!
2019.06.12 07:45:13   info : col 6 data : javascript_click and col 5 data : General_link
2019.06.12 07:45:13   info : Click case operation !!
2019.06.12 07:45:13   info : oprnm javascript_click
2019.06.12 07:45:13   info : click javascript_click operation perfomred!!
2019.06.12 07:45:13   info : Xml obj_repo path C:\Talent_Automation_Framework_Backup\Project_Talent/ObjectRepositories/BenefitAsia2_MercerAdmin/MA_Configuration_tool.xml
2019.06.12 07:45:13   info : xpath object successfully mapped!!
2019.06.12 07:45:13   info : xpath object contains property value !!
2019.06.12 07:45:13   info : Property name - xpath
2019.06.12 07:45:13   info : Property value - .//*[@id='demo1']/p[2]/a
2019.06.12 07:45:13   info : Finding xpath element on webpage..
2019.06.12 07:45:13   info : Searching for element. Try number 0
2019.06.12 07:45:14   info : element disappeared after trying for 1 times
2019.06.12 07:45:15   info : Current WebDriver Win Count is:: 1
2019.06.12 07:46:26   info : Element found!!
2019.06.12 07:46:27   info : Current WebDriver Win Count is:: 1
2019.06.12 07:46:27   info : restult status : 1
2019.06.12 07:46:27   info : Test ID TC3 : previous test step/row 190 status is Passed and value of next test step/row is :: 191
2019.06.12 07:46:27   info : 

2019.06.12 07:46:27   info : -------------------- Executing Testcase ID TC3 and test step : 191 ---------------------- 
2019.06.12 07:46:28   info : Current WebDriver Win Count is:: 1
2019.06.12 07:46:28   info : page object present in excel : 1
2019.06.12 07:46:28   info : Under single object handle operation!!
2019.06.12 07:46:28   info : col 6 data : javascript_click and col 5 data : Edit_config
2019.06.12 07:46:28   info : Click case operation !!
2019.06.12 07:46:28   info : oprnm javascript_click
2019.06.12 07:46:28   info : click javascript_click operation perfomred!!
2019.06.12 07:46:28   info : Xml obj_repo path C:\Talent_Automation_Framework_Backup\Project_Talent/ObjectRepositories/BenefitAsia2_MercerAdmin/MA_Configuration_tool.xml
2019.06.12 07:46:28   info : xpath object successfully mapped!!
2019.06.12 07:46:28   info : xpath object contains property value !!
2019.06.12 07:46:28   info : Property name - xpath
2019.06.12 07:46:28   info : Property value - //input[contains(@id,"_LandingControl_ctl00_uxGeneral_btnEdit") and @value='Edit']
2019.06.12 07:46:28   info : Finding xpath element on webpage..
2019.06.12 07:46:28   info : Searching for element. Try number 0
2019.06.12 07:46:29   info : element disappeared after trying for 1 times
2019.06.12 07:46:30   info : Current WebDriver Win Count is:: 1
2019.06.12 07:46:30   info : Element found!!
2019.06.12 07:46:31   info : Current WebDriver Win Count is:: 1
2019.06.12 07:46:37   info : restult status : 1
2019.06.12 07:46:37   info : Test ID TC3 : previous test step/row 191 status is Passed and value of next test step/row is :: 192
2019.06.12 07:46:37   info : 

2019.06.12 07:46:37   info : -------------------- Executing Testcase ID TC3 and test step : 192 ---------------------- 
2019.06.12 07:46:38   info : Current WebDriver Win Count is:: 1
2019.06.12 07:46:38   info : Total static wait time 3
2019.06.12 07:46:41   info : Xml obj_repo path C:\Talent_Automation_Framework_Backup\Project_Talent/ObjectRepositories/BenefitAsia2_MercerAdmin/MA_Configuration_tool.xml
2019.06.12 07:46:41   info : xpath object successfully mapped!!
2019.06.12 07:46:41   info : xpath object contains property value !!
2019.06.12 07:46:41   info : Property name - xpath
2019.06.12 07:46:41   info : Property value - //*[contains(@id,"_uxGeneral_txtCompanyName")]
2019.06.12 07:46:41   info : Finding xpath element on webpage..
2019.06.12 07:46:41   info : Searching for element. Try number 0
2019.06.12 07:46:42   info : element disappeared after trying for 1 times
2019.06.12 07:46:43   info : Current WebDriver Win Count is:: 1
2019.06.12 07:46:43   info : Element found!!
2019.06.12 07:46:43   info : ObjectTag input and ObjectType text
2019.06.12 07:46:43   info : Enter data operation
2019.06.12 07:46:44   info : Xml obj_repo path C:\Talent_Automation_Framework_Backup\Project_Talent/ObjectRepositories/BenefitAsia2_MercerAdmin/MA_Configuration_tool.xml
2019.06.12 07:46:44   info : xpath object successfully mapped!!
2019.06.12 07:46:44   info : xpath object contains property value !!
2019.06.12 07:46:44   info : Property name - xpath
2019.06.12 07:46:44   info : Property value - //*[contains(@id,"_uxGeneral_txtCompanyName")]
2019.06.12 07:46:44   info : Finding xpath element on webpage..
2019.06.12 07:46:44   info : Searching for element. Try number 0
2019.06.12 07:46:45   info : element disappeared after trying for 1 times
2019.06.12 07:46:46   info : Current WebDriver Win Count is:: 1
2019.06.12 07:46:46   info : Element found!!
2019.06.12 07:46:46   info : Xml obj_repo path C:\Talent_Automation_Framework_Backup\Project_Talent/ObjectRepositories/BenefitAsia2_MercerAdmin/MA_Configuration_tool.xml
2019.06.12 07:46:46   info : xpath object successfully mapped!!
2019.06.12 07:46:46   info : xpath object contains property value !!
2019.06.12 07:46:46   info : Property name - xpath
2019.06.12 07:46:46   info : Property value - //*[contains(@id,"_uxGeneral_txtCompanyName")]
2019.06.12 07:46:46   info : Finding xpath element on webpage..
2019.06.12 07:46:46   info : Searching for element. Try number 0
2019.06.12 07:46:47   info : element disappeared after trying for 1 times
2019.06.12 07:46:48   info : Current WebDriver Win Count is:: 1
2019.06.12 07:46:48   info : Element found!!
2019.06.12 07:46:48   info : ValueToEnter SimpliFlex SG_Updated
2019.06.12 07:46:48   info : Entered value is SimpliFlex SG_Updated
2019.06.12 07:46:48   info : Attribute entered value SimpliFlex SG_Updated
2019.06.12 07:46:49   info : Current WebDriver Win Count is:: 1
2019.06.12 07:46:49   info : restult status : 1
2019.06.12 07:46:50   info : Test ID TC3 : previous test step/row 192 status is Passed and value of next test step/row is :: 193
2019.06.12 07:46:50   info : 

2019.06.12 07:46:50   info : -------------------- Executing Testcase ID TC3 and test step : 193 ---------------------- 
2019.06.12 07:46:51   info : Current WebDriver Win Count is:: 1
2019.06.12 07:46:51   info : page object present in excel : 1
2019.06.12 07:46:51   info : Under single object handle operation!!
2019.06.12 07:46:51   info : col 6 data :  and col 5 data : Save_config
2019.06.12 07:46:51   info : Normal click operation !!
2019.06.12 07:46:51   info : Checking for object in click
2019.06.12 07:46:51   info : Xml obj_repo path C:\Talent_Automation_Framework_Backup\Project_Talent/ObjectRepositories/BenefitAsia2_MercerAdmin/MA_Configuration_tool.xml
2019.06.12 07:46:51   info : xpath object successfully mapped!!
2019.06.12 07:46:51   info : xpath object contains property value !!
2019.06.12 07:46:51   info : Property name - xpath
2019.06.12 07:46:51   info : Property value - //input[contains(@id,"_LandingControl_ctl00_uxGeneral_btnEdit") and @value='Save']
2019.06.12 07:46:51   info : Finding xpath element on webpage..
2019.06.12 07:46:51   info : Searching for element. Try number 0
2019.06.12 07:46:52   info : element disappeared after trying for 1 times
2019.06.12 07:46:53   info : Current WebDriver Win Count is:: 1
2019.06.12 07:46:53   info : Element found!!
2019.06.12 07:46:53   info : Xml obj_repo path C:\Talent_Automation_Framework_Backup\Project_Talent/ObjectRepositories/BenefitAsia2_MercerAdmin/MA_Configuration_tool.xml
2019.06.12 07:46:53   info : xpath object successfully mapped!!
2019.06.12 07:46:53   info : xpath object contains property value !!
2019.06.12 07:46:53   info : Property name - xpath
2019.06.12 07:46:53   info : Property value - //input[contains(@id,"_LandingControl_ctl00_uxGeneral_btnEdit") and @value='Save']
2019.06.12 07:46:53   info : Finding xpath element on webpage..
2019.06.12 07:46:53   info : Searching for element. Try number 0
2019.06.12 07:46:54   info : element disappeared after trying for 1 times
2019.06.12 07:46:55   info : Current WebDriver Win Count is:: 1
2019.06.12 07:46:55   info : Element found!!
2019.06.12 07:46:57   info : clicked on Save_config
2019.06.12 07:46:58   info : Current WebDriver Win Count is:: 1
2019.06.12 07:46:58   info : restult status : 1
2019.06.12 07:46:58   info : Test ID TC3 : previous test step/row 193 status is Passed and value of next test step/row is :: 194
2019.06.12 07:46:58   info : 

2019.06.12 07:46:58   info : -------------------- Executing Testcase ID TC3 and test step : 194 ---------------------- 
2019.06.12 07:46:59   info : Current WebDriver Win Count is:: 1
2019.06.12 07:46:59   info : Total static wait time 3
2019.06.12 07:47:02   info : Xml obj_repo path C:\Talent_Automation_Framework_Backup\Project_Talent/ObjectRepositories/BenefitAsia2_MercerAdmin/MA_Configuration_tool.xml
2019.06.12 07:47:02   info : xpath object successfully mapped!!
2019.06.12 07:47:02   info : xpath object contains property value !!
2019.06.12 07:47:02   info : Property name - xpath
2019.06.12 07:47:02   info : Property value - //*[contains(@id,"_LandingControl_") and contains(@id,"_txtStagingRemarks")]
2019.06.12 07:47:02   info : Finding xpath element on webpage..
2019.06.12 07:47:02   info : Searching for element. Try number 0
2019.06.12 07:47:03   info : element disappeared after trying for 1 times
2019.06.12 07:47:04   info : Current WebDriver Win Count is:: 1
2019.06.12 07:47:04   info : Element found!!
2019.06.12 07:47:04   info : ObjectTag input and ObjectType text
2019.06.12 07:47:04   info : Enter data operation
2019.06.12 07:47:05   info : Xml obj_repo path C:\Talent_Automation_Framework_Backup\Project_Talent/ObjectRepositories/BenefitAsia2_MercerAdmin/MA_Configuration_tool.xml
2019.06.12 07:47:05   info : xpath object successfully mapped!!
2019.06.12 07:47:05   info : xpath object contains property value !!
2019.06.12 07:47:05   info : Property name - xpath
2019.06.12 07:47:05   info : Property value - //*[contains(@id,"_LandingControl_") and contains(@id,"_txtStagingRemarks")]
2019.06.12 07:47:05   info : Finding xpath element on webpage..
2019.06.12 07:47:05   info : Searching for element. Try number 0
2019.06.12 07:47:07   info : element disappeared after trying for 1 times
2019.06.12 07:47:08   info : Current WebDriver Win Count is:: 1
2019.06.12 07:47:08   info : Element found!!
2019.06.12 07:47:08   info : Xml obj_repo path C:\Talent_Automation_Framework_Backup\Project_Talent/ObjectRepositories/BenefitAsia2_MercerAdmin/MA_Configuration_tool.xml
2019.06.12 07:47:08   info : xpath object successfully mapped!!
2019.06.12 07:47:08   info : xpath object contains property value !!
2019.06.12 07:47:08   info : Property name - xpath
2019.06.12 07:47:08   info : Property value - //*[contains(@id,"_LandingControl_") and contains(@id,"_txtStagingRemarks")]
2019.06.12 07:47:08   info : Finding xpath element on webpage..
2019.06.12 07:47:08   info : Searching for element. Try number 0
2019.06.12 07:47:09   info : element disappeared after trying for 1 times
2019.06.12 07:47:10   info : Current WebDriver Win Count is:: 1
2019.06.12 07:47:10   info : Element found!!
2019.06.12 07:47:10   info : ValueToEnter Automation
2019.06.12 07:47:10   info : Entered value is Automation
2019.06.12 07:47:10   info : Attribute entered value Automation
2019.06.12 07:47:11   info : Current WebDriver Win Count is:: 1
2019.06.12 07:47:11   info : restult status : 1
2019.06.12 07:47:11   info : Test ID TC3 : previous test step/row 194 status is Passed and value of next test step/row is :: 195
2019.06.12 07:47:11   info : 

2019.06.12 07:47:11   info : -------------------- Executing Testcase ID TC3 and test step : 195 ---------------------- 
2019.06.12 07:47:12   info : Current WebDriver Win Count is:: 1
2019.06.12 07:47:12   info : page object present in excel : 1
2019.06.12 07:47:12   info : Under single object handle operation!!
2019.06.12 07:47:12   info : col 6 data : alert_accept_multiple and col 5 data : Save_Staging
2019.06.12 07:47:12   info : Click case operation !!
2019.06.12 07:47:12   info : oprnm alert_accept_multiple
2019.06.12 07:47:12   info : Xml obj_repo path C:\Talent_Automation_Framework_Backup\Project_Talent/ObjectRepositories/BenefitAsia2_MercerAdmin/MA_Configuration_tool.xml
2019.06.12 07:47:12   info : xpath object successfully mapped!!
2019.06.12 07:47:12   info : xpath object contains property value !!
2019.06.12 07:47:12   info : Property name - xpath
2019.06.12 07:47:12   info : Property value - //input[contains(@id,"_LandingControl_") and contains(@id,"_btnSave") and @value='Save your changes to Staging']
2019.06.12 07:47:12   info : Finding xpath element on webpage..
2019.06.12 07:47:12   info : Searching for element. Try number 0
2019.06.12 07:47:13   info : element disappeared after trying for 1 times
2019.06.12 07:47:14   info : Current WebDriver Win Count is:: 1
2019.06.12 07:47:14   info : Element found!!
2019.06.12 07:47:14   info : click alert_accept_multiple operation perfomred!!
2019.06.12 07:47:20   info : Please note that this process will have an immediate effect on staging environment.
 Are you sure you want to save your changes to staging ?
2019.06.12 07:47:32   info : Alert is not present
2019.06.12 07:47:34   info : Current WebDriver Win Count is:: 1
2019.06.12 07:47:34   info : restult status : 1
2019.06.12 07:47:34   info : Test ID TC3 : previous test step/row 195 status is Passed and value of next test step/row is :: 196
2019.06.12 07:47:34   info : 

2019.06.12 07:47:34   info : -------------------- Executing Testcase ID TC3 and test step : 196 ---------------------- 
2019.06.12 07:47:35   info : Current WebDriver Win Count is:: 1
2019.06.12 07:47:35   info : Total static wait time 3
2019.06.12 07:47:38   info : Xml obj_repo path C:\Talent_Automation_Framework_Backup\Project_Talent/ObjectRepositories/BenefitAsia2_MercerAdmin/MA_Configuration_tool.xml
2019.06.12 07:47:38   info : xpath object successfully mapped!!
2019.06.12 07:47:38   info : xpath object contains property value !!
2019.06.12 07:47:38   info : Property name - xpath
2019.06.12 07:47:38   info : Property value - //*[contains(@id,"_LandingControl_") and contains(@id,"_txtProdRemarks")]
2019.06.12 07:47:38   info : Finding xpath element on webpage..
2019.06.12 07:47:38   info : Searching for element. Try number 0
2019.06.12 07:47:39   info : element disappeared after trying for 1 times
2019.06.12 07:47:40   info : Current WebDriver Win Count is:: 1
2019.06.12 07:47:40   info : Element found!!
2019.06.12 07:47:40   info : ObjectTag input and ObjectType text
2019.06.12 07:47:40   info : Enter data operation
2019.06.12 07:47:41   info : Xml obj_repo path C:\Talent_Automation_Framework_Backup\Project_Talent/ObjectRepositories/BenefitAsia2_MercerAdmin/MA_Configuration_tool.xml
2019.06.12 07:47:41   info : xpath object successfully mapped!!
2019.06.12 07:47:41   info : xpath object contains property value !!
2019.06.12 07:47:41   info : Property name - xpath
2019.06.12 07:47:41   info : Property value - //*[contains(@id,"_LandingControl_") and contains(@id,"_txtProdRemarks")]
2019.06.12 07:47:41   info : Finding xpath element on webpage..
2019.06.12 07:47:41   info : Searching for element. Try number 0
2019.06.12 07:47:42   info : element disappeared after trying for 1 times
2019.06.12 07:47:43   info : Current WebDriver Win Count is:: 1
2019.06.12 07:47:43   info : Element found!!
2019.06.12 07:47:43   info : Xml obj_repo path C:\Talent_Automation_Framework_Backup\Project_Talent/ObjectRepositories/BenefitAsia2_MercerAdmin/MA_Configuration_tool.xml
2019.06.12 07:47:43   info : xpath object successfully mapped!!
2019.06.12 07:47:43   info : xpath object contains property value !!
2019.06.12 07:47:43   info : Property name - xpath
2019.06.12 07:47:43   info : Property value - //*[contains(@id,"_LandingControl_") and contains(@id,"_txtProdRemarks")]
2019.06.12 07:47:43   info : Finding xpath element on webpage..
2019.06.12 07:47:43   info : Searching for element. Try number 0
2019.06.12 07:47:44   info : element disappeared after trying for 1 times
2019.06.12 07:47:45   info : Current WebDriver Win Count is:: 1
2019.06.12 07:47:45   info : Element found!!
2019.06.12 07:47:45   info : ValueToEnter Automation
2019.06.12 07:47:45   info : Entered value is Automation
2019.06.12 07:47:45   info : Attribute entered value Automation
2019.06.12 07:47:46   info : Current WebDriver Win Count is:: 1
2019.06.12 07:47:47   info : restult status : 1
2019.06.12 07:47:47   info : Test ID TC3 : previous test step/row 196 status is Passed and value of next test step/row is :: 197
2019.06.12 07:47:47   info : 

2019.06.12 07:47:47   info : -------------------- Executing Testcase ID TC3 and test step : 197 ---------------------- 
2019.06.12 07:47:48   info : Current WebDriver Win Count is:: 1
2019.06.12 07:47:48   info : page object present in excel : 1
2019.06.12 07:47:48   info : Under single object handle operation!!
2019.06.12 07:47:48   info : col 6 data : alert_accept_multiple and col 5 data : Prod_Sync
2019.06.12 07:47:48   info : Click case operation !!
2019.06.12 07:47:48   info : oprnm alert_accept_multiple
2019.06.12 07:47:48   info : Xml obj_repo path C:\Talent_Automation_Framework_Backup\Project_Talent/ObjectRepositories/BenefitAsia2_MercerAdmin/MA_Configuration_tool.xml
2019.06.12 07:47:48   info : xpath object successfully mapped!!
2019.06.12 07:47:48   info : xpath object contains property value !!
2019.06.12 07:47:48   info : Property name - xpath
2019.06.12 07:47:48   info : Property value - //*[contains(@id,"_LandingControl_") and contains(@id,"_synch")]
2019.06.12 07:47:48   info : Finding xpath element on webpage..
2019.06.12 07:47:48   info : Searching for element. Try number 0
2019.06.12 07:47:49   info : element disappeared after trying for 1 times
2019.06.12 07:47:50   info : Current WebDriver Win Count is:: 1
2019.06.12 07:47:50   info : Element found!!
2019.06.12 07:47:50   info : click alert_accept_multiple operation perfomred!!
2019.06.12 07:47:56   info : please note that this synchronization process will have immediate effect on production environment.
Are you sure you want to synchronize your changes to production ?
2019.06.12 07:48:08   info : Alert is not present
2019.06.12 07:48:09   info : Current WebDriver Win Count is:: 1
2019.06.12 07:48:09   info : restult status : 1
2019.06.12 07:48:09   info : Test ID TC3 : previous test step/row 197 status is Passed and value of next test step/row is :: 198
2019.06.12 07:48:09   info : 

2019.06.12 07:48:09   info : -------------------- Executing Testcase ID TC3 and test step : 198 ---------------------- 
2019.06.12 07:48:10   info : Current WebDriver Win Count is:: 1
2019.06.12 07:48:10   info : page object present in excel : 1
2019.06.12 07:48:10   info : Under single object handle operation!!
2019.06.12 07:48:10   info : col 6 data :  and col 5 data : Prod_Sync_popup
2019.06.12 07:48:10   info : Normal click operation !!
2019.06.12 07:48:10   info : Checking for object in click
2019.06.12 07:48:10   info : Xml obj_repo path C:\Talent_Automation_Framework_Backup\Project_Talent/ObjectRepositories/BenefitAsia2_MercerAdmin/MA_Configuration_tool.xml
2019.06.12 07:48:10   info : xpath object successfully mapped!!
2019.06.12 07:48:10   info : xpath object contains property value !!
2019.06.12 07:48:10   info : Property name - xpath
2019.06.12 07:48:10   info : Property value - //input[contains(@id,"_LandingControl_") and contains(@id,"_btnSynchronizeProdParams") and @value='Synchronize']
2019.06.12 07:48:10   info : Finding xpath element on webpage..
2019.06.12 07:48:10   info : Searching for element. Try number 0
2019.06.12 07:48:11   info : element disappeared after trying for 1 times
2019.06.12 07:48:12   info : Current WebDriver Win Count is:: 1
2019.06.12 07:48:12   info : Element found!!
2019.06.12 07:48:12   info : Xml obj_repo path C:\Talent_Automation_Framework_Backup\Project_Talent/ObjectRepositories/BenefitAsia2_MercerAdmin/MA_Configuration_tool.xml
2019.06.12 07:48:13   info : xpath object successfully mapped!!
2019.06.12 07:48:13   info : xpath object contains property value !!
2019.06.12 07:48:13   info : Property name - xpath
2019.06.12 07:48:13   info : Property value - //input[contains(@id,"_LandingControl_") and contains(@id,"_btnSynchronizeProdParams") and @value='Synchronize']
2019.06.12 07:48:13   info : Finding xpath element on webpage..
2019.06.12 07:48:13   info : Searching for element. Try number 0
2019.06.12 07:48:14   info : element disappeared after trying for 1 times
2019.06.12 07:48:15   info : Current WebDriver Win Count is:: 1
2019.06.12 07:48:15   info : Element found!!
2019.06.12 07:48:19   info : clicked on Prod_Sync_popup
2019.06.12 07:48:20   info : Current WebDriver Win Count is:: 1
2019.06.12 07:48:20   info : restult status : 1
2019.06.12 07:48:21   info : Test ID TC3 : previous test step/row 198 status is Passed and value of next test step/row is :: 199
2019.06.12 07:48:21   info : 

2019.06.12 07:48:21   info : -------------------- Executing Testcase ID TC3 and test step : 199 ---------------------- 
2019.06.12 07:48:22   info : Current WebDriver Win Count is:: 1
2019.06.12 07:48:22   info : not doing anything!!
2019.06.12 07:48:22   info : Navigating to another url..
2019.06.12 07:48:26   info : Current WebDriver Win Count is:: 1
2019.06.12 07:48:26   info : restult status : 1
2019.06.12 07:48:26   info : Test ID TC3 : previous test step/row 199 status is Passed and value of next test step/row is :: 200
2019.06.12 07:48:26   info : 

2019.06.12 07:48:26   info : -------------------- Executing Testcase ID TC3 and test step : 200 ---------------------- 
2019.06.12 07:48:27   info : Current WebDriver Win Count is:: 1
2019.06.12 07:48:27   info : Xml obj_repo path C:\Talent_Automation_Framework_Backup\Project_Talent/ObjectRepositories/BenefitAsia2_MercerAdmin/MA_Configuration_tool.xml
2019.06.12 07:48:27   info : Title contains null value in xml!!
2019.06.12 07:48:27   info : Window title Company
2019.06.12 07:48:27   info : Xml obj_repo path C:\Talent_Automation_Framework_Backup\Project_Talent/ObjectRepositories/BenefitAsia2_MercerAdmin/MA_Configuration_tool.xml
2019.06.12 07:48:27   info : xpath object successfully mapped!!
2019.06.12 07:48:27   info : xpath object contains property value !!
2019.06.12 07:48:27   info : Property name - xpath
2019.06.12 07:48:27   info : Property value - .//*[@id='dnn_CN_lblMsg']/span
2019.06.12 07:48:27   info : Finding xpath element on webpage..
2019.06.12 07:48:27   info : Searching for element. Try number 0
2019.06.12 07:48:28   info : element disappeared after trying for 1 times
2019.06.12 07:48:29   info : Current WebDriver Win Count is:: 1
2019.06.12 07:48:29   info : Element found!!
2019.06.12 07:48:29   info : Desired window is activated!!
2019.06.12 07:48:29   info : Xml obj_repo path C:\Talent_Automation_Framework_Backup\Project_Talent/ObjectRepositories/BenefitAsia2_MercerAdmin/MA_Configuration_tool.xml
2019.06.12 07:48:29   info : xpath object successfully mapped!!
2019.06.12 07:48:29   info : xpath object contains property value !!
2019.06.12 07:48:29   info : Property name - xpath
2019.06.12 07:48:29   info : Property value - .//*[@id='dnn_CN_lblMsg']/span
2019.06.12 07:48:29   info : Finding xpath element on webpage..
2019.06.12 07:48:29   info : Searching for element. Try number 0
2019.06.12 07:48:30   info : element disappeared after trying for 1 times
2019.06.12 07:48:31   info : Current WebDriver Win Count is:: 1
2019.06.12 07:48:31   info : Element found!!
2019.06.12 07:48:32   info : ObjectTag span and ObjectType null
2019.06.12 07:48:32   info : Exp_value SimpliFlex SG_Updated (SIMPLIFLEXSG)
2019.06.12 07:48:32   info : Searching for element. Try number 0
2019.06.12 07:48:33   info : element disappeared after trying for 1 times
2019.06.12 07:48:33   info : Actual ValueSimpliFlex SG_Updated (SimpliflexSG)
2019.06.12 07:48:33   info : Exp : SimpliFlex SG_Updated (SIMPLIFLEXSG) and act : SimpliFlex SG_Updated (SimpliflexSG) value matched!!
2019.06.12 07:48:34   info : Current WebDriver Win Count is:: 1
2019.06.12 07:48:34   info : restult status : 1
2019.06.12 07:48:34   info : Test ID TC3 : previous test step/row 200 status is Passed and value of next test step/row is :: 201
2019.06.12 07:48:34   info : 

2019.06.12 07:48:34   info : -------------------- Executing Testcase ID TC3 and test step : 201 ---------------------- 
2019.06.12 07:48:35   info : Current WebDriver Win Count is:: 1
2019.06.12 07:48:35   info : Xml obj_repo path C:\Talent_Automation_Framework_Backup\Project_Talent/ObjectRepositories/BenefitAsia2_MercerAdmin/MA_LoginLogout.xml
2019.06.12 07:48:35   info : Title contains null value in xml!!
2019.06.12 07:48:35   info : Window title Company
2019.06.12 07:48:35   info : Xml obj_repo path C:\Talent_Automation_Framework_Backup\Project_Talent/ObjectRepositories/BenefitAsia2_MercerAdmin/MA_LoginLogout.xml
2019.06.12 07:48:35   info : xpath object successfully mapped!!
2019.06.12 07:48:35   info : xpath object contains property value !!
2019.06.12 07:48:35   info : Property name - xpath
2019.06.12 07:48:35   info : Property value - //a[contains(@id,"_cmdLogin")]
2019.06.12 07:48:35   info : Finding xpath element on webpage..
2019.06.12 07:48:35   info : Searching for element. Try number 0
2019.06.12 07:48:36   info : element disappeared after trying for 1 times
2019.06.12 07:48:36   info : Element found!!
2019.06.12 07:48:36   info : Desired window is activated!!
2019.06.12 07:48:36   info : page object present in excel : 1
2019.06.12 07:48:36   info : Under single object handle operation!!
2019.06.12 07:48:36   info : col 6 data :  and col 5 data : Logout
2019.06.12 07:48:36   info : Normal click operation !!
2019.06.12 07:48:36   info : Checking for object in click
2019.06.12 07:48:36   info : Xml obj_repo path C:\Talent_Automation_Framework_Backup\Project_Talent/ObjectRepositories/BenefitAsia2_MercerAdmin/MA_LoginLogout.xml
2019.06.12 07:48:36   info : xpath object successfully mapped!!
2019.06.12 07:48:36   info : xpath object contains property value !!
2019.06.12 07:48:36   info : Property name - xpath
2019.06.12 07:48:36   info : Property value - //a[contains(@id,"_cmdLogin")]
2019.06.12 07:48:36   info : Finding xpath element on webpage..
2019.06.12 07:48:36   info : Searching for element. Try number 0
2019.06.12 07:48:37   info : element disappeared after trying for 1 times
2019.06.12 07:48:37   info : Element found!!
2019.06.12 07:48:37   info : Xml obj_repo path C:\Talent_Automation_Framework_Backup\Project_Talent/ObjectRepositories/BenefitAsia2_MercerAdmin/MA_LoginLogout.xml
2019.06.12 07:48:37   info : xpath object successfully mapped!!
2019.06.12 07:48:37   info : xpath object contains property value !!
2019.06.12 07:48:37   info : Property name - xpath
2019.06.12 07:48:37   info : Property value - //a[contains(@id,"_cmdLogin")]
2019.06.12 07:48:37   info : Finding xpath element on webpage..
2019.06.12 07:48:37   info : Searching for element. Try number 0
2019.06.12 07:48:38   info : element disappeared after trying for 1 times
2019.06.12 07:48:38   info : Element found!!
2019.06.12 07:48:42   info : clicked on Logout
2019.06.12 07:48:43   info : Current WebDriver Win Count is:: 1
2019.06.12 07:48:43   info : restult status : 1
2019.06.12 07:48:43   info : Test ID TC3 : previous test step/row 201 status is Passed and value of next test step/row is :: 202
2019.06.12 07:48:43   info : 

2019.06.12 07:48:43   info : -------------------- Executing Testcase ID TC3 and test step : 202 ---------------------- 
2019.06.12 07:48:44   info : Current WebDriver Win Count is:: 1
2019.06.12 07:48:44   info : not doing anything!!
2019.06.12 07:48:44   info : Navigating to another url..
2019.06.12 07:48:55   info : Current WebDriver Win Count is:: 1
2019.06.12 07:48:55   info : restult status : 1
2019.06.12 07:48:55   info : Test ID TC3 : previous test step/row 202 status is Passed and value of next test step/row is :: 203
2019.06.12 07:48:55   info : 

2019.06.12 07:48:55   info : -------------------- Executing Testcase ID TC3 and test step : 203 ---------------------- 
2019.06.12 07:48:56   info : Current WebDriver Win Count is:: 1
2019.06.12 07:48:56   info : Xml obj_repo path C:\Talent_Automation_Framework_Backup\Project_Talent/ObjectRepositories/BenefitAsia2_MercerAdmin/MA_Configuration_tool.xml
2019.06.12 07:48:56   info : Title contains null value in xml!!
2019.06.12 07:48:56   info : Window title Home
2019.06.12 07:48:56   info : Xml obj_repo path C:\Talent_Automation_Framework_Backup\Project_Talent/ObjectRepositories/BenefitAsia2_MercerAdmin/MA_Configuration_tool.xml
2019.06.12 07:48:56   info : xpath object successfully mapped!!
2019.06.12 07:48:56   info : xpath object contains property value !!
2019.06.12 07:48:56   info : Property name - xpath
2019.06.12 07:48:56   info : Property value - .//*[@id='dnn_CN_lblMsg']/span
2019.06.12 07:48:56   info : Finding xpath element on webpage..
2019.06.12 07:48:56   info : Searching for element. Try number 0
2019.06.12 07:48:57   info : element disappeared after trying for 1 times
2019.06.12 07:48:58   info : Current WebDriver Win Count is:: 1
2019.06.12 07:48:58   info : Element found!!
2019.06.12 07:48:58   info : Desired window is activated!!
2019.06.12 07:48:58   info : Xml obj_repo path C:\Talent_Automation_Framework_Backup\Project_Talent/ObjectRepositories/BenefitAsia2_MercerAdmin/MA_Configuration_tool.xml
2019.06.12 07:48:58   info : xpath object successfully mapped!!
2019.06.12 07:48:58   info : xpath object contains property value !!
2019.06.12 07:48:58   info : Property name - xpath
2019.06.12 07:48:58   info : Property value - .//*[@id='dnn_CN_lblMsg']/span
2019.06.12 07:48:58   info : Finding xpath element on webpage..
2019.06.12 07:48:58   info : Searching for element. Try number 0
2019.06.12 07:48:59   info : element disappeared after trying for 1 times
2019.06.12 07:49:00   info : Current WebDriver Win Count is:: 1
2019.06.12 07:49:00   info : Element found!!
2019.06.12 07:49:00   info : ObjectTag span and ObjectType null
2019.06.12 07:49:00   info : Exp_value SimpliFlex SG_Updated (SIMPLIFLEXSG)
2019.06.12 07:49:00   info : Searching for element. Try number 0
2019.06.12 07:49:01   info : element disappeared after trying for 1 times
2019.06.12 07:49:01   info : Actual ValueSimpliFlex SG_Updated (SimpliflexSG)
2019.06.12 07:49:01   info : Exp : SimpliFlex SG_Updated (SIMPLIFLEXSG) and act : SimpliFlex SG_Updated (SimpliflexSG) value matched!!
2019.06.12 07:49:02   info : Current WebDriver Win Count is:: 1
2019.06.12 07:49:02   info : restult status : 1
2019.06.12 07:49:02   info : Test ID TC3 : previous test step/row 203 status is Passed and value of next test step/row is :: 204
2019.06.12 07:49:02   info : 

2019.06.12 07:49:02   info : -------------------- Executing Testcase ID TC3 and test step : 204 ---------------------- 
2019.06.12 07:49:04   info : Current WebDriver Win Count is:: 1
2019.06.12 07:49:04   info : Xml obj_repo path C:\Talent_Automation_Framework_Backup\Project_Talent/ObjectRepositories/BenefitAsia2_MercerAdmin/MA_LoginLogout.xml
2019.06.12 07:49:04   info : Title contains null value in xml!!
2019.06.12 07:49:04   info : Window title Home
2019.06.12 07:49:04   info : Xml obj_repo path C:\Talent_Automation_Framework_Backup\Project_Talent/ObjectRepositories/BenefitAsia2_MercerAdmin/MA_LoginLogout.xml
2019.06.12 07:49:04   info : xpath object successfully mapped!!
2019.06.12 07:49:04   info : xpath object contains property value !!
2019.06.12 07:49:04   info : Property name - xpath
2019.06.12 07:49:04   info : Property value - //a[contains(@id,"_cmdLogin")]
2019.06.12 07:49:04   info : Finding xpath element on webpage..
2019.06.12 07:49:04   info : Searching for element. Try number 0
2019.06.12 07:49:05   info : element disappeared after trying for 1 times
2019.06.12 07:49:05   info : Element found!!
2019.06.12 07:49:05   info : Desired window is activated!!
2019.06.12 07:49:05   info : page object present in excel : 1
2019.06.12 07:49:05   info : Under single object handle operation!!
2019.06.12 07:49:05   info : col 6 data :  and col 5 data : Logout
2019.06.12 07:49:05   info : Normal click operation !!
2019.06.12 07:49:05   info : Checking for object in click
2019.06.12 07:49:05   info : Xml obj_repo path C:\Talent_Automation_Framework_Backup\Project_Talent/ObjectRepositories/BenefitAsia2_MercerAdmin/MA_LoginLogout.xml
2019.06.12 07:49:05   info : xpath object successfully mapped!!
2019.06.12 07:49:05   info : xpath object contains property value !!
2019.06.12 07:49:05   info : Property name - xpath
2019.06.12 07:49:05   info : Property value - //a[contains(@id,"_cmdLogin")]
2019.06.12 07:49:05   info : Finding xpath element on webpage..
2019.06.12 07:49:05   info : Searching for element. Try number 0
2019.06.12 07:49:06   info : element disappeared after trying for 1 times
2019.06.12 07:49:06   info : Element found!!
2019.06.12 07:49:06   info : Xml obj_repo path C:\Talent_Automation_Framework_Backup\Project_Talent/ObjectRepositories/BenefitAsia2_MercerAdmin/MA_LoginLogout.xml
2019.06.12 07:49:06   info : xpath object successfully mapped!!
2019.06.12 07:49:06   info : xpath object contains property value !!
2019.06.12 07:49:06   info : Property name - xpath
2019.06.12 07:49:06   info : Property value - //a[contains(@id,"_cmdLogin")]
2019.06.12 07:49:06   info : Finding xpath element on webpage..
2019.06.12 07:49:06   info : Searching for element. Try number 0
2019.06.12 07:49:07   info : element disappeared after trying for 1 times
2019.06.12 07:49:07   info : Element found!!
2019.06.12 07:49:08   info : clicked on Logout
2019.06.12 07:49:09   info : Current WebDriver Win Count is:: 1
2019.06.12 07:49:09   info : restult status : 1
2019.06.12 07:49:09   info : Test ID TC3 : previous test step/row 204 status is Passed and value of next test step/row is :: 205
2019.06.12 07:49:09   info : 

2019.06.12 07:49:09   info : -------------------- Executing Testcase ID TC3 and test step : 205 ---------------------- 
2019.06.12 07:49:10   info : Current WebDriver Win Count is:: 1
2019.06.12 07:49:10   info : not doing anything!!
2019.06.12 07:49:10   info : Navigating to another url..
2019.06.12 07:49:19   info : Current WebDriver Win Count is:: 1
2019.06.12 07:49:19   info : restult status : 1
2019.06.12 07:49:19   info : Test ID TC3 : previous test step/row 205 status is Passed and value of next test step/row is :: 206
2019.06.12 07:49:19   info : 

2019.06.12 07:49:19   info : -------------------- Executing Testcase ID TC3 and test step : 206 ---------------------- 
2019.06.12 07:49:20   info : Current WebDriver Win Count is:: 1
2019.06.12 07:49:20   info : Navigating to another url..
2019.06.12 07:49:27   info : Current WebDriver Win Count is:: 1
2019.06.12 07:49:28   info : restult status : 1
2019.06.12 07:49:28   info : Test ID TC3 : previous test step/row 206 status is Passed and value of next test step/row is :: 207
2019.06.12 07:49:28   info : 

2019.06.12 07:49:28   info : -------------------- Executing Testcase ID TC3 and test step : 207 ---------------------- 
2019.06.12 07:49:29   info : Current WebDriver Win Count is:: 1
2019.06.12 07:49:29   info : Xml obj_repo path C:\Talent_Automation_Framework_Backup\Project_Talent/ObjectRepositories/BenefitAsia2_MercerAdmin/MA_Configuration_tool.xml
2019.06.12 07:49:29   info : Title contains null value in xml!!
2019.06.12 07:49:29   info : Window title Client Information
2019.06.12 07:49:29   info : Xml obj_repo path C:\Talent_Automation_Framework_Backup\Project_Talent/ObjectRepositories/BenefitAsia2_MercerAdmin/MA_Configuration_tool.xml
2019.06.12 07:49:29   info : xpath object successfully mapped!!
2019.06.12 07:49:29   info : xpath object contains property value !!
2019.06.12 07:49:29   info : Property name - xpath
2019.06.12 07:49:29   info : Property value - .//*[@id='demo1']/p[2]/a
2019.06.12 07:49:29   info : Finding xpath element on webpage..
2019.06.12 07:49:29   info : Searching for element. Try number 0
2019.06.12 07:49:30   info : element disappeared after trying for 1 times
2019.06.12 07:49:31   info : Current WebDriver Win Count is:: 1
2019.06.12 07:49:31   info : Element found!!
2019.06.12 07:49:31   info : Desired window is activated!!
2019.06.12 07:49:31   info : page object present in excel : 1
2019.06.12 07:49:31   info : Under single object handle operation!!
2019.06.12 07:49:31   info : col 6 data : javascript_click and col 5 data : General_link
2019.06.12 07:49:31   info : Click case operation !!
2019.06.12 07:49:31   info : oprnm javascript_click
2019.06.12 07:49:31   info : click javascript_click operation perfomred!!
2019.06.12 07:49:31   info : Xml obj_repo path C:\Talent_Automation_Framework_Backup\Project_Talent/ObjectRepositories/BenefitAsia2_MercerAdmin/MA_Configuration_tool.xml
2019.06.12 07:49:31   info : xpath object successfully mapped!!
2019.06.12 07:49:31   info : xpath object contains property value !!
2019.06.12 07:49:31   info : Property name - xpath
2019.06.12 07:49:31   info : Property value - .//*[@id='demo1']/p[2]/a
2019.06.12 07:49:31   info : Finding xpath element on webpage..
2019.06.12 07:49:31   info : Searching for element. Try number 0
2019.06.12 07:49:32   info : element disappeared after trying for 1 times
2019.06.12 07:49:33   info : Current WebDriver Win Count is:: 1
2019.06.12 07:49:33   info : Element found!!
2019.06.12 07:49:34   info : Current WebDriver Win Count is:: 1
2019.06.12 07:49:34   info : restult status : 1
2019.06.12 07:49:34   info : Test ID TC3 : previous test step/row 207 status is Passed and value of next test step/row is :: 208
2019.06.12 07:49:34   info : 

2019.06.12 07:49:34   info : -------------------- Executing Testcase ID TC3 and test step : 208 ---------------------- 
2019.06.12 07:49:35   info : Current WebDriver Win Count is:: 1
2019.06.12 07:49:35   info : page object present in excel : 1
2019.06.12 07:49:35   info : Under single object handle operation!!
2019.06.12 07:49:35   info : col 6 data : javascript_click and col 5 data : Edit_config
2019.06.12 07:49:35   info : Click case operation !!
2019.06.12 07:49:35   info : oprnm javascript_click
2019.06.12 07:49:35   info : click javascript_click operation perfomred!!
2019.06.12 07:49:35   info : Xml obj_repo path C:\Talent_Automation_Framework_Backup\Project_Talent/ObjectRepositories/BenefitAsia2_MercerAdmin/MA_Configuration_tool.xml
2019.06.12 07:49:35   info : xpath object successfully mapped!!
2019.06.12 07:49:35   info : xpath object contains property value !!
2019.06.12 07:49:35   info : Property name - xpath
2019.06.12 07:49:35   info : Property value - //input[contains(@id,"_LandingControl_ctl00_uxGeneral_btnEdit") and @value='Edit']
2019.06.12 07:49:35   info : Finding xpath element on webpage..
2019.06.12 07:49:35   info : Searching for element. Try number 0
2019.06.12 07:49:36   info : element disappeared after trying for 1 times
2019.06.12 07:49:37   info : Current WebDriver Win Count is:: 1
2019.06.12 07:49:37   info : Element found!!
2019.06.12 07:49:38   info : Current WebDriver Win Count is:: 1
2019.06.12 07:49:40   info : restult status : 1
2019.06.12 07:49:40   info : Test ID TC3 : previous test step/row 208 status is Passed and value of next test step/row is :: 209
2019.06.12 07:49:40   info : 

2019.06.12 07:49:40   info : -------------------- Executing Testcase ID TC3 and test step : 209 ---------------------- 
2019.06.12 07:49:41   info : Current WebDriver Win Count is:: 1
2019.06.12 07:49:41   info : Total static wait time 3
2019.06.12 07:49:44   info : Xml obj_repo path C:\Talent_Automation_Framework_Backup\Project_Talent/ObjectRepositories/BenefitAsia2_MercerAdmin/MA_Configuration_tool.xml
2019.06.12 07:49:44   info : xpath object successfully mapped!!
2019.06.12 07:49:44   info : xpath object contains property value !!
2019.06.12 07:49:44   info : Property name - xpath
2019.06.12 07:49:44   info : Property value - //*[contains(@id,"_uxGeneral_txtCompanyName")]
2019.06.12 07:49:44   info : Finding xpath element on webpage..
2019.06.12 07:49:44   info : Searching for element. Try number 0
2019.06.12 07:49:45   info : element disappeared after trying for 1 times
2019.06.12 07:49:46   info : Current WebDriver Win Count is:: 1
2019.06.12 07:49:46   info : Element found!!
2019.06.12 07:49:46   info : ObjectTag input and ObjectType text
2019.06.12 07:49:46   info : Enter data operation
2019.06.12 07:49:47   info : Xml obj_repo path C:\Talent_Automation_Framework_Backup\Project_Talent/ObjectRepositories/BenefitAsia2_MercerAdmin/MA_Configuration_tool.xml
2019.06.12 07:49:47   info : xpath object successfully mapped!!
2019.06.12 07:49:47   info : xpath object contains property value !!
2019.06.12 07:49:47   info : Property name - xpath
2019.06.12 07:49:47   info : Property value - //*[contains(@id,"_uxGeneral_txtCompanyName")]
2019.06.12 07:49:47   info : Finding xpath element on webpage..
2019.06.12 07:49:47   info : Searching for element. Try number 0
2019.06.12 07:49:48   info : element disappeared after trying for 1 times
2019.06.12 07:49:49   info : Current WebDriver Win Count is:: 1
2019.06.12 07:49:49   info : Element found!!
2019.06.12 07:49:49   info : Xml obj_repo path C:\Talent_Automation_Framework_Backup\Project_Talent/ObjectRepositories/BenefitAsia2_MercerAdmin/MA_Configuration_tool.xml
2019.06.12 07:49:49   info : xpath object successfully mapped!!
2019.06.12 07:49:49   info : xpath object contains property value !!
2019.06.12 07:49:49   info : Property name - xpath
2019.06.12 07:49:49   info : Property value - //*[contains(@id,"_uxGeneral_txtCompanyName")]
2019.06.12 07:49:49   info : Finding xpath element on webpage..
2019.06.12 07:49:49   info : Searching for element. Try number 0
2019.06.12 07:49:50   info : element disappeared after trying for 1 times
2019.06.12 07:49:51   info : Current WebDriver Win Count is:: 1
2019.06.12 07:49:51   info : Element found!!
2019.06.12 07:49:51   info : ValueToEnter SimpliFlex SG
2019.06.12 07:49:52   info : Entered value is SimpliFlex SG
2019.06.12 07:49:52   info : Attribute entered value SimpliFlex SG
2019.06.12 07:49:53   info : Current WebDriver Win Count is:: 1
2019.06.12 07:49:53   info : restult status : 1
2019.06.12 07:49:53   info : Test ID TC3 : previous test step/row 209 status is Passed and value of next test step/row is :: 210
2019.06.12 07:49:53   info : 

2019.06.12 07:49:53   info : -------------------- Executing Testcase ID TC3 and test step : 210 ---------------------- 
2019.06.12 07:49:54   info : Current WebDriver Win Count is:: 1
2019.06.12 07:49:54   info : page object present in excel : 1
2019.06.12 07:49:54   info : Under single object handle operation!!
2019.06.12 07:49:54   info : col 6 data :  and col 5 data : Save_config
2019.06.12 07:49:54   info : Normal click operation !!
2019.06.12 07:49:54   info : Checking for object in click
2019.06.12 07:49:54   info : Xml obj_repo path C:\Talent_Automation_Framework_Backup\Project_Talent/ObjectRepositories/BenefitAsia2_MercerAdmin/MA_Configuration_tool.xml
2019.06.12 07:49:54   info : xpath object successfully mapped!!
2019.06.12 07:49:54   info : xpath object contains property value !!
2019.06.12 07:49:54   info : Property name - xpath
2019.06.12 07:49:54   info : Property value - //input[contains(@id,"_LandingControl_ctl00_uxGeneral_btnEdit") and @value='Save']
2019.06.12 07:49:54   info : Finding xpath element on webpage..
2019.06.12 07:49:54   info : Searching for element. Try number 0
2019.06.12 07:49:55   info : element disappeared after trying for 1 times
2019.06.12 07:49:56   info : Current WebDriver Win Count is:: 1
2019.06.12 07:49:56   info : Element found!!
2019.06.12 07:49:56   info : Xml obj_repo path C:\Talent_Automation_Framework_Backup\Project_Talent/ObjectRepositories/BenefitAsia2_MercerAdmin/MA_Configuration_tool.xml
2019.06.12 07:49:56   info : xpath object successfully mapped!!
2019.06.12 07:49:56   info : xpath object contains property value !!
2019.06.12 07:49:56   info : Property name - xpath
2019.06.12 07:49:56   info : Property value - //input[contains(@id,"_LandingControl_ctl00_uxGeneral_btnEdit") and @value='Save']
2019.06.12 07:49:56   info : Finding xpath element on webpage..
2019.06.12 07:49:56   info : Searching for element. Try number 0
2019.06.12 07:49:57   info : element disappeared after trying for 1 times
2019.06.12 07:49:58   info : Current WebDriver Win Count is:: 1
2019.06.12 07:49:58   info : Element found!!
2019.06.12 07:50:00   info : clicked on Save_config
2019.06.12 07:50:01   info : Current WebDriver Win Count is:: 1
2019.06.12 07:50:02   info : restult status : 1
2019.06.12 07:50:02   info : Test ID TC3 : previous test step/row 210 status is Passed and value of next test step/row is :: 211
2019.06.12 07:50:02   info : 

2019.06.12 07:50:02   info : -------------------- Executing Testcase ID TC3 and test step : 211 ---------------------- 
2019.06.12 07:50:03   info : Current WebDriver Win Count is:: 1
2019.06.12 07:50:03   info : Total static wait time 3
2019.06.12 07:50:06   info : Xml obj_repo path C:\Talent_Automation_Framework_Backup\Project_Talent/ObjectRepositories/BenefitAsia2_MercerAdmin/MA_Configuration_tool.xml
2019.06.12 07:50:06   info : xpath object successfully mapped!!
2019.06.12 07:50:06   info : xpath object contains property value !!
2019.06.12 07:50:06   info : Property name - xpath
2019.06.12 07:50:06   info : Property value - //*[contains(@id,"_LandingControl_") and contains(@id,"_txtStagingRemarks")]
2019.06.12 07:50:06   info : Finding xpath element on webpage..
2019.06.12 07:50:06   info : Searching for element. Try number 0
2019.06.12 07:50:07   info : element disappeared after trying for 1 times
2019.06.12 07:50:08   info : Current WebDriver Win Count is:: 1
2019.06.12 07:50:08   info : Element found!!
2019.06.12 07:50:08   info : ObjectTag input and ObjectType text
2019.06.12 07:50:08   info : Enter data operation
2019.06.12 07:50:09   info : Xml obj_repo path C:\Talent_Automation_Framework_Backup\Project_Talent/ObjectRepositories/BenefitAsia2_MercerAdmin/MA_Configuration_tool.xml
2019.06.12 07:50:09   info : xpath object successfully mapped!!
2019.06.12 07:50:09   info : xpath object contains property value !!
2019.06.12 07:50:09   info : Property name - xpath
2019.06.12 07:50:09   info : Property value - //*[contains(@id,"_LandingControl_") and contains(@id,"_txtStagingRemarks")]
2019.06.12 07:50:09   info : Finding xpath element on webpage..
2019.06.12 07:50:09   info : Searching for element. Try number 0
2019.06.12 07:50:10   info : element disappeared after trying for 1 times
2019.06.12 07:50:11   info : Current WebDriver Win Count is:: 1
2019.06.12 07:50:11   info : Element found!!
2019.06.12 07:50:11   info : Xml obj_repo path C:\Talent_Automation_Framework_Backup\Project_Talent/ObjectRepositories/BenefitAsia2_MercerAdmin/MA_Configuration_tool.xml
2019.06.12 07:50:11   info : xpath object successfully mapped!!
2019.06.12 07:50:11   info : xpath object contains property value !!
2019.06.12 07:50:11   info : Property name - xpath
2019.06.12 07:50:11   info : Property value - //*[contains(@id,"_LandingControl_") and contains(@id,"_txtStagingRemarks")]
2019.06.12 07:50:11   info : Finding xpath element on webpage..
2019.06.12 07:50:11   info : Searching for element. Try number 0
2019.06.12 07:50:12   info : element disappeared after trying for 1 times
2019.06.12 07:50:13   info : Current WebDriver Win Count is:: 1
2019.06.12 07:50:13   info : Element found!!
2019.06.12 07:50:13   info : ValueToEnter Automation
2019.06.12 07:50:13   info : Entered value is Automation
2019.06.12 07:50:13   info : Attribute entered value Automation
2019.06.12 07:50:14   info : Current WebDriver Win Count is:: 1
2019.06.12 07:50:15   info : restult status : 1
2019.06.12 07:50:15   info : Test ID TC3 : previous test step/row 211 status is Passed and value of next test step/row is :: 212
2019.06.12 07:50:15   info : 

2019.06.12 07:50:15   info : -------------------- Executing Testcase ID TC3 and test step : 212 ---------------------- 
2019.06.12 07:50:16   info : Current WebDriver Win Count is:: 1
2019.06.12 07:50:16   info : page object present in excel : 1
2019.06.12 07:50:16   info : Under single object handle operation!!
2019.06.12 07:50:16   info : col 6 data : alert_accept_multiple and col 5 data : Save_Staging
2019.06.12 07:50:16   info : Click case operation !!
2019.06.12 07:50:16   info : oprnm alert_accept_multiple
2019.06.12 07:50:16   info : Xml obj_repo path C:\Talent_Automation_Framework_Backup\Project_Talent/ObjectRepositories/BenefitAsia2_MercerAdmin/MA_Configuration_tool.xml
2019.06.12 07:50:16   info : xpath object successfully mapped!!
2019.06.12 07:50:16   info : xpath object contains property value !!
2019.06.12 07:50:16   info : Property name - xpath
2019.06.12 07:50:16   info : Property value - //input[contains(@id,"_LandingControl_") and contains(@id,"_btnSave") and @value='Save your changes to Staging']
2019.06.12 07:50:16   info : Finding xpath element on webpage..
2019.06.12 07:50:16   info : Searching for element. Try number 0
2019.06.12 07:50:17   info : element disappeared after trying for 1 times
2019.06.12 07:50:18   info : Current WebDriver Win Count is:: 1
2019.06.12 07:50:18   info : Element found!!
2019.06.12 07:50:18   info : click alert_accept_multiple operation perfomred!!
2019.06.12 07:50:24   info : Please note that this process will have an immediate effect on staging environment.
 Are you sure you want to save your changes to staging ?
2019.06.12 07:50:36   info : Alert is not present
2019.06.12 07:50:37   info : Current WebDriver Win Count is:: 1
2019.06.12 07:50:37   info : restult status : 1
2019.06.12 07:50:37   info : Test ID TC3 : previous test step/row 212 status is Passed and value of next test step/row is :: 213
2019.06.12 07:50:37   info : 

2019.06.12 07:50:37   info : -------------------- Executing Testcase ID TC3 and test step : 213 ---------------------- 
2019.06.12 07:50:38   info : Current WebDriver Win Count is:: 1
2019.06.12 07:50:38   info : Total static wait time 3
2019.06.12 07:50:41   info : Xml obj_repo path C:\Talent_Automation_Framework_Backup\Project_Talent/ObjectRepositories/BenefitAsia2_MercerAdmin/MA_Configuration_tool.xml
2019.06.12 07:50:41   info : xpath object successfully mapped!!
2019.06.12 07:50:41   info : xpath object contains property value !!
2019.06.12 07:50:41   info : Property name - xpath
2019.06.12 07:50:41   info : Property value - //*[contains(@id,"_LandingControl_") and contains(@id,"_txtProdRemarks")]
2019.06.12 07:50:41   info : Finding xpath element on webpage..
2019.06.12 07:50:41   info : Searching for element. Try number 0
2019.06.12 07:50:43   info : element disappeared after trying for 1 times
2019.06.12 07:50:44   info : Current WebDriver Win Count is:: 1
2019.06.12 07:50:44   info : Element found!!
2019.06.12 07:50:44   info : ObjectTag input and ObjectType text
2019.06.12 07:50:44   info : Enter data operation
2019.06.12 07:50:45   info : Xml obj_repo path C:\Talent_Automation_Framework_Backup\Project_Talent/ObjectRepositories/BenefitAsia2_MercerAdmin/MA_Configuration_tool.xml
2019.06.12 07:50:45   info : xpath object successfully mapped!!
2019.06.12 07:50:45   info : xpath object contains property value !!
2019.06.12 07:50:45   info : Property name - xpath
2019.06.12 07:50:45   info : Property value - //*[contains(@id,"_LandingControl_") and contains(@id,"_txtProdRemarks")]
2019.06.12 07:50:45   info : Finding xpath element on webpage..
2019.06.12 07:50:45   info : Searching for element. Try number 0
2019.06.12 07:50:46   info : element disappeared after trying for 1 times
2019.06.12 07:50:47   info : Current WebDriver Win Count is:: 1
2019.06.12 07:50:47   info : Element found!!
2019.06.12 07:50:47   info : Xml obj_repo path C:\Talent_Automation_Framework_Backup\Project_Talent/ObjectRepositories/BenefitAsia2_MercerAdmin/MA_Configuration_tool.xml
2019.06.12 07:50:47   info : xpath object successfully mapped!!
2019.06.12 07:50:47   info : xpath object contains property value !!
2019.06.12 07:50:47   info : Property name - xpath
2019.06.12 07:50:47   info : Property value - //*[contains(@id,"_LandingControl_") and contains(@id,"_txtProdRemarks")]
2019.06.12 07:50:47   info : Finding xpath element on webpage..
2019.06.12 07:50:47   info : Searching for element. Try number 0
2019.06.12 07:50:48   info : element disappeared after trying for 1 times
2019.06.12 07:50:49   info : Current WebDriver Win Count is:: 1
2019.06.12 07:50:49   info : Element found!!
2019.06.12 07:50:49   info : ValueToEnter Automation
2019.06.12 07:50:49   info : Entered value is Automation
2019.06.12 07:50:49   info : Attribute entered value Automation
2019.06.12 07:50:50   info : Current WebDriver Win Count is:: 1
2019.06.12 07:50:50   info : restult status : 1
2019.06.12 07:50:50   info : Test ID TC3 : previous test step/row 213 status is Passed and value of next test step/row is :: 214
2019.06.12 07:50:50   info : 

2019.06.12 07:50:50   info : -------------------- Executing Testcase ID TC3 and test step : 214 ---------------------- 
2019.06.12 07:50:51   info : Current WebDriver Win Count is:: 1
2019.06.12 07:50:51   info : page object present in excel : 1
2019.06.12 07:50:51   info : Under single object handle operation!!
2019.06.12 07:50:51   info : col 6 data : alert_accept_multiple and col 5 data : Prod_Sync
2019.06.12 07:50:51   info : Click case operation !!
2019.06.12 07:50:51   info : oprnm alert_accept_multiple
2019.06.12 07:50:51   info : Xml obj_repo path C:\Talent_Automation_Framework_Backup\Project_Talent/ObjectRepositories/BenefitAsia2_MercerAdmin/MA_Configuration_tool.xml
2019.06.12 07:50:51   info : xpath object successfully mapped!!
2019.06.12 07:50:51   info : xpath object contains property value !!
2019.06.12 07:50:51   info : Property name - xpath
2019.06.12 07:50:51   info : Property value - //*[contains(@id,"_LandingControl_") and contains(@id,"_synch")]
2019.06.12 07:50:51   info : Finding xpath element on webpage..
2019.06.12 07:50:51   info : Searching for element. Try number 0
2019.06.12 07:50:52   info : element disappeared after trying for 1 times
2019.06.12 07:50:53   info : Current WebDriver Win Count is:: 1
2019.06.12 07:50:53   info : Element found!!
2019.06.12 07:50:53   info : click alert_accept_multiple operation perfomred!!
2019.06.12 07:51:00   info : please note that this synchronization process will have immediate effect on production environment.
Are you sure you want to synchronize your changes to production ?
2019.06.12 07:51:12   info : Alert is not present
2019.06.12 07:51:13   info : Current WebDriver Win Count is:: 1
2019.06.12 07:51:13   info : restult status : 1
2019.06.12 07:51:13   info : Test ID TC3 : previous test step/row 214 status is Passed and value of next test step/row is :: 215
2019.06.12 07:51:13   info : 

2019.06.12 07:51:13   info : -------------------- Executing Testcase ID TC3 and test step : 215 ---------------------- 
2019.06.12 07:51:14   info : Current WebDriver Win Count is:: 1
2019.06.12 07:51:14   info : page object present in excel : 1
2019.06.12 07:51:14   info : Under single object handle operation!!
2019.06.12 07:51:14   info : col 6 data :  and col 5 data : Prod_Sync_popup
2019.06.12 07:51:14   info : Normal click operation !!
2019.06.12 07:51:14   info : Checking for object in click
2019.06.12 07:51:14   info : Xml obj_repo path C:\Talent_Automation_Framework_Backup\Project_Talent/ObjectRepositories/BenefitAsia2_MercerAdmin/MA_Configuration_tool.xml
2019.06.12 07:51:14   info : xpath object successfully mapped!!
2019.06.12 07:51:14   info : xpath object contains property value !!
2019.06.12 07:51:14   info : Property name - xpath
2019.06.12 07:51:14   info : Property value - //input[contains(@id,"_LandingControl_") and contains(@id,"_btnSynchronizeProdParams") and @value='Synchronize']
2019.06.12 07:51:14   info : Finding xpath element on webpage..
2019.06.12 07:51:14   info : Searching for element. Try number 0
2019.06.12 07:51:15   info : element disappeared after trying for 1 times
2019.06.12 07:51:16   info : Current WebDriver Win Count is:: 1
2019.06.12 07:51:16   info : Element found!!
2019.06.12 07:51:16   info : Xml obj_repo path C:\Talent_Automation_Framework_Backup\Project_Talent/ObjectRepositories/BenefitAsia2_MercerAdmin/MA_Configuration_tool.xml
2019.06.12 07:51:16   info : xpath object successfully mapped!!
2019.06.12 07:51:16   info : xpath object contains property value !!
2019.06.12 07:51:16   info : Property name - xpath
2019.06.12 07:51:16   info : Property value - //input[contains(@id,"_LandingControl_") and contains(@id,"_btnSynchronizeProdParams") and @value='Synchronize']
2019.06.12 07:51:16   info : Finding xpath element on webpage..
2019.06.12 07:51:16   info : Searching for element. Try number 0
2019.06.12 07:51:17   info : element disappeared after trying for 1 times
2019.06.12 07:51:18   info : Current WebDriver Win Count is:: 1
2019.06.12 07:51:18   info : Element found!!
2019.06.12 07:51:28   info : clicked on Prod_Sync_popup
2019.06.12 07:51:29   info : Current WebDriver Win Count is:: 1
2019.06.12 07:51:29   info : restult status : 1
2019.06.12 07:51:29   info : Test ID TC3 : previous test step/row 215 status is Passed and value of next test step/row is :: 216
2019.06.12 07:51:29   info : 

2019.06.12 07:51:29   info : -------------------- Executing Testcase ID TC3 and test step : 216 ---------------------- 
2019.06.12 07:51:30   info : Current WebDriver Win Count is:: 1
2019.06.12 07:51:30   info : not doing anything!!
2019.06.12 07:51:30   info : Navigating to another url..
2019.06.12 07:51:34   info : Current WebDriver Win Count is:: 1
2019.06.12 07:51:35   info : restult status : 1
2019.06.12 07:51:35   info : Test ID TC3 : previous test step/row 216 status is Passed and value of next test step/row is :: 217
2019.06.12 07:51:35   info : 

2019.06.12 07:51:35   info : -------------------- Executing Testcase ID TC3 and test step : 217 ---------------------- 
2019.06.12 07:51:36   info : Current WebDriver Win Count is:: 1
2019.06.12 07:51:36   info : Xml obj_repo path C:\Talent_Automation_Framework_Backup\Project_Talent/ObjectRepositories/BenefitAsia2_MercerAdmin/MA_Configuration_tool.xml
2019.06.12 07:51:36   info : Title contains null value in xml!!
2019.06.12 07:51:36   info : Window title Company
2019.06.12 07:51:36   info : Xml obj_repo path C:\Talent_Automation_Framework_Backup\Project_Talent/ObjectRepositories/BenefitAsia2_MercerAdmin/MA_Configuration_tool.xml
2019.06.12 07:51:36   info : xpath object successfully mapped!!
2019.06.12 07:51:36   info : xpath object contains property value !!
2019.06.12 07:51:36   info : Property name - xpath
2019.06.12 07:51:36   info : Property value - .//*[@id='dnn_CN_lblMsg']/span
2019.06.12 07:51:36   info : Finding xpath element on webpage..
2019.06.12 07:51:36   info : Searching for element. Try number 0
2019.06.12 07:51:37   info : element disappeared after trying for 1 times
2019.06.12 07:51:38   info : Current WebDriver Win Count is:: 1
2019.06.12 07:51:38   info : Element found!!
2019.06.12 07:51:38   info : Desired window is activated!!
2019.06.12 07:51:38   info : Xml obj_repo path C:\Talent_Automation_Framework_Backup\Project_Talent/ObjectRepositories/BenefitAsia2_MercerAdmin/MA_Configuration_tool.xml
2019.06.12 07:51:38   info : xpath object successfully mapped!!
2019.06.12 07:51:38   info : xpath object contains property value !!
2019.06.12 07:51:38   info : Property name - xpath
2019.06.12 07:51:38   info : Property value - .//*[@id='dnn_CN_lblMsg']/span
2019.06.12 07:51:38   info : Finding xpath element on webpage..
2019.06.12 07:51:38   info : Searching for element. Try number 0
2019.06.12 07:51:39   info : element disappeared after trying for 1 times
2019.06.12 07:51:40   info : Current WebDriver Win Count is:: 1
2019.06.12 07:51:40   info : Element found!!
2019.06.12 07:51:40   info : ObjectTag span and ObjectType null
2019.06.12 07:51:40   info : Exp_value SimpliFlex SG (SIMPLIFLEXSG)
2019.06.12 07:51:40   info : Searching for element. Try number 0
2019.06.12 07:51:41   info : element disappeared after trying for 1 times
2019.06.12 07:51:41   info : Actual ValueSimpliFlex SG (SimpliflexSG)
2019.06.12 07:51:41   info : Exp : SimpliFlex SG (SIMPLIFLEXSG) and act : SimpliFlex SG (SimpliflexSG) value matched!!
2019.06.12 07:51:42   info : Current WebDriver Win Count is:: 1
2019.06.12 07:51:42   info : restult status : 1
2019.06.12 07:51:43   info : Test ID TC3 : previous test step/row 217 status is Passed and value of next test step/row is :: 218
2019.06.12 07:51:43   info : 

2019.06.12 07:51:43   info : -------------------- Executing Testcase ID TC3 and test step : 218 ---------------------- 
2019.06.12 07:51:44   info : Current WebDriver Win Count is:: 1
2019.06.12 07:51:44   info : Xml obj_repo path C:\Talent_Automation_Framework_Backup\Project_Talent/ObjectRepositories/BenefitAsia2_MercerAdmin/MA_LoginLogout.xml
2019.06.12 07:51:44   info : Title contains null value in xml!!
2019.06.12 07:51:44   info : Window title Company
2019.06.12 07:51:44   info : Xml obj_repo path C:\Talent_Automation_Framework_Backup\Project_Talent/ObjectRepositories/BenefitAsia2_MercerAdmin/MA_LoginLogout.xml
2019.06.12 07:51:44   info : xpath object successfully mapped!!
2019.06.12 07:51:44   info : xpath object contains property value !!
2019.06.12 07:51:44   info : Property name - xpath
2019.06.12 07:51:44   info : Property value - //a[contains(@id,"_cmdLogin")]
2019.06.12 07:51:44   info : Finding xpath element on webpage..
2019.06.12 07:51:44   info : Searching for element. Try number 0
2019.06.12 07:51:45   info : element disappeared after trying for 1 times
2019.06.12 07:51:45   info : Element found!!
2019.06.12 07:51:45   info : Desired window is activated!!
2019.06.12 07:51:45   info : page object present in excel : 1
2019.06.12 07:51:45   info : Under single object handle operation!!
2019.06.12 07:51:45   info : col 6 data :  and col 5 data : Logout
2019.06.12 07:51:45   info : Normal click operation !!
2019.06.12 07:51:45   info : Checking for object in click
2019.06.12 07:51:45   info : Xml obj_repo path C:\Talent_Automation_Framework_Backup\Project_Talent/ObjectRepositories/BenefitAsia2_MercerAdmin/MA_LoginLogout.xml
2019.06.12 07:51:45   info : xpath object successfully mapped!!
2019.06.12 07:51:45   info : xpath object contains property value !!
2019.06.12 07:51:45   info : Property name - xpath
2019.06.12 07:51:45   info : Property value - //a[contains(@id,"_cmdLogin")]
2019.06.12 07:51:45   info : Finding xpath element on webpage..
2019.06.12 07:51:45   info : Searching for element. Try number 0
2019.06.12 07:51:46   info : element disappeared after trying for 1 times
2019.06.12 07:51:46   info : Element found!!
2019.06.12 07:51:46   info : Xml obj_repo path C:\Talent_Automation_Framework_Backup\Project_Talent/ObjectRepositories/BenefitAsia2_MercerAdmin/MA_LoginLogout.xml
2019.06.12 07:51:46   info : xpath object successfully mapped!!
2019.06.12 07:51:46   info : xpath object contains property value !!
2019.06.12 07:51:46   info : Property name - xpath
2019.06.12 07:51:46   info : Property value - //a[contains(@id,"_cmdLogin")]
2019.06.12 07:51:46   info : Finding xpath element on webpage..
2019.06.12 07:51:46   info : Searching for element. Try number 0
2019.06.12 07:51:47   info : element disappeared after trying for 1 times
2019.06.12 07:51:47   info : Element found!!
2019.06.12 07:51:49   info : clicked on Logout
2019.06.12 07:51:51   info : Current WebDriver Win Count is:: 1
2019.06.12 07:51:51   info : restult status : 1
2019.06.12 07:51:51   info : Test ID TC3 : previous test step/row 218 status is Passed and value of next test step/row is :: 219
2019.06.12 07:51:51   info : 

2019.06.12 07:51:51   info : -------------------- Executing Testcase ID TC3 and test step : 219 ---------------------- 
2019.06.12 07:51:52   info : Current WebDriver Win Count is:: 1
2019.06.12 07:51:52   info : not doing anything!!
2019.06.12 07:51:52   info : Navigating to another url..
2019.06.12 07:52:02   info : Current WebDriver Win Count is:: 1
2019.06.12 07:52:02   info : restult status : 1
2019.06.12 07:52:02   info : Test ID TC3 : previous test step/row 219 status is Passed and value of next test step/row is :: 220
2019.06.12 07:52:02   info : 

2019.06.12 07:52:02   info : -------------------- Executing Testcase ID TC3 and test step : 220 ---------------------- 
2019.06.12 07:52:03   info : Current WebDriver Win Count is:: 1
2019.06.12 07:52:03   info : Xml obj_repo path C:\Talent_Automation_Framework_Backup\Project_Talent/ObjectRepositories/BenefitAsia2_MercerAdmin/MA_Configuration_tool.xml
2019.06.12 07:52:03   info : Title contains null value in xml!!
2019.06.12 07:52:03   info : Window title Home
2019.06.12 07:52:03   info : Xml obj_repo path C:\Talent_Automation_Framework_Backup\Project_Talent/ObjectRepositories/BenefitAsia2_MercerAdmin/MA_Configuration_tool.xml
2019.06.12 07:52:03   info : xpath object successfully mapped!!
2019.06.12 07:52:03   info : xpath object contains property value !!
2019.06.12 07:52:03   info : Property name - xpath
2019.06.12 07:52:03   info : Property value - .//*[@id='dnn_CN_lblMsg']/span
2019.06.12 07:52:03   info : Finding xpath element on webpage..
2019.06.12 07:52:03   info : Searching for element. Try number 0
2019.06.12 07:52:04   info : element disappeared after trying for 1 times
2019.06.12 07:52:05   info : Current WebDriver Win Count is:: 1
2019.06.12 07:52:05   info : Element found!!
2019.06.12 07:52:05   info : Desired window is activated!!
2019.06.12 07:52:05   info : Xml obj_repo path C:\Talent_Automation_Framework_Backup\Project_Talent/ObjectRepositories/BenefitAsia2_MercerAdmin/MA_Configuration_tool.xml
2019.06.12 07:52:05   info : xpath object successfully mapped!!
2019.06.12 07:52:05   info : xpath object contains property value !!
2019.06.12 07:52:05   info : Property name - xpath
2019.06.12 07:52:05   info : Property value - .//*[@id='dnn_CN_lblMsg']/span
2019.06.12 07:52:05   info : Finding xpath element on webpage..
2019.06.12 07:52:05   info : Searching for element. Try number 0
2019.06.12 07:52:06   info : element disappeared after trying for 1 times
2019.06.12 07:52:07   info : Current WebDriver Win Count is:: 1
2019.06.12 07:52:07   info : Element found!!
2019.06.12 07:52:08   info : ObjectTag span and ObjectType null
2019.06.12 07:52:08   info : Exp_value SimpliFlex SG (SIMPLIFLEXSG)
2019.06.12 07:52:08   info : Searching for element. Try number 0
2019.06.12 07:52:09   info : element disappeared after trying for 1 times
2019.06.12 07:52:09   info : Actual ValueSimpliFlex SG (SimpliflexSG)
2019.06.12 07:52:09   info : Exp : SimpliFlex SG (SIMPLIFLEXSG) and act : SimpliFlex SG (SimpliflexSG) value matched!!
2019.06.12 07:52:10   info : Current WebDriver Win Count is:: 1
2019.06.12 07:52:10   info : restult status : 1
2019.06.12 07:52:10   info : Test ID TC3 : previous test step/row 220 status is Passed and value of next test step/row is :: 221
2019.06.12 07:52:10   info : 

2019.06.12 07:52:10   info : -------------------- Executing Testcase ID TC3 and test step : 221 ---------------------- 
2019.06.12 07:52:11   info : Current WebDriver Win Count is:: 1
2019.06.12 07:52:11   info : Xml obj_repo path C:\Talent_Automation_Framework_Backup\Project_Talent/ObjectRepositories/BenefitAsia2_MercerAdmin/MA_LoginLogout.xml
2019.06.12 07:52:11   info : Title contains null value in xml!!
2019.06.12 07:52:11   info : Window title Home
2019.06.12 07:52:11   info : Xml obj_repo path C:\Talent_Automation_Framework_Backup\Project_Talent/ObjectRepositories/BenefitAsia2_MercerAdmin/MA_LoginLogout.xml
2019.06.12 07:52:11   info : xpath object successfully mapped!!
2019.06.12 07:52:11   info : xpath object contains property value !!
2019.06.12 07:52:11   info : Property name - xpath
2019.06.12 07:52:11   info : Property value - //a[contains(@id,"_cmdLogin")]
2019.06.12 07:52:11   info : Finding xpath element on webpage..
2019.06.12 07:52:11   info : Searching for element. Try number 0
2019.06.12 07:52:12   info : element disappeared after trying for 1 times
2019.06.12 07:52:12   info : Element found!!
2019.06.12 07:52:12   info : Desired window is activated!!
2019.06.12 07:52:12   info : page object present in excel : 1
2019.06.12 07:52:12   info : Under single object handle operation!!
2019.06.12 07:52:12   info : col 6 data :  and col 5 data : Logout
2019.06.12 07:52:12   info : Normal click operation !!
2019.06.12 07:52:12   info : Checking for object in click
2019.06.12 07:52:12   info : Xml obj_repo path C:\Talent_Automation_Framework_Backup\Project_Talent/ObjectRepositories/BenefitAsia2_MercerAdmin/MA_LoginLogout.xml
2019.06.12 07:52:12   info : xpath object successfully mapped!!
2019.06.12 07:52:12   info : xpath object contains property value !!
2019.06.12 07:52:12   info : Property name - xpath
2019.06.12 07:52:12   info : Property value - //a[contains(@id,"_cmdLogin")]
2019.06.12 07:52:12   info : Finding xpath element on webpage..
2019.06.12 07:52:12   info : Searching for element. Try number 0
2019.06.12 07:52:13   info : element disappeared after trying for 1 times
2019.06.12 07:52:13   info : Element found!!
2019.06.12 07:52:13   info : Xml obj_repo path C:\Talent_Automation_Framework_Backup\Project_Talent/ObjectRepositories/BenefitAsia2_MercerAdmin/MA_LoginLogout.xml
2019.06.12 07:52:13   info : xpath object successfully mapped!!
2019.06.12 07:52:13   info : xpath object contains property value !!
2019.06.12 07:52:13   info : Property name - xpath
2019.06.12 07:52:13   info : Property value - //a[contains(@id,"_cmdLogin")]
2019.06.12 07:52:13   info : Finding xpath element on webpage..
2019.06.12 07:52:13   info : Searching for element. Try number 0
2019.06.12 07:52:14   info : element disappeared after trying for 1 times
2019.06.12 07:52:14   info : Element found!!
2019.06.12 07:52:17   info : clicked on Logout
2019.06.12 07:52:18   info : Current WebDriver Win Count is:: 1
2019.06.12 07:52:18   info : restult status : 1
2019.06.12 07:52:18   info : Row TC3!=TC4 || (TC4==null)) && (221<=268)
2019.06.12 07:52:18   info : Status :: Passed :: Finalizing result report
2019.06.12 07:52:19   info : closing window...
2019.06.12 07:52:19   info : window size 1
2019.06.12 07:52:19   info : Window is closed!!
