2019.06.25 11:08:24   info : Selenium version :: 2.48.2
2019.06.25 11:08:24   info : Download fodler path created!!
2019.06.25 11:08:24   info : date_time_down_folder C:\Talent_Automation_Framework_Backup\Project_Talent\Downloads\2019_06_25\time_11_08_24\
2019.06.25 11:08:24   info : Total number of applications :: 4
2019.06.25 11:08:24   info : Application Name - DSOSG_Claims_N
2019.06.25 11:08:24   info : TestData_Sheet path:: C:\Talent_Automation_Framework_Backup\Project_Talent/TestCases/DSOSG_Claims_N.xlsx
2019.06.25 11:08:24   info : CSV updating and creating dump....
2019.06.25 11:08:25   info : Sheet name: TestCaseScheduler
2019.06.25 11:08:25   info : Sheet name: Test Case
2019.06.25 11:08:25   info : DSOSG_Claims_N sheetname found!!
2019.06.25 11:08:25   info : Total row 3665
2019.06.25 11:08:26   info : After row validation for blank or null!!
2019.06.25 11:08:26   info : Total final row 3664
2019.06.25 11:08:27   error : java.lang.NullPointerException
2019.06.25 11:08:27   info : Total number of test cases to be executed :: 44
2019.06.25 11:08:27   info : PrevTestID - null == null && row 1<= 3664
2019.06.25 11:08:27   info : Test ID TC1 : previous test step/row 0 status is Passed and value of next test step/row is :: 1
2019.06.25 11:08:27   info : 

2019.06.25 11:08:27   info : -------------------- Executing Testcase ID TC1 and test step : 1 ---------------------- 
2019.06.25 11:08:28   info : please wait.. browser getting open !!
2019.06.25 11:08:39   info : Opening Application..
2019.06.25 11:08:44   info : Current WebDriver Win Count is:: 1
2019.06.25 11:08:45   info : restult status : 1
2019.06.25 11:08:45   info : Test ID TC1 : previous test step/row 1 status is Passed and value of next test step/row is :: 2
2019.06.25 11:08:45   info : 

2019.06.25 11:08:45   info : -------------------- Executing Testcase ID TC1 and test step : 2 ---------------------- 
2019.06.25 11:08:47   info : Current WebDriver Win Count is:: 1
2019.06.25 11:08:47   info : Xml obj_repo path C:\Talent_Automation_Framework_Backup\Project_Talent/ObjectRepositories/BenefitAsia2_MercerAdmin/MA_Home.xml
2019.06.25 11:08:47   info : Title in xml file - Home
2019.06.25 11:08:47   warn : Window is not switched, now trying based on element!!
2019.06.25 11:08:47   info : Window title Mercer Account Center
2019.06.25 11:08:47   info : Xml obj_repo path C:\Talent_Automation_Framework_Backup\Project_Talent/ObjectRepositories/BenefitAsia2_MercerAdmin/MA_Home.xml
2019.06.25 11:08:47   info : xpath object successfully mapped!!
2019.06.25 11:08:47   info : xpath object contains property value !!
2019.06.25 11:08:47   info : Property name - xpath
2019.06.25 11:08:47   info : Property value - //input[contains(@id,"ContentPlaceHolder1_TextBox1")]
2019.06.25 11:08:47   info : Finding xpath element on webpage..
2019.06.25 11:08:47   info : Searching for element. Try number 0
2019.06.25 11:08:48   info : element disappeared after trying for 1 times
2019.06.25 11:08:48   info : Element found!!
2019.06.25 11:08:48   info : Desired window is activated!!
2019.06.25 11:08:48   info : Total static wait time 3
2019.06.25 11:08:51   info : Xml obj_repo path C:\Talent_Automation_Framework_Backup\Project_Talent/ObjectRepositories/BenefitAsia2_MercerAdmin/MA_Home.xml
2019.06.25 11:08:51   info : xpath object successfully mapped!!
2019.06.25 11:08:51   info : xpath object contains property value !!
2019.06.25 11:08:51   info : Property name - xpath
2019.06.25 11:08:51   info : Property value - //input[contains(@id,"ContentPlaceHolder1_TextBox1")]
2019.06.25 11:08:51   info : Finding xpath element on webpage..
2019.06.25 11:08:51   info : Searching for element. Try number 0
2019.06.25 11:08:52   info : element disappeared after trying for 1 times
2019.06.25 11:08:52   info : Element found!!
2019.06.25 11:08:52   info : ObjectTag input and ObjectType text
2019.06.25 11:08:52   info : Enter data operation
2019.06.25 11:08:53   info : Xml obj_repo path C:\Talent_Automation_Framework_Backup\Project_Talent/ObjectRepositories/BenefitAsia2_MercerAdmin/MA_Home.xml
2019.06.25 11:08:53   info : xpath object successfully mapped!!
2019.06.25 11:08:53   info : xpath object contains property value !!
2019.06.25 11:08:53   info : Property name - xpath
2019.06.25 11:08:53   info : Property value - //input[contains(@id,"ContentPlaceHolder1_TextBox1")]
2019.06.25 11:08:53   info : Finding xpath element on webpage..
2019.06.25 11:08:53   info : Searching for element. Try number 0
2019.06.25 11:08:54   info : element disappeared after trying for 1 times
2019.06.25 11:08:54   info : Element found!!
2019.06.25 11:08:54   info : Xml obj_repo path C:\Talent_Automation_Framework_Backup\Project_Talent/ObjectRepositories/BenefitAsia2_MercerAdmin/MA_Home.xml
2019.06.25 11:08:54   info : xpath object successfully mapped!!
2019.06.25 11:08:54   info : xpath object contains property value !!
2019.06.25 11:08:54   info : Property name - xpath
2019.06.25 11:08:54   info : Property value - //input[contains(@id,"ContentPlaceHolder1_TextBox1")]
2019.06.25 11:08:54   info : Finding xpath element on webpage..
2019.06.25 11:08:54   info : Searching for element. Try number 0
2019.06.25 11:08:55   info : element disappeared after trying for 1 times
2019.06.25 11:08:55   info : Element found!!
2019.06.25 11:08:55   info : ValueToEnter ashish.choudhary@mercer.com
2019.06.25 11:08:55   info : Entered value is ashish.choudhary@mercer.com
2019.06.25 11:08:55   info : Attribute entered value ashish.choudhary@mercer.com
2019.06.25 11:08:56   info : Current WebDriver Win Count is:: 1
2019.06.25 11:08:57   info : restult status : 1
2019.06.25 11:08:57   info : Test ID TC1 : previous test step/row 2 status is Passed and value of next test step/row is :: 3
2019.06.25 11:08:57   info : 

2019.06.25 11:08:57   info : -------------------- Executing Testcase ID TC1 and test step : 3 ---------------------- 
2019.06.25 11:08:58   info : Current WebDriver Win Count is:: 1
2019.06.25 11:08:58   info : page object present in excel : 1
2019.06.25 11:08:58   info : Under single object handle operation!!
2019.06.25 11:08:58   info : col 6 data :  and col 5 data : SSO_Next_Button
2019.06.25 11:08:58   info : Normal click operation !!
2019.06.25 11:08:58   info : Checking for object in click
2019.06.25 11:08:58   info : Xml obj_repo path C:\Talent_Automation_Framework_Backup\Project_Talent/ObjectRepositories/BenefitAsia2_MercerAdmin/MA_Home.xml
2019.06.25 11:08:58   info : xpath object successfully mapped!!
2019.06.25 11:08:58   info : xpath object contains property value !!
2019.06.25 11:08:58   info : Property name - xpath
2019.06.25 11:08:58   info : Property value - //input[contains(@id,"ContentPlaceHolder1_PassiveSignInButton")]
2019.06.25 11:08:58   info : Finding xpath element on webpage..
2019.06.25 11:08:58   info : Searching for element. Try number 0
2019.06.25 11:08:59   info : element disappeared after trying for 1 times
2019.06.25 11:08:59   info : Element found!!
2019.06.25 11:08:59   info : Xml obj_repo path C:\Talent_Automation_Framework_Backup\Project_Talent/ObjectRepositories/BenefitAsia2_MercerAdmin/MA_Home.xml
2019.06.25 11:08:59   info : xpath object successfully mapped!!
2019.06.25 11:08:59   info : xpath object contains property value !!
2019.06.25 11:08:59   info : Property name - xpath
2019.06.25 11:08:59   info : Property value - //input[contains(@id,"ContentPlaceHolder1_PassiveSignInButton")]
2019.06.25 11:08:59   info : Finding xpath element on webpage..
2019.06.25 11:08:59   info : Searching for element. Try number 0
2019.06.25 11:09:00   info : element disappeared after trying for 1 times
2019.06.25 11:09:00   info : Element found!!
2019.06.25 11:09:05   info : clicked on SSO_Next_Button
2019.06.25 11:09:06   info : Current WebDriver Win Count is:: 1
2019.06.25 11:09:18   info : restult status : 1
2019.06.25 11:09:18   info : Test ID TC1 : previous test step/row 3 status is Passed and value of next test step/row is :: 4
2019.06.25 11:09:18   info : 

2019.06.25 11:09:18   info : -------------------- Executing Testcase ID TC1 and test step : 4 ---------------------- 
2019.06.25 11:09:19   info : Current WebDriver Win Count is:: 1
2019.06.25 11:09:19   info : not doing anything!!
2019.06.25 11:09:19   info : Navigating to another url..
2019.06.25 11:09:25   info : Current WebDriver Win Count is:: 1
2019.06.25 11:09:25   info : restult status : 1
2019.06.25 11:09:25   info : Test ID TC1 : previous test step/row 4 status is Passed and value of next test step/row is :: 5
2019.06.25 11:09:25   info : 

2019.06.25 11:09:25   info : -------------------- Executing Testcase ID TC1 and test step : 5 ---------------------- 
2019.06.25 11:09:27   info : Current WebDriver Win Count is:: 1
2019.06.25 11:09:27   info : Xml obj_repo path C:\Talent_Automation_Framework_Backup\Project_Talent/ObjectRepositories/BenefitAsia2_MercerAdmin/MA_UploadEmployeeData.xml
2019.06.25 11:09:27   info : xpath object successfully mapped!!
2019.06.25 11:09:27   info : xpath object contains property value !!
2019.06.25 11:09:27   info : Property name - xpath
2019.06.25 11:09:27   info : Property value - //input[contains(@id,"_fupdDataFile")]
2019.06.25 11:09:27   info : Finding xpath element on webpage..
2019.06.25 11:09:27   info : Searching for element. Try number 0
2019.06.25 11:09:28   info : element disappeared after trying for 1 times
2019.06.25 11:09:28   info : Element found!!
2019.06.25 11:09:29   info : Current WebDriver Win Count is:: 1
2019.06.25 11:09:29   info : restult status : 1
2019.06.25 11:09:29   info : Test ID TC1 : previous test step/row 5 status is Passed and value of next test step/row is :: 6
2019.06.25 11:09:29   info : 

2019.06.25 11:09:29   info : -------------------- Executing Testcase ID TC1 and test step : 6 ---------------------- 
2019.06.25 11:09:30   info : Current WebDriver Win Count is:: 1
2019.06.25 11:09:30   info : page object present in excel : 1
2019.06.25 11:09:30   info : Under single object handle operation!!
2019.06.25 11:09:30   info : col 6 data : alert_accept and col 5 data : Start_Upload
2019.06.25 11:09:30   info : Click case operation !!
2019.06.25 11:09:30   info : oprnm alert_accept
2019.06.25 11:09:30   info : Xml obj_repo path C:\Talent_Automation_Framework_Backup\Project_Talent/ObjectRepositories/BenefitAsia2_MercerAdmin/MA_UploadEmployeeData.xml
2019.06.25 11:09:30   info : xpath object successfully mapped!!
2019.06.25 11:09:30   info : xpath object contains property value !!
2019.06.25 11:09:30   info : Property name - xpath
2019.06.25 11:09:30   info : Property value - //input[contains(@id,"_btnStartUpload")]
2019.06.25 11:09:30   info : Finding xpath element on webpage..
2019.06.25 11:09:30   info : Searching for element. Try number 0
2019.06.25 11:09:31   info : element disappeared after trying for 1 times
2019.06.25 11:09:31   info : Element found!!
2019.06.25 11:09:31   info : click alert_accept operation perfomred!!
2019.06.25 11:09:31   info : Total static wait time 2
2019.06.25 11:09:37   info : Alert is not present
2019.06.25 11:09:38   info : Current WebDriver Win Count is:: 1
2019.06.25 11:09:39   info : restult status : 1
2019.06.25 11:09:39   info : Test ID TC1 : previous test step/row 6 status is Passed and value of next test step/row is :: 7
2019.06.25 11:09:39   info : 

2019.06.25 11:09:39   info : -------------------- Executing Testcase ID TC1 and test step : 7 ---------------------- 
2019.06.25 11:09:40   info : Current WebDriver Win Count is:: 1
2019.06.25 11:09:40   info : page object present in excel : 1
2019.06.25 11:09:40   info : Under single object handle operation!!
2019.06.25 11:09:40   info : col 6 data :  and col 5 data : Submit
2019.06.25 11:09:40   info : Normal click operation !!
2019.06.25 11:09:40   info : Checking for object in click
2019.06.25 11:09:40   info : Xml obj_repo path C:\Talent_Automation_Framework_Backup\Project_Talent/ObjectRepositories/BenefitAsia2_MercerAdmin/MA_UploadEmployeeData.xml
2019.06.25 11:09:40   info : xpath object successfully mapped!!
2019.06.25 11:09:40   info : xpath object contains property value !!
2019.06.25 11:09:40   info : Property name - xpath
2019.06.25 11:09:40   info : Property value - //input[contains(@id,"_EmployeeDataNew_btnSubmit")]
2019.06.25 11:09:40   info : Finding xpath element on webpage..
2019.06.25 11:09:40   info : Searching for element. Try number 0
2019.06.25 11:09:48   info : element disappeared after trying for 1 times
