2019.01.03 12:51:21   info : Selenium version :: 2.48.2
2019.01.03 12:51:21   info : Download fodler path created!!
2019.01.03 12:51:21   info : date_time_down_folder C:\Talent_Automation_Framework_Backup\Project_Talent\Downloads\2019_01_03\time_12_51_21\
2019.01.03 12:51:21   info : Total number of applications :: 4
2019.01.03 12:51:22   info : Application Name - TestCase_Simpli
2019.01.03 12:51:22   info : TestData_Sheet path:: C:\Talent_Automation_Framework_Backup\Project_Talent/TestCases/TestCase_Simpli.xlsx
2019.01.03 12:51:22   info : CSV updating and creating dump....
2019.01.03 12:51:22   info : Sheet name: Scenarios
2019.01.03 12:51:22   info : Sheet name: TestCaseScheduler
2019.01.03 12:51:22   info : Sheet name: Test Case
2019.01.03 12:51:22   info : TestCase_Simpli sheetname found!!
2019.01.03 12:51:22   info : Total row 404
2019.01.03 12:51:22   info : After row validation for blank or null!!
2019.01.03 12:51:22   info : Total final row 403
2019.01.03 12:51:23   info : Total number of test cases to be executed :: 1
2019.01.03 12:51:23   info : PrevTestID - null == null && row 1<= 403
2019.01.03 12:51:23   info : Test ID TC1 : previous test step/row 0 status is Passed and value of next test step/row is :: 1
2019.01.03 12:51:23   info : 

2019.01.03 12:51:23   info : -------------------- Executing Testcase ID TC1 and test step : 1 ---------------------- 
2019.01.03 12:51:23   info : please wait.. browser getting open !!
2019.01.03 12:51:34   info : Opening Application..
2019.01.03 12:51:39   info : Current WebDriver Win Count is:: 1
2019.01.03 12:51:40   info : restult status : 1
2019.01.03 12:51:40   error : java.lang.NullPointerException
2019.01.03 12:51:40   info : Test ID TC1 : previous test step/row 1 status is Passed and value of next test step/row is :: 2
2019.01.03 12:51:40   info : 

2019.01.03 12:51:40   info : -------------------- Executing Testcase ID TC1 and test step : 2 ---------------------- 
2019.01.03 12:51:41   info : Current WebDriver Win Count is:: 1
2019.01.03 12:51:41   info : Xml obj_repo path C:\Talent_Automation_Framework_Backup\Project_Talent/ObjectRepositories/BenefitAsia2_MercerAdmin/MA_Home.xml
2019.01.03 12:51:41   info : Title in xml file - Home
2019.01.03 12:51:41   warn : Window is not switched, now trying based on element!!
2019.01.03 12:51:41   info : Window title Mercer Account Center
2019.01.03 12:51:41   info : Xml obj_repo path C:\Talent_Automation_Framework_Backup\Project_Talent/ObjectRepositories/BenefitAsia2_MercerAdmin/MA_Home.xml
2019.01.03 12:51:41   info : xpath object successfully mapped!!
2019.01.03 12:51:41   info : xpath object contains property value !!
2019.01.03 12:51:41   info : Property name - xpath
2019.01.03 12:51:41   info : Property value - //input[contains(@id,"ContentPlaceHolder1_TextBox1")]
2019.01.03 12:51:41   info : Finding xpath element on webpage..
2019.01.03 12:51:41   info : Searching for element. Try number 0
2019.01.03 12:51:42   info : element disappeared after trying for 1 times
2019.01.03 12:51:42   info : Element found!!
2019.01.03 12:51:42   info : Desired window is activated!!
2019.01.03 12:51:42   info : Total static wait time 3
2019.01.03 12:51:45   info : Xml obj_repo path C:\Talent_Automation_Framework_Backup\Project_Talent/ObjectRepositories/BenefitAsia2_MercerAdmin/MA_Home.xml
2019.01.03 12:51:45   info : xpath object successfully mapped!!
2019.01.03 12:51:45   info : xpath object contains property value !!
2019.01.03 12:51:45   info : Property name - xpath
2019.01.03 12:51:45   info : Property value - //input[contains(@id,"ContentPlaceHolder1_TextBox1")]
2019.01.03 12:51:45   info : Finding xpath element on webpage..
2019.01.03 12:51:45   info : Searching for element. Try number 0
2019.01.03 12:51:46   info : element disappeared after trying for 1 times
2019.01.03 12:51:46   info : Element found!!
2019.01.03 12:51:46   info : ObjectTag input and ObjectType text
2019.01.03 12:51:46   info : Enter data operation
2019.01.03 12:51:47   info : Xml obj_repo path C:\Talent_Automation_Framework_Backup\Project_Talent/ObjectRepositories/BenefitAsia2_MercerAdmin/MA_Home.xml
2019.01.03 12:51:47   info : xpath object successfully mapped!!
2019.01.03 12:51:47   info : xpath object contains property value !!
2019.01.03 12:51:47   info : Property name - xpath
2019.01.03 12:51:47   info : Property value - //input[contains(@id,"ContentPlaceHolder1_TextBox1")]
2019.01.03 12:51:47   info : Finding xpath element on webpage..
2019.01.03 12:51:47   info : Searching for element. Try number 0
2019.01.03 12:51:49   info : element disappeared after trying for 1 times
2019.01.03 12:51:49   info : Element found!!
2019.01.03 12:51:49   info : Xml obj_repo path C:\Talent_Automation_Framework_Backup\Project_Talent/ObjectRepositories/BenefitAsia2_MercerAdmin/MA_Home.xml
2019.01.03 12:51:49   info : xpath object successfully mapped!!
2019.01.03 12:51:49   info : xpath object contains property value !!
2019.01.03 12:51:49   info : Property name - xpath
2019.01.03 12:51:49   info : Property value - //input[contains(@id,"ContentPlaceHolder1_TextBox1")]
2019.01.03 12:51:49   info : Finding xpath element on webpage..
2019.01.03 12:51:49   info : Searching for element. Try number 0
2019.01.03 12:51:50   info : element disappeared after trying for 1 times
2019.01.03 12:51:50   info : Element found!!
2019.01.03 12:51:50   info : ValueToEnter ashish.choudhary@mercer.com
2019.01.03 12:51:50   info : Entered value is ashish.choudhary@mercer.com
2019.01.03 12:51:50   info : Attribute entered value ashish.choudhary@mercer.com
2019.01.03 12:51:51   info : Current WebDriver Win Count is:: 1
2019.01.03 12:51:51   info : restult status : 1
2019.01.03 12:51:51   error : java.lang.NullPointerException
2019.01.03 12:51:51   info : Test ID TC1 : previous test step/row 2 status is Passed and value of next test step/row is :: 3
2019.01.03 12:51:51   info : 

2019.01.03 12:51:51   info : -------------------- Executing Testcase ID TC1 and test step : 3 ---------------------- 
2019.01.03 12:51:52   info : Current WebDriver Win Count is:: 1
2019.01.03 12:51:52   info : page object present in excel : 1
2019.01.03 12:51:52   info : Under single object handle operation!!
2019.01.03 12:51:52   info : col 6 data :  and col 5 data : SSO_Next_Button
2019.01.03 12:51:52   info : Normal click operation !!
2019.01.03 12:51:52   info : Checking for object in click
2019.01.03 12:51:52   info : Xml obj_repo path C:\Talent_Automation_Framework_Backup\Project_Talent/ObjectRepositories/BenefitAsia2_MercerAdmin/MA_Home.xml
2019.01.03 12:51:52   info : xpath object successfully mapped!!
2019.01.03 12:51:52   info : xpath object contains property value !!
2019.01.03 12:51:52   info : Property name - xpath
2019.01.03 12:51:52   info : Property value - //input[contains(@id,"ContentPlaceHolder1_PassiveSignInButton")]
2019.01.03 12:51:52   info : Finding xpath element on webpage..
2019.01.03 12:51:52   info : Searching for element. Try number 0
2019.01.03 12:51:53   info : element disappeared after trying for 1 times
2019.01.03 12:51:53   info : Element found!!
2019.01.03 12:51:53   info : Xml obj_repo path C:\Talent_Automation_Framework_Backup\Project_Talent/ObjectRepositories/BenefitAsia2_MercerAdmin/MA_Home.xml
2019.01.03 12:51:53   info : xpath object successfully mapped!!
2019.01.03 12:51:53   info : xpath object contains property value !!
2019.01.03 12:51:53   info : Property name - xpath
2019.01.03 12:51:53   info : Property value - //input[contains(@id,"ContentPlaceHolder1_PassiveSignInButton")]
2019.01.03 12:51:53   info : Finding xpath element on webpage..
2019.01.03 12:51:53   info : Searching for element. Try number 0
2019.01.03 12:51:54   info : element disappeared after trying for 1 times
2019.01.03 12:51:54   info : Element found!!
2019.01.03 12:51:59   info : clicked on SSO_Next_Button
2019.01.03 12:52:00   info : Current WebDriver Win Count is:: 1
2019.01.03 12:52:04   info : restult status : 1
2019.01.03 12:52:04   error : java.lang.NullPointerException
2019.01.03 12:52:04   info : Test ID TC1 : previous test step/row 3 status is Passed and value of next test step/row is :: 4
2019.01.03 12:52:04   info : 

2019.01.03 12:52:04   info : -------------------- Executing Testcase ID TC1 and test step : 4 ---------------------- 
2019.01.03 12:52:06   info : Current WebDriver Win Count is:: 1
2019.01.03 12:52:06   info : not doing anything!!
2019.01.03 12:52:06   info : Navigating to another url..
2019.01.03 12:52:10   info : Current WebDriver Win Count is:: 1
2019.01.03 12:52:10   info : restult status : 1
2019.01.03 12:52:10   error : java.lang.NullPointerException
2019.01.03 12:52:10   info : Test ID TC1 : previous test step/row 4 status is Passed and value of next test step/row is :: 5
2019.01.03 12:52:10   info : 

2019.01.03 12:52:10   info : -------------------- Executing Testcase ID TC1 and test step : 5 ---------------------- 
2019.01.03 12:52:11   info : Current WebDriver Win Count is:: 1
2019.01.03 12:52:11   info : Xml obj_repo path C:\Talent_Automation_Framework_Backup\Project_Talent/ObjectRepositories/BenefitAsia2_MercerAdmin/MA_UploadEmployeeData.xml
2019.01.03 12:52:11   info : Title in xml file - Upload Employee Data (New)
2019.01.03 12:52:11   info : Title of the page after - switching window To: Upload Employee Data (New)
2019.01.03 12:52:11   info : Desired window is activated!!
2019.01.03 12:52:11   info : Xml obj_repo path C:\Talent_Automation_Framework_Backup\Project_Talent/ObjectRepositories/BenefitAsia2_MercerAdmin/MA_UploadEmployeeData.xml
2019.01.03 12:52:11   info : xpath object successfully mapped!!
2019.01.03 12:52:11   info : xpath object contains property value !!
2019.01.03 12:52:11   info : Property name - xpath
2019.01.03 12:52:11   info : Property value - //input[contains(@id,"_fupdDataFile")]
2019.01.03 12:52:11   info : Finding xpath element on webpage..
2019.01.03 12:52:11   info : Searching for element. Try number 0
2019.01.03 12:52:12   info : element disappeared after trying for 1 times
2019.01.03 12:52:12   info : Element found!!
2019.01.03 12:52:13   info : Current WebDriver Win Count is:: 1
2019.01.03 12:52:13   info : restult status : 1
2019.01.03 12:52:13   error : java.lang.NullPointerException
2019.01.03 12:52:13   info : Test ID TC1 : previous test step/row 5 status is Passed and value of next test step/row is :: 6
2019.01.03 12:52:13   info : 

2019.01.03 12:52:13   info : -------------------- Executing Testcase ID TC1 and test step : 6 ---------------------- 
2019.01.03 12:52:14   info : Current WebDriver Win Count is:: 1
2019.01.03 12:52:14   info : page object present in excel : 1
2019.01.03 12:52:14   info : Under single object handle operation!!
2019.01.03 12:52:14   info : col 6 data : alert_accept and col 5 data : Start_Upload
2019.01.03 12:52:14   info : Click case operation !!
2019.01.03 12:52:14   info : oprnm alert_accept
2019.01.03 12:52:14   info : Xml obj_repo path C:\Talent_Automation_Framework_Backup\Project_Talent/ObjectRepositories/BenefitAsia2_MercerAdmin/MA_UploadEmployeeData.xml
2019.01.03 12:52:14   info : xpath object successfully mapped!!
2019.01.03 12:52:14   info : xpath object contains property value !!
2019.01.03 12:52:14   info : Property name - xpath
2019.01.03 12:52:14   info : Property value - //input[contains(@id,"_btnStartUpload")]
2019.01.03 12:52:14   info : Finding xpath element on webpage..
2019.01.03 12:52:14   info : Searching for element. Try number 0
2019.01.03 12:52:15   info : element disappeared after trying for 1 times
2019.01.03 12:52:15   info : Element found!!
2019.01.03 12:52:15   info : click alert_accept operation perfomred!!
2019.01.03 12:52:16   info : Total static wait time 2
2019.01.03 12:52:21   info : Alert is not present
2019.01.03 12:52:22   info : Current WebDriver Win Count is:: 1
2019.01.03 12:52:22   info : restult status : 1
2019.01.03 12:52:22   error : java.lang.NullPointerException
2019.01.03 12:52:22   info : Test ID TC1 : previous test step/row 6 status is Passed and value of next test step/row is :: 7
2019.01.03 12:52:22   info : 

2019.01.03 12:52:22   info : -------------------- Executing Testcase ID TC1 and test step : 7 ---------------------- 
2019.01.03 12:52:23   info : Current WebDriver Win Count is:: 1
2019.01.03 12:52:23   info : page object present in excel : 1
2019.01.03 12:52:23   info : Under single object handle operation!!
2019.01.03 12:52:23   info : col 6 data :  and col 5 data : Submit
2019.01.03 12:52:23   info : Normal click operation !!
2019.01.03 12:52:23   info : Checking for object in click
2019.01.03 12:52:23   info : Xml obj_repo path C:\Talent_Automation_Framework_Backup\Project_Talent/ObjectRepositories/BenefitAsia2_MercerAdmin/MA_UploadEmployeeData.xml
2019.01.03 12:52:23   info : xpath object successfully mapped!!
2019.01.03 12:52:23   info : xpath object contains property value !!
2019.01.03 12:52:23   info : Property name - xpath
2019.01.03 12:52:23   info : Property value - //input[contains(@id,"_EmployeeDataNew_btnSubmit")]
2019.01.03 12:52:23   info : Finding xpath element on webpage..
2019.01.03 12:52:23   info : Searching for element. Try number 0
2019.01.03 12:52:24   info : element disappeared after trying for 1 times
2019.01.03 12:52:24   info : Element found!!
2019.01.03 12:52:24   info : Xml obj_repo path C:\Talent_Automation_Framework_Backup\Project_Talent/ObjectRepositories/BenefitAsia2_MercerAdmin/MA_UploadEmployeeData.xml
2019.01.03 12:52:24   info : xpath object successfully mapped!!
2019.01.03 12:52:24   info : xpath object contains property value !!
2019.01.03 12:52:24   info : Property name - xpath
2019.01.03 12:52:24   info : Property value - //input[contains(@id,"_EmployeeDataNew_btnSubmit")]
2019.01.03 12:52:24   info : Finding xpath element on webpage..
2019.01.03 12:52:24   info : Searching for element. Try number 0
2019.01.03 12:52:25   info : element disappeared after trying for 1 times
2019.01.03 12:52:25   info : Element found!!
2019.01.03 12:52:27   info : clicked on Submit
2019.01.03 12:52:28   info : Current WebDriver Win Count is:: 1
2019.01.03 12:52:28   info : restult status : 1
2019.01.03 12:52:28   error : java.lang.NullPointerException
2019.01.03 12:52:28   info : Test ID TC1 : previous test step/row 7 status is Passed and value of next test step/row is :: 8
2019.01.03 12:52:28   info : 

2019.01.03 12:52:28   info : -------------------- Executing Testcase ID TC1 and test step : 8 ---------------------- 
2019.01.03 12:52:29   info : Current WebDriver Win Count is:: 1
2019.01.03 12:52:29   info : page object present in excel : 1
2019.01.03 12:52:29   info : Under single object handle operation!!
2019.01.03 12:52:29   info : col 6 data :  and col 5 data : Close
2019.01.03 12:52:29   info : Normal click operation !!
2019.01.03 12:52:29   info : Checking for object in click
2019.01.03 12:52:29   info : Xml obj_repo path C:\Talent_Automation_Framework_Backup\Project_Talent/ObjectRepositories/BenefitAsia2_MercerAdmin/MA_UploadEmployeeData.xml
2019.01.03 12:52:29   info : xpath object successfully mapped!!
2019.01.03 12:52:29   info : xpath object contains property value !!
2019.01.03 12:52:29   info : Property name - xpath
2019.01.03 12:52:29   info : Property value - //input[contains(@id,"_btnClose")]
2019.01.03 12:52:29   info : Finding xpath element on webpage..
2019.01.03 12:52:29   info : Searching for element. Try number 0
2019.01.03 12:52:30   info : element disappeared after trying for 1 times
2019.01.03 12:52:30   info : Element found!!
2019.01.03 12:52:30   info : Xml obj_repo path C:\Talent_Automation_Framework_Backup\Project_Talent/ObjectRepositories/BenefitAsia2_MercerAdmin/MA_UploadEmployeeData.xml
2019.01.03 12:52:30   info : xpath object successfully mapped!!
2019.01.03 12:52:30   info : xpath object contains property value !!
2019.01.03 12:52:30   info : Property name - xpath
2019.01.03 12:52:30   info : Property value - //input[contains(@id,"_btnClose")]
2019.01.03 12:52:30   info : Finding xpath element on webpage..
2019.01.03 12:52:30   info : Searching for element. Try number 0
2019.01.03 12:52:31   info : element disappeared after trying for 1 times
2019.01.03 12:52:31   info : Element found!!
2019.01.03 12:52:32   info : clicked on Close
2019.01.03 12:52:33   info : Current WebDriver Win Count is:: 1
2019.01.03 12:52:33   info : restult status : 1
2019.01.03 12:52:33   error : java.lang.NullPointerException
2019.01.03 12:52:33   info : Test ID TC1 : previous test step/row 8 status is Passed and value of next test step/row is :: 9
2019.01.03 12:52:33   info : 

2019.01.03 12:52:33   info : -------------------- Executing Testcase ID TC1 and test step : 9 ---------------------- 
2019.01.03 12:52:35   info : Current WebDriver Win Count is:: 1
2019.01.03 12:52:35   info : not doing anything!!
2019.01.03 12:52:35   info : Navigating to another url..
2019.01.03 12:52:38   info : Current WebDriver Win Count is:: 1
2019.01.03 12:52:39   info : restult status : 1
2019.01.03 12:52:39   error : java.lang.NullPointerException
2019.01.03 12:52:39   info : Test ID TC1 : previous test step/row 9 status is Passed and value of next test step/row is :: 10
2019.01.03 12:52:39   info : 

2019.01.03 12:52:39   info : -------------------- Executing Testcase ID TC1 and test step : 10 ---------------------- 
2019.01.03 12:52:40   info : Current WebDriver Win Count is:: 1
2019.01.03 12:52:40   info : Xml obj_repo path C:\Talent_Automation_Framework_Backup\Project_Talent/ObjectRepositories/BenefitAsia2_MercerAdmin/MA_UploadDependentData.xml
2019.01.03 12:52:40   info : Title in xml file - Upload Dependent Data (New)
2019.01.03 12:52:40   info : Title of the page after - switching window To: Upload Dependent Data (New)
2019.01.03 12:52:40   info : Desired window is activated!!
2019.01.03 12:52:40   info : Xml obj_repo path C:\Talent_Automation_Framework_Backup\Project_Talent/ObjectRepositories/BenefitAsia2_MercerAdmin/MA_UploadDependentData.xml
2019.01.03 12:52:40   info : xpath object successfully mapped!!
2019.01.03 12:52:40   info : xpath object contains property value !!
2019.01.03 12:52:40   info : Property name - xpath
2019.01.03 12:52:40   info : Property value - //input[contains(@id,"_fupdDataFile")]
2019.01.03 12:52:40   info : Finding xpath element on webpage..
2019.01.03 12:52:40   info : Searching for element. Try number 0
2019.01.03 12:52:41   info : element disappeared after trying for 1 times
2019.01.03 12:52:41   info : Element found!!
2019.01.03 12:52:42   info : Current WebDriver Win Count is:: 1
2019.01.03 12:52:42   info : restult status : 1
2019.01.03 12:52:42   error : java.lang.NullPointerException
2019.01.03 12:52:42   info : Test ID TC1 : previous test step/row 10 status is Passed and value of next test step/row is :: 11
2019.01.03 12:52:42   info : 

2019.01.03 12:52:42   info : -------------------- Executing Testcase ID TC1 and test step : 11 ---------------------- 
2019.01.03 12:52:43   info : Current WebDriver Win Count is:: 1
2019.01.03 12:52:43   info : page object present in excel : 1
2019.01.03 12:52:43   info : Under single object handle operation!!
2019.01.03 12:52:43   info : col 6 data : alert_accept and col 5 data : Start_Upload
2019.01.03 12:52:43   info : Click case operation !!
2019.01.03 12:52:43   info : oprnm alert_accept
2019.01.03 12:52:43   info : Xml obj_repo path C:\Talent_Automation_Framework_Backup\Project_Talent/ObjectRepositories/BenefitAsia2_MercerAdmin/MA_UploadDependentData.xml
2019.01.03 12:52:43   info : xpath object successfully mapped!!
2019.01.03 12:52:43   info : xpath object contains property value !!
2019.01.03 12:52:43   info : Property name - xpath
2019.01.03 12:52:43   info : Property value - //input[contains(@id,"_btnStartUpload")]
2019.01.03 12:52:43   info : Finding xpath element on webpage..
2019.01.03 12:52:43   info : Searching for element. Try number 0
2019.01.03 12:52:44   info : element disappeared after trying for 1 times
2019.01.03 12:52:44   info : Element found!!
2019.01.03 12:52:44   info : click alert_accept operation perfomred!!
2019.01.03 12:52:44   info : Total static wait time 2
2019.01.03 12:52:50   info : Alert is not present
2019.01.03 12:52:51   info : Current WebDriver Win Count is:: 1
2019.01.03 12:52:51   info : restult status : 1
2019.01.03 12:52:51   error : java.lang.NullPointerException
2019.01.03 12:52:51   info : Test ID TC1 : previous test step/row 11 status is Passed and value of next test step/row is :: 12
2019.01.03 12:52:51   info : 

2019.01.03 12:52:51   info : -------------------- Executing Testcase ID TC1 and test step : 12 ---------------------- 
2019.01.03 12:52:52   info : Current WebDriver Win Count is:: 1
2019.01.03 12:52:52   info : page object present in excel : 1
2019.01.03 12:52:52   info : Under single object handle operation!!
2019.01.03 12:52:52   info : col 6 data :  and col 5 data : Submit
2019.01.03 12:52:52   info : Normal click operation !!
2019.01.03 12:52:52   info : Checking for object in click
2019.01.03 12:52:52   info : Xml obj_repo path C:\Talent_Automation_Framework_Backup\Project_Talent/ObjectRepositories/BenefitAsia2_MercerAdmin/MA_UploadDependentData.xml
2019.01.03 12:52:52   info : xpath object successfully mapped!!
2019.01.03 12:52:52   info : xpath object contains property value !!
2019.01.03 12:52:52   info : Property name - xpath
2019.01.03 12:52:52   info : Property value - //input[contains(@id,"DataNew_btnSubmit")]
2019.01.03 12:52:52   info : Finding xpath element on webpage..
2019.01.03 12:52:52   info : Searching for element. Try number 0
2019.01.03 12:52:53   info : element disappeared after trying for 1 times
2019.01.03 12:52:53   info : Element found!!
2019.01.03 12:52:53   info : Xml obj_repo path C:\Talent_Automation_Framework_Backup\Project_Talent/ObjectRepositories/BenefitAsia2_MercerAdmin/MA_UploadDependentData.xml
2019.01.03 12:52:53   info : xpath object successfully mapped!!
2019.01.03 12:52:53   info : xpath object contains property value !!
2019.01.03 12:52:53   info : Property name - xpath
2019.01.03 12:52:53   info : Property value - //input[contains(@id,"DataNew_btnSubmit")]
2019.01.03 12:52:53   info : Finding xpath element on webpage..
2019.01.03 12:52:53   info : Searching for element. Try number 0
2019.01.03 12:52:54   info : element disappeared after trying for 1 times
2019.01.03 12:52:54   info : Element found!!
2019.01.03 12:52:55   info : clicked on Submit
2019.01.03 12:52:56   info : Current WebDriver Win Count is:: 1
2019.01.03 12:52:57   info : restult status : 1
2019.01.03 12:52:57   error : java.lang.NullPointerException
2019.01.03 12:52:57   info : Test ID TC1 : previous test step/row 12 status is Passed and value of next test step/row is :: 13
2019.01.03 12:52:57   info : 

2019.01.03 12:52:57   info : -------------------- Executing Testcase ID TC1 and test step : 13 ---------------------- 
2019.01.03 12:52:58   info : Current WebDriver Win Count is:: 1
2019.01.03 12:52:58   info : page object present in excel : 1
2019.01.03 12:52:58   info : Under single object handle operation!!
2019.01.03 12:52:58   info : col 6 data :  and col 5 data : Close
2019.01.03 12:52:58   info : Normal click operation !!
2019.01.03 12:52:58   info : Checking for object in click
2019.01.03 12:52:58   info : Xml obj_repo path C:\Talent_Automation_Framework_Backup\Project_Talent/ObjectRepositories/BenefitAsia2_MercerAdmin/MA_UploadDependentData.xml
2019.01.03 12:52:58   info : xpath object successfully mapped!!
2019.01.03 12:52:58   info : xpath object contains property value !!
2019.01.03 12:52:58   info : Property name - xpath
2019.01.03 12:52:58   info : Property value - //input[contains(@id,"_btnClose")]
2019.01.03 12:52:58   info : Finding xpath element on webpage..
2019.01.03 12:52:58   info : Searching for element. Try number 0
2019.01.03 12:52:59   info : element disappeared after trying for 1 times
2019.01.03 12:52:59   info : Element found!!
2019.01.03 12:52:59   info : Xml obj_repo path C:\Talent_Automation_Framework_Backup\Project_Talent/ObjectRepositories/BenefitAsia2_MercerAdmin/MA_UploadDependentData.xml
2019.01.03 12:52:59   info : xpath object successfully mapped!!
2019.01.03 12:52:59   info : xpath object contains property value !!
2019.01.03 12:52:59   info : Property name - xpath
2019.01.03 12:52:59   info : Property value - //input[contains(@id,"_btnClose")]
2019.01.03 12:52:59   info : Finding xpath element on webpage..
2019.01.03 12:52:59   info : Searching for element. Try number 0
2019.01.03 12:53:00   info : element disappeared after trying for 1 times
2019.01.03 12:53:00   info : Element found!!
2019.01.03 12:53:02   info : clicked on Close
2019.01.03 12:53:03   info : Current WebDriver Win Count is:: 1
2019.01.03 12:53:03   info : restult status : 1
2019.01.03 12:53:03   error : java.lang.NullPointerException
2019.01.03 12:53:03   info : Test ID TC1 : previous test step/row 13 status is Passed and value of next test step/row is :: 14
2019.01.03 12:53:03   info : 

2019.01.03 12:53:03   info : -------------------- Executing Testcase ID TC1 and test step : 14 ---------------------- 
2019.01.03 12:53:04   info : Current WebDriver Win Count is:: 1
2019.01.03 12:53:04   info : not doing anything!!
2019.01.03 12:53:04   info : Navigating to another url..
2019.01.03 12:53:08   info : Current WebDriver Win Count is:: 1
2019.01.03 12:53:08   info : restult status : 1
2019.01.03 12:53:08   error : java.lang.NullPointerException
2019.01.03 12:53:08   info : Test ID TC1 : previous test step/row 14 status is Passed and value of next test step/row is :: 15
2019.01.03 12:53:08   info : 

2019.01.03 12:53:08   info : -------------------- Executing Testcase ID TC1 and test step : 15 ---------------------- 
2019.01.03 12:53:09   info : Current WebDriver Win Count is:: 1
2019.01.03 12:53:09   info : Total static wait time 3
2019.01.03 12:53:12   info : Xml obj_repo path C:\Talent_Automation_Framework_Backup\Project_Talent/ObjectRepositories/BenefitAsia2_MercerAdmin/MA_Initialization.xml
2019.01.03 12:53:12   info : xpath object successfully mapped!!
2019.01.03 12:53:12   info : xpath object contains property value !!
2019.01.03 12:53:12   info : Property name - xpath
2019.01.03 12:53:12   info : Property value - //input[contains(@id,"_txtEnrolStDt")]
2019.01.03 12:53:12   info : Finding xpath element on webpage..
2019.01.03 12:53:12   info : Searching for element. Try number 0
2019.01.03 12:53:13   info : element disappeared after trying for 1 times
2019.01.03 12:53:13   info : Element found!!
2019.01.03 12:53:13   info : ObjectTag input and ObjectType text
2019.01.03 12:53:13   info : Enter data operation
2019.01.03 12:53:14   info : Xml obj_repo path C:\Talent_Automation_Framework_Backup\Project_Talent/ObjectRepositories/BenefitAsia2_MercerAdmin/MA_Initialization.xml
2019.01.03 12:53:14   info : xpath object successfully mapped!!
2019.01.03 12:53:14   info : xpath object contains property value !!
2019.01.03 12:53:14   info : Property name - xpath
2019.01.03 12:53:14   info : Property value - //input[contains(@id,"_txtEnrolStDt")]
2019.01.03 12:53:14   info : Finding xpath element on webpage..
2019.01.03 12:53:14   info : Searching for element. Try number 0
2019.01.03 12:53:16   info : element disappeared after trying for 1 times
2019.01.03 12:53:16   info : Element found!!
2019.01.03 12:53:16   info : Xml obj_repo path C:\Talent_Automation_Framework_Backup\Project_Talent/ObjectRepositories/BenefitAsia2_MercerAdmin/MA_Initialization.xml
2019.01.03 12:53:16   info : xpath object successfully mapped!!
2019.01.03 12:53:16   info : xpath object contains property value !!
2019.01.03 12:53:16   info : Property name - xpath
2019.01.03 12:53:16   info : Property value - //input[contains(@id,"_txtEnrolStDt")]
2019.01.03 12:53:16   info : Finding xpath element on webpage..
2019.01.03 12:53:16   info : Searching for element. Try number 0
2019.01.03 12:53:17   info : element disappeared after trying for 1 times
2019.01.03 12:53:17   info : Element found!!
2019.01.03 12:53:17   info : ValueToEnter 03/01/2019
2019.01.03 12:53:17   info : Entered value is 03/01/2019
2019.01.03 12:53:17   info : Attribute entered value 03/01/2019
2019.01.03 12:53:17   info : Total static wait time 3
2019.01.03 12:53:20   info : Xml obj_repo path C:\Talent_Automation_Framework_Backup\Project_Talent/ObjectRepositories/BenefitAsia2_MercerAdmin/MA_Initialization.xml
2019.01.03 12:53:20   info : xpath object successfully mapped!!
2019.01.03 12:53:20   info : xpath object contains property value !!
2019.01.03 12:53:20   info : Property name - xpath
2019.01.03 12:53:20   info : Property value - //input[contains(@id,"_txtEnrolEndDt")]
2019.01.03 12:53:20   info : Finding xpath element on webpage..
2019.01.03 12:53:20   info : Searching for element. Try number 0
2019.01.03 12:53:21   info : element disappeared after trying for 1 times
2019.01.03 12:53:21   info : Element found!!
2019.01.03 12:53:21   info : ObjectTag input and ObjectType text
2019.01.03 12:53:21   info : Enter data operation
2019.01.03 12:53:22   info : Xml obj_repo path C:\Talent_Automation_Framework_Backup\Project_Talent/ObjectRepositories/BenefitAsia2_MercerAdmin/MA_Initialization.xml
2019.01.03 12:53:22   info : xpath object successfully mapped!!
2019.01.03 12:53:22   info : xpath object contains property value !!
2019.01.03 12:53:22   info : Property name - xpath
2019.01.03 12:53:22   info : Property value - //input[contains(@id,"_txtEnrolEndDt")]
2019.01.03 12:53:22   info : Finding xpath element on webpage..
2019.01.03 12:53:22   info : Searching for element. Try number 0
2019.01.03 12:53:23   info : element disappeared after trying for 1 times
2019.01.03 12:53:23   info : Element found!!
2019.01.03 12:53:23   info : Xml obj_repo path C:\Talent_Automation_Framework_Backup\Project_Talent/ObjectRepositories/BenefitAsia2_MercerAdmin/MA_Initialization.xml
2019.01.03 12:53:23   info : xpath object successfully mapped!!
2019.01.03 12:53:23   info : xpath object contains property value !!
2019.01.03 12:53:23   info : Property name - xpath
2019.01.03 12:53:23   info : Property value - //input[contains(@id,"_txtEnrolEndDt")]
2019.01.03 12:53:23   info : Finding xpath element on webpage..
2019.01.03 12:53:23   info : Searching for element. Try number 0
2019.01.03 12:53:24   info : element disappeared after trying for 1 times
2019.01.03 12:53:24   info : Element found!!
2019.01.03 12:53:24   info : ValueToEnter 13/01/2019
2019.01.03 12:53:24   info : Entered value is 13/01/2019
2019.01.03 12:53:24   info : Attribute entered value 13/01/2019
2019.01.03 12:53:24   info : Total static wait time 3
2019.01.03 12:53:27   info : Xml obj_repo path C:\Talent_Automation_Framework_Backup\Project_Talent/ObjectRepositories/BenefitAsia2_MercerAdmin/MA_Initialization.xml
2019.01.03 12:53:27   info : xpath object successfully mapped!!
2019.01.03 12:53:27   info : xpath object contains property value !!
2019.01.03 12:53:27   info : Property name - xpath
2019.01.03 12:53:27   info : Property value - //input[contains(@id,"_txtHREmployeeId")]
2019.01.03 12:53:27   info : Finding xpath element on webpage..
2019.01.03 12:53:27   info : Searching for element. Try number 0
2019.01.03 12:53:28   info : element disappeared after trying for 1 times
2019.01.03 12:53:28   info : Element found!!
2019.01.03 12:53:28   info : ObjectTag input and ObjectType text
2019.01.03 12:53:28   info : Enter data operation
2019.01.03 12:53:29   info : Xml obj_repo path C:\Talent_Automation_Framework_Backup\Project_Talent/ObjectRepositories/BenefitAsia2_MercerAdmin/MA_Initialization.xml
2019.01.03 12:53:29   info : xpath object successfully mapped!!
2019.01.03 12:53:29   info : xpath object contains property value !!
2019.01.03 12:53:29   info : Property name - xpath
2019.01.03 12:53:29   info : Property value - //input[contains(@id,"_txtHREmployeeId")]
2019.01.03 12:53:29   info : Finding xpath element on webpage..
2019.01.03 12:53:29   info : Searching for element. Try number 0
2019.01.03 12:53:30   info : element disappeared after trying for 1 times
2019.01.03 12:53:30   info : Element found!!
2019.01.03 12:53:30   info : Xml obj_repo path C:\Talent_Automation_Framework_Backup\Project_Talent/ObjectRepositories/BenefitAsia2_MercerAdmin/MA_Initialization.xml
2019.01.03 12:53:30   info : xpath object successfully mapped!!
2019.01.03 12:53:30   info : xpath object contains property value !!
2019.01.03 12:53:30   info : Property name - xpath
2019.01.03 12:53:30   info : Property value - //input[contains(@id,"_txtHREmployeeId")]
2019.01.03 12:53:30   info : Finding xpath element on webpage..
2019.01.03 12:53:30   info : Searching for element. Try number 0
2019.01.03 12:53:31   info : element disappeared after trying for 1 times
2019.01.03 12:53:31   info : Element found!!
2019.01.03 12:53:31   info : ValueToEnter Simpli_4jan
2019.01.03 12:53:31   info : Entered value is Simpli_4jan
2019.01.03 12:53:31   info : Attribute entered value Simpli_4jan
2019.01.03 12:53:32   info : Current WebDriver Win Count is:: 1
2019.01.03 12:53:32   info : restult status : 1
2019.01.03 12:53:32   error : java.lang.NullPointerException
2019.01.03 12:53:32   info : Test ID TC1 : previous test step/row 15 status is Passed and value of next test step/row is :: 16
2019.01.03 12:53:32   info : 

2019.01.03 12:53:32   info : -------------------- Executing Testcase ID TC1 and test step : 16 ---------------------- 
2019.01.03 12:53:34   info : Current WebDriver Win Count is:: 1
2019.01.03 12:53:34   info : page object present in excel : 1
2019.01.03 12:53:34   info : Under single object handle operation!!
2019.01.03 12:53:34   info : col 6 data :  and col 5 data : Search_button
2019.01.03 12:53:34   info : Normal click operation !!
2019.01.03 12:53:34   info : Checking for object in click
2019.01.03 12:53:34   info : Xml obj_repo path C:\Talent_Automation_Framework_Backup\Project_Talent/ObjectRepositories/BenefitAsia2_MercerAdmin/MA_Initialization.xml
2019.01.03 12:53:34   info : xpath object successfully mapped!!
2019.01.03 12:53:34   info : xpath object contains property value !!
2019.01.03 12:53:34   info : Property name - xpath
2019.01.03 12:53:34   info : Property value - //input[contains(@id,"_ChoosePlanNew_btnSubmit")]
2019.01.03 12:53:34   info : Finding xpath element on webpage..
2019.01.03 12:53:34   info : Searching for element. Try number 0
2019.01.03 12:53:35   info : element disappeared after trying for 1 times
2019.01.03 12:53:35   info : Element found!!
2019.01.03 12:53:35   info : Xml obj_repo path C:\Talent_Automation_Framework_Backup\Project_Talent/ObjectRepositories/BenefitAsia2_MercerAdmin/MA_Initialization.xml
2019.01.03 12:53:35   info : xpath object successfully mapped!!
2019.01.03 12:53:35   info : xpath object contains property value !!
2019.01.03 12:53:35   info : Property name - xpath
2019.01.03 12:53:35   info : Property value - //input[contains(@id,"_ChoosePlanNew_btnSubmit")]
2019.01.03 12:53:35   info : Finding xpath element on webpage..
2019.01.03 12:53:35   info : Searching for element. Try number 0
2019.01.03 12:53:36   info : element disappeared after trying for 1 times
2019.01.03 12:53:36   info : Element found!!
2019.01.03 12:53:36   info : clicked on Search_button
2019.01.03 12:53:37   info : Current WebDriver Win Count is:: 1
2019.01.03 12:53:37   info : restult status : 1
2019.01.03 12:53:37   error : java.lang.NullPointerException
2019.01.03 12:53:37   info : Test ID TC1 : previous test step/row 16 status is Passed and value of next test step/row is :: 17
2019.01.03 12:53:37   info : 

2019.01.03 12:53:37   info : -------------------- Executing Testcase ID TC1 and test step : 17 ---------------------- 
2019.01.03 12:53:38   info : Current WebDriver Win Count is:: 1
2019.01.03 12:53:38   info : Total static wait time 3
2019.01.03 12:53:41   info : Xml obj_repo path C:\Talent_Automation_Framework_Backup\Project_Talent/ObjectRepositories/BenefitAsia2_MercerAdmin/MA_Initialization.xml
2019.01.03 12:53:41   info : xpath object successfully mapped!!
2019.01.03 12:53:41   info : xpath object contains property value !!
2019.01.03 12:53:41   info : Property name - xpath
2019.01.03 12:53:41   info : Property value - //*[contains(@id,"_SearchEmployeeNew_txtSearch")]
2019.01.03 12:53:41   info : Finding xpath element on webpage..
2019.01.03 12:53:41   info : Searching for element. Try number 0
2019.01.03 12:53:42   info : element disappeared after trying for 1 times
