2018.11.14 03:22:35   info : Selenium version :: 2.48.2
2018.11.14 03:22:35   info : Download fodler path created!!
2018.11.14 03:22:35   info : date_time_down_folder C:\Talent_Automation_Framework_Backup\Project_Talent\Downloads\2018_11_14\time_15_22_35\
2018.11.14 03:22:35   info : Total number of applications :: 4
2018.11.14 03:22:35   info : Application Name - Auto_Sanity
2018.11.14 03:22:35   info : TestData_Sheet path:: C:\Talent_Automation_Framework_Backup\Project_Talent/TestCases/Auto_Sanity.xlsx
2018.11.14 03:22:35   info : CSV updating and creating dump....
2018.11.14 03:22:36   info : Sheet name: TestCaseScheduler
2018.11.14 03:22:36   info : Sheet name: Test Case
2018.11.14 03:22:36   info : Auto_Sanity sheetname found!!
2018.11.14 03:22:36   info : Total row 273
2018.11.14 03:22:36   info : After row validation for blank or null!!
2018.11.14 03:22:36   info : Total final row 272
2018.11.14 03:22:36   error : java.lang.NullPointerException
2018.11.14 03:22:36   info : Total number of test cases to be executed :: 1
2018.11.14 03:22:36   info : PrevTestID - null == null && row 190<= 272
2018.11.14 03:22:36   info : Test ID TC3 : previous test step/row 189 status is Passed and value of next test step/row is :: 190
2018.11.14 03:22:36   info : 

2018.11.14 03:22:36   info : -------------------- Executing Testcase ID TC3 and test step : 190 ---------------------- 
2018.11.14 03:22:36   info : please wait.. browser getting open !!
2018.11.14 03:22:50   info : Opening Application..
2018.11.14 03:24:08   info : Current WebDriver Win Count is:: 1
2018.11.14 03:24:09   info : restult status : 1
2018.11.14 03:24:09   info : Test ID TC3 : previous test step/row 190 status is Passed and value of next test step/row is :: 191
2018.11.14 03:24:09   info : 

2018.11.14 03:24:09   info : -------------------- Executing Testcase ID TC3 and test step : 191 ---------------------- 
2018.11.14 03:24:10   info : Current WebDriver Win Count is:: 1
2018.11.14 03:24:10   info : Xml obj_repo path C:\Talent_Automation_Framework_Backup\Project_Talent/ObjectRepositories/BenefitAsia2_MercerAdmin/MA_Home.xml
2018.11.14 03:24:10   info : Title in xml file - Home
2018.11.14 03:24:10   warn : Window is not switched, now trying based on element!!
2018.11.14 03:24:10   info : Window title Mercer Account Center
2018.11.14 03:24:10   info : Xml obj_repo path C:\Talent_Automation_Framework_Backup\Project_Talent/ObjectRepositories/BenefitAsia2_MercerAdmin/MA_Home.xml
2018.11.14 03:24:10   info : xpath object successfully mapped!!
2018.11.14 03:24:10   info : xpath object contains property value !!
2018.11.14 03:24:10   info : Property name - xpath
2018.11.14 03:24:10   info : Property value - //input[contains(@id,"ContentPlaceHolder1_TextBox1")]
2018.11.14 03:24:10   info : Finding xpath element on webpage..
2018.11.14 03:24:10   info : Searching for element. Try number 0
2018.11.14 03:24:11   info : element disappeared after trying for 1 times
2018.11.14 03:24:12   info : Current WebDriver Win Count is:: 1
2018.11.14 03:24:12   info : Element found!!
2018.11.14 03:24:12   info : Desired window is activated!!
2018.11.14 03:24:12   info : Total static wait time 3
2018.11.14 03:24:15   info : Xml obj_repo path C:\Talent_Automation_Framework_Backup\Project_Talent/ObjectRepositories/BenefitAsia2_MercerAdmin/MA_Home.xml
2018.11.14 03:24:15   info : xpath object successfully mapped!!
2018.11.14 03:24:15   info : xpath object contains property value !!
2018.11.14 03:24:15   info : Property name - xpath
2018.11.14 03:24:15   info : Property value - //input[contains(@id,"ContentPlaceHolder1_TextBox1")]
2018.11.14 03:24:15   info : Finding xpath element on webpage..
2018.11.14 03:24:15   info : Searching for element. Try number 0
2018.11.14 03:24:17   info : element disappeared after trying for 1 times
2018.11.14 03:24:18   info : Current WebDriver Win Count is:: 1
2018.11.14 03:24:18   info : Element found!!
2018.11.14 03:24:18   info : ObjectTag input and ObjectType text
2018.11.14 03:24:18   info : Enter data operation
2018.11.14 03:24:19   info : Xml obj_repo path C:\Talent_Automation_Framework_Backup\Project_Talent/ObjectRepositories/BenefitAsia2_MercerAdmin/MA_Home.xml
2018.11.14 03:24:19   info : xpath object successfully mapped!!
2018.11.14 03:24:19   info : xpath object contains property value !!
2018.11.14 03:24:19   info : Property name - xpath
2018.11.14 03:24:19   info : Property value - //input[contains(@id,"ContentPlaceHolder1_TextBox1")]
2018.11.14 03:24:19   info : Finding xpath element on webpage..
2018.11.14 03:24:19   info : Searching for element. Try number 0
2018.11.14 03:24:20   info : element disappeared after trying for 1 times
2018.11.14 03:24:21   info : Current WebDriver Win Count is:: 1
2018.11.14 03:24:21   info : Element found!!
2018.11.14 03:24:21   info : Xml obj_repo path C:\Talent_Automation_Framework_Backup\Project_Talent/ObjectRepositories/BenefitAsia2_MercerAdmin/MA_Home.xml
2018.11.14 03:24:21   info : xpath object successfully mapped!!
2018.11.14 03:24:21   info : xpath object contains property value !!
2018.11.14 03:24:21   info : Property name - xpath
2018.11.14 03:24:21   info : Property value - //input[contains(@id,"ContentPlaceHolder1_TextBox1")]
2018.11.14 03:24:21   info : Finding xpath element on webpage..
2018.11.14 03:24:21   info : Searching for element. Try number 0
2018.11.14 03:24:22   info : element disappeared after trying for 1 times
2018.11.14 03:24:23   info : Current WebDriver Win Count is:: 1
2018.11.14 03:24:23   info : Element found!!
2018.11.14 03:24:23   info : ValueToEnter ashish.choudhary@mercer.com
2018.11.14 03:24:23   info : Entered value is ashish.choudhary@mercer.com
2018.11.14 03:24:23   info : Attribute entered value ashish.choudhary@mercer.com
2018.11.14 03:24:24   info : Current WebDriver Win Count is:: 1
2018.11.14 03:24:24   info : restult status : 1
2018.11.14 03:24:25   info : Test ID TC3 : previous test step/row 191 status is Passed and value of next test step/row is :: 192
2018.11.14 03:24:25   info : 

2018.11.14 03:24:25   info : -------------------- Executing Testcase ID TC3 and test step : 192 ---------------------- 
2018.11.14 03:24:26   info : Current WebDriver Win Count is:: 1
2018.11.14 03:24:26   info : page object present in excel : 1
2018.11.14 03:24:26   info : Under single object handle operation!!
2018.11.14 03:24:26   info : col 6 data :  and col 5 data : SSO_Next_Button
2018.11.14 03:24:26   info : Normal click operation !!
2018.11.14 03:24:26   info : Checking for object in click
2018.11.14 03:24:26   info : Xml obj_repo path C:\Talent_Automation_Framework_Backup\Project_Talent/ObjectRepositories/BenefitAsia2_MercerAdmin/MA_Home.xml
2018.11.14 03:24:26   info : xpath object successfully mapped!!
2018.11.14 03:24:26   info : xpath object contains property value !!
2018.11.14 03:24:26   info : Property name - xpath
2018.11.14 03:24:26   info : Property value - //input[contains(@id,"ContentPlaceHolder1_PassiveSignInButton")]
2018.11.14 03:24:26   info : Finding xpath element on webpage..
2018.11.14 03:24:26   info : Searching for element. Try number 0
2018.11.14 03:24:27   info : element disappeared after trying for 1 times
2018.11.14 03:24:28   info : Current WebDriver Win Count is:: 1
2018.11.14 03:24:28   info : Element found!!
2018.11.14 03:24:28   info : Xml obj_repo path C:\Talent_Automation_Framework_Backup\Project_Talent/ObjectRepositories/BenefitAsia2_MercerAdmin/MA_Home.xml
2018.11.14 03:24:28   info : xpath object successfully mapped!!
2018.11.14 03:24:28   info : xpath object contains property value !!
2018.11.14 03:24:28   info : Property name - xpath
2018.11.14 03:24:28   info : Property value - //input[contains(@id,"ContentPlaceHolder1_PassiveSignInButton")]
2018.11.14 03:24:28   info : Finding xpath element on webpage..
2018.11.14 03:24:28   info : Searching for element. Try number 0
2018.11.14 03:24:29   info : element disappeared after trying for 1 times
2018.11.14 03:24:30   info : Current WebDriver Win Count is:: 1
2018.11.14 03:24:30   info : Element found!!
2018.11.14 03:24:37   info : clicked on SSO_Next_Button
2018.11.14 03:24:38   info : Current WebDriver Win Count is:: 1
2018.11.14 03:24:49   info : restult status : 1
2018.11.14 03:24:49   info : Test ID TC3 : previous test step/row 192 status is Passed and value of next test step/row is :: 193
2018.11.14 03:24:49   info : 

2018.11.14 03:24:49   info : -------------------- Executing Testcase ID TC3 and test step : 193 ---------------------- 
2018.11.14 03:24:50   info : Current WebDriver Win Count is:: 1
2018.11.14 03:24:50   info : not doing anything!!
2018.11.14 03:24:50   info : Navigating to another url..
2018.11.14 03:25:33   info : Current WebDriver Win Count is:: 1
2018.11.14 03:25:33   info : restult status : 1
2018.11.14 03:25:33   info : Test ID TC3 : previous test step/row 193 status is Passed and value of next test step/row is :: 194
2018.11.14 03:25:33   info : 

2018.11.14 03:25:33   info : -------------------- Executing Testcase ID TC3 and test step : 194 ---------------------- 
2018.11.14 03:25:35   info : Current WebDriver Win Count is:: 1
2018.11.14 03:25:35   info : page object present in excel : 1
2018.11.14 03:25:35   info : Under single object handle operation!!
2018.11.14 03:25:35   info : col 6 data : javascript_click and col 5 data : General_link
2018.11.14 03:25:35   info : Click case operation !!
2018.11.14 03:25:35   info : oprnm javascript_click
2018.11.14 03:25:35   info : click javascript_click operation perfomred!!
2018.11.14 03:25:35   info : Xml obj_repo path C:\Talent_Automation_Framework_Backup\Project_Talent/ObjectRepositories/BenefitAsia2_MercerAdmin/MA_Configuration_tool.xml
2018.11.14 03:25:35   info : xpath object successfully mapped!!
2018.11.14 03:25:35   info : xpath object contains property value !!
2018.11.14 03:25:35   info : Property name - xpath
2018.11.14 03:25:35   info : Property value - .//*[@id='demo1']/p[2]/a
2018.11.14 03:25:35   info : Finding xpath element on webpage..
2018.11.14 03:25:35   info : Searching for element. Try number 0
2018.11.14 03:25:36   info : element disappeared after trying for 1 times
2018.11.14 03:25:37   info : Current WebDriver Win Count is:: 1
2018.11.14 03:25:37   info : Element found!!
2018.11.14 03:25:38   info : Current WebDriver Win Count is:: 1
2018.11.14 03:25:38   info : restult status : 1
2018.11.14 03:25:38   info : Test ID TC3 : previous test step/row 194 status is Passed and value of next test step/row is :: 195
2018.11.14 03:25:38   info : 

2018.11.14 03:25:38   info : -------------------- Executing Testcase ID TC3 and test step : 195 ---------------------- 
2018.11.14 03:25:39   info : Current WebDriver Win Count is:: 1
2018.11.14 03:25:39   info : page object present in excel : 1
2018.11.14 03:25:39   info : Under single object handle operation!!
2018.11.14 03:25:39   info : col 6 data : javascript_click and col 5 data : Edit_config
2018.11.14 03:25:39   info : Click case operation !!
2018.11.14 03:25:39   info : oprnm javascript_click
2018.11.14 03:25:39   info : click javascript_click operation perfomred!!
2018.11.14 03:25:39   info : Xml obj_repo path C:\Talent_Automation_Framework_Backup\Project_Talent/ObjectRepositories/BenefitAsia2_MercerAdmin/MA_Configuration_tool.xml
2018.11.14 03:25:39   info : xpath object successfully mapped!!
2018.11.14 03:25:39   info : xpath object contains property value !!
2018.11.14 03:25:39   info : Property name - xpath
2018.11.14 03:25:39   info : Property value - //input[contains(@id,"_LandingControl_ctl00_uxGeneral_btnEdit") and @value='Edit']
2018.11.14 03:25:39   info : Finding xpath element on webpage..
2018.11.14 03:25:39   info : Searching for element. Try number 0
2018.11.14 03:25:40   info : element disappeared after trying for 1 times
2018.11.14 03:25:41   info : Current WebDriver Win Count is:: 1
2018.11.14 03:25:41   info : Element found!!
2018.11.14 03:25:42   info : Current WebDriver Win Count is:: 1
2018.11.14 03:26:41   info : restult status : 1
2018.11.14 03:26:41   info : Test ID TC3 : previous test step/row 195 status is Passed and value of next test step/row is :: 196
2018.11.14 03:26:41   info : 

2018.11.14 03:26:41   info : -------------------- Executing Testcase ID TC3 and test step : 196 ---------------------- 
2018.11.14 03:26:42   info : Current WebDriver Win Count is:: 1
2018.11.14 03:26:42   info : Total static wait time 3
2018.11.14 03:26:45   info : Xml obj_repo path C:\Talent_Automation_Framework_Backup\Project_Talent/ObjectRepositories/BenefitAsia2_MercerAdmin/MA_Configuration_tool.xml
2018.11.14 03:26:45   info : xpath object successfully mapped!!
2018.11.14 03:26:45   info : xpath object contains property value !!
2018.11.14 03:26:45   info : Property name - xpath
2018.11.14 03:26:45   info : Property value - //*[contains(@id,"_uxGeneral_txtCompanyName")]
2018.11.14 03:26:45   info : Finding xpath element on webpage..
2018.11.14 03:26:45   info : Searching for element. Try number 0
2018.11.14 03:26:46   info : element disappeared after trying for 1 times
2018.11.14 03:26:47   info : Current WebDriver Win Count is:: 1
2018.11.14 03:26:47   info : Element found!!
2018.11.14 03:26:47   info : ObjectTag input and ObjectType text
2018.11.14 03:26:47   info : Enter data operation
2018.11.14 03:26:48   info : Xml obj_repo path C:\Talent_Automation_Framework_Backup\Project_Talent/ObjectRepositories/BenefitAsia2_MercerAdmin/MA_Configuration_tool.xml
2018.11.14 03:26:48   info : xpath object successfully mapped!!
2018.11.14 03:26:48   info : xpath object contains property value !!
2018.11.14 03:26:48   info : Property name - xpath
2018.11.14 03:26:48   info : Property value - //*[contains(@id,"_uxGeneral_txtCompanyName")]
2018.11.14 03:26:48   info : Finding xpath element on webpage..
2018.11.14 03:26:48   info : Searching for element. Try number 0
2018.11.14 03:26:49   info : element disappeared after trying for 1 times
2018.11.14 03:26:50   info : Current WebDriver Win Count is:: 1
2018.11.14 03:26:50   info : Element found!!
2018.11.14 03:26:50   info : Xml obj_repo path C:\Talent_Automation_Framework_Backup\Project_Talent/ObjectRepositories/BenefitAsia2_MercerAdmin/MA_Configuration_tool.xml
2018.11.14 03:26:50   info : xpath object successfully mapped!!
2018.11.14 03:26:50   info : xpath object contains property value !!
2018.11.14 03:26:50   info : Property name - xpath
2018.11.14 03:26:50   info : Property value - //*[contains(@id,"_uxGeneral_txtCompanyName")]
2018.11.14 03:26:50   info : Finding xpath element on webpage..
2018.11.14 03:26:50   info : Searching for element. Try number 0
2018.11.14 03:26:51   info : element disappeared after trying for 1 times
2018.11.14 03:26:53   info : Current WebDriver Win Count is:: 1
2018.11.14 03:26:53   info : Element found!!
2018.11.14 03:26:53   info : ValueToEnter SimpliFlex SG_Updated
2018.11.14 03:26:53   info : Entered value is SimpliFlex SG_Updated
2018.11.14 03:26:53   info : Attribute entered value SimpliFlex SG_Updated
2018.11.14 03:26:54   info : Current WebDriver Win Count is:: 1
2018.11.14 03:26:54   info : restult status : 1
2018.11.14 03:26:54   info : Test ID TC3 : previous test step/row 196 status is Passed and value of next test step/row is :: 197
2018.11.14 03:26:54   info : 

2018.11.14 03:26:54   info : -------------------- Executing Testcase ID TC3 and test step : 197 ---------------------- 
2018.11.14 03:26:55   info : Current WebDriver Win Count is:: 1
2018.11.14 03:26:55   info : page object present in excel : 1
2018.11.14 03:26:55   info : Under single object handle operation!!
2018.11.14 03:26:55   info : col 6 data :  and col 5 data : Save_config
2018.11.14 03:26:55   info : Normal click operation !!
2018.11.14 03:26:55   info : Checking for object in click
2018.11.14 03:26:55   info : Xml obj_repo path C:\Talent_Automation_Framework_Backup\Project_Talent/ObjectRepositories/BenefitAsia2_MercerAdmin/MA_Configuration_tool.xml
2018.11.14 03:26:55   info : xpath object successfully mapped!!
2018.11.14 03:26:55   info : xpath object contains property value !!
2018.11.14 03:26:55   info : Property name - xpath
2018.11.14 03:26:55   info : Property value - //input[contains(@id,"_LandingControl_ctl00_uxGeneral_btnEdit") and @value='Save']
2018.11.14 03:26:55   info : Finding xpath element on webpage..
2018.11.14 03:26:55   info : Searching for element. Try number 0
2018.11.14 03:26:56   info : element disappeared after trying for 1 times
2018.11.14 03:26:57   info : Current WebDriver Win Count is:: 1
2018.11.14 03:26:57   info : Element found!!
2018.11.14 03:26:57   info : Xml obj_repo path C:\Talent_Automation_Framework_Backup\Project_Talent/ObjectRepositories/BenefitAsia2_MercerAdmin/MA_Configuration_tool.xml
2018.11.14 03:26:57   info : xpath object successfully mapped!!
2018.11.14 03:26:57   info : xpath object contains property value !!
2018.11.14 03:26:57   info : Property name - xpath
2018.11.14 03:26:57   info : Property value - //input[contains(@id,"_LandingControl_ctl00_uxGeneral_btnEdit") and @value='Save']
2018.11.14 03:26:57   info : Finding xpath element on webpage..
2018.11.14 03:26:57   info : Searching for element. Try number 0
2018.11.14 03:26:58   info : element disappeared after trying for 1 times
2018.11.14 03:26:59   info : Current WebDriver Win Count is:: 1
2018.11.14 03:26:59   info : Element found!!
2018.11.14 03:27:43   info : clicked on Save_config
2018.11.14 03:27:44   info : Current WebDriver Win Count is:: 1
2018.11.14 03:27:44   info : restult status : 1
2018.11.14 03:27:44   info : Test ID TC3 : previous test step/row 197 status is Passed and value of next test step/row is :: 198
2018.11.14 03:27:44   info : 

2018.11.14 03:27:44   info : -------------------- Executing Testcase ID TC3 and test step : 198 ---------------------- 
2018.11.14 03:27:45   info : Current WebDriver Win Count is:: 1
2018.11.14 03:27:45   info : Total static wait time 3
2018.11.14 03:27:48   info : Xml obj_repo path C:\Talent_Automation_Framework_Backup\Project_Talent/ObjectRepositories/BenefitAsia2_MercerAdmin/MA_Configuration_tool.xml
2018.11.14 03:27:48   info : xpath object successfully mapped!!
2018.11.14 03:27:48   info : xpath object contains property value !!
2018.11.14 03:27:48   info : Property name - xpath
2018.11.14 03:27:48   info : Property value - //*[contains(@id,"_LandingControl_") and contains(@id,"_txtStagingRemarks")]
2018.11.14 03:27:48   info : Finding xpath element on webpage..
2018.11.14 03:27:48   info : Searching for element. Try number 0
2018.11.14 03:27:50   info : element disappeared after trying for 1 times
2018.11.14 03:27:51   info : Current WebDriver Win Count is:: 1
2018.11.14 03:27:51   info : Element found!!
2018.11.14 03:27:51   info : ObjectTag input and ObjectType text
2018.11.14 03:27:51   info : Enter data operation
2018.11.14 03:27:52   info : Xml obj_repo path C:\Talent_Automation_Framework_Backup\Project_Talent/ObjectRepositories/BenefitAsia2_MercerAdmin/MA_Configuration_tool.xml
2018.11.14 03:27:52   info : xpath object successfully mapped!!
2018.11.14 03:27:52   info : xpath object contains property value !!
2018.11.14 03:27:52   info : Property name - xpath
2018.11.14 03:27:52   info : Property value - //*[contains(@id,"_LandingControl_") and contains(@id,"_txtStagingRemarks")]
2018.11.14 03:27:52   info : Finding xpath element on webpage..
2018.11.14 03:27:52   info : Searching for element. Try number 0
2018.11.14 03:27:53   info : element disappeared after trying for 1 times
2018.11.14 03:27:54   info : Current WebDriver Win Count is:: 1
2018.11.14 03:27:54   info : Element found!!
2018.11.14 03:27:54   info : Xml obj_repo path C:\Talent_Automation_Framework_Backup\Project_Talent/ObjectRepositories/BenefitAsia2_MercerAdmin/MA_Configuration_tool.xml
2018.11.14 03:27:54   info : xpath object successfully mapped!!
2018.11.14 03:27:54   info : xpath object contains property value !!
2018.11.14 03:27:54   info : Property name - xpath
2018.11.14 03:27:54   info : Property value - //*[contains(@id,"_LandingControl_") and contains(@id,"_txtStagingRemarks")]
2018.11.14 03:27:54   info : Finding xpath element on webpage..
2018.11.14 03:27:54   info : Searching for element. Try number 0
2018.11.14 03:27:55   info : element disappeared after trying for 1 times
2018.11.14 03:27:56   info : Current WebDriver Win Count is:: 1
2018.11.14 03:27:56   info : Element found!!
2018.11.14 03:27:56   info : ValueToEnter Automation
2018.11.14 03:27:56   info : Entered value is Automation
2018.11.14 03:27:56   info : Attribute entered value Automation
2018.11.14 03:27:57   info : Current WebDriver Win Count is:: 1
2018.11.14 03:27:57   info : restult status : 1
2018.11.14 03:27:58   info : Test ID TC3 : previous test step/row 198 status is Passed and value of next test step/row is :: 199
2018.11.14 03:27:58   info : 

2018.11.14 03:27:58   info : -------------------- Executing Testcase ID TC3 and test step : 199 ---------------------- 
2018.11.14 03:27:59   info : Current WebDriver Win Count is:: 1
2018.11.14 03:27:59   info : page object present in excel : 1
2018.11.14 03:27:59   info : Under single object handle operation!!
2018.11.14 03:27:59   info : col 6 data : alert_accept_multiple and col 5 data : Save_Staging
2018.11.14 03:27:59   info : Click case operation !!
2018.11.14 03:27:59   info : oprnm alert_accept_multiple
2018.11.14 03:27:59   info : Xml obj_repo path C:\Talent_Automation_Framework_Backup\Project_Talent/ObjectRepositories/BenefitAsia2_MercerAdmin/MA_Configuration_tool.xml
2018.11.14 03:27:59   info : xpath object successfully mapped!!
2018.11.14 03:27:59   info : xpath object contains property value !!
2018.11.14 03:27:59   info : Property name - xpath
2018.11.14 03:27:59   info : Property value - //input[contains(@id,"_LandingControl_") and contains(@id,"_btnSave") and @value='Save your changes to Staging']
2018.11.14 03:27:59   info : Finding xpath element on webpage..
2018.11.14 03:27:59   info : Searching for element. Try number 0
2018.11.14 03:28:00   info : element disappeared after trying for 1 times
2018.11.14 03:28:01   info : Current WebDriver Win Count is:: 1
2018.11.14 03:28:01   info : Element found!!
2018.11.14 03:28:01   info : click alert_accept_multiple operation perfomred!!
2018.11.14 03:28:07   info : Please note that this process will have an immediate effect on staging environment.
 Are you sure you want to save your changes to staging ?
2018.11.14 03:29:19   info : Alert is not present
2018.11.14 03:29:20   info : Current WebDriver Win Count is:: 1
2018.11.14 03:29:20   info : restult status : 1
2018.11.14 03:29:20   info : Test ID TC3 : previous test step/row 199 status is Passed and value of next test step/row is :: 200
2018.11.14 03:29:20   info : 

2018.11.14 03:29:20   info : -------------------- Executing Testcase ID TC3 and test step : 200 ---------------------- 
2018.11.14 03:29:21   info : Current WebDriver Win Count is:: 1
2018.11.14 03:29:21   info : Total static wait time 3
2018.11.14 03:29:24   info : Xml obj_repo path C:\Talent_Automation_Framework_Backup\Project_Talent/ObjectRepositories/BenefitAsia2_MercerAdmin/MA_Configuration_tool.xml
2018.11.14 03:29:24   info : xpath object successfully mapped!!
2018.11.14 03:29:24   info : xpath object contains property value !!
2018.11.14 03:29:24   info : Property name - xpath
2018.11.14 03:29:24   info : Property value - //*[contains(@id,"_LandingControl_") and contains(@id,"_txtProdRemarks")]
2018.11.14 03:29:24   info : Finding xpath element on webpage..
2018.11.14 03:29:24   info : Searching for element. Try number 0
2018.11.14 03:29:25   info : element disappeared after trying for 1 times
2018.11.14 03:29:26   info : Current WebDriver Win Count is:: 1
2018.11.14 03:29:26   info : Element found!!
2018.11.14 03:29:26   info : ObjectTag input and ObjectType text
2018.11.14 03:29:26   info : Enter data operation
2018.11.14 03:29:27   info : Xml obj_repo path C:\Talent_Automation_Framework_Backup\Project_Talent/ObjectRepositories/BenefitAsia2_MercerAdmin/MA_Configuration_tool.xml
2018.11.14 03:29:27   info : xpath object successfully mapped!!
2018.11.14 03:29:27   info : xpath object contains property value !!
2018.11.14 03:29:27   info : Property name - xpath
2018.11.14 03:29:27   info : Property value - //*[contains(@id,"_LandingControl_") and contains(@id,"_txtProdRemarks")]
2018.11.14 03:29:27   info : Finding xpath element on webpage..
2018.11.14 03:29:27   info : Searching for element. Try number 0
2018.11.14 03:29:28   info : element disappeared after trying for 1 times
2018.11.14 03:29:29   info : Current WebDriver Win Count is:: 1
2018.11.14 03:29:30   info : Element found!!
2018.11.14 03:29:30   info : Xml obj_repo path C:\Talent_Automation_Framework_Backup\Project_Talent/ObjectRepositories/BenefitAsia2_MercerAdmin/MA_Configuration_tool.xml
2018.11.14 03:29:30   info : xpath object successfully mapped!!
2018.11.14 03:29:30   info : xpath object contains property value !!
2018.11.14 03:29:30   info : Property name - xpath
2018.11.14 03:29:30   info : Property value - //*[contains(@id,"_LandingControl_") and contains(@id,"_txtProdRemarks")]
2018.11.14 03:29:30   info : Finding xpath element on webpage..
2018.11.14 03:29:30   info : Searching for element. Try number 0
2018.11.14 03:29:31   info : element disappeared after trying for 1 times
2018.11.14 03:29:32   info : Current WebDriver Win Count is:: 1
2018.11.14 03:29:32   info : Element found!!
2018.11.14 03:29:32   info : ValueToEnter Automation
2018.11.14 03:29:32   info : Entered value is Automation
2018.11.14 03:29:32   info : Attribute entered value Automation
2018.11.14 03:29:33   info : Current WebDriver Win Count is:: 1
2018.11.14 03:29:33   info : restult status : 1
2018.11.14 03:29:33   info : Test ID TC3 : previous test step/row 200 status is Passed and value of next test step/row is :: 201
2018.11.14 03:29:33   info : 

2018.11.14 03:29:33   info : -------------------- Executing Testcase ID TC3 and test step : 201 ---------------------- 
2018.11.14 03:29:34   info : Current WebDriver Win Count is:: 1
2018.11.14 03:29:34   info : page object present in excel : 1
2018.11.14 03:29:34   info : Under single object handle operation!!
2018.11.14 03:29:34   info : col 6 data : alert_accept_multiple and col 5 data : Prod_Sync
2018.11.14 03:29:34   info : Click case operation !!
2018.11.14 03:29:34   info : oprnm alert_accept_multiple
2018.11.14 03:29:34   info : Xml obj_repo path C:\Talent_Automation_Framework_Backup\Project_Talent/ObjectRepositories/BenefitAsia2_MercerAdmin/MA_Configuration_tool.xml
2018.11.14 03:29:34   info : xpath object successfully mapped!!
2018.11.14 03:29:34   info : xpath object contains property value !!
2018.11.14 03:29:34   info : Property name - xpath
2018.11.14 03:29:34   info : Property value - //*[contains(@id,"_LandingControl_") and contains(@id,"_synch")]
2018.11.14 03:29:34   info : Finding xpath element on webpage..
2018.11.14 03:29:34   info : Searching for element. Try number 0
2018.11.14 03:29:35   info : element disappeared after trying for 1 times
2018.11.14 03:29:36   info : Current WebDriver Win Count is:: 1
2018.11.14 03:29:36   info : Element found!!
2018.11.14 03:29:36   info : click alert_accept_multiple operation perfomred!!
2018.11.14 03:29:43   info : please note that this synchronization process will have immediate effect on production environment.
Are you sure you want to synchronize your changes to production ?
2018.11.14 03:29:55   info : Alert is not present
2018.11.14 03:29:56   info : Current WebDriver Win Count is:: 1
2018.11.14 03:29:56   info : restult status : 1
2018.11.14 03:29:57   info : Test ID TC3 : previous test step/row 201 status is Passed and value of next test step/row is :: 202
2018.11.14 03:29:57   info : 

2018.11.14 03:29:57   info : -------------------- Executing Testcase ID TC3 and test step : 202 ---------------------- 
2018.11.14 03:29:58   info : Current WebDriver Win Count is:: 1
2018.11.14 03:29:58   info : page object present in excel : 1
2018.11.14 03:29:58   info : Under single object handle operation!!
2018.11.14 03:29:58   info : col 6 data :  and col 5 data : Prod_Sync_popup
2018.11.14 03:29:58   info : Normal click operation !!
2018.11.14 03:29:58   info : Checking for object in click
2018.11.14 03:29:58   info : Xml obj_repo path C:\Talent_Automation_Framework_Backup\Project_Talent/ObjectRepositories/BenefitAsia2_MercerAdmin/MA_Configuration_tool.xml
2018.11.14 03:29:58   info : xpath object successfully mapped!!
2018.11.14 03:29:58   info : xpath object contains property value !!
2018.11.14 03:29:58   info : Property name - xpath
2018.11.14 03:29:58   info : Property value - //input[contains(@id,"_LandingControl_") and contains(@id,"_btnSynchronizeProdParams") and @value='Synchronize']
2018.11.14 03:29:58   info : Finding xpath element on webpage..
2018.11.14 03:29:58   info : Searching for element. Try number 0
2018.11.14 03:29:59   info : element disappeared after trying for 1 times
2018.11.14 03:30:00   info : Current WebDriver Win Count is:: 1
2018.11.14 03:30:00   info : Element found!!
2018.11.14 03:30:00   info : Xml obj_repo path C:\Talent_Automation_Framework_Backup\Project_Talent/ObjectRepositories/BenefitAsia2_MercerAdmin/MA_Configuration_tool.xml
2018.11.14 03:30:00   info : xpath object successfully mapped!!
2018.11.14 03:30:00   info : xpath object contains property value !!
2018.11.14 03:30:00   info : Property name - xpath
2018.11.14 03:30:00   info : Property value - //input[contains(@id,"_LandingControl_") and contains(@id,"_btnSynchronizeProdParams") and @value='Synchronize']
2018.11.14 03:30:00   info : Finding xpath element on webpage..
2018.11.14 03:30:00   info : Searching for element. Try number 0
2018.11.14 03:30:01   info : element disappeared after trying for 1 times
2018.11.14 03:30:02   info : Current WebDriver Win Count is:: 1
2018.11.14 03:30:02   info : Element found!!
2018.11.14 03:30:06   info : clicked on Prod_Sync_popup
2018.11.14 03:30:07   info : Current WebDriver Win Count is:: 1
2018.11.14 03:30:07   info : restult status : 1
2018.11.14 03:30:07   info : Test ID TC3 : previous test step/row 202 status is Passed and value of next test step/row is :: 203
2018.11.14 03:30:07   info : 

2018.11.14 03:30:07   info : -------------------- Executing Testcase ID TC3 and test step : 203 ---------------------- 
2018.11.14 03:30:08   info : Current WebDriver Win Count is:: 1
2018.11.14 03:30:08   info : not doing anything!!
2018.11.14 03:30:08   info : Navigating to another url..
2018.11.14 03:30:12   info : Current WebDriver Win Count is:: 1
2018.11.14 03:30:13   info : restult status : 1
2018.11.14 03:30:13   info : Test ID TC3 : previous test step/row 203 status is Passed and value of next test step/row is :: 204
2018.11.14 03:30:13   info : 

2018.11.14 03:30:13   info : -------------------- Executing Testcase ID TC3 and test step : 204 ---------------------- 
2018.11.14 03:30:14   info : Current WebDriver Win Count is:: 1
2018.11.14 03:30:14   info : Xml obj_repo path C:\Talent_Automation_Framework_Backup\Project_Talent/ObjectRepositories/BenefitAsia2_MercerAdmin/MA_Configuration_tool.xml
2018.11.14 03:30:14   info : Title contains null value in xml!!
2018.11.14 03:30:14   info : Window title Company
2018.11.14 03:30:14   info : Xml obj_repo path C:\Talent_Automation_Framework_Backup\Project_Talent/ObjectRepositories/BenefitAsia2_MercerAdmin/MA_Configuration_tool.xml
2018.11.14 03:30:14   info : xpath object successfully mapped!!
2018.11.14 03:30:14   info : xpath object contains property value !!
2018.11.14 03:30:14   info : Property name - xpath
2018.11.14 03:30:14   info : Property value - .//*[@id='dnn_CN_lblMsg']/span
2018.11.14 03:30:14   info : Finding xpath element on webpage..
2018.11.14 03:30:14   info : Searching for element. Try number 0
2018.11.14 03:30:15   info : element disappeared after trying for 1 times
2018.11.14 03:30:16   info : Current WebDriver Win Count is:: 1
2018.11.14 03:30:16   info : Element found!!
2018.11.14 03:30:16   info : Desired window is activated!!
2018.11.14 03:30:16   info : Xml obj_repo path C:\Talent_Automation_Framework_Backup\Project_Talent/ObjectRepositories/BenefitAsia2_MercerAdmin/MA_Configuration_tool.xml
2018.11.14 03:30:16   info : xpath object successfully mapped!!
2018.11.14 03:30:16   info : xpath object contains property value !!
2018.11.14 03:30:16   info : Property name - xpath
2018.11.14 03:30:16   info : Property value - .//*[@id='dnn_CN_lblMsg']/span
2018.11.14 03:30:16   info : Finding xpath element on webpage..
2018.11.14 03:30:16   info : Searching for element. Try number 0
2018.11.14 03:30:18   info : element disappeared after trying for 1 times
2018.11.14 03:30:19   info : Current WebDriver Win Count is:: 1
2018.11.14 03:30:19   info : Element found!!
2018.11.14 03:30:19   info : ObjectTag span and ObjectType null
2018.11.14 03:30:19   info : Exp_value SimpliFlex SG_Updated (SIMPLIFLEXSG)
2018.11.14 03:30:19   info : Searching for element. Try number 0
2018.11.14 03:30:20   info : element disappeared after trying for 1 times
2018.11.14 03:30:20   info : Actual ValueSimpliFlex SG_Updated (SimpliflexSG)
2018.11.14 03:30:20   info : Exp : SimpliFlex SG_Updated (SIMPLIFLEXSG) and act : SimpliFlex SG_Updated (SimpliflexSG) value matched!!
2018.11.14 03:30:21   info : Current WebDriver Win Count is:: 1
2018.11.14 03:30:21   info : restult status : 1
2018.11.14 03:30:21   info : Test ID TC3 : previous test step/row 204 status is Passed and value of next test step/row is :: 205
2018.11.14 03:30:21   info : 

2018.11.14 03:30:21   info : -------------------- Executing Testcase ID TC3 and test step : 205 ---------------------- 
2018.11.14 03:30:22   info : Current WebDriver Win Count is:: 1
2018.11.14 03:30:22   info : Xml obj_repo path C:\Talent_Automation_Framework_Backup\Project_Talent/ObjectRepositories/BenefitAsia2_MercerAdmin/MA_LoginLogout.xml
2018.11.14 03:30:22   info : Title contains null value in xml!!
2018.11.14 03:30:22   info : Window title Company
2018.11.14 03:30:22   info : Xml obj_repo path C:\Talent_Automation_Framework_Backup\Project_Talent/ObjectRepositories/BenefitAsia2_MercerAdmin/MA_LoginLogout.xml
2018.11.14 03:30:22   info : xpath object successfully mapped!!
2018.11.14 03:30:22   info : xpath object contains property value !!
2018.11.14 03:30:22   info : Property name - xpath
2018.11.14 03:30:22   info : Property value - //a[contains(@id,"_cmdLogin")]
2018.11.14 03:30:22   info : Finding xpath element on webpage..
2018.11.14 03:30:22   info : Searching for element. Try number 0
2018.11.14 03:30:24   info : element disappeared after trying for 1 times
2018.11.14 03:30:24   info : Element found!!
2018.11.14 03:30:24   info : Desired window is activated!!
2018.11.14 03:30:24   info : page object present in excel : 1
2018.11.14 03:30:24   info : Under single object handle operation!!
2018.11.14 03:30:24   info : col 6 data :  and col 5 data : Logout
2018.11.14 03:30:24   info : Normal click operation !!
2018.11.14 03:30:24   info : Checking for object in click
2018.11.14 03:30:24   info : Xml obj_repo path C:\Talent_Automation_Framework_Backup\Project_Talent/ObjectRepositories/BenefitAsia2_MercerAdmin/MA_LoginLogout.xml
2018.11.14 03:30:24   info : xpath object successfully mapped!!
2018.11.14 03:30:24   info : xpath object contains property value !!
2018.11.14 03:30:24   info : Property name - xpath
2018.11.14 03:30:24   info : Property value - //a[contains(@id,"_cmdLogin")]
2018.11.14 03:30:24   info : Finding xpath element on webpage..
2018.11.14 03:30:24   info : Searching for element. Try number 0
2018.11.14 03:30:25   info : element disappeared after trying for 1 times
2018.11.14 03:30:25   info : Element found!!
2018.11.14 03:30:25   info : Xml obj_repo path C:\Talent_Automation_Framework_Backup\Project_Talent/ObjectRepositories/BenefitAsia2_MercerAdmin/MA_LoginLogout.xml
2018.11.14 03:30:25   info : xpath object successfully mapped!!
2018.11.14 03:30:25   info : xpath object contains property value !!
2018.11.14 03:30:25   info : Property name - xpath
2018.11.14 03:30:25   info : Property value - //a[contains(@id,"_cmdLogin")]
2018.11.14 03:30:25   info : Finding xpath element on webpage..
2018.11.14 03:30:25   info : Searching for element. Try number 0
2018.11.14 03:30:26   info : element disappeared after trying for 1 times
2018.11.14 03:30:26   info : Element found!!
2018.11.14 03:30:33   info : clicked on Logout
2018.11.14 03:30:34   info : Current WebDriver Win Count is:: 1
2018.11.14 03:30:34   info : restult status : 1
2018.11.14 03:30:34   info : Test ID TC3 : previous test step/row 205 status is Passed and value of next test step/row is :: 206
2018.11.14 03:30:34   info : 

2018.11.14 03:30:34   info : -------------------- Executing Testcase ID TC3 and test step : 206 ---------------------- 
2018.11.14 03:30:35   info : Current WebDriver Win Count is:: 1
2018.11.14 03:30:35   info : not doing anything!!
2018.11.14 03:30:35   info : Navigating to another url..
2018.11.14 03:30:47   info : Current WebDriver Win Count is:: 1
2018.11.14 03:30:47   info : restult status : 1
2018.11.14 03:30:48   info : Test ID TC3 : previous test step/row 206 status is Passed and value of next test step/row is :: 207
2018.11.14 03:30:48   info : 

2018.11.14 03:30:48   info : -------------------- Executing Testcase ID TC3 and test step : 207 ---------------------- 
2018.11.14 03:30:49   info : Current WebDriver Win Count is:: 1
2018.11.14 03:30:49   info : Xml obj_repo path C:\Talent_Automation_Framework_Backup\Project_Talent/ObjectRepositories/BenefitAsia2_MercerAdmin/MA_Configuration_tool.xml
2018.11.14 03:30:49   info : Title contains null value in xml!!
2018.11.14 03:30:49   info : Window title Home
2018.11.14 03:30:49   info : Xml obj_repo path C:\Talent_Automation_Framework_Backup\Project_Talent/ObjectRepositories/BenefitAsia2_MercerAdmin/MA_Configuration_tool.xml
2018.11.14 03:30:49   info : xpath object successfully mapped!!
2018.11.14 03:30:49   info : xpath object contains property value !!
2018.11.14 03:30:49   info : Property name - xpath
2018.11.14 03:30:49   info : Property value - .//*[@id='dnn_CN_lblMsg']/span
2018.11.14 03:30:49   info : Finding xpath element on webpage..
2018.11.14 03:30:49   info : Searching for element. Try number 0
2018.11.14 03:30:50   info : element disappeared after trying for 1 times
2018.11.14 03:30:51   info : Current WebDriver Win Count is:: 1
2018.11.14 03:30:51   info : Element found!!
2018.11.14 03:30:51   info : Desired window is activated!!
2018.11.14 03:30:51   info : Xml obj_repo path C:\Talent_Automation_Framework_Backup\Project_Talent/ObjectRepositories/BenefitAsia2_MercerAdmin/MA_Configuration_tool.xml
2018.11.14 03:30:51   info : xpath object successfully mapped!!
2018.11.14 03:30:51   info : xpath object contains property value !!
2018.11.14 03:30:51   info : Property name - xpath
2018.11.14 03:30:51   info : Property value - .//*[@id='dnn_CN_lblMsg']/span
2018.11.14 03:30:51   info : Finding xpath element on webpage..
2018.11.14 03:30:51   info : Searching for element. Try number 0
2018.11.14 03:30:52   info : element disappeared after trying for 1 times
2018.11.14 03:30:53   info : Current WebDriver Win Count is:: 1
2018.11.14 03:30:53   info : Element found!!
2018.11.14 03:30:53   info : ObjectTag span and ObjectType null
2018.11.14 03:30:53   info : Exp_value SimpliFlex SG_Updated (SIMPLIFLEXSG)
2018.11.14 03:30:53   info : Searching for element. Try number 0
2018.11.14 03:30:54   info : element disappeared after trying for 1 times
2018.11.14 03:30:54   info : Actual ValueSimpliFlex SG_Updated (SimpliflexSG)
2018.11.14 03:30:54   info : Exp : SimpliFlex SG_Updated (SIMPLIFLEXSG) and act : SimpliFlex SG_Updated (SimpliflexSG) value matched!!
2018.11.14 03:30:55   info : Current WebDriver Win Count is:: 1
2018.11.14 03:30:55   info : restult status : 1
2018.11.14 03:30:55   info : Test ID TC3 : previous test step/row 207 status is Passed and value of next test step/row is :: 208
2018.11.14 03:30:55   info : 

2018.11.14 03:30:55   info : -------------------- Executing Testcase ID TC3 and test step : 208 ---------------------- 
2018.11.14 03:30:56   info : Current WebDriver Win Count is:: 1
2018.11.14 03:30:56   info : Xml obj_repo path C:\Talent_Automation_Framework_Backup\Project_Talent/ObjectRepositories/BenefitAsia2_MercerAdmin/MA_LoginLogout.xml
2018.11.14 03:30:56   info : Title contains null value in xml!!
2018.11.14 03:30:56   info : Window title Home
2018.11.14 03:30:56   info : Xml obj_repo path C:\Talent_Automation_Framework_Backup\Project_Talent/ObjectRepositories/BenefitAsia2_MercerAdmin/MA_LoginLogout.xml
2018.11.14 03:30:56   info : xpath object successfully mapped!!
2018.11.14 03:30:56   info : xpath object contains property value !!
2018.11.14 03:30:56   info : Property name - xpath
2018.11.14 03:30:56   info : Property value - //a[contains(@id,"_cmdLogin")]
2018.11.14 03:30:56   info : Finding xpath element on webpage..
2018.11.14 03:30:56   info : Searching for element. Try number 0
2018.11.14 03:30:57   info : element disappeared after trying for 1 times
2018.11.14 03:30:57   info : Element found!!
2018.11.14 03:30:57   info : Desired window is activated!!
2018.11.14 03:30:57   info : page object present in excel : 1
2018.11.14 03:30:58   info : Under single object handle operation!!
2018.11.14 03:30:58   info : col 6 data :  and col 5 data : Logout
2018.11.14 03:30:58   info : Normal click operation !!
2018.11.14 03:30:58   info : Checking for object in click
2018.11.14 03:30:58   info : Xml obj_repo path C:\Talent_Automation_Framework_Backup\Project_Talent/ObjectRepositories/BenefitAsia2_MercerAdmin/MA_LoginLogout.xml
2018.11.14 03:30:58   info : xpath object successfully mapped!!
2018.11.14 03:30:58   info : xpath object contains property value !!
2018.11.14 03:30:58   info : Property name - xpath
2018.11.14 03:30:58   info : Property value - //a[contains(@id,"_cmdLogin")]
2018.11.14 03:30:58   info : Finding xpath element on webpage..
2018.11.14 03:30:58   info : Searching for element. Try number 0
2018.11.14 03:30:59   info : element disappeared after trying for 1 times
2018.11.14 03:30:59   info : Element found!!
2018.11.14 03:30:59   info : Xml obj_repo path C:\Talent_Automation_Framework_Backup\Project_Talent/ObjectRepositories/BenefitAsia2_MercerAdmin/MA_LoginLogout.xml
2018.11.14 03:30:59   info : xpath object successfully mapped!!
2018.11.14 03:30:59   info : xpath object contains property value !!
2018.11.14 03:30:59   info : Property name - xpath
2018.11.14 03:30:59   info : Property value - //a[contains(@id,"_cmdLogin")]
2018.11.14 03:30:59   info : Finding xpath element on webpage..
2018.11.14 03:30:59   info : Searching for element. Try number 0
2018.11.14 03:31:00   info : element disappeared after trying for 1 times
2018.11.14 03:31:00   info : Element found!!
2018.11.14 03:31:01   info : clicked on Logout
2018.11.14 03:31:02   info : Current WebDriver Win Count is:: 1
2018.11.14 03:31:03   info : restult status : 1
2018.11.14 03:31:03   info : Test ID TC3 : previous test step/row 208 status is Passed and value of next test step/row is :: 209
2018.11.14 03:31:03   info : 

2018.11.14 03:31:03   info : -------------------- Executing Testcase ID TC3 and test step : 209 ---------------------- 
2018.11.14 03:31:04   info : Current WebDriver Win Count is:: 1
2018.11.14 03:31:04   info : not doing anything!!
2018.11.14 03:31:04   info : Navigating to another url..
2018.11.14 03:31:10   info : Current WebDriver Win Count is:: 1
2018.11.14 03:31:11   info : restult status : 1
2018.11.14 03:31:11   info : Test ID TC3 : previous test step/row 209 status is Passed and value of next test step/row is :: 210
2018.11.14 03:31:11   info : 

2018.11.14 03:31:11   info : -------------------- Executing Testcase ID TC3 and test step : 210 ---------------------- 
2018.11.14 03:31:12   info : Current WebDriver Win Count is:: 1
2018.11.14 03:31:12   info : Navigating to another url..
2018.11.14 03:31:17   info : Current WebDriver Win Count is:: 1
2018.11.14 03:31:17   info : restult status : 1
2018.11.14 03:31:17   info : Test ID TC3 : previous test step/row 210 status is Passed and value of next test step/row is :: 211
2018.11.14 03:31:17   info : 

2018.11.14 03:31:17   info : -------------------- Executing Testcase ID TC3 and test step : 211 ---------------------- 
2018.11.14 03:31:18   info : Current WebDriver Win Count is:: 1
2018.11.14 03:31:18   info : Xml obj_repo path C:\Talent_Automation_Framework_Backup\Project_Talent/ObjectRepositories/BenefitAsia2_MercerAdmin/MA_Configuration_tool.xml
2018.11.14 03:31:18   info : Title contains null value in xml!!
2018.11.14 03:31:18   info : Window title Client Information
2018.11.14 03:31:18   info : Xml obj_repo path C:\Talent_Automation_Framework_Backup\Project_Talent/ObjectRepositories/BenefitAsia2_MercerAdmin/MA_Configuration_tool.xml
2018.11.14 03:31:18   info : xpath object successfully mapped!!
2018.11.14 03:31:18   info : xpath object contains property value !!
2018.11.14 03:31:18   info : Property name - xpath
2018.11.14 03:31:18   info : Property value - .//*[@id='demo1']/p[2]/a
2018.11.14 03:31:18   info : Finding xpath element on webpage..
2018.11.14 03:31:18   info : Searching for element. Try number 0
2018.11.14 03:31:19   info : element disappeared after trying for 1 times
2018.11.14 03:31:20   info : Current WebDriver Win Count is:: 1
2018.11.14 03:31:20   info : Element found!!
2018.11.14 03:31:20   info : Desired window is activated!!
2018.11.14 03:31:20   info : page object present in excel : 1
2018.11.14 03:31:20   info : Under single object handle operation!!
2018.11.14 03:31:20   info : col 6 data : javascript_click and col 5 data : General_link
2018.11.14 03:31:20   info : Click case operation !!
2018.11.14 03:31:20   info : oprnm javascript_click
2018.11.14 03:31:20   info : click javascript_click operation perfomred!!
2018.11.14 03:31:20   info : Xml obj_repo path C:\Talent_Automation_Framework_Backup\Project_Talent/ObjectRepositories/BenefitAsia2_MercerAdmin/MA_Configuration_tool.xml
2018.11.14 03:31:20   info : xpath object successfully mapped!!
2018.11.14 03:31:20   info : xpath object contains property value !!
2018.11.14 03:31:20   info : Property name - xpath
2018.11.14 03:31:20   info : Property value - .//*[@id='demo1']/p[2]/a
2018.11.14 03:31:20   info : Finding xpath element on webpage..
2018.11.14 03:31:20   info : Searching for element. Try number 0
2018.11.14 03:31:21   info : element disappeared after trying for 1 times
2018.11.14 03:31:22   info : Current WebDriver Win Count is:: 1
2018.11.14 03:31:22   info : Element found!!
2018.11.14 03:31:23   info : Current WebDriver Win Count is:: 1
2018.11.14 03:31:24   info : restult status : 1
2018.11.14 03:31:24   info : Test ID TC3 : previous test step/row 211 status is Passed and value of next test step/row is :: 212
2018.11.14 03:31:24   info : 

2018.11.14 03:31:24   info : -------------------- Executing Testcase ID TC3 and test step : 212 ---------------------- 
2018.11.14 03:31:25   info : Current WebDriver Win Count is:: 1
2018.11.14 03:31:25   info : page object present in excel : 1
2018.11.14 03:31:25   info : Under single object handle operation!!
2018.11.14 03:31:25   info : col 6 data : javascript_click and col 5 data : Edit_config
2018.11.14 03:31:25   info : Click case operation !!
2018.11.14 03:31:25   info : oprnm javascript_click
2018.11.14 03:31:25   info : click javascript_click operation perfomred!!
2018.11.14 03:31:25   info : Xml obj_repo path C:\Talent_Automation_Framework_Backup\Project_Talent/ObjectRepositories/BenefitAsia2_MercerAdmin/MA_Configuration_tool.xml
2018.11.14 03:31:25   info : xpath object successfully mapped!!
2018.11.14 03:31:25   info : xpath object contains property value !!
2018.11.14 03:31:25   info : Property name - xpath
2018.11.14 03:31:25   info : Property value - //input[contains(@id,"_LandingControl_ctl00_uxGeneral_btnEdit") and @value='Edit']
2018.11.14 03:31:25   info : Finding xpath element on webpage..
2018.11.14 03:31:25   info : Searching for element. Try number 0
2018.11.14 03:31:26   info : element disappeared after trying for 1 times
2018.11.14 03:31:27   info : Current WebDriver Win Count is:: 1
2018.11.14 03:31:27   info : Element found!!
2018.11.14 03:31:28   info : Current WebDriver Win Count is:: 1
2018.11.14 03:31:29   info : restult status : 1
2018.11.14 03:31:29   info : Test ID TC3 : previous test step/row 212 status is Passed and value of next test step/row is :: 213
2018.11.14 03:31:29   info : 

2018.11.14 03:31:29   info : -------------------- Executing Testcase ID TC3 and test step : 213 ---------------------- 
2018.11.14 03:31:30   info : Current WebDriver Win Count is:: 1
2018.11.14 03:31:30   info : Total static wait time 3
2018.11.14 03:31:33   info : Xml obj_repo path C:\Talent_Automation_Framework_Backup\Project_Talent/ObjectRepositories/BenefitAsia2_MercerAdmin/MA_Configuration_tool.xml
2018.11.14 03:31:33   info : xpath object successfully mapped!!
2018.11.14 03:31:33   info : xpath object contains property value !!
2018.11.14 03:31:33   info : Property name - xpath
2018.11.14 03:31:33   info : Property value - //*[contains(@id,"_uxGeneral_txtCompanyName")]
2018.11.14 03:31:33   info : Finding xpath element on webpage..
2018.11.14 03:31:33   info : Searching for element. Try number 0
2018.11.14 03:31:34   info : element disappeared after trying for 1 times
2018.11.14 03:31:35   info : Current WebDriver Win Count is:: 1
2018.11.14 03:31:35   info : Element found!!
2018.11.14 03:31:35   info : ObjectTag input and ObjectType text
2018.11.14 03:31:35   info : Enter data operation
2018.11.14 03:31:37   info : Xml obj_repo path C:\Talent_Automation_Framework_Backup\Project_Talent/ObjectRepositories/BenefitAsia2_MercerAdmin/MA_Configuration_tool.xml
2018.11.14 03:31:37   info : xpath object successfully mapped!!
2018.11.14 03:31:37   info : xpath object contains property value !!
2018.11.14 03:31:37   info : Property name - xpath
2018.11.14 03:31:37   info : Property value - //*[contains(@id,"_uxGeneral_txtCompanyName")]
2018.11.14 03:31:37   info : Finding xpath element on webpage..
2018.11.14 03:31:37   info : Searching for element. Try number 0
2018.11.14 03:31:38   info : element disappeared after trying for 1 times
2018.11.14 03:31:39   info : Current WebDriver Win Count is:: 1
2018.11.14 03:31:39   info : Element found!!
2018.11.14 03:31:39   info : Xml obj_repo path C:\Talent_Automation_Framework_Backup\Project_Talent/ObjectRepositories/BenefitAsia2_MercerAdmin/MA_Configuration_tool.xml
2018.11.14 03:31:39   info : xpath object successfully mapped!!
2018.11.14 03:31:39   info : xpath object contains property value !!
2018.11.14 03:31:39   info : Property name - xpath
2018.11.14 03:31:39   info : Property value - //*[contains(@id,"_uxGeneral_txtCompanyName")]
2018.11.14 03:31:39   info : Finding xpath element on webpage..
2018.11.14 03:31:39   info : Searching for element. Try number 0
2018.11.14 03:31:40   info : element disappeared after trying for 1 times
2018.11.14 03:31:41   info : Current WebDriver Win Count is:: 1
2018.11.14 03:31:41   info : Element found!!
2018.11.14 03:31:41   info : ValueToEnter SimpliFlex SG
2018.11.14 03:31:41   info : Entered value is SimpliFlex SG
2018.11.14 03:31:41   info : Attribute entered value SimpliFlex SG
2018.11.14 03:31:42   info : Current WebDriver Win Count is:: 1
2018.11.14 03:31:42   info : restult status : 1
2018.11.14 03:31:42   info : Test ID TC3 : previous test step/row 213 status is Passed and value of next test step/row is :: 214
2018.11.14 03:31:42   info : 

2018.11.14 03:31:42   info : -------------------- Executing Testcase ID TC3 and test step : 214 ---------------------- 
2018.11.14 03:31:43   info : Current WebDriver Win Count is:: 1
2018.11.14 03:31:43   info : page object present in excel : 1
2018.11.14 03:31:43   info : Under single object handle operation!!
2018.11.14 03:31:43   info : col 6 data :  and col 5 data : Save_config
2018.11.14 03:31:43   info : Normal click operation !!
2018.11.14 03:31:43   info : Checking for object in click
2018.11.14 03:31:43   info : Xml obj_repo path C:\Talent_Automation_Framework_Backup\Project_Talent/ObjectRepositories/BenefitAsia2_MercerAdmin/MA_Configuration_tool.xml
2018.11.14 03:31:43   info : xpath object successfully mapped!!
2018.11.14 03:31:43   info : xpath object contains property value !!
2018.11.14 03:31:43   info : Property name - xpath
2018.11.14 03:31:43   info : Property value - //input[contains(@id,"_LandingControl_ctl00_uxGeneral_btnEdit") and @value='Save']
2018.11.14 03:31:43   info : Finding xpath element on webpage..
2018.11.14 03:31:43   info : Searching for element. Try number 0
2018.11.14 03:31:45   info : element disappeared after trying for 1 times
2018.11.14 03:31:46   info : Current WebDriver Win Count is:: 1
2018.11.14 03:31:46   info : Element found!!
2018.11.14 03:31:46   info : Xml obj_repo path C:\Talent_Automation_Framework_Backup\Project_Talent/ObjectRepositories/BenefitAsia2_MercerAdmin/MA_Configuration_tool.xml
2018.11.14 03:31:46   info : xpath object successfully mapped!!
2018.11.14 03:31:46   info : xpath object contains property value !!
2018.11.14 03:31:46   info : Property name - xpath
2018.11.14 03:31:46   info : Property value - //input[contains(@id,"_LandingControl_ctl00_uxGeneral_btnEdit") and @value='Save']
2018.11.14 03:31:46   info : Finding xpath element on webpage..
2018.11.14 03:31:46   info : Searching for element. Try number 0
2018.11.14 03:31:47   info : element disappeared after trying for 1 times
2018.11.14 03:31:48   info : Current WebDriver Win Count is:: 1
2018.11.14 03:31:48   info : Element found!!
2018.11.14 03:31:50   info : clicked on Save_config
2018.11.14 03:31:51   info : Current WebDriver Win Count is:: 1
2018.11.14 03:31:51   info : restult status : 1
2018.11.14 03:31:51   info : Test ID TC3 : previous test step/row 214 status is Passed and value of next test step/row is :: 215
2018.11.14 03:31:51   info : 

2018.11.14 03:31:51   info : -------------------- Executing Testcase ID TC3 and test step : 215 ---------------------- 
2018.11.14 03:31:52   info : Current WebDriver Win Count is:: 1
2018.11.14 03:31:52   info : Total static wait time 3
2018.11.14 03:31:55   info : Xml obj_repo path C:\Talent_Automation_Framework_Backup\Project_Talent/ObjectRepositories/BenefitAsia2_MercerAdmin/MA_Configuration_tool.xml
2018.11.14 03:31:55   info : xpath object successfully mapped!!
2018.11.14 03:31:55   info : xpath object contains property value !!
2018.11.14 03:31:55   info : Property name - xpath
2018.11.14 03:31:55   info : Property value - //*[contains(@id,"_LandingControl_") and contains(@id,"_txtStagingRemarks")]
2018.11.14 03:31:55   info : Finding xpath element on webpage..
2018.11.14 03:31:55   info : Searching for element. Try number 0
2018.11.14 03:31:56   info : element disappeared after trying for 1 times
2018.11.14 03:31:57   info : Current WebDriver Win Count is:: 1
2018.11.14 03:31:57   info : Element found!!
2018.11.14 03:31:57   info : ObjectTag input and ObjectType text
2018.11.14 03:31:57   info : Enter data operation
2018.11.14 03:31:59   info : Xml obj_repo path C:\Talent_Automation_Framework_Backup\Project_Talent/ObjectRepositories/BenefitAsia2_MercerAdmin/MA_Configuration_tool.xml
2018.11.14 03:31:59   info : xpath object successfully mapped!!
2018.11.14 03:31:59   info : xpath object contains property value !!
2018.11.14 03:31:59   info : Property name - xpath
2018.11.14 03:31:59   info : Property value - //*[contains(@id,"_LandingControl_") and contains(@id,"_txtStagingRemarks")]
2018.11.14 03:31:59   info : Finding xpath element on webpage..
2018.11.14 03:31:59   info : Searching for element. Try number 0
2018.11.14 03:32:00   info : element disappeared after trying for 1 times
2018.11.14 03:32:01   info : Current WebDriver Win Count is:: 1
2018.11.14 03:32:01   info : Element found!!
2018.11.14 03:32:01   info : Xml obj_repo path C:\Talent_Automation_Framework_Backup\Project_Talent/ObjectRepositories/BenefitAsia2_MercerAdmin/MA_Configuration_tool.xml
2018.11.14 03:32:01   info : xpath object successfully mapped!!
2018.11.14 03:32:01   info : xpath object contains property value !!
2018.11.14 03:32:01   info : Property name - xpath
2018.11.14 03:32:01   info : Property value - //*[contains(@id,"_LandingControl_") and contains(@id,"_txtStagingRemarks")]
2018.11.14 03:32:01   info : Finding xpath element on webpage..
2018.11.14 03:32:01   info : Searching for element. Try number 0
2018.11.14 03:32:02   info : element disappeared after trying for 1 times
2018.11.14 03:32:03   info : Current WebDriver Win Count is:: 1
2018.11.14 03:32:03   info : Element found!!
2018.11.14 03:32:03   info : ValueToEnter Automation
2018.11.14 03:32:03   info : Entered value is Automation
2018.11.14 03:32:03   info : Attribute entered value Automation
2018.11.14 03:32:04   info : Current WebDriver Win Count is:: 1
2018.11.14 03:32:04   info : restult status : 1
2018.11.14 03:32:04   info : Test ID TC3 : previous test step/row 215 status is Passed and value of next test step/row is :: 216
2018.11.14 03:32:04   info : 

2018.11.14 03:32:04   info : -------------------- Executing Testcase ID TC3 and test step : 216 ---------------------- 
2018.11.14 03:32:05   info : Current WebDriver Win Count is:: 1
2018.11.14 03:32:05   info : page object present in excel : 1
2018.11.14 03:32:05   info : Under single object handle operation!!
2018.11.14 03:32:05   info : col 6 data : alert_accept_multiple and col 5 data : Save_Staging
2018.11.14 03:32:05   info : Click case operation !!
2018.11.14 03:32:05   info : oprnm alert_accept_multiple
2018.11.14 03:32:05   info : Xml obj_repo path C:\Talent_Automation_Framework_Backup\Project_Talent/ObjectRepositories/BenefitAsia2_MercerAdmin/MA_Configuration_tool.xml
2018.11.14 03:32:05   info : xpath object successfully mapped!!
2018.11.14 03:32:05   info : xpath object contains property value !!
2018.11.14 03:32:05   info : Property name - xpath
2018.11.14 03:32:05   info : Property value - //input[contains(@id,"_LandingControl_") and contains(@id,"_btnSave") and @value='Save your changes to Staging']
2018.11.14 03:32:05   info : Finding xpath element on webpage..
2018.11.14 03:32:05   info : Searching for element. Try number 0
2018.11.14 03:32:07   info : element disappeared after trying for 1 times
2018.11.14 03:32:08   info : Current WebDriver Win Count is:: 1
2018.11.14 03:32:08   info : Element found!!
2018.11.14 03:32:08   info : click alert_accept_multiple operation perfomred!!
2018.11.14 03:32:14   info : Please note that this process will have an immediate effect on staging environment.
 Are you sure you want to save your changes to staging ?
2018.11.14 03:32:26   info : Alert is not present
2018.11.14 03:32:27   info : Current WebDriver Win Count is:: 1
2018.11.14 03:32:28   info : restult status : 1
2018.11.14 03:32:28   info : Test ID TC3 : previous test step/row 216 status is Passed and value of next test step/row is :: 217
2018.11.14 03:32:28   info : 

2018.11.14 03:32:28   info : -------------------- Executing Testcase ID TC3 and test step : 217 ---------------------- 
2018.11.14 03:32:29   info : Current WebDriver Win Count is:: 1
2018.11.14 03:32:29   info : Total static wait time 3
2018.11.14 03:32:32   info : Xml obj_repo path C:\Talent_Automation_Framework_Backup\Project_Talent/ObjectRepositories/BenefitAsia2_MercerAdmin/MA_Configuration_tool.xml
2018.11.14 03:32:32   info : xpath object successfully mapped!!
2018.11.14 03:32:32   info : xpath object contains property value !!
2018.11.14 03:32:32   info : Property name - xpath
2018.11.14 03:32:32   info : Property value - //*[contains(@id,"_LandingControl_") and contains(@id,"_txtProdRemarks")]
2018.11.14 03:32:32   info : Finding xpath element on webpage..
2018.11.14 03:32:32   info : Searching for element. Try number 0
2018.11.14 03:32:33   info : element disappeared after trying for 1 times
2018.11.14 03:32:34   info : Current WebDriver Win Count is:: 1
2018.11.14 03:32:34   info : Element found!!
2018.11.14 03:32:34   info : ObjectTag input and ObjectType text
2018.11.14 03:32:34   info : Enter data operation
2018.11.14 03:32:35   info : Xml obj_repo path C:\Talent_Automation_Framework_Backup\Project_Talent/ObjectRepositories/BenefitAsia2_MercerAdmin/MA_Configuration_tool.xml
2018.11.14 03:32:35   info : xpath object successfully mapped!!
2018.11.14 03:32:35   info : xpath object contains property value !!
2018.11.14 03:32:35   info : Property name - xpath
2018.11.14 03:32:35   info : Property value - //*[contains(@id,"_LandingControl_") and contains(@id,"_txtProdRemarks")]
2018.11.14 03:32:35   info : Finding xpath element on webpage..
2018.11.14 03:32:35   info : Searching for element. Try number 0
2018.11.14 03:32:36   info : element disappeared after trying for 1 times
2018.11.14 03:32:37   info : Current WebDriver Win Count is:: 1
2018.11.14 03:32:37   info : Element found!!
2018.11.14 03:32:37   info : Xml obj_repo path C:\Talent_Automation_Framework_Backup\Project_Talent/ObjectRepositories/BenefitAsia2_MercerAdmin/MA_Configuration_tool.xml
2018.11.14 03:32:37   info : xpath object successfully mapped!!
2018.11.14 03:32:37   info : xpath object contains property value !!
2018.11.14 03:32:37   info : Property name - xpath
2018.11.14 03:32:37   info : Property value - //*[contains(@id,"_LandingControl_") and contains(@id,"_txtProdRemarks")]
2018.11.14 03:32:37   info : Finding xpath element on webpage..
2018.11.14 03:32:37   info : Searching for element. Try number 0
2018.11.14 03:32:38   info : element disappeared after trying for 1 times
2018.11.14 03:32:40   info : Current WebDriver Win Count is:: 1
2018.11.14 03:32:40   info : Element found!!
2018.11.14 03:32:40   info : ValueToEnter Automation
2018.11.14 03:32:40   info : Entered value is Automation
2018.11.14 03:32:40   info : Attribute entered value Automation
2018.11.14 03:32:41   info : Current WebDriver Win Count is:: 1
2018.11.14 03:32:41   info : restult status : 1
2018.11.14 03:32:41   info : Test ID TC3 : previous test step/row 217 status is Passed and value of next test step/row is :: 218
2018.11.14 03:32:41   info : 

2018.11.14 03:32:41   info : -------------------- Executing Testcase ID TC3 and test step : 218 ---------------------- 
2018.11.14 03:32:42   info : Current WebDriver Win Count is:: 1
2018.11.14 03:32:42   info : page object present in excel : 1
2018.11.14 03:32:42   info : Under single object handle operation!!
2018.11.14 03:32:42   info : col 6 data : alert_accept_multiple and col 5 data : Prod_Sync
2018.11.14 03:32:42   info : Click case operation !!
2018.11.14 03:32:42   info : oprnm alert_accept_multiple
2018.11.14 03:32:42   info : Xml obj_repo path C:\Talent_Automation_Framework_Backup\Project_Talent/ObjectRepositories/BenefitAsia2_MercerAdmin/MA_Configuration_tool.xml
2018.11.14 03:32:42   info : xpath object successfully mapped!!
2018.11.14 03:32:42   info : xpath object contains property value !!
2018.11.14 03:32:42   info : Property name - xpath
2018.11.14 03:32:42   info : Property value - //*[contains(@id,"_LandingControl_") and contains(@id,"_synch")]
2018.11.14 03:32:42   info : Finding xpath element on webpage..
2018.11.14 03:32:42   info : Searching for element. Try number 0
2018.11.14 03:32:43   info : element disappeared after trying for 1 times
2018.11.14 03:32:44   info : Current WebDriver Win Count is:: 1
2018.11.14 03:32:44   info : Element found!!
2018.11.14 03:32:44   info : click alert_accept_multiple operation perfomred!!
2018.11.14 03:32:50   info : please note that this synchronization process will have immediate effect on production environment.
Are you sure you want to synchronize your changes to production ?
2018.11.14 03:33:03   info : Alert is not present
2018.11.14 03:33:04   info : Current WebDriver Win Count is:: 1
2018.11.14 03:33:04   info : restult status : 1
2018.11.14 03:33:04   info : Test ID TC3 : previous test step/row 218 status is Passed and value of next test step/row is :: 219
2018.11.14 03:33:04   info : 

2018.11.14 03:33:04   info : -------------------- Executing Testcase ID TC3 and test step : 219 ---------------------- 
2018.11.14 03:33:06   info : Current WebDriver Win Count is:: 1
2018.11.14 03:33:06   info : page object present in excel : 1
2018.11.14 03:33:06   info : Under single object handle operation!!
2018.11.14 03:33:06   info : col 6 data :  and col 5 data : Prod_Sync_popup
2018.11.14 03:33:06   info : Normal click operation !!
2018.11.14 03:33:06   info : Checking for object in click
2018.11.14 03:33:06   info : Xml obj_repo path C:\Talent_Automation_Framework_Backup\Project_Talent/ObjectRepositories/BenefitAsia2_MercerAdmin/MA_Configuration_tool.xml
2018.11.14 03:33:06   info : xpath object successfully mapped!!
2018.11.14 03:33:06   info : xpath object contains property value !!
2018.11.14 03:33:06   info : Property name - xpath
2018.11.14 03:33:06   info : Property value - //input[contains(@id,"_LandingControl_") and contains(@id,"_btnSynchronizeProdParams") and @value='Synchronize']
2018.11.14 03:33:06   info : Finding xpath element on webpage..
2018.11.14 03:33:06   info : Searching for element. Try number 0
2018.11.14 03:33:07   info : element disappeared after trying for 1 times
2018.11.14 03:33:08   info : Current WebDriver Win Count is:: 1
2018.11.14 03:33:08   info : Element found!!
2018.11.14 03:33:08   info : Xml obj_repo path C:\Talent_Automation_Framework_Backup\Project_Talent/ObjectRepositories/BenefitAsia2_MercerAdmin/MA_Configuration_tool.xml
2018.11.14 03:33:08   info : xpath object successfully mapped!!
2018.11.14 03:33:08   info : xpath object contains property value !!
2018.11.14 03:33:08   info : Property name - xpath
2018.11.14 03:33:08   info : Property value - //input[contains(@id,"_LandingControl_") and contains(@id,"_btnSynchronizeProdParams") and @value='Synchronize']
2018.11.14 03:33:08   info : Finding xpath element on webpage..
2018.11.14 03:33:08   info : Searching for element. Try number 0
2018.11.14 03:33:09   info : element disappeared after trying for 1 times
2018.11.14 03:33:10   info : Current WebDriver Win Count is:: 1
2018.11.14 03:33:10   info : Element found!!
2018.11.14 03:33:13   info : clicked on Prod_Sync_popup
2018.11.14 03:33:14   info : Current WebDriver Win Count is:: 1
2018.11.14 03:33:14   info : restult status : 1
2018.11.14 03:33:14   info : Test ID TC3 : previous test step/row 219 status is Passed and value of next test step/row is :: 220
2018.11.14 03:33:14   info : 

2018.11.14 03:33:14   info : -------------------- Executing Testcase ID TC3 and test step : 220 ---------------------- 
2018.11.14 03:33:15   info : Current WebDriver Win Count is:: 1
2018.11.14 03:33:15   info : not doing anything!!
2018.11.14 03:33:15   info : Navigating to another url..
2018.11.14 03:33:19   info : Current WebDriver Win Count is:: 1
2018.11.14 03:33:20   info : restult status : 1
2018.11.14 03:33:20   info : Test ID TC3 : previous test step/row 220 status is Passed and value of next test step/row is :: 221
2018.11.14 03:33:20   info : 

2018.11.14 03:33:20   info : -------------------- Executing Testcase ID TC3 and test step : 221 ---------------------- 
2018.11.14 03:33:21   info : Current WebDriver Win Count is:: 1
2018.11.14 03:33:21   info : Xml obj_repo path C:\Talent_Automation_Framework_Backup\Project_Talent/ObjectRepositories/BenefitAsia2_MercerAdmin/MA_Configuration_tool.xml
2018.11.14 03:33:21   info : Title contains null value in xml!!
2018.11.14 03:33:21   info : Window title Company
2018.11.14 03:33:21   info : Xml obj_repo path C:\Talent_Automation_Framework_Backup\Project_Talent/ObjectRepositories/BenefitAsia2_MercerAdmin/MA_Configuration_tool.xml
2018.11.14 03:33:21   info : xpath object successfully mapped!!
2018.11.14 03:33:21   info : xpath object contains property value !!
2018.11.14 03:33:21   info : Property name - xpath
2018.11.14 03:33:21   info : Property value - .//*[@id='dnn_CN_lblMsg']/span
2018.11.14 03:33:21   info : Finding xpath element on webpage..
2018.11.14 03:33:21   info : Searching for element. Try number 0
2018.11.14 03:33:22   info : element disappeared after trying for 1 times
2018.11.14 03:33:23   info : Current WebDriver Win Count is:: 1
2018.11.14 03:33:23   info : Element found!!
2018.11.14 03:33:23   info : Desired window is activated!!
2018.11.14 03:33:23   info : Xml obj_repo path C:\Talent_Automation_Framework_Backup\Project_Talent/ObjectRepositories/BenefitAsia2_MercerAdmin/MA_Configuration_tool.xml
2018.11.14 03:33:23   info : xpath object successfully mapped!!
2018.11.14 03:33:23   info : xpath object contains property value !!
2018.11.14 03:33:23   info : Property name - xpath
2018.11.14 03:33:23   info : Property value - .//*[@id='dnn_CN_lblMsg']/span
2018.11.14 03:33:23   info : Finding xpath element on webpage..
2018.11.14 03:33:23   info : Searching for element. Try number 0
2018.11.14 03:33:24   info : element disappeared after trying for 1 times
2018.11.14 03:33:25   info : Current WebDriver Win Count is:: 1
2018.11.14 03:33:25   info : Element found!!
2018.11.14 03:33:25   info : ObjectTag span and ObjectType null
2018.11.14 03:33:25   info : Exp_value SimpliFlex SG (SIMPLIFLEXSG)
2018.11.14 03:33:25   info : Searching for element. Try number 0
2018.11.14 03:33:26   info : element disappeared after trying for 1 times
2018.11.14 03:33:26   info : Actual ValueSimpliFlex SG (SimpliflexSG)
2018.11.14 03:33:26   info : Exp : SimpliFlex SG (SIMPLIFLEXSG) and act : SimpliFlex SG (SimpliflexSG) value matched!!
2018.11.14 03:33:27   info : Current WebDriver Win Count is:: 1
2018.11.14 03:33:28   info : restult status : 1
2018.11.14 03:33:28   info : Test ID TC3 : previous test step/row 221 status is Passed and value of next test step/row is :: 222
2018.11.14 03:33:28   info : 

2018.11.14 03:33:28   info : -------------------- Executing Testcase ID TC3 and test step : 222 ---------------------- 
2018.11.14 03:33:29   info : Current WebDriver Win Count is:: 1
2018.11.14 03:33:29   info : Xml obj_repo path C:\Talent_Automation_Framework_Backup\Project_Talent/ObjectRepositories/BenefitAsia2_MercerAdmin/MA_LoginLogout.xml
2018.11.14 03:33:29   info : Title contains null value in xml!!
2018.11.14 03:33:29   info : Window title Company
2018.11.14 03:33:29   info : Xml obj_repo path C:\Talent_Automation_Framework_Backup\Project_Talent/ObjectRepositories/BenefitAsia2_MercerAdmin/MA_LoginLogout.xml
2018.11.14 03:33:29   info : xpath object successfully mapped!!
2018.11.14 03:33:29   info : xpath object contains property value !!
2018.11.14 03:33:29   info : Property name - xpath
2018.11.14 03:33:29   info : Property value - //a[contains(@id,"_cmdLogin")]
2018.11.14 03:33:29   info : Finding xpath element on webpage..
2018.11.14 03:33:29   info : Searching for element. Try number 0
2018.11.14 03:33:30   info : element disappeared after trying for 1 times
2018.11.14 03:33:30   info : Element found!!
2018.11.14 03:33:30   info : Desired window is activated!!
2018.11.14 03:33:30   info : page object present in excel : 1
2018.11.14 03:33:30   info : Under single object handle operation!!
2018.11.14 03:33:30   info : col 6 data :  and col 5 data : Logout
2018.11.14 03:33:30   info : Normal click operation !!
2018.11.14 03:33:30   info : Checking for object in click
2018.11.14 03:33:30   info : Xml obj_repo path C:\Talent_Automation_Framework_Backup\Project_Talent/ObjectRepositories/BenefitAsia2_MercerAdmin/MA_LoginLogout.xml
2018.11.14 03:33:30   info : xpath object successfully mapped!!
2018.11.14 03:33:30   info : xpath object contains property value !!
2018.11.14 03:33:30   info : Property name - xpath
2018.11.14 03:33:30   info : Property value - //a[contains(@id,"_cmdLogin")]
2018.11.14 03:33:30   info : Finding xpath element on webpage..
2018.11.14 03:33:30   info : Searching for element. Try number 0
2018.11.14 03:33:31   info : element disappeared after trying for 1 times
2018.11.14 03:33:32   info : Element found!!
2018.11.14 03:33:32   info : Xml obj_repo path C:\Talent_Automation_Framework_Backup\Project_Talent/ObjectRepositories/BenefitAsia2_MercerAdmin/MA_LoginLogout.xml
2018.11.14 03:33:32   info : xpath object successfully mapped!!
2018.11.14 03:33:32   info : xpath object contains property value !!
2018.11.14 03:33:32   info : Property name - xpath
2018.11.14 03:33:32   info : Property value - //a[contains(@id,"_cmdLogin")]
2018.11.14 03:33:32   info : Finding xpath element on webpage..
2018.11.14 03:33:32   info : Searching for element. Try number 0
2018.11.14 03:33:33   info : element disappeared after trying for 1 times
2018.11.14 03:33:33   info : Element found!!
2018.11.14 03:33:34   info : clicked on Logout
2018.11.14 03:33:36   info : Current WebDriver Win Count is:: 1
2018.11.14 03:33:36   info : restult status : 1
2018.11.14 03:33:36   info : Test ID TC3 : previous test step/row 222 status is Passed and value of next test step/row is :: 223
2018.11.14 03:33:36   info : 

2018.11.14 03:33:36   info : -------------------- Executing Testcase ID TC3 and test step : 223 ---------------------- 
2018.11.14 03:33:37   info : Current WebDriver Win Count is:: 1
2018.11.14 03:33:37   info : not doing anything!!
2018.11.14 03:33:37   info : Navigating to another url..
2018.11.14 03:33:48   info : Current WebDriver Win Count is:: 1
2018.11.14 03:33:48   info : restult status : 1
2018.11.14 03:33:48   info : Test ID TC3 : previous test step/row 223 status is Passed and value of next test step/row is :: 224
2018.11.14 03:33:48   info : 

2018.11.14 03:33:48   info : -------------------- Executing Testcase ID TC3 and test step : 224 ---------------------- 
2018.11.14 03:33:49   info : Current WebDriver Win Count is:: 1
2018.11.14 03:33:49   info : Xml obj_repo path C:\Talent_Automation_Framework_Backup\Project_Talent/ObjectRepositories/BenefitAsia2_MercerAdmin/MA_Configuration_tool.xml
2018.11.14 03:33:49   info : Title contains null value in xml!!
2018.11.14 03:33:49   info : Window title Home
2018.11.14 03:33:49   info : Xml obj_repo path C:\Talent_Automation_Framework_Backup\Project_Talent/ObjectRepositories/BenefitAsia2_MercerAdmin/MA_Configuration_tool.xml
2018.11.14 03:33:49   info : xpath object successfully mapped!!
2018.11.14 03:33:49   info : xpath object contains property value !!
2018.11.14 03:33:49   info : Property name - xpath
2018.11.14 03:33:49   info : Property value - .//*[@id='dnn_CN_lblMsg']/span
2018.11.14 03:33:49   info : Finding xpath element on webpage..
2018.11.14 03:33:49   info : Searching for element. Try number 0
2018.11.14 03:33:50   info : element disappeared after trying for 1 times
2018.11.14 03:33:52   info : Current WebDriver Win Count is:: 1
2018.11.14 03:33:52   info : Element found!!
2018.11.14 03:33:52   info : Desired window is activated!!
2018.11.14 03:33:52   info : Xml obj_repo path C:\Talent_Automation_Framework_Backup\Project_Talent/ObjectRepositories/BenefitAsia2_MercerAdmin/MA_Configuration_tool.xml
2018.11.14 03:33:52   info : xpath object successfully mapped!!
2018.11.14 03:33:52   info : xpath object contains property value !!
2018.11.14 03:33:52   info : Property name - xpath
2018.11.14 03:33:52   info : Property value - .//*[@id='dnn_CN_lblMsg']/span
2018.11.14 03:33:52   info : Finding xpath element on webpage..
2018.11.14 03:33:52   info : Searching for element. Try number 0
2018.11.14 03:33:53   info : element disappeared after trying for 1 times
2018.11.14 03:33:54   info : Current WebDriver Win Count is:: 1
2018.11.14 03:33:54   info : Element found!!
2018.11.14 03:33:54   info : ObjectTag span and ObjectType null
2018.11.14 03:33:54   info : Exp_value SimpliFlex SG (SIMPLIFLEXSG)
2018.11.14 03:33:54   info : Searching for element. Try number 0
2018.11.14 03:33:55   info : element disappeared after trying for 1 times
2018.11.14 03:33:55   info : Actual ValueSimpliFlex SG (SimpliflexSG)
2018.11.14 03:33:55   info : Exp : SimpliFlex SG (SIMPLIFLEXSG) and act : SimpliFlex SG (SimpliflexSG) value matched!!
2018.11.14 03:33:56   info : Current WebDriver Win Count is:: 1
2018.11.14 03:33:56   info : restult status : 1
2018.11.14 03:33:56   info : Test ID TC3 : previous test step/row 224 status is Passed and value of next test step/row is :: 225
2018.11.14 03:33:56   info : 

2018.11.14 03:33:56   info : -------------------- Executing Testcase ID TC3 and test step : 225 ---------------------- 
2018.11.14 03:33:57   info : Current WebDriver Win Count is:: 1
2018.11.14 03:33:57   info : Xml obj_repo path C:\Talent_Automation_Framework_Backup\Project_Talent/ObjectRepositories/BenefitAsia2_MercerAdmin/MA_LoginLogout.xml
2018.11.14 03:33:57   info : Title contains null value in xml!!
2018.11.14 03:33:57   info : Window title Home
2018.11.14 03:33:57   info : Xml obj_repo path C:\Talent_Automation_Framework_Backup\Project_Talent/ObjectRepositories/BenefitAsia2_MercerAdmin/MA_LoginLogout.xml
2018.11.14 03:33:57   info : xpath object successfully mapped!!
2018.11.14 03:33:57   info : xpath object contains property value !!
2018.11.14 03:33:57   info : Property name - xpath
2018.11.14 03:33:57   info : Property value - //a[contains(@id,"_cmdLogin")]
2018.11.14 03:33:57   info : Finding xpath element on webpage..
2018.11.14 03:33:57   info : Searching for element. Try number 0
2018.11.14 03:33:58   info : element disappeared after trying for 1 times
2018.11.14 03:33:58   info : Element found!!
2018.11.14 03:33:58   info : Desired window is activated!!
2018.11.14 03:33:58   info : page object present in excel : 1
2018.11.14 03:33:58   info : Under single object handle operation!!
2018.11.14 03:33:58   info : col 6 data :  and col 5 data : Logout
2018.11.14 03:33:58   info : Normal click operation !!
2018.11.14 03:33:58   info : Checking for object in click
2018.11.14 03:33:58   info : Xml obj_repo path C:\Talent_Automation_Framework_Backup\Project_Talent/ObjectRepositories/BenefitAsia2_MercerAdmin/MA_LoginLogout.xml
2018.11.14 03:33:58   info : xpath object successfully mapped!!
2018.11.14 03:33:58   info : xpath object contains property value !!
2018.11.14 03:33:58   info : Property name - xpath
2018.11.14 03:33:58   info : Property value - //a[contains(@id,"_cmdLogin")]
2018.11.14 03:33:58   info : Finding xpath element on webpage..
2018.11.14 03:33:58   info : Searching for element. Try number 0
2018.11.14 03:34:00   info : element disappeared after trying for 1 times
2018.11.14 03:34:00   info : Element found!!
2018.11.14 03:34:00   info : Xml obj_repo path C:\Talent_Automation_Framework_Backup\Project_Talent/ObjectRepositories/BenefitAsia2_MercerAdmin/MA_LoginLogout.xml
2018.11.14 03:34:00   info : xpath object successfully mapped!!
2018.11.14 03:34:00   info : xpath object contains property value !!
2018.11.14 03:34:00   info : Property name - xpath
2018.11.14 03:34:00   info : Property value - //a[contains(@id,"_cmdLogin")]
2018.11.14 03:34:00   info : Finding xpath element on webpage..
2018.11.14 03:34:00   info : Searching for element. Try number 0
2018.11.14 03:34:01   info : element disappeared after trying for 1 times
2018.11.14 03:34:01   info : Element found!!
2018.11.14 03:34:03   info : clicked on Logout
2018.11.14 03:34:04   info : Current WebDriver Win Count is:: 1
2018.11.14 03:34:05   info : restult status : 1
2018.11.14 03:34:05   info : Row TC3!=TC4 || (TC4==null)) && (225<=272)
2018.11.14 03:34:05   info : Status :: Passed :: Finalizing result report
2018.11.14 03:34:05   info : closing window...
2018.11.14 03:34:05   info : window size 1
2018.11.14 03:34:07   info : Window is closed!!
